{
    "encounters": [
        "poliwag",
        "poliwhirl",
        "graveler",
        "haunter",
        "lickitung",
        "shuckle",
        "floatzel",
        "gurdurr",
        "basculin-red-striped",
        "druddigon",
        "zweilous",
        "basculin-blue-striped"
    ],
    "id": "kalos-victory-road-unknown-area-322"
}