[
    {
        "minLevel": 8,
        "maxLevel": 8,
        "area": "mt-moon-1f",
        "method": "walk",
        "location": "mt-moon",
        "conditions": []
    },
    {
        "minLevel": 10,
        "maxLevel": 10,
        "area": "mt-moon-b2f",
        "method": "walk",
        "location": "mt-moon",
        "conditions": []
    },
    {
        "minLevel": 12,
        "maxLevel": 12,
        "area": "mt-moon-b2f",
        "method": "walk",
        "location": "mt-moon",
        "conditions": []
    }
]