[
    {
        "minLevel": 25,
        "maxLevel": 35,
        "area": "kanto-safari-zone-middle",
        "method": "super-rod",
        "location": "kanto-safari-zone",
        "conditions": []
    },
    {
        "minLevel": 25,
        "maxLevel": 35,
        "area": "kanto-safari-zone-area-1-east",
        "method": "super-rod",
        "location": "kanto-safari-zone",
        "conditions": []
    },
    {
        "minLevel": 25,
        "maxLevel": 35,
        "area": "kanto-safari-zone-area-2-north",
        "method": "super-rod",
        "location": "kanto-safari-zone",
        "conditions": []
    },
    {
        "minLevel": 25,
        "maxLevel": 35,
        "area": "kanto-safari-zone-area-3-west",
        "method": "super-rod",
        "location": "kanto-safari-zone",
        "conditions": []
    }
]