[
    {
        "minLevel": 29,
        "maxLevel": 29,
        "area": "digletts-cave-area",
        "method": "walk",
        "location": "digletts-cave",
        "conditions": []
    },
    {
        "minLevel": 31,
        "maxLevel": 31,
        "area": "digletts-cave-area",
        "method": "walk",
        "location": "digletts-cave",
        "conditions": []
    }
]