[
    {
        "minLevel": 24,
        "maxLevel": 24,
        "area": "kanto-safari-zone-middle",
        "method": "walk",
        "location": "kanto-safari-zone",
        "conditions": []
    },
    {
        "minLevel": 25,
        "maxLevel": 25,
        "area": "kanto-safari-zone-middle",
        "method": "walk",
        "location": "kanto-safari-zone",
        "conditions": []
    },
    {
        "minLevel": 23,
        "maxLevel": 23,
        "area": "kanto-safari-zone-area-1-east",
        "method": "walk",
        "location": "kanto-safari-zone",
        "conditions": []
    },
    {
        "minLevel": 25,
        "maxLevel": 25,
        "area": "kanto-safari-zone-area-1-east",
        "method": "walk",
        "location": "kanto-safari-zone",
        "conditions": []
    },
    {
        "minLevel": 25,
        "maxLevel": 25,
        "area": "kanto-safari-zone-area-2-north",
        "method": "walk",
        "location": "kanto-safari-zone",
        "conditions": []
    },
    {
        "minLevel": 27,
        "maxLevel": 27,
        "area": "kanto-safari-zone-area-2-north",
        "method": "walk",
        "location": "kanto-safari-zone",
        "conditions": []
    },
    {
        "minLevel": 25,
        "maxLevel": 25,
        "area": "kanto-safari-zone-area-3-west",
        "method": "walk",
        "location": "kanto-safari-zone",
        "conditions": []
    },
    {
        "minLevel": 27,
        "maxLevel": 27,
        "area": "kanto-safari-zone-area-3-west",
        "method": "walk",
        "location": "kanto-safari-zone",
        "conditions": []
    },
    {
        "minLevel": 35,
        "maxLevel": 35,
        "area": "berry-forest-area",
        "method": "walk",
        "location": "berry-forest",
        "conditions": []
    }
]