[
    {
        "minLevel": 25,
        "maxLevel": 40,
        "area": "rock-tunnel-b1f",
        "method": "rock-smash",
        "location": "rock-tunnel",
        "conditions": []
    },
    {
        "minLevel": 30,
        "maxLevel": 40,
        "area": "rock-tunnel-b1f",
        "method": "rock-smash",
        "location": "rock-tunnel",
        "conditions": []
    },
    {
        "minLevel": 40,
        "maxLevel": 50,
        "area": "cerulean-cave-1f",
        "method": "rock-smash",
        "location": "cerulean-cave",
        "conditions": []
    },
    {
        "minLevel": 45,
        "maxLevel": 55,
        "area": "cerulean-cave-1f",
        "method": "rock-smash",
        "location": "cerulean-cave",
        "conditions": []
    },
    {
        "minLevel": 45,
        "maxLevel": 55,
        "area": "cerulean-cave-2f",
        "method": "rock-smash",
        "location": "cerulean-cave",
        "conditions": []
    },
    {
        "minLevel": 50,
        "maxLevel": 60,
        "area": "cerulean-cave-2f",
        "method": "rock-smash",
        "location": "cerulean-cave",
        "conditions": []
    },
    {
        "minLevel": 50,
        "maxLevel": 60,
        "area": "cerulean-cave-b1f",
        "method": "rock-smash",
        "location": "cerulean-cave",
        "conditions": []
    },
    {
        "minLevel": 55,
        "maxLevel": 65,
        "area": "cerulean-cave-b1f",
        "method": "rock-smash",
        "location": "cerulean-cave",
        "conditions": []
    },
    {
        "minLevel": 25,
        "maxLevel": 40,
        "area": "mt-ember-area",
        "method": "rock-smash",
        "location": "mt-ember",
        "conditions": []
    },
    {
        "minLevel": 30,
        "maxLevel": 40,
        "area": "mt-ember-area",
        "method": "rock-smash",
        "location": "mt-ember",
        "conditions": []
    },
    {
        "minLevel": 25,
        "maxLevel": 40,
        "area": "mt-ember-inside",
        "method": "rock-smash",
        "location": "mt-ember",
        "conditions": []
    },
    {
        "minLevel": 30,
        "maxLevel": 40,
        "area": "mt-ember-inside",
        "method": "rock-smash",
        "location": "mt-ember",
        "conditions": []
    },
    {
        "minLevel": 30,
        "maxLevel": 45,
        "area": "mt-ember-1f-cave-behind-team-rocket",
        "method": "rock-smash",
        "location": "mt-ember",
        "conditions": []
    },
    {
        "minLevel": 35,
        "maxLevel": 50,
        "area": "mt-ember-1f-cave-behind-team-rocket",
        "method": "rock-smash",
        "location": "mt-ember",
        "conditions": []
    },
    {
        "minLevel": 30,
        "maxLevel": 45,
        "area": "mt-ember-b1f",
        "method": "rock-smash",
        "location": "mt-ember",
        "conditions": []
    },
    {
        "minLevel": 35,
        "maxLevel": 50,
        "area": "mt-ember-b1f",
        "method": "rock-smash",
        "location": "mt-ember",
        "conditions": []
    },
    {
        "minLevel": 30,
        "maxLevel": 45,
        "area": "mt-ember-b2f",
        "method": "rock-smash",
        "location": "mt-ember",
        "conditions": []
    },
    {
        "minLevel": 35,
        "maxLevel": 50,
        "area": "mt-ember-b2f",
        "method": "rock-smash",
        "location": "mt-ember",
        "conditions": []
    },
    {
        "minLevel": 25,
        "maxLevel": 40,
        "area": "kindle-road-area",
        "method": "rock-smash",
        "location": "kindle-road",
        "conditions": []
    },
    {
        "minLevel": 30,
        "maxLevel": 40,
        "area": "kindle-road-area",
        "method": "rock-smash",
        "location": "kindle-road",
        "conditions": []
    },
    {
        "minLevel": 30,
        "maxLevel": 45,
        "area": "sevault-canyon-area",
        "method": "rock-smash",
        "location": "sevault-canyon",
        "conditions": []
    },
    {
        "minLevel": 35,
        "maxLevel": 50,
        "area": "sevault-canyon-area",
        "method": "rock-smash",
        "location": "sevault-canyon",
        "conditions": []
    }
]