[
    {
        "minLevel": 20,
        "maxLevel": 20,
        "area": "pokemon-tower-3f",
        "method": "walk",
        "location": "pokemon-tower",
        "conditions": []
    },
    {
        "minLevel": 20,
        "maxLevel": 20,
        "area": "pokemon-tower-4f",
        "method": "walk",
        "location": "pokemon-tower",
        "conditions": []
    },
    {
        "minLevel": 20,
        "maxLevel": 20,
        "area": "pokemon-tower-5f",
        "method": "walk",
        "location": "pokemon-tower",
        "conditions": []
    },
    {
        "minLevel": 21,
        "maxLevel": 21,
        "area": "pokemon-tower-6f",
        "method": "walk",
        "location": "pokemon-tower",
        "conditions": []
    },
    {
        "minLevel": 23,
        "maxLevel": 23,
        "area": "pokemon-tower-6f",
        "method": "walk",
        "location": "pokemon-tower",
        "conditions": []
    },
    {
        "minLevel": 23,
        "maxLevel": 23,
        "area": "pokemon-tower-7f",
        "method": "walk",
        "location": "pokemon-tower",
        "conditions": []
    },
    {
        "minLevel": 23,
        "maxLevel": 23,
        "area": "pokemon-tower-7f",
        "method": "walk",
        "location": "pokemon-tower",
        "conditions": []
    },
    {
        "minLevel": 25,
        "maxLevel": 25,
        "area": "pokemon-tower-7f",
        "method": "walk",
        "location": "pokemon-tower",
        "conditions": []
    },
    {
        "minLevel": 44,
        "maxLevel": 44,
        "area": "lost-cave-room-1",
        "method": "walk",
        "location": "lost-cave",
        "conditions": []
    },
    {
        "minLevel": 46,
        "maxLevel": 46,
        "area": "lost-cave-room-1",
        "method": "walk",
        "location": "lost-cave",
        "conditions": []
    },
    {
        "minLevel": 48,
        "maxLevel": 48,
        "area": "lost-cave-room-1",
        "method": "walk",
        "location": "lost-cave",
        "conditions": []
    },
    {
        "minLevel": 50,
        "maxLevel": 50,
        "area": "lost-cave-room-1",
        "method": "walk",
        "location": "lost-cave",
        "conditions": []
    },
    {
        "minLevel": 52,
        "maxLevel": 52,
        "area": "lost-cave-room-1",
        "method": "walk",
        "location": "lost-cave",
        "conditions": []
    },
    {
        "minLevel": 44,
        "maxLevel": 44,
        "area": "lost-cave-room-2",
        "method": "walk",
        "location": "lost-cave",
        "conditions": []
    },
    {
        "minLevel": 46,
        "maxLevel": 46,
        "area": "lost-cave-room-2",
        "method": "walk",
        "location": "lost-cave",
        "conditions": []
    },
    {
        "minLevel": 48,
        "maxLevel": 48,
        "area": "lost-cave-room-2",
        "method": "walk",
        "location": "lost-cave",
        "conditions": []
    },
    {
        "minLevel": 50,
        "maxLevel": 50,
        "area": "lost-cave-room-2",
        "method": "walk",
        "location": "lost-cave",
        "conditions": []
    },
    {
        "minLevel": 52,
        "maxLevel": 52,
        "area": "lost-cave-room-2",
        "method": "walk",
        "location": "lost-cave",
        "conditions": []
    },
    {
        "minLevel": 44,
        "maxLevel": 44,
        "area": "lost-cave-room-3",
        "method": "walk",
        "location": "lost-cave",
        "conditions": []
    },
    {
        "minLevel": 46,
        "maxLevel": 46,
        "area": "lost-cave-room-3",
        "method": "walk",
        "location": "lost-cave",
        "conditions": []
    },
    {
        "minLevel": 48,
        "maxLevel": 48,
        "area": "lost-cave-room-3",
        "method": "walk",
        "location": "lost-cave",
        "conditions": []
    },
    {
        "minLevel": 50,
        "maxLevel": 50,
        "area": "lost-cave-room-3",
        "method": "walk",
        "location": "lost-cave",
        "conditions": []
    },
    {
        "minLevel": 52,
        "maxLevel": 52,
        "area": "lost-cave-room-3",
        "method": "walk",
        "location": "lost-cave",
        "conditions": []
    },
    {
        "minLevel": 44,
        "maxLevel": 44,
        "area": "lost-cave-room-4",
        "method": "walk",
        "location": "lost-cave",
        "conditions": []
    },
    {
        "minLevel": 46,
        "maxLevel": 46,
        "area": "lost-cave-room-4",
        "method": "walk",
        "location": "lost-cave",
        "conditions": []
    },
    {
        "minLevel": 48,
        "maxLevel": 48,
        "area": "lost-cave-room-4",
        "method": "walk",
        "location": "lost-cave",
        "conditions": []
    },
    {
        "minLevel": 50,
        "maxLevel": 50,
        "area": "lost-cave-room-4",
        "method": "walk",
        "location": "lost-cave",
        "conditions": []
    },
    {
        "minLevel": 52,
        "maxLevel": 52,
        "area": "lost-cave-room-4",
        "method": "walk",
        "location": "lost-cave",
        "conditions": []
    },
    {
        "minLevel": 44,
        "maxLevel": 44,
        "area": "lost-cave-room-5",
        "method": "walk",
        "location": "lost-cave",
        "conditions": []
    },
    {
        "minLevel": 46,
        "maxLevel": 46,
        "area": "lost-cave-room-5",
        "method": "walk",
        "location": "lost-cave",
        "conditions": []
    },
    {
        "minLevel": 48,
        "maxLevel": 48,
        "area": "lost-cave-room-5",
        "method": "walk",
        "location": "lost-cave",
        "conditions": []
    },
    {
        "minLevel": 50,
        "maxLevel": 50,
        "area": "lost-cave-room-5",
        "method": "walk",
        "location": "lost-cave",
        "conditions": []
    },
    {
        "minLevel": 52,
        "maxLevel": 52,
        "area": "lost-cave-room-5",
        "method": "walk",
        "location": "lost-cave",
        "conditions": []
    },
    {
        "minLevel": 44,
        "maxLevel": 44,
        "area": "lost-cave-room-6",
        "method": "walk",
        "location": "lost-cave",
        "conditions": []
    },
    {
        "minLevel": 46,
        "maxLevel": 46,
        "area": "lost-cave-room-6",
        "method": "walk",
        "location": "lost-cave",
        "conditions": []
    },
    {
        "minLevel": 48,
        "maxLevel": 48,
        "area": "lost-cave-room-6",
        "method": "walk",
        "location": "lost-cave",
        "conditions": []
    },
    {
        "minLevel": 50,
        "maxLevel": 50,
        "area": "lost-cave-room-6",
        "method": "walk",
        "location": "lost-cave",
        "conditions": []
    },
    {
        "minLevel": 52,
        "maxLevel": 52,
        "area": "lost-cave-room-6",
        "method": "walk",
        "location": "lost-cave",
        "conditions": []
    },
    {
        "minLevel": 44,
        "maxLevel": 44,
        "area": "lost-cave-room-7",
        "method": "walk",
        "location": "lost-cave",
        "conditions": []
    },
    {
        "minLevel": 46,
        "maxLevel": 46,
        "area": "lost-cave-room-7",
        "method": "walk",
        "location": "lost-cave",
        "conditions": []
    },
    {
        "minLevel": 48,
        "maxLevel": 48,
        "area": "lost-cave-room-7",
        "method": "walk",
        "location": "lost-cave",
        "conditions": []
    },
    {
        "minLevel": 50,
        "maxLevel": 50,
        "area": "lost-cave-room-7",
        "method": "walk",
        "location": "lost-cave",
        "conditions": []
    },
    {
        "minLevel": 52,
        "maxLevel": 52,
        "area": "lost-cave-room-7",
        "method": "walk",
        "location": "lost-cave",
        "conditions": []
    },
    {
        "minLevel": 44,
        "maxLevel": 44,
        "area": "lost-cave-room-8",
        "method": "walk",
        "location": "lost-cave",
        "conditions": []
    },
    {
        "minLevel": 46,
        "maxLevel": 46,
        "area": "lost-cave-room-8",
        "method": "walk",
        "location": "lost-cave",
        "conditions": []
    },
    {
        "minLevel": 48,
        "maxLevel": 48,
        "area": "lost-cave-room-8",
        "method": "walk",
        "location": "lost-cave",
        "conditions": []
    },
    {
        "minLevel": 50,
        "maxLevel": 50,
        "area": "lost-cave-room-8",
        "method": "walk",
        "location": "lost-cave",
        "conditions": []
    },
    {
        "minLevel": 52,
        "maxLevel": 52,
        "area": "lost-cave-room-8",
        "method": "walk",
        "location": "lost-cave",
        "conditions": []
    },
    {
        "minLevel": 44,
        "maxLevel": 44,
        "area": "lost-cave-room-9",
        "method": "walk",
        "location": "lost-cave",
        "conditions": []
    },
    {
        "minLevel": 46,
        "maxLevel": 46,
        "area": "lost-cave-room-9",
        "method": "walk",
        "location": "lost-cave",
        "conditions": []
    },
    {
        "minLevel": 48,
        "maxLevel": 48,
        "area": "lost-cave-room-9",
        "method": "walk",
        "location": "lost-cave",
        "conditions": []
    },
    {
        "minLevel": 50,
        "maxLevel": 50,
        "area": "lost-cave-room-9",
        "method": "walk",
        "location": "lost-cave",
        "conditions": []
    },
    {
        "minLevel": 52,
        "maxLevel": 52,
        "area": "lost-cave-room-9",
        "method": "walk",
        "location": "lost-cave",
        "conditions": []
    },
    {
        "minLevel": 44,
        "maxLevel": 44,
        "area": "lost-cave-room-10",
        "method": "walk",
        "location": "lost-cave",
        "conditions": []
    },
    {
        "minLevel": 46,
        "maxLevel": 46,
        "area": "lost-cave-room-10",
        "method": "walk",
        "location": "lost-cave",
        "conditions": []
    },
    {
        "minLevel": 48,
        "maxLevel": 48,
        "area": "lost-cave-room-10",
        "method": "walk",
        "location": "lost-cave",
        "conditions": []
    },
    {
        "minLevel": 50,
        "maxLevel": 50,
        "area": "lost-cave-room-10",
        "method": "walk",
        "location": "lost-cave",
        "conditions": []
    },
    {
        "minLevel": 52,
        "maxLevel": 52,
        "area": "lost-cave-room-10",
        "method": "walk",
        "location": "lost-cave",
        "conditions": []
    },
    {
        "minLevel": 44,
        "maxLevel": 44,
        "area": "lost-cave-item-rooms",
        "method": "walk",
        "location": "lost-cave",
        "conditions": []
    },
    {
        "minLevel": 46,
        "maxLevel": 46,
        "area": "lost-cave-item-rooms",
        "method": "walk",
        "location": "lost-cave",
        "conditions": []
    },
    {
        "minLevel": 48,
        "maxLevel": 48,
        "area": "lost-cave-item-rooms",
        "method": "walk",
        "location": "lost-cave",
        "conditions": []
    },
    {
        "minLevel": 50,
        "maxLevel": 50,
        "area": "lost-cave-item-rooms",
        "method": "walk",
        "location": "lost-cave",
        "conditions": []
    },
    {
        "minLevel": 52,
        "maxLevel": 52,
        "area": "lost-cave-item-rooms",
        "method": "walk",
        "location": "lost-cave",
        "conditions": []
    }
]