[
    {
        "minLevel": 55,
        "maxLevel": 55,
        "area": "cerulean-cave-2f",
        "method": "walk",
        "location": "cerulean-cave",
        "conditions": []
    },
    {
        "minLevel": 64,
        "maxLevel": 64,
        "area": "cerulean-cave-2f",
        "method": "walk",
        "location": "cerulean-cave",
        "conditions": []
    },
    {
        "minLevel": 58,
        "maxLevel": 58,
        "area": "cerulean-cave-b1f",
        "method": "walk",
        "location": "cerulean-cave",
        "conditions": []
    },
    {
        "minLevel": 67,
        "maxLevel": 67,
        "area": "cerulean-cave-b1f",
        "method": "walk",
        "location": "cerulean-cave",
        "conditions": []
    }
]