[
    {
        "minLevel": 8,
        "maxLevel": 8,
        "area": "kanto-route-24-area",
        "method": "walk",
        "location": "kanto-route-24",
        "conditions": []
    },
    {
        "minLevel": 9,
        "maxLevel": 9,
        "area": "kanto-route-25-area",
        "method": "walk",
        "location": "kanto-route-25",
        "conditions": []
    },
    {
        "minLevel": 5,
        "maxLevel": 5,
        "area": "viridian-forest-area",
        "method": "walk",
        "location": "viridian-forest",
        "conditions": []
    },
    {
        "minLevel": 9,
        "maxLevel": 9,
        "area": "pattern-bush-area",
        "method": "walk",
        "location": "pattern-bush",
        "conditions": []
    }
]