[
    {
        "minLevel": 20,
        "maxLevel": 30,
        "area": "kanto-route-22-area",
        "method": "super-rod",
        "location": "kanto-route-22",
        "conditions": []
    },
    {
        "minLevel": 20,
        "maxLevel": 30,
        "area": "kanto-route-25-area",
        "method": "super-rod",
        "location": "kanto-route-25",
        "conditions": []
    },
    {
        "minLevel": 20,
        "maxLevel": 30,
        "area": "kanto-route-6-area",
        "method": "super-rod",
        "location": "kanto-route-6",
        "conditions": []
    },
    {
        "minLevel": 20,
        "maxLevel": 30,
        "area": "cerulean-cave-1f",
        "method": "super-rod",
        "location": "cerulean-cave",
        "conditions": []
    },
    {
        "minLevel": 20,
        "maxLevel": 30,
        "area": "cerulean-cave-b1f",
        "method": "super-rod",
        "location": "cerulean-cave",
        "conditions": []
    },
    {
        "minLevel": 20,
        "maxLevel": 30,
        "area": "viridian-city-area",
        "method": "super-rod",
        "location": "viridian-city",
        "conditions": []
    },
    {
        "minLevel": 20,
        "maxLevel": 30,
        "area": "kanto-route-23-area",
        "method": "super-rod",
        "location": "kanto-route-23",
        "conditions": []
    },
    {
        "minLevel": 20,
        "maxLevel": 30,
        "area": "icefall-cave-entrance",
        "method": "super-rod",
        "location": "icefall-cave",
        "conditions": []
    },
    {
        "minLevel": 20,
        "maxLevel": 30,
        "area": "cape-brink-area",
        "method": "super-rod",
        "location": "cape-brink",
        "conditions": []
    },
    {
        "minLevel": 20,
        "maxLevel": 30,
        "area": "ruin-valley-area",
        "method": "super-rod",
        "location": "ruin-valley",
        "conditions": []
    },
    {
        "minLevel": 20,
        "maxLevel": 30,
        "area": "four-island-area",
        "method": "super-rod",
        "location": "four-island",
        "conditions": []
    }
]