[
    {
        "minLevel": 3,
        "maxLevel": 3,
        "area": "kanto-route-1-area",
        "method": "walk",
        "location": "kanto-route-1",
        "conditions": []
    },
    {
        "minLevel": 3,
        "maxLevel": 3,
        "area": "kanto-route-1-area",
        "method": "walk",
        "location": "kanto-route-1",
        "conditions": []
    },
    {
        "minLevel": 2,
        "maxLevel": 2,
        "area": "kanto-route-1-area",
        "method": "walk",
        "location": "kanto-route-1",
        "conditions": []
    },
    {
        "minLevel": 3,
        "maxLevel": 3,
        "area": "kanto-route-1-area",
        "method": "walk",
        "location": "kanto-route-1",
        "conditions": []
    },
    {
        "minLevel": 4,
        "maxLevel": 4,
        "area": "kanto-route-1-area",
        "method": "walk",
        "location": "kanto-route-1",
        "conditions": []
    },
    {
        "minLevel": 4,
        "maxLevel": 4,
        "area": "kanto-route-1-area",
        "method": "walk",
        "location": "kanto-route-1",
        "conditions": []
    },
    {
        "minLevel": 18,
        "maxLevel": 18,
        "area": "kanto-route-16-area",
        "method": "walk",
        "location": "kanto-route-16",
        "conditions": []
    },
    {
        "minLevel": 20,
        "maxLevel": 20,
        "area": "kanto-route-16-area",
        "method": "walk",
        "location": "kanto-route-16",
        "conditions": []
    },
    {
        "minLevel": 22,
        "maxLevel": 22,
        "area": "kanto-route-16-area",
        "method": "walk",
        "location": "kanto-route-16",
        "conditions": []
    },
    {
        "minLevel": 18,
        "maxLevel": 18,
        "area": "kanto-route-16-area",
        "method": "walk",
        "location": "kanto-route-16",
        "conditions": []
    },
    {
        "minLevel": 18,
        "maxLevel": 18,
        "area": "kanto-route-16-area",
        "method": "walk",
        "location": "kanto-route-16",
        "conditions": []
    },
    {
        "minLevel": 22,
        "maxLevel": 22,
        "area": "kanto-route-17-area",
        "method": "walk",
        "location": "kanto-route-17",
        "conditions": []
    },
    {
        "minLevel": 22,
        "maxLevel": 22,
        "area": "kanto-route-17-area",
        "method": "walk",
        "location": "kanto-route-17",
        "conditions": []
    },
    {
        "minLevel": 22,
        "maxLevel": 22,
        "area": "kanto-route-18-area",
        "method": "walk",
        "location": "kanto-route-18",
        "conditions": []
    },
    {
        "minLevel": 22,
        "maxLevel": 22,
        "area": "kanto-route-18-area",
        "method": "walk",
        "location": "kanto-route-18",
        "conditions": []
    },
    {
        "minLevel": 3,
        "maxLevel": 3,
        "area": "kanto-route-2-south-towards-viridian-city",
        "method": "walk",
        "location": "kanto-route-2",
        "conditions": []
    },
    {
        "minLevel": 4,
        "maxLevel": 4,
        "area": "kanto-route-2-south-towards-viridian-city",
        "method": "walk",
        "location": "kanto-route-2",
        "conditions": []
    },
    {
        "minLevel": 2,
        "maxLevel": 2,
        "area": "kanto-route-2-south-towards-viridian-city",
        "method": "walk",
        "location": "kanto-route-2",
        "conditions": []
    },
    {
        "minLevel": 5,
        "maxLevel": 5,
        "area": "kanto-route-2-south-towards-viridian-city",
        "method": "walk",
        "location": "kanto-route-2",
        "conditions": []
    },
    {
        "minLevel": 3,
        "maxLevel": 3,
        "area": "kanto-route-22-area",
        "method": "walk",
        "location": "kanto-route-22",
        "conditions": []
    },
    {
        "minLevel": 4,
        "maxLevel": 4,
        "area": "kanto-route-22-area",
        "method": "walk",
        "location": "kanto-route-22",
        "conditions": []
    },
    {
        "minLevel": 2,
        "maxLevel": 2,
        "area": "kanto-route-22-area",
        "method": "walk",
        "location": "kanto-route-22",
        "conditions": []
    },
    {
        "minLevel": 5,
        "maxLevel": 5,
        "area": "kanto-route-22-area",
        "method": "walk",
        "location": "kanto-route-22",
        "conditions": []
    },
    {
        "minLevel": 5,
        "maxLevel": 5,
        "area": "kanto-route-22-area",
        "method": "walk",
        "location": "kanto-route-22",
        "conditions": []
    },
    {
        "minLevel": 10,
        "maxLevel": 10,
        "area": "kanto-route-4-area",
        "method": "walk",
        "location": "kanto-route-4",
        "conditions": []
    },
    {
        "minLevel": 8,
        "maxLevel": 8,
        "area": "kanto-route-4-area",
        "method": "walk",
        "location": "kanto-route-4",
        "conditions": []
    },
    {
        "minLevel": 12,
        "maxLevel": 12,
        "area": "kanto-route-4-area",
        "method": "walk",
        "location": "kanto-route-4",
        "conditions": []
    },
    {
        "minLevel": 16,
        "maxLevel": 16,
        "area": "kanto-route-9-area",
        "method": "walk",
        "location": "kanto-route-9",
        "conditions": []
    },
    {
        "minLevel": 14,
        "maxLevel": 14,
        "area": "kanto-route-9-area",
        "method": "walk",
        "location": "kanto-route-9",
        "conditions": []
    },
    {
        "minLevel": 17,
        "maxLevel": 17,
        "area": "kanto-route-9-area",
        "method": "walk",
        "location": "kanto-route-9",
        "conditions": []
    },
    {
        "minLevel": 14,
        "maxLevel": 14,
        "area": "kanto-route-9-area",
        "method": "walk",
        "location": "kanto-route-9",
        "conditions": []
    },
    {
        "minLevel": 14,
        "maxLevel": 14,
        "area": "kanto-route-9-area",
        "method": "walk",
        "location": "kanto-route-9",
        "conditions": []
    },
    {
        "minLevel": 28,
        "maxLevel": 28,
        "area": "pokemon-mansion-1f",
        "method": "walk",
        "location": "pokemon-mansion",
        "conditions": []
    },
    {
        "minLevel": 26,
        "maxLevel": 26,
        "area": "pokemon-mansion-1f",
        "method": "walk",
        "location": "pokemon-mansion",
        "conditions": []
    },
    {
        "minLevel": 26,
        "maxLevel": 26,
        "area": "pokemon-mansion-1f",
        "method": "walk",
        "location": "pokemon-mansion",
        "conditions": []
    },
    {
        "minLevel": 28,
        "maxLevel": 28,
        "area": "pokemon-mansion-2f",
        "method": "walk",
        "location": "pokemon-mansion",
        "conditions": []
    },
    {
        "minLevel": 26,
        "maxLevel": 26,
        "area": "pokemon-mansion-2f",
        "method": "walk",
        "location": "pokemon-mansion",
        "conditions": []
    },
    {
        "minLevel": 26,
        "maxLevel": 26,
        "area": "pokemon-mansion-2f",
        "method": "walk",
        "location": "pokemon-mansion",
        "conditions": []
    },
    {
        "minLevel": 28,
        "maxLevel": 28,
        "area": "pokemon-mansion-3f",
        "method": "walk",
        "location": "pokemon-mansion",
        "conditions": []
    },
    {
        "minLevel": 26,
        "maxLevel": 26,
        "area": "pokemon-mansion-3f",
        "method": "walk",
        "location": "pokemon-mansion",
        "conditions": []
    },
    {
        "minLevel": 26,
        "maxLevel": 26,
        "area": "pokemon-mansion-3f",
        "method": "walk",
        "location": "pokemon-mansion",
        "conditions": []
    },
    {
        "minLevel": 26,
        "maxLevel": 26,
        "area": "pokemon-mansion-b1f",
        "method": "walk",
        "location": "pokemon-mansion",
        "conditions": []
    },
    {
        "minLevel": 26,
        "maxLevel": 26,
        "area": "pokemon-mansion-b1f",
        "method": "walk",
        "location": "pokemon-mansion",
        "conditions": []
    }
]