[
    {
        "minLevel": 11,
        "maxLevel": 11,
        "area": "kanto-route-10-area",
        "method": "walk",
        "location": "kanto-route-10",
        "conditions": []
    },
    {
        "minLevel": 15,
        "maxLevel": 15,
        "area": "kanto-route-10-area",
        "method": "walk",
        "location": "kanto-route-10",
        "conditions": []
    },
    {
        "minLevel": 13,
        "maxLevel": 13,
        "area": "kanto-route-10-area",
        "method": "walk",
        "location": "kanto-route-10",
        "conditions": []
    },
    {
        "minLevel": 17,
        "maxLevel": 17,
        "area": "kanto-route-10-area",
        "method": "walk",
        "location": "kanto-route-10",
        "conditions": []
    },
    {
        "minLevel": 14,
        "maxLevel": 14,
        "area": "kanto-route-11-area",
        "method": "walk",
        "location": "kanto-route-11",
        "conditions": []
    },
    {
        "minLevel": 12,
        "maxLevel": 12,
        "area": "kanto-route-11-area",
        "method": "walk",
        "location": "kanto-route-11",
        "conditions": []
    },
    {
        "minLevel": 15,
        "maxLevel": 15,
        "area": "kanto-route-11-area",
        "method": "walk",
        "location": "kanto-route-11",
        "conditions": []
    },
    {
        "minLevel": 12,
        "maxLevel": 12,
        "area": "kanto-route-11-area",
        "method": "walk",
        "location": "kanto-route-11",
        "conditions": []
    },
    {
        "minLevel": 12,
        "maxLevel": 12,
        "area": "kanto-route-11-area",
        "method": "walk",
        "location": "kanto-route-11",
        "conditions": []
    },
    {
        "minLevel": 6,
        "maxLevel": 6,
        "area": "kanto-route-4-area",
        "method": "walk",
        "location": "kanto-route-4",
        "conditions": []
    },
    {
        "minLevel": 10,
        "maxLevel": 10,
        "area": "kanto-route-4-area",
        "method": "walk",
        "location": "kanto-route-4",
        "conditions": []
    },
    {
        "minLevel": 8,
        "maxLevel": 8,
        "area": "kanto-route-4-area",
        "method": "walk",
        "location": "kanto-route-4",
        "conditions": []
    },
    {
        "minLevel": 12,
        "maxLevel": 12,
        "area": "kanto-route-4-area",
        "method": "walk",
        "location": "kanto-route-4",
        "conditions": []
    },
    {
        "minLevel": 17,
        "maxLevel": 17,
        "area": "kanto-route-8-area",
        "method": "walk",
        "location": "kanto-route-8",
        "conditions": []
    },
    {
        "minLevel": 19,
        "maxLevel": 19,
        "area": "kanto-route-8-area",
        "method": "walk",
        "location": "kanto-route-8",
        "conditions": []
    },
    {
        "minLevel": 17,
        "maxLevel": 17,
        "area": "kanto-route-8-area",
        "method": "walk",
        "location": "kanto-route-8",
        "conditions": []
    },
    {
        "minLevel": 17,
        "maxLevel": 17,
        "area": "kanto-route-8-area",
        "method": "walk",
        "location": "kanto-route-8",
        "conditions": []
    },
    {
        "minLevel": 11,
        "maxLevel": 11,
        "area": "kanto-route-9-area",
        "method": "walk",
        "location": "kanto-route-9",
        "conditions": []
    },
    {
        "minLevel": 15,
        "maxLevel": 15,
        "area": "kanto-route-9-area",
        "method": "walk",
        "location": "kanto-route-9",
        "conditions": []
    },
    {
        "minLevel": 13,
        "maxLevel": 13,
        "area": "kanto-route-9-area",
        "method": "walk",
        "location": "kanto-route-9",
        "conditions": []
    },
    {
        "minLevel": 17,
        "maxLevel": 17,
        "area": "kanto-route-9-area",
        "method": "walk",
        "location": "kanto-route-9",
        "conditions": []
    },
    {
        "minLevel": 32,
        "maxLevel": 32,
        "area": "kanto-route-23-area",
        "method": "walk",
        "location": "kanto-route-23",
        "conditions": []
    },
    {
        "minLevel": 34,
        "maxLevel": 34,
        "area": "kanto-route-23-area",
        "method": "walk",
        "location": "kanto-route-23",
        "conditions": []
    }
]