[
    {
        "minLevel": 22,
        "maxLevel": 22,
        "area": "kanto-altering-cave-g",
        "method": "walk",
        "location": "kanto-altering-cave",
        "conditions": []
    },
    {
        "minLevel": 24,
        "maxLevel": 24,
        "area": "kanto-altering-cave-g",
        "method": "walk",
        "location": "kanto-altering-cave",
        "conditions": []
    },
    {
        "minLevel": 20,
        "maxLevel": 20,
        "area": "kanto-altering-cave-g",
        "method": "walk",
        "location": "kanto-altering-cave",
        "conditions": []
    },
    {
        "minLevel": 26,
        "maxLevel": 26,
        "area": "kanto-altering-cave-g",
        "method": "walk",
        "location": "kanto-altering-cave",
        "conditions": []
    },
    {
        "minLevel": 22,
        "maxLevel": 22,
        "area": "kanto-altering-cave-g",
        "method": "walk",
        "location": "kanto-altering-cave",
        "conditions": []
    },
    {
        "minLevel": 24,
        "maxLevel": 24,
        "area": "kanto-altering-cave-g",
        "method": "walk",
        "location": "kanto-altering-cave",
        "conditions": []
    },
    {
        "minLevel": 28,
        "maxLevel": 28,
        "area": "kanto-altering-cave-g",
        "method": "walk",
        "location": "kanto-altering-cave",
        "conditions": []
    },
    {
        "minLevel": 18,
        "maxLevel": 18,
        "area": "kanto-altering-cave-g",
        "method": "walk",
        "location": "kanto-altering-cave",
        "conditions": []
    },
    {
        "minLevel": 20,
        "maxLevel": 20,
        "area": "kanto-altering-cave-g",
        "method": "walk",
        "location": "kanto-altering-cave",
        "conditions": []
    },
    {
        "minLevel": 26,
        "maxLevel": 26,
        "area": "kanto-altering-cave-g",
        "method": "walk",
        "location": "kanto-altering-cave",
        "conditions": []
    },
    {
        "minLevel": 20,
        "maxLevel": 20,
        "area": "kanto-altering-cave-g",
        "method": "walk",
        "location": "kanto-altering-cave",
        "conditions": []
    },
    {
        "minLevel": 26,
        "maxLevel": 26,
        "area": "kanto-altering-cave-g",
        "method": "walk",
        "location": "kanto-altering-cave",
        "conditions": []
    }
]