[
    {
        "minLevel": 24,
        "maxLevel": 24,
        "area": "mt-ember-b1f",
        "method": "walk",
        "location": "mt-ember",
        "conditions": []
    },
    {
        "minLevel": 26,
        "maxLevel": 26,
        "area": "mt-ember-b1f",
        "method": "walk",
        "location": "mt-ember",
        "conditions": []
    },
    {
        "minLevel": 28,
        "maxLevel": 28,
        "area": "mt-ember-b1f",
        "method": "walk",
        "location": "mt-ember",
        "conditions": []
    },
    {
        "minLevel": 30,
        "maxLevel": 30,
        "area": "mt-ember-b1f",
        "method": "walk",
        "location": "mt-ember",
        "conditions": []
    },
    {
        "minLevel": 30,
        "maxLevel": 30,
        "area": "mt-ember-b1f",
        "method": "walk",
        "location": "mt-ember",
        "conditions": []
    },
    {
        "minLevel": 26,
        "maxLevel": 26,
        "area": "mt-ember-b2f",
        "method": "walk",
        "location": "mt-ember",
        "conditions": []
    },
    {
        "minLevel": 24,
        "maxLevel": 24,
        "area": "mt-ember-b2f",
        "method": "walk",
        "location": "mt-ember",
        "conditions": []
    },
    {
        "minLevel": 28,
        "maxLevel": 28,
        "area": "mt-ember-b2f",
        "method": "walk",
        "location": "mt-ember",
        "conditions": []
    },
    {
        "minLevel": 30,
        "maxLevel": 30,
        "area": "mt-ember-b2f",
        "method": "walk",
        "location": "mt-ember",
        "conditions": []
    },
    {
        "minLevel": 32,
        "maxLevel": 32,
        "area": "mt-ember-b2f",
        "method": "walk",
        "location": "mt-ember",
        "conditions": []
    },
    {
        "minLevel": 22,
        "maxLevel": 22,
        "area": "mt-ember-b2f",
        "method": "walk",
        "location": "mt-ember",
        "conditions": []
    },
    {
        "minLevel": 22,
        "maxLevel": 22,
        "area": "mt-ember-b2f",
        "method": "walk",
        "location": "mt-ember",
        "conditions": []
    },
    {
        "minLevel": 15,
        "maxLevel": 25,
        "area": "mt-ember-b3f",
        "method": "rock-smash",
        "location": "mt-ember",
        "conditions": []
    },
    {
        "minLevel": 25,
        "maxLevel": 35,
        "area": "mt-ember-b3f",
        "method": "rock-smash",
        "location": "mt-ember",
        "conditions": []
    },
    {
        "minLevel": 26,
        "maxLevel": 26,
        "area": "mt-ember-b3f",
        "method": "walk",
        "location": "mt-ember",
        "conditions": []
    },
    {
        "minLevel": 28,
        "maxLevel": 28,
        "area": "mt-ember-b3f",
        "method": "walk",
        "location": "mt-ember",
        "conditions": []
    },
    {
        "minLevel": 30,
        "maxLevel": 30,
        "area": "mt-ember-b3f",
        "method": "walk",
        "location": "mt-ember",
        "conditions": []
    },
    {
        "minLevel": 32,
        "maxLevel": 32,
        "area": "mt-ember-b3f",
        "method": "walk",
        "location": "mt-ember",
        "conditions": []
    },
    {
        "minLevel": 24,
        "maxLevel": 24,
        "area": "mt-ember-b3f",
        "method": "walk",
        "location": "mt-ember",
        "conditions": []
    },
    {
        "minLevel": 22,
        "maxLevel": 22,
        "area": "mt-ember-b3f",
        "method": "walk",
        "location": "mt-ember",
        "conditions": []
    },
    {
        "minLevel": 20,
        "maxLevel": 20,
        "area": "mt-ember-b3f",
        "method": "walk",
        "location": "mt-ember",
        "conditions": []
    },
    {
        "minLevel": 34,
        "maxLevel": 34,
        "area": "mt-ember-b3f",
        "method": "walk",
        "location": "mt-ember",
        "conditions": []
    },
    {
        "minLevel": 36,
        "maxLevel": 36,
        "area": "mt-ember-b3f",
        "method": "walk",
        "location": "mt-ember",
        "conditions": []
    },
    {
        "minLevel": 18,
        "maxLevel": 18,
        "area": "mt-ember-b3f",
        "method": "walk",
        "location": "mt-ember",
        "conditions": []
    },
    {
        "minLevel": 36,
        "maxLevel": 36,
        "area": "mt-ember-b3f",
        "method": "walk",
        "location": "mt-ember",
        "conditions": []
    },
    {
        "minLevel": 18,
        "maxLevel": 18,
        "area": "mt-ember-b3f",
        "method": "walk",
        "location": "mt-ember",
        "conditions": []
    }
]