[
    {
        "minLevel": 5,
        "maxLevel": 10,
        "area": "cerulean-city-area",
        "method": "surf",
        "location": "cerulean-city",
        "conditions": []
    },
    {
        "minLevel": 10,
        "maxLevel": 20,
        "area": "cerulean-city-area",
        "method": "surf",
        "location": "cerulean-city",
        "conditions": []
    },
    {
        "minLevel": 20,
        "maxLevel": 30,
        "area": "cerulean-city-area",
        "method": "surf",
        "location": "cerulean-city",
        "conditions": []
    },
    {
        "minLevel": 30,
        "maxLevel": 35,
        "area": "cerulean-city-area",
        "method": "surf",
        "location": "cerulean-city",
        "conditions": []
    },
    {
        "minLevel": 35,
        "maxLevel": 40,
        "area": "cerulean-city-area",
        "method": "surf",
        "location": "cerulean-city",
        "conditions": []
    },
    {
        "minLevel": 5,
        "maxLevel": 10,
        "area": "cinnabar-island-area",
        "method": "surf",
        "location": "cinnabar-island",
        "conditions": []
    },
    {
        "minLevel": 10,
        "maxLevel": 20,
        "area": "cinnabar-island-area",
        "method": "surf",
        "location": "cinnabar-island",
        "conditions": []
    },
    {
        "minLevel": 20,
        "maxLevel": 30,
        "area": "cinnabar-island-area",
        "method": "surf",
        "location": "cinnabar-island",
        "conditions": []
    },
    {
        "minLevel": 30,
        "maxLevel": 35,
        "area": "cinnabar-island-area",
        "method": "surf",
        "location": "cinnabar-island",
        "conditions": []
    },
    {
        "minLevel": 35,
        "maxLevel": 40,
        "area": "cinnabar-island-area",
        "method": "surf",
        "location": "cinnabar-island",
        "conditions": []
    },
    {
        "minLevel": 5,
        "maxLevel": 10,
        "area": "pallet-town-area",
        "method": "surf",
        "location": "pallet-town",
        "conditions": []
    },
    {
        "minLevel": 10,
        "maxLevel": 20,
        "area": "pallet-town-area",
        "method": "surf",
        "location": "pallet-town",
        "conditions": []
    },
    {
        "minLevel": 20,
        "maxLevel": 30,
        "area": "pallet-town-area",
        "method": "surf",
        "location": "pallet-town",
        "conditions": []
    },
    {
        "minLevel": 30,
        "maxLevel": 35,
        "area": "pallet-town-area",
        "method": "surf",
        "location": "pallet-town",
        "conditions": []
    },
    {
        "minLevel": 35,
        "maxLevel": 40,
        "area": "pallet-town-area",
        "method": "surf",
        "location": "pallet-town",
        "conditions": []
    },
    {
        "minLevel": 5,
        "maxLevel": 10,
        "area": "kanto-route-10-area",
        "method": "surf",
        "location": "kanto-route-10",
        "conditions": []
    },
    {
        "minLevel": 10,
        "maxLevel": 20,
        "area": "kanto-route-10-area",
        "method": "surf",
        "location": "kanto-route-10",
        "conditions": []
    },
    {
        "minLevel": 20,
        "maxLevel": 30,
        "area": "kanto-route-10-area",
        "method": "surf",
        "location": "kanto-route-10",
        "conditions": []
    },
    {
        "minLevel": 30,
        "maxLevel": 35,
        "area": "kanto-route-10-area",
        "method": "surf",
        "location": "kanto-route-10",
        "conditions": []
    },
    {
        "minLevel": 35,
        "maxLevel": 40,
        "area": "kanto-route-10-area",
        "method": "surf",
        "location": "kanto-route-10",
        "conditions": []
    },
    {
        "minLevel": 5,
        "maxLevel": 10,
        "area": "kanto-route-11-area",
        "method": "surf",
        "location": "kanto-route-11",
        "conditions": []
    },
    {
        "minLevel": 10,
        "maxLevel": 20,
        "area": "kanto-route-11-area",
        "method": "surf",
        "location": "kanto-route-11",
        "conditions": []
    },
    {
        "minLevel": 20,
        "maxLevel": 30,
        "area": "kanto-route-11-area",
        "method": "surf",
        "location": "kanto-route-11",
        "conditions": []
    },
    {
        "minLevel": 30,
        "maxLevel": 35,
        "area": "kanto-route-11-area",
        "method": "surf",
        "location": "kanto-route-11",
        "conditions": []
    },
    {
        "minLevel": 35,
        "maxLevel": 40,
        "area": "kanto-route-11-area",
        "method": "surf",
        "location": "kanto-route-11",
        "conditions": []
    },
    {
        "minLevel": 5,
        "maxLevel": 10,
        "area": "kanto-route-12-area",
        "method": "surf",
        "location": "kanto-route-12",
        "conditions": []
    },
    {
        "minLevel": 10,
        "maxLevel": 20,
        "area": "kanto-route-12-area",
        "method": "surf",
        "location": "kanto-route-12",
        "conditions": []
    },
    {
        "minLevel": 20,
        "maxLevel": 30,
        "area": "kanto-route-12-area",
        "method": "surf",
        "location": "kanto-route-12",
        "conditions": []
    },
    {
        "minLevel": 30,
        "maxLevel": 35,
        "area": "kanto-route-12-area",
        "method": "surf",
        "location": "kanto-route-12",
        "conditions": []
    },
    {
        "minLevel": 35,
        "maxLevel": 40,
        "area": "kanto-route-12-area",
        "method": "surf",
        "location": "kanto-route-12",
        "conditions": []
    },
    {
        "minLevel": 5,
        "maxLevel": 10,
        "area": "kanto-route-13-area",
        "method": "surf",
        "location": "kanto-route-13",
        "conditions": []
    },
    {
        "minLevel": 10,
        "maxLevel": 20,
        "area": "kanto-route-13-area",
        "method": "surf",
        "location": "kanto-route-13",
        "conditions": []
    },
    {
        "minLevel": 20,
        "maxLevel": 30,
        "area": "kanto-route-13-area",
        "method": "surf",
        "location": "kanto-route-13",
        "conditions": []
    },
    {
        "minLevel": 30,
        "maxLevel": 35,
        "area": "kanto-route-13-area",
        "method": "surf",
        "location": "kanto-route-13",
        "conditions": []
    },
    {
        "minLevel": 35,
        "maxLevel": 40,
        "area": "kanto-route-13-area",
        "method": "surf",
        "location": "kanto-route-13",
        "conditions": []
    },
    {
        "minLevel": 5,
        "maxLevel": 10,
        "area": "kanto-sea-route-19-area",
        "method": "surf",
        "location": "kanto-sea-route-19",
        "conditions": []
    },
    {
        "minLevel": 10,
        "maxLevel": 20,
        "area": "kanto-sea-route-19-area",
        "method": "surf",
        "location": "kanto-sea-route-19",
        "conditions": []
    },
    {
        "minLevel": 20,
        "maxLevel": 30,
        "area": "kanto-sea-route-19-area",
        "method": "surf",
        "location": "kanto-sea-route-19",
        "conditions": []
    },
    {
        "minLevel": 30,
        "maxLevel": 35,
        "area": "kanto-sea-route-19-area",
        "method": "surf",
        "location": "kanto-sea-route-19",
        "conditions": []
    },
    {
        "minLevel": 35,
        "maxLevel": 40,
        "area": "kanto-sea-route-19-area",
        "method": "surf",
        "location": "kanto-sea-route-19",
        "conditions": []
    },
    {
        "minLevel": 5,
        "maxLevel": 10,
        "area": "kanto-sea-route-20-area",
        "method": "surf",
        "location": "kanto-sea-route-20",
        "conditions": []
    },
    {
        "minLevel": 10,
        "maxLevel": 20,
        "area": "kanto-sea-route-20-area",
        "method": "surf",
        "location": "kanto-sea-route-20",
        "conditions": []
    },
    {
        "minLevel": 20,
        "maxLevel": 30,
        "area": "kanto-sea-route-20-area",
        "method": "surf",
        "location": "kanto-sea-route-20",
        "conditions": []
    },
    {
        "minLevel": 30,
        "maxLevel": 35,
        "area": "kanto-sea-route-20-area",
        "method": "surf",
        "location": "kanto-sea-route-20",
        "conditions": []
    },
    {
        "minLevel": 35,
        "maxLevel": 40,
        "area": "kanto-sea-route-20-area",
        "method": "surf",
        "location": "kanto-sea-route-20",
        "conditions": []
    },
    {
        "minLevel": 5,
        "maxLevel": 10,
        "area": "kanto-sea-route-21-area",
        "method": "surf",
        "location": "kanto-sea-route-21",
        "conditions": []
    },
    {
        "minLevel": 10,
        "maxLevel": 20,
        "area": "kanto-sea-route-21-area",
        "method": "surf",
        "location": "kanto-sea-route-21",
        "conditions": []
    },
    {
        "minLevel": 20,
        "maxLevel": 30,
        "area": "kanto-sea-route-21-area",
        "method": "surf",
        "location": "kanto-sea-route-21",
        "conditions": []
    },
    {
        "minLevel": 30,
        "maxLevel": 35,
        "area": "kanto-sea-route-21-area",
        "method": "surf",
        "location": "kanto-sea-route-21",
        "conditions": []
    },
    {
        "minLevel": 35,
        "maxLevel": 40,
        "area": "kanto-sea-route-21-area",
        "method": "surf",
        "location": "kanto-sea-route-21",
        "conditions": []
    },
    {
        "minLevel": 5,
        "maxLevel": 10,
        "area": "kanto-route-24-area",
        "method": "surf",
        "location": "kanto-route-24",
        "conditions": []
    },
    {
        "minLevel": 10,
        "maxLevel": 20,
        "area": "kanto-route-24-area",
        "method": "surf",
        "location": "kanto-route-24",
        "conditions": []
    },
    {
        "minLevel": 20,
        "maxLevel": 30,
        "area": "kanto-route-24-area",
        "method": "surf",
        "location": "kanto-route-24",
        "conditions": []
    },
    {
        "minLevel": 30,
        "maxLevel": 35,
        "area": "kanto-route-24-area",
        "method": "surf",
        "location": "kanto-route-24",
        "conditions": []
    },
    {
        "minLevel": 35,
        "maxLevel": 40,
        "area": "kanto-route-24-area",
        "method": "surf",
        "location": "kanto-route-24",
        "conditions": []
    },
    {
        "minLevel": 5,
        "maxLevel": 10,
        "area": "kanto-route-4-area",
        "method": "surf",
        "location": "kanto-route-4",
        "conditions": []
    },
    {
        "minLevel": 10,
        "maxLevel": 20,
        "area": "kanto-route-4-area",
        "method": "surf",
        "location": "kanto-route-4",
        "conditions": []
    },
    {
        "minLevel": 20,
        "maxLevel": 30,
        "area": "kanto-route-4-area",
        "method": "surf",
        "location": "kanto-route-4",
        "conditions": []
    },
    {
        "minLevel": 30,
        "maxLevel": 35,
        "area": "kanto-route-4-area",
        "method": "surf",
        "location": "kanto-route-4",
        "conditions": []
    },
    {
        "minLevel": 35,
        "maxLevel": 40,
        "area": "kanto-route-4-area",
        "method": "surf",
        "location": "kanto-route-4",
        "conditions": []
    },
    {
        "minLevel": 5,
        "maxLevel": 10,
        "area": "vermilion-city-area",
        "method": "surf",
        "location": "vermilion-city",
        "conditions": []
    },
    {
        "minLevel": 10,
        "maxLevel": 20,
        "area": "vermilion-city-area",
        "method": "surf",
        "location": "vermilion-city",
        "conditions": []
    },
    {
        "minLevel": 20,
        "maxLevel": 30,
        "area": "vermilion-city-area",
        "method": "surf",
        "location": "vermilion-city",
        "conditions": []
    },
    {
        "minLevel": 30,
        "maxLevel": 35,
        "area": "vermilion-city-area",
        "method": "surf",
        "location": "vermilion-city",
        "conditions": []
    },
    {
        "minLevel": 35,
        "maxLevel": 40,
        "area": "vermilion-city-area",
        "method": "surf",
        "location": "vermilion-city",
        "conditions": []
    },
    {
        "minLevel": 5,
        "maxLevel": 10,
        "area": "ss-anne-area",
        "method": "surf",
        "location": "ss-anne",
        "conditions": []
    },
    {
        "minLevel": 10,
        "maxLevel": 20,
        "area": "ss-anne-area",
        "method": "surf",
        "location": "ss-anne",
        "conditions": []
    },
    {
        "minLevel": 20,
        "maxLevel": 30,
        "area": "ss-anne-area",
        "method": "surf",
        "location": "ss-anne",
        "conditions": []
    },
    {
        "minLevel": 30,
        "maxLevel": 35,
        "area": "ss-anne-area",
        "method": "surf",
        "location": "ss-anne",
        "conditions": []
    },
    {
        "minLevel": 35,
        "maxLevel": 40,
        "area": "ss-anne-area",
        "method": "surf",
        "location": "ss-anne",
        "conditions": []
    },
    {
        "minLevel": 5,
        "maxLevel": 20,
        "area": "icefall-cave-waterfall",
        "method": "surf",
        "location": "icefall-cave",
        "conditions": []
    },
    {
        "minLevel": 20,
        "maxLevel": 35,
        "area": "icefall-cave-waterfall",
        "method": "surf",
        "location": "icefall-cave",
        "conditions": []
    },
    {
        "minLevel": 35,
        "maxLevel": 45,
        "area": "icefall-cave-waterfall",
        "method": "surf",
        "location": "icefall-cave",
        "conditions": []
    },
    {
        "minLevel": 5,
        "maxLevel": 20,
        "area": "kindle-road-area",
        "method": "surf",
        "location": "kindle-road",
        "conditions": []
    },
    {
        "minLevel": 20,
        "maxLevel": 35,
        "area": "kindle-road-area",
        "method": "surf",
        "location": "kindle-road",
        "conditions": []
    },
    {
        "minLevel": 35,
        "maxLevel": 40,
        "area": "kindle-road-area",
        "method": "surf",
        "location": "kindle-road",
        "conditions": []
    },
    {
        "minLevel": 5,
        "maxLevel": 20,
        "area": "treasure-beach-area",
        "method": "surf",
        "location": "treasure-beach",
        "conditions": []
    },
    {
        "minLevel": 20,
        "maxLevel": 35,
        "area": "treasure-beach-area",
        "method": "surf",
        "location": "treasure-beach",
        "conditions": []
    },
    {
        "minLevel": 35,
        "maxLevel": 40,
        "area": "treasure-beach-area",
        "method": "surf",
        "location": "treasure-beach",
        "conditions": []
    },
    {
        "minLevel": 5,
        "maxLevel": 20,
        "area": "bond-bridge-area",
        "method": "surf",
        "location": "bond-bridge",
        "conditions": []
    },
    {
        "minLevel": 20,
        "maxLevel": 35,
        "area": "bond-bridge-area",
        "method": "surf",
        "location": "bond-bridge",
        "conditions": []
    },
    {
        "minLevel": 35,
        "maxLevel": 40,
        "area": "bond-bridge-area",
        "method": "surf",
        "location": "bond-bridge",
        "conditions": []
    },
    {
        "minLevel": 5,
        "maxLevel": 35,
        "area": "resort-gorgeous-area",
        "method": "surf",
        "location": "resort-gorgeous",
        "conditions": []
    },
    {
        "minLevel": 35,
        "maxLevel": 40,
        "area": "resort-gorgeous-area",
        "method": "surf",
        "location": "resort-gorgeous",
        "conditions": []
    },
    {
        "minLevel": 5,
        "maxLevel": 35,
        "area": "water-labyrinth-area",
        "method": "surf",
        "location": "water-labyrinth",
        "conditions": []
    },
    {
        "minLevel": 35,
        "maxLevel": 40,
        "area": "water-labyrinth-area",
        "method": "surf",
        "location": "water-labyrinth",
        "conditions": []
    },
    {
        "minLevel": 5,
        "maxLevel": 35,
        "area": "five-isle-meadow-area",
        "method": "surf",
        "location": "five-isle-meadow",
        "conditions": []
    },
    {
        "minLevel": 35,
        "maxLevel": 40,
        "area": "five-isle-meadow-area",
        "method": "surf",
        "location": "five-isle-meadow",
        "conditions": []
    },
    {
        "minLevel": 5,
        "maxLevel": 35,
        "area": "memorial-pillar-area",
        "method": "surf",
        "location": "memorial-pillar",
        "conditions": []
    },
    {
        "minLevel": 35,
        "maxLevel": 40,
        "area": "memorial-pillar-area",
        "method": "surf",
        "location": "memorial-pillar",
        "conditions": []
    },
    {
        "minLevel": 5,
        "maxLevel": 20,
        "area": "outcast-island-area",
        "method": "surf",
        "location": "outcast-island",
        "conditions": []
    },
    {
        "minLevel": 20,
        "maxLevel": 35,
        "area": "outcast-island-area",
        "method": "surf",
        "location": "outcast-island",
        "conditions": []
    },
    {
        "minLevel": 35,
        "maxLevel": 40,
        "area": "outcast-island-area",
        "method": "surf",
        "location": "outcast-island",
        "conditions": []
    },
    {
        "minLevel": 5,
        "maxLevel": 20,
        "area": "green-path-area",
        "method": "surf",
        "location": "green-path",
        "conditions": []
    },
    {
        "minLevel": 20,
        "maxLevel": 35,
        "area": "green-path-area",
        "method": "surf",
        "location": "green-path",
        "conditions": []
    },
    {
        "minLevel": 35,
        "maxLevel": 40,
        "area": "green-path-area",
        "method": "surf",
        "location": "green-path",
        "conditions": []
    },
    {
        "minLevel": 5,
        "maxLevel": 20,
        "area": "water-path-area",
        "method": "surf",
        "location": "water-path",
        "conditions": []
    },
    {
        "minLevel": 20,
        "maxLevel": 35,
        "area": "water-path-area",
        "method": "surf",
        "location": "water-path",
        "conditions": []
    },
    {
        "minLevel": 35,
        "maxLevel": 40,
        "area": "water-path-area",
        "method": "surf",
        "location": "water-path",
        "conditions": []
    },
    {
        "minLevel": 5,
        "maxLevel": 20,
        "area": "trainer-tower-area",
        "method": "surf",
        "location": "trainer-tower",
        "conditions": []
    },
    {
        "minLevel": 20,
        "maxLevel": 35,
        "area": "trainer-tower-area",
        "method": "surf",
        "location": "trainer-tower",
        "conditions": []
    },
    {
        "minLevel": 5,
        "maxLevel": 20,
        "area": "tanoby-ruins-area",
        "method": "surf",
        "location": "tanoby-ruins",
        "conditions": []
    },
    {
        "minLevel": 20,
        "maxLevel": 35,
        "area": "tanoby-ruins-area",
        "method": "surf",
        "location": "tanoby-ruins",
        "conditions": []
    },
    {
        "minLevel": 5,
        "maxLevel": 20,
        "area": "one-island-area",
        "method": "surf",
        "location": "one-island",
        "conditions": []
    },
    {
        "minLevel": 20,
        "maxLevel": 35,
        "area": "one-island-area",
        "method": "surf",
        "location": "one-island",
        "conditions": []
    },
    {
        "minLevel": 35,
        "maxLevel": 40,
        "area": "one-island-area",
        "method": "surf",
        "location": "one-island",
        "conditions": []
    },
    {
        "minLevel": 5,
        "maxLevel": 35,
        "area": "five-island-area",
        "method": "surf",
        "location": "five-island",
        "conditions": []
    },
    {
        "minLevel": 35,
        "maxLevel": 40,
        "area": "five-island-area",
        "method": "surf",
        "location": "five-island",
        "conditions": []
    }
]