[
    {
        "minLevel": 16,
        "maxLevel": 16,
        "area": "johto-route-38-area",
        "method": "walk",
        "location": "johto-route-38",
        "conditions": [
            "radio-off",
            "time-morning"
        ]
    },
    {
        "minLevel": 16,
        "maxLevel": 16,
        "area": "johto-route-38-area",
        "method": "walk",
        "location": "johto-route-38",
        "conditions": ["time-day"]
    },
    {
        "minLevel": 16,
        "maxLevel": 16,
        "area": "johto-route-38-area",
        "method": "walk",
        "location": "johto-route-38",
        "conditions": ["time-day"]
    },
    {
        "minLevel": 16,
        "maxLevel": 16,
        "area": "johto-route-39-area",
        "method": "walk",
        "location": "johto-route-39",
        "conditions": [
            "radio-off",
            "time-morning"
        ]
    },
    {
        "minLevel": 16,
        "maxLevel": 16,
        "area": "johto-route-39-area",
        "method": "walk",
        "location": "johto-route-39",
        "conditions": ["time-day"]
    },
    {
        "minLevel": 16,
        "maxLevel": 16,
        "area": "johto-route-39-area",
        "method": "walk",
        "location": "johto-route-39",
        "conditions": ["time-day"]
    },
    {
        "minLevel": 35,
        "maxLevel": 35,
        "area": "johto-route-47-area",
        "method": "walk",
        "location": "johto-route-47",
        "conditions": [
            "time-morning",
            "swarm-no"
        ]
    },
    {
        "minLevel": 35,
        "maxLevel": 35,
        "area": "johto-route-47-area",
        "method": "walk",
        "location": "johto-route-47",
        "conditions": [
            "time-day",
            "swarm-no"
        ]
    },
    {
        "minLevel": 24,
        "maxLevel": 24,
        "area": "johto-route-48-area",
        "method": "walk",
        "location": "johto-route-48",
        "conditions": ["time-morning"]
    },
    {
        "minLevel": 24,
        "maxLevel": 24,
        "area": "johto-route-48-area",
        "method": "walk",
        "location": "johto-route-48",
        "conditions": ["time-day"]
    }
]