[
    {
        "minLevel": 15,
        "maxLevel": 15,
        "area": "johto-route-43-area",
        "method": "walk",
        "location": "johto-route-43",
        "conditions": []
    },
    {
        "minLevel": 15,
        "maxLevel": 15,
        "area": "johto-route-43-area",
        "method": "walk",
        "location": "johto-route-43",
        "conditions": ["radio-off"]
    },
    {
        "minLevel": 20,
        "maxLevel": 20,
        "area": "johto-route-48-area",
        "method": "walk",
        "location": "johto-route-48",
        "conditions": []
    }
]