[
    {
        "minLevel": 10,
        "maxLevel": 20,
        "area": "ilex-forest-area",
        "method": "surf",
        "location": "ilex-forest",
        "conditions": []
    },
    {
        "minLevel": 10,
        "maxLevel": 20,
        "area": "ilex-forest-area",
        "method": "surf",
        "location": "ilex-forest",
        "conditions": []
    },
    {
        "minLevel": 10,
        "maxLevel": 20,
        "area": "ilex-forest-area",
        "method": "surf",
        "location": "ilex-forest",
        "conditions": []
    },
    {
        "minLevel": 48,
        "maxLevel": 48,
        "area": "mt-silver-2f",
        "method": "walk",
        "location": "mt-silver",
        "conditions": ["radio-off"]
    },
    {
        "minLevel": 48,
        "maxLevel": 48,
        "area": "mt-silver-1f-top",
        "method": "walk",
        "location": "mt-silver",
        "conditions": ["radio-off"]
    },
    {
        "minLevel": 48,
        "maxLevel": 48,
        "area": "mt-silver-4f",
        "method": "walk",
        "location": "mt-silver",
        "conditions": []
    },
    {
        "minLevel": 48,
        "maxLevel": 48,
        "area": "mt-silver-4f",
        "method": "walk",
        "location": "mt-silver",
        "conditions": ["radio-off"]
    },
    {
        "minLevel": 51,
        "maxLevel": 51,
        "area": "mt-silver-mountainside",
        "method": "walk",
        "location": "mt-silver",
        "conditions": []
    },
    {
        "minLevel": 51,
        "maxLevel": 51,
        "area": "mt-silver-mountainside",
        "method": "walk",
        "location": "mt-silver",
        "conditions": []
    },
    {
        "minLevel": 48,
        "maxLevel": 48,
        "area": "mt-silver-3f",
        "method": "walk",
        "location": "mt-silver",
        "conditions": []
    },
    {
        "minLevel": 48,
        "maxLevel": 48,
        "area": "mt-silver-top",
        "method": "walk",
        "location": "mt-silver",
        "conditions": []
    },
    {
        "minLevel": 48,
        "maxLevel": 48,
        "area": "mt-silver-top",
        "method": "walk",
        "location": "mt-silver",
        "conditions": [
            "radio-off",
            "time-morning"
        ]
    },
    {
        "minLevel": 48,
        "maxLevel": 48,
        "area": "mt-silver-top",
        "method": "walk",
        "location": "mt-silver",
        "conditions": [
            "time-day",
            "radio-off"
        ]
    },
    {
        "minLevel": 15,
        "maxLevel": 25,
        "area": "johto-route-35-area",
        "method": "surf",
        "location": "johto-route-35",
        "conditions": []
    },
    {
        "minLevel": 15,
        "maxLevel": 25,
        "area": "johto-route-35-area",
        "method": "surf",
        "location": "johto-route-35",
        "conditions": []
    },
    {
        "minLevel": 31,
        "maxLevel": 31,
        "area": "johto-route-35-area",
        "method": "surf",
        "location": "johto-route-35",
        "conditions": []
    }
]