[
    {
        "minLevel": 10,
        "maxLevel": 20,
        "area": "lake-of-rage-area",
        "method": "surf",
        "location": "lake-of-rage",
        "conditions": []
    },
    {
        "minLevel": 10,
        "maxLevel": 20,
        "area": "lake-of-rage-area",
        "method": "surf",
        "location": "lake-of-rage",
        "conditions": []
    },
    {
        "minLevel": 10,
        "maxLevel": 20,
        "area": "lake-of-rage-area",
        "method": "surf",
        "location": "lake-of-rage",
        "conditions": []
    },
    {
        "minLevel": 20,
        "maxLevel": 20,
        "area": "lake-of-rage-area",
        "method": "good-rod",
        "location": "lake-of-rage",
        "conditions": []
    },
    {
        "minLevel": 40,
        "maxLevel": 40,
        "area": "lake-of-rage-area",
        "method": "super-rod",
        "location": "lake-of-rage",
        "conditions": []
    },
    {
        "minLevel": 20,
        "maxLevel": 20,
        "area": "mt-silver-1f",
        "method": "good-rod",
        "location": "mt-silver",
        "conditions": ["time-night"]
    },
    {
        "minLevel": 40,
        "maxLevel": 40,
        "area": "mt-silver-1f",
        "method": "super-rod",
        "location": "mt-silver",
        "conditions": []
    },
    {
        "minLevel": 40,
        "maxLevel": 40,
        "area": "mt-silver-1f",
        "method": "super-rod",
        "location": "mt-silver",
        "conditions": ["time-night"]
    },
    {
        "minLevel": 40,
        "maxLevel": 40,
        "area": "mt-silver-1f",
        "method": "super-rod",
        "location": "mt-silver",
        "conditions": []
    }
]