[
    {
        "minLevel": 22,
        "maxLevel": 22,
        "area": "ice-path-1f",
        "method": "walk",
        "location": "ice-path",
        "conditions": ["time-day"]
    },
    {
        "minLevel": 22,
        "maxLevel": 22,
        "area": "ice-path-1f",
        "method": "walk",
        "location": "ice-path",
        "conditions": []
    },
    {
        "minLevel": 22,
        "maxLevel": 22,
        "area": "ice-path-1f",
        "method": "walk",
        "location": "ice-path",
        "conditions": ["time-day"]
    },
    {
        "minLevel": 22,
        "maxLevel": 22,
        "area": "ice-path-1f",
        "method": "walk",
        "location": "ice-path",
        "conditions": []
    },
    {
        "minLevel": 22,
        "maxLevel": 22,
        "area": "ice-path-b1f",
        "method": "walk",
        "location": "ice-path",
        "conditions": ["time-day"]
    },
    {
        "minLevel": 22,
        "maxLevel": 22,
        "area": "ice-path-b1f",
        "method": "walk",
        "location": "ice-path",
        "conditions": []
    },
    {
        "minLevel": 22,
        "maxLevel": 22,
        "area": "ice-path-b1f",
        "method": "walk",
        "location": "ice-path",
        "conditions": ["time-day"]
    },
    {
        "minLevel": 22,
        "maxLevel": 22,
        "area": "ice-path-b1f",
        "method": "walk",
        "location": "ice-path",
        "conditions": []
    },
    {
        "minLevel": 23,
        "maxLevel": 23,
        "area": "ice-path-b2f",
        "method": "walk",
        "location": "ice-path",
        "conditions": ["time-day"]
    },
    {
        "minLevel": 23,
        "maxLevel": 23,
        "area": "ice-path-b2f",
        "method": "walk",
        "location": "ice-path",
        "conditions": []
    },
    {
        "minLevel": 23,
        "maxLevel": 23,
        "area": "ice-path-b2f",
        "method": "walk",
        "location": "ice-path",
        "conditions": ["time-day"]
    },
    {
        "minLevel": 23,
        "maxLevel": 23,
        "area": "ice-path-b2f",
        "method": "walk",
        "location": "ice-path",
        "conditions": []
    },
    {
        "minLevel": 23,
        "maxLevel": 23,
        "area": "ice-path-b3f",
        "method": "walk",
        "location": "ice-path",
        "conditions": ["time-day"]
    },
    {
        "minLevel": 23,
        "maxLevel": 23,
        "area": "ice-path-b3f",
        "method": "walk",
        "location": "ice-path",
        "conditions": []
    },
    {
        "minLevel": 23,
        "maxLevel": 23,
        "area": "ice-path-b3f",
        "method": "walk",
        "location": "ice-path",
        "conditions": ["time-day"]
    },
    {
        "minLevel": 23,
        "maxLevel": 23,
        "area": "ice-path-b3f",
        "method": "walk",
        "location": "ice-path",
        "conditions": []
    }
]