[
    {
        "minLevel": 20,
        "maxLevel": 20,
        "area": "mt-silver-2f",
        "method": "walk",
        "location": "mt-silver",
        "conditions": []
    },
    {
        "minLevel": 15,
        "maxLevel": 15,
        "area": "mt-silver-2f",
        "method": "walk",
        "location": "mt-silver",
        "conditions": []
    },
    {
        "minLevel": 20,
        "maxLevel": 20,
        "area": "mt-silver-1f-top",
        "method": "walk",
        "location": "mt-silver",
        "conditions": []
    },
    {
        "minLevel": 15,
        "maxLevel": 15,
        "area": "mt-silver-1f-top",
        "method": "walk",
        "location": "mt-silver",
        "conditions": []
    },
    {
        "minLevel": 20,
        "maxLevel": 20,
        "area": "mt-silver-4f",
        "method": "walk",
        "location": "mt-silver",
        "conditions": []
    },
    {
        "minLevel": 15,
        "maxLevel": 15,
        "area": "mt-silver-4f",
        "method": "walk",
        "location": "mt-silver",
        "conditions": []
    },
    {
        "minLevel": 20,
        "maxLevel": 20,
        "area": "mt-silver-1f",
        "method": "walk",
        "location": "mt-silver",
        "conditions": []
    },
    {
        "minLevel": 15,
        "maxLevel": 15,
        "area": "mt-silver-1f",
        "method": "walk",
        "location": "mt-silver",
        "conditions": []
    },
    {
        "minLevel": 20,
        "maxLevel": 20,
        "area": "mt-silver-mountainside",
        "method": "walk",
        "location": "mt-silver",
        "conditions": []
    },
    {
        "minLevel": 15,
        "maxLevel": 15,
        "area": "mt-silver-mountainside",
        "method": "walk",
        "location": "mt-silver",
        "conditions": []
    },
    {
        "minLevel": 20,
        "maxLevel": 20,
        "area": "mt-silver-3f",
        "method": "walk",
        "location": "mt-silver",
        "conditions": []
    },
    {
        "minLevel": 15,
        "maxLevel": 15,
        "area": "mt-silver-3f",
        "method": "walk",
        "location": "mt-silver",
        "conditions": []
    },
    {
        "minLevel": 30,
        "maxLevel": 30,
        "area": "mt-silver-top",
        "method": "walk",
        "location": "mt-silver",
        "conditions": []
    },
    {
        "minLevel": 20,
        "maxLevel": 20,
        "area": "mt-silver-top",
        "method": "walk",
        "location": "mt-silver",
        "conditions": []
    },
    {
        "minLevel": 15,
        "maxLevel": 15,
        "area": "mt-silver-top",
        "method": "walk",
        "location": "mt-silver",
        "conditions": []
    }
]