[
    {
        "minLevel": 24,
        "maxLevel": 24,
        "area": "johto-route-44-area",
        "method": "walk",
        "location": "johto-route-44",
        "conditions": []
    },
    {
        "minLevel": 24,
        "maxLevel": 24,
        "area": "johto-route-44-area",
        "method": "walk",
        "location": "johto-route-44",
        "conditions": []
    },
    {
        "minLevel": 26,
        "maxLevel": 26,
        "area": "johto-route-44-area",
        "method": "walk",
        "location": "johto-route-44",
        "conditions": []
    },
    {
        "minLevel": 26,
        "maxLevel": 26,
        "area": "johto-route-44-area",
        "method": "walk",
        "location": "johto-route-44",
        "conditions": []
    }
]