[
    {
        "minLevel": 23,
        "maxLevel": 28,
        "area": "cianwood-city-area",
        "method": "rock-smash",
        "location": "cianwood-city",
        "conditions": []
    },
    {
        "minLevel": 15,
        "maxLevel": 15,
        "area": "cianwood-city-kirks-house",
        "method": "gift",
        "location": "cianwood-city",
        "conditions": []
    }
]