[
    {
        "minLevel": 46,
        "maxLevel": 46,
        "area": "mt-silver-1f-top",
        "method": "walk",
        "location": "mt-silver",
        "conditions": ["radio-off"]
    },
    {
        "minLevel": 43,
        "maxLevel": 43,
        "area": "mt-silver-1f",
        "method": "walk",
        "location": "mt-silver",
        "conditions": ["radio-off"]
    },
    {
        "minLevel": 48,
        "maxLevel": 48,
        "area": "mt-silver-mountainside",
        "method": "walk",
        "location": "mt-silver",
        "conditions": ["radio-off"]
    },
    {
        "minLevel": 46,
        "maxLevel": 46,
        "area": "mt-silver-3f",
        "method": "walk",
        "location": "mt-silver",
        "conditions": ["radio-off"]
    },
    {
        "minLevel": 20,
        "maxLevel": 20,
        "area": "johto-route-45-area",
        "method": "walk",
        "location": "johto-route-45",
        "conditions": []
    },
    {
        "minLevel": 20,
        "maxLevel": 20,
        "area": "johto-route-45-area",
        "method": "walk",
        "location": "johto-route-45",
        "conditions": []
    }
]