[
    {
        "minLevel": 15,
        "maxLevel": 25,
        "area": "cherrygrove-city-area",
        "method": "surf",
        "location": "cherrygrove-city",
        "conditions": []
    },
    {
        "minLevel": 15,
        "maxLevel": 25,
        "area": "cherrygrove-city-area",
        "method": "surf",
        "location": "cherrygrove-city",
        "conditions": []
    },
    {
        "minLevel": 15,
        "maxLevel": 25,
        "area": "cherrygrove-city-area",
        "method": "surf",
        "location": "cherrygrove-city",
        "conditions": []
    },
    {
        "minLevel": 15,
        "maxLevel": 25,
        "area": "cianwood-city-area",
        "method": "surf",
        "location": "cianwood-city",
        "conditions": []
    },
    {
        "minLevel": 15,
        "maxLevel": 25,
        "area": "cianwood-city-area",
        "method": "surf",
        "location": "cianwood-city",
        "conditions": []
    },
    {
        "minLevel": 15,
        "maxLevel": 25,
        "area": "cianwood-city-area",
        "method": "surf",
        "location": "cianwood-city",
        "conditions": []
    },
    {
        "minLevel": 15,
        "maxLevel": 25,
        "area": "new-bark-town-area",
        "method": "surf",
        "location": "new-bark-town",
        "conditions": []
    },
    {
        "minLevel": 15,
        "maxLevel": 25,
        "area": "new-bark-town-area",
        "method": "surf",
        "location": "new-bark-town",
        "conditions": []
    },
    {
        "minLevel": 15,
        "maxLevel": 25,
        "area": "new-bark-town-area",
        "method": "surf",
        "location": "new-bark-town",
        "conditions": []
    },
    {
        "minLevel": 40,
        "maxLevel": 40,
        "area": "new-bark-town-area",
        "method": "super-rod",
        "location": "new-bark-town",
        "conditions": []
    },
    {
        "minLevel": 40,
        "maxLevel": 40,
        "area": "new-bark-town-area",
        "method": "super-rod",
        "location": "new-bark-town",
        "conditions": []
    },
    {
        "minLevel": 15,
        "maxLevel": 25,
        "area": "olivine-city-area",
        "method": "surf",
        "location": "olivine-city",
        "conditions": []
    },
    {
        "minLevel": 15,
        "maxLevel": 25,
        "area": "olivine-city-area",
        "method": "surf",
        "location": "olivine-city",
        "conditions": []
    },
    {
        "minLevel": 15,
        "maxLevel": 25,
        "area": "olivine-city-area",
        "method": "surf",
        "location": "olivine-city",
        "conditions": []
    },
    {
        "minLevel": 15,
        "maxLevel": 25,
        "area": "johto-route-32-area",
        "method": "surf",
        "location": "johto-route-32",
        "conditions": []
    },
    {
        "minLevel": 15,
        "maxLevel": 25,
        "area": "johto-route-32-area",
        "method": "surf",
        "location": "johto-route-32",
        "conditions": []
    },
    {
        "minLevel": 36,
        "maxLevel": 36,
        "area": "johto-route-32-area",
        "method": "surf",
        "location": "johto-route-32",
        "conditions": []
    },
    {
        "minLevel": 15,
        "maxLevel": 25,
        "area": "johto-route-34-area",
        "method": "surf",
        "location": "johto-route-34",
        "conditions": []
    },
    {
        "minLevel": 15,
        "maxLevel": 25,
        "area": "johto-route-34-area",
        "method": "surf",
        "location": "johto-route-34",
        "conditions": []
    },
    {
        "minLevel": 29,
        "maxLevel": 29,
        "area": "johto-route-34-area",
        "method": "surf",
        "location": "johto-route-34",
        "conditions": []
    },
    {
        "minLevel": 15,
        "maxLevel": 25,
        "area": "johto-sea-route-40-area",
        "method": "surf",
        "location": "johto-sea-route-40",
        "conditions": []
    },
    {
        "minLevel": 15,
        "maxLevel": 25,
        "area": "johto-sea-route-40-area",
        "method": "surf",
        "location": "johto-sea-route-40",
        "conditions": []
    },
    {
        "minLevel": 15,
        "maxLevel": 25,
        "area": "johto-sea-route-40-area",
        "method": "surf",
        "location": "johto-sea-route-40",
        "conditions": []
    },
    {
        "minLevel": 15,
        "maxLevel": 25,
        "area": "johto-sea-route-41-area",
        "method": "surf",
        "location": "johto-sea-route-41",
        "conditions": []
    },
    {
        "minLevel": 15,
        "maxLevel": 25,
        "area": "johto-sea-route-41-area",
        "method": "surf",
        "location": "johto-sea-route-41",
        "conditions": []
    },
    {
        "minLevel": 15,
        "maxLevel": 25,
        "area": "johto-sea-route-41-area",
        "method": "surf",
        "location": "johto-sea-route-41",
        "conditions": []
    },
    {
        "minLevel": 40,
        "maxLevel": 40,
        "area": "johto-sea-route-41-area",
        "method": "super-rod",
        "location": "johto-sea-route-41",
        "conditions": []
    },
    {
        "minLevel": 40,
        "maxLevel": 40,
        "area": "johto-sea-route-41-area",
        "method": "super-rod",
        "location": "johto-sea-route-41",
        "conditions": []
    },
    {
        "minLevel": 40,
        "maxLevel": 40,
        "area": "johto-route-47-area",
        "method": "super-rod",
        "location": "johto-route-47",
        "conditions": []
    },
    {
        "minLevel": 40,
        "maxLevel": 40,
        "area": "johto-route-47-area",
        "method": "super-rod",
        "location": "johto-route-47",
        "conditions": []
    },
    {
        "minLevel": 15,
        "maxLevel": 25,
        "area": "union-cave-b2f",
        "method": "surf",
        "location": "union-cave",
        "conditions": []
    },
    {
        "minLevel": 15,
        "maxLevel": 25,
        "area": "union-cave-b2f",
        "method": "surf",
        "location": "union-cave",
        "conditions": []
    },
    {
        "minLevel": 15,
        "maxLevel": 25,
        "area": "union-cave-b2f",
        "method": "surf",
        "location": "union-cave",
        "conditions": []
    },
    {
        "minLevel": 15,
        "maxLevel": 25,
        "area": "whirl-islands-1f",
        "method": "surf",
        "location": "whirl-islands",
        "conditions": []
    },
    {
        "minLevel": 15,
        "maxLevel": 25,
        "area": "whirl-islands-1f",
        "method": "surf",
        "location": "whirl-islands",
        "conditions": []
    },
    {
        "minLevel": 15,
        "maxLevel": 25,
        "area": "whirl-islands-1f",
        "method": "surf",
        "location": "whirl-islands",
        "conditions": []
    },
    {
        "minLevel": 15,
        "maxLevel": 25,
        "area": "whirl-islands-b2f",
        "method": "surf",
        "location": "whirl-islands",
        "conditions": []
    }
]