{
    "encounters": [
        "clefairy",
        "golbat",
        "machoke",
        "noctowl",
        "loudred",
        "nosepass",
        "medicham",
        "lunatone",
        "solrock",
        "absol",
        "chingling",
        "bronzong",
        "snover",
        "abomasnow"
    ],
    "id": "mt-coronet-blizzard"
}