{
    "encounters": [
        "nidorina",
        "nidorino",
        "tentacool",
        "tentacruel",
        "farfetchd",
        "magikarp",
        "gyarados",
        "sudowoodo",
        "girafarig",
        "wingull",
        "pelipper",
        "roselia",
        "clamperl",
        "floatzel",
        "shellos",
        "gastrodon",
        "stunky",
        "skuntank",
        "finneon",
        "lumineon"
    ],
    "id": "sinnoh-route-221-area"
}