[
    {
        "minLevel": 3,
        "maxLevel": 3,
        "area": "kalos-route-3-area",
        "method": "walk",
        "location": "kalos-route-3",
        "conditions": []
    },
    {
        "minLevel": 4,
        "maxLevel": 4,
        "area": "kalos-route-3-area",
        "method": "walk",
        "location": "kalos-route-3",
        "conditions": []
    },
    {
        "minLevel": 6,
        "maxLevel": 6,
        "area": "kalos-route-22-area",
        "method": "walk",
        "location": "kalos-route-22",
        "conditions": []
    }
]