[
    {
        "minLevel": 15,
        "maxLevel": 15,
        "area": "glittering-cave-unknown-area-303",
        "method": "walk",
        "location": "glittering-cave",
        "conditions": []
    },
    {
        "minLevel": 16,
        "maxLevel": 16,
        "area": "glittering-cave-unknown-area-303",
        "method": "walk",
        "location": "glittering-cave",
        "conditions": []
    }
]