[
    {
        "minLevel": 14,
        "maxLevel": 14,
        "area": "kalos-route-7-area",
        "method": "walk",
        "location": "kalos-route-7",
        "conditions": []
    },
    {
        "minLevel": 14,
        "maxLevel": 14,
        "area": "kalos-route-7-area",
        "method": "yellow-flowers",
        "location": "kalos-route-7",
        "conditions": []
    },
    {
        "minLevel": 14,
        "maxLevel": 14,
        "area": "kalos-route-7-area",
        "method": "purple-flowers",
        "location": "kalos-route-7",
        "conditions": []
    }
]