[
    {
        "minLevel": 26,
        "maxLevel": 26,
        "area": "kalos-route-13-area",
        "method": "rough-terrain",
        "location": "kalos-route-13",
        "conditions": []
    },
    {
        "minLevel": 27,
        "maxLevel": 27,
        "area": "kalos-route-13-area",
        "method": "rough-terrain",
        "location": "kalos-route-13",
        "conditions": []
    },
    {
        "minLevel": 27,
        "maxLevel": 27,
        "area": "kalos-route-13-area",
        "method": "rough-terrain",
        "location": "kalos-route-13",
        "conditions": []
    },
    {
        "minLevel": 28,
        "maxLevel": 28,
        "area": "kalos-route-13-area",
        "method": "rough-terrain",
        "location": "kalos-route-13",
        "conditions": []
    }
]