[
    {
        "minLevel": 11,
        "maxLevel": 11,
        "area": "kalos-route-6-area",
        "method": "rough-terrain",
        "location": "kalos-route-6",
        "conditions": []
    },
    {
        "minLevel": 12,
        "maxLevel": 12,
        "area": "kalos-route-6-area",
        "method": "rough-terrain",
        "location": "kalos-route-6",
        "conditions": []
    }
]