[
    {
        "minLevel": 15,
        "maxLevel": 15,
        "area": "cyllage-city-area",
        "method": "old-rod",
        "location": "cyllage-city",
        "conditions": []
    },
    {
        "minLevel": 15,
        "maxLevel": 15,
        "area": "cyllage-city-area",
        "method": "old-rod",
        "location": "cyllage-city",
        "conditions": []
    },
    {
        "minLevel": 15,
        "maxLevel": 15,
        "area": "cyllage-city-area",
        "method": "old-rod",
        "location": "cyllage-city",
        "conditions": []
    },
    {
        "minLevel": 15,
        "maxLevel": 15,
        "area": "kalos-route-8-area",
        "method": "old-rod",
        "location": "kalos-route-8",
        "conditions": []
    },
    {
        "minLevel": 15,
        "maxLevel": 15,
        "area": "kalos-route-8-area",
        "method": "old-rod",
        "location": "kalos-route-8",
        "conditions": []
    },
    {
        "minLevel": 15,
        "maxLevel": 15,
        "area": "kalos-route-8-area",
        "method": "old-rod",
        "location": "kalos-route-8",
        "conditions": []
    },
    {
        "minLevel": 15,
        "maxLevel": 15,
        "area": "ambrette-town-area",
        "method": "old-rod",
        "location": "ambrette-town",
        "conditions": []
    },
    {
        "minLevel": 15,
        "maxLevel": 15,
        "area": "ambrette-town-area",
        "method": "old-rod",
        "location": "ambrette-town",
        "conditions": []
    },
    {
        "minLevel": 15,
        "maxLevel": 15,
        "area": "ambrette-town-area",
        "method": "old-rod",
        "location": "ambrette-town",
        "conditions": []
    },
    {
        "minLevel": 15,
        "maxLevel": 15,
        "area": "shalour-city-area",
        "method": "old-rod",
        "location": "shalour-city",
        "conditions": []
    },
    {
        "minLevel": 15,
        "maxLevel": 15,
        "area": "shalour-city-area",
        "method": "old-rod",
        "location": "shalour-city",
        "conditions": []
    },
    {
        "minLevel": 15,
        "maxLevel": 15,
        "area": "shalour-city-area",
        "method": "old-rod",
        "location": "shalour-city",
        "conditions": []
    },
    {
        "minLevel": 15,
        "maxLevel": 15,
        "area": "kalos-route-12-area",
        "method": "old-rod",
        "location": "kalos-route-12",
        "conditions": []
    },
    {
        "minLevel": 15,
        "maxLevel": 15,
        "area": "kalos-route-12-area",
        "method": "old-rod",
        "location": "kalos-route-12",
        "conditions": []
    },
    {
        "minLevel": 15,
        "maxLevel": 15,
        "area": "kalos-route-12-area",
        "method": "old-rod",
        "location": "kalos-route-12",
        "conditions": []
    },
    {
        "minLevel": 15,
        "maxLevel": 15,
        "area": "azure-bay-area",
        "method": "old-rod",
        "location": "azure-bay",
        "conditions": []
    },
    {
        "minLevel": 15,
        "maxLevel": 15,
        "area": "azure-bay-area",
        "method": "old-rod",
        "location": "azure-bay",
        "conditions": []
    },
    {
        "minLevel": 15,
        "maxLevel": 15,
        "area": "azure-bay-area",
        "method": "old-rod",
        "location": "azure-bay",
        "conditions": []
    }
]