[
    {
        "minLevel": 37,
        "maxLevel": 37,
        "area": "lost-hotel-area",
        "method": "walk",
        "location": "lost-hotel",
        "conditions": []
    },
    {
        "minLevel": 38,
        "maxLevel": 38,
        "area": "lost-hotel-area",
        "method": "walk",
        "location": "lost-hotel",
        "conditions": []
    }
]