[
    {
        "minLevel": 27,
        "maxLevel": 27,
        "area": "shalour-city-area",
        "method": "surf",
        "location": "shalour-city",
        "conditions": []
    },
    {
        "minLevel": 27,
        "maxLevel": 27,
        "area": "shalour-city-area",
        "method": "surf",
        "location": "shalour-city",
        "conditions": []
    },
    {
        "minLevel": 27,
        "maxLevel": 27,
        "area": "kalos-route-12-area",
        "method": "surf",
        "location": "kalos-route-12",
        "conditions": []
    },
    {
        "minLevel": 27,
        "maxLevel": 27,
        "area": "azure-bay-area",
        "method": "surf",
        "location": "azure-bay",
        "conditions": []
    }
]