[
    {
        "minLevel": 13,
        "maxLevel": 13,
        "area": "connecting-cave-area",
        "method": "walk",
        "location": "connecting-cave",
        "conditions": []
    },
    {
        "minLevel": 14,
        "maxLevel": 14,
        "area": "connecting-cave-area",
        "method": "walk",
        "location": "connecting-cave",
        "conditions": []
    },
    {
        "minLevel": 15,
        "maxLevel": 15,
        "area": "connecting-cave-area",
        "method": "walk",
        "location": "connecting-cave",
        "conditions": []
    }
]