[
    {
        "minLevel": 8,
        "maxLevel": 8,
        "area": "kalos-route-4-area",
        "method": "yellow-flowers",
        "location": "kalos-route-4",
        "conditions": []
    },
    {
        "minLevel": 8,
        "maxLevel": 8,
        "area": "kalos-route-4-area",
        "method": "red-flowers",
        "location": "kalos-route-4",
        "conditions": []
    }
]