[
    {
        "minLevel": 50,
        "maxLevel": 50,
        "area": "kalos-route-20-area",
        "method": "walk",
        "location": "kalos-route-20",
        "conditions": []
    },
    {
        "minLevel": 48,
        "maxLevel": 48,
        "area": "kalos-route-20-area",
        "method": "red-flowers",
        "location": "kalos-route-20",
        "conditions": []
    },
    {
        "minLevel": 49,
        "maxLevel": 49,
        "area": "kalos-route-20-area",
        "method": "red-flowers",
        "location": "kalos-route-20",
        "conditions": []
    }
]