[
    {
        "minLevel": 18,
        "maxLevel": 18,
        "area": "digletts-cave-area",
        "method": "walk",
        "location": "digletts-cave",
        "conditions": []
    },
    {
        "minLevel": 19,
        "maxLevel": 19,
        "area": "digletts-cave-area",
        "method": "walk",
        "location": "digletts-cave",
        "conditions": []
    },
    {
        "minLevel": 17,
        "maxLevel": 17,
        "area": "digletts-cave-area",
        "method": "walk",
        "location": "digletts-cave",
        "conditions": []
    },
    {
        "minLevel": 15,
        "maxLevel": 15,
        "area": "digletts-cave-area",
        "method": "walk",
        "location": "digletts-cave",
        "conditions": []
    },
    {
        "minLevel": 16,
        "maxLevel": 16,
        "area": "digletts-cave-area",
        "method": "walk",
        "location": "digletts-cave",
        "conditions": []
    },
    {
        "minLevel": 20,
        "maxLevel": 20,
        "area": "digletts-cave-area",
        "method": "walk",
        "location": "digletts-cave",
        "conditions": []
    },
    {
        "minLevel": 21,
        "maxLevel": 21,
        "area": "digletts-cave-area",
        "method": "walk",
        "location": "digletts-cave",
        "conditions": []
    },
    {
        "minLevel": 22,
        "maxLevel": 22,
        "area": "digletts-cave-area",
        "method": "walk",
        "location": "digletts-cave",
        "conditions": []
    },
    {
        "minLevel": 17,
        "maxLevel": 17,
        "area": "digletts-cave-area",
        "method": "walk",
        "location": "digletts-cave",
        "conditions": []
    },
    {
        "minLevel": 17,
        "maxLevel": 17,
        "area": "digletts-cave-area",
        "method": "walk",
        "location": "digletts-cave",
        "conditions": []
    }
]