[
    {
        "minLevel": 11,
        "maxLevel": 11,
        "area": "kanto-route-11-area",
        "method": "walk",
        "location": "kanto-route-11",
        "conditions": []
    },
    {
        "minLevel": 13,
        "maxLevel": 13,
        "area": "kanto-route-11-area",
        "method": "walk",
        "location": "kanto-route-11",
        "conditions": []
    },
    {
        "minLevel": 15,
        "maxLevel": 15,
        "area": "kanto-route-11-area",
        "method": "walk",
        "location": "kanto-route-11",
        "conditions": []
    },
    {
        "minLevel": 15,
        "maxLevel": 15,
        "area": "kanto-route-11-area",
        "method": "walk",
        "location": "kanto-route-11",
        "conditions": []
    },
    {
        "minLevel": 34,
        "maxLevel": 34,
        "area": "berry-forest-area",
        "method": "walk",
        "location": "berry-forest",
        "conditions": []
    }
]