[
    {
        "minLevel": 15,
        "maxLevel": 25,
        "area": "cerulean-city-area",
        "method": "super-rod",
        "location": "cerulean-city",
        "conditions": []
    },
    {
        "minLevel": 15,
        "maxLevel": 25,
        "area": "cinnabar-island-area",
        "method": "super-rod",
        "location": "cinnabar-island",
        "conditions": []
    },
    {
        "minLevel": 15,
        "maxLevel": 25,
        "area": "fuchsia-city-area",
        "method": "super-rod",
        "location": "fuchsia-city",
        "conditions": []
    },
    {
        "minLevel": 15,
        "maxLevel": 25,
        "area": "pallet-town-area",
        "method": "super-rod",
        "location": "pallet-town",
        "conditions": []
    },
    {
        "minLevel": 15,
        "maxLevel": 25,
        "area": "kanto-route-10-area",
        "method": "super-rod",
        "location": "kanto-route-10",
        "conditions": []
    },
    {
        "minLevel": 15,
        "maxLevel": 25,
        "area": "kanto-route-11-area",
        "method": "super-rod",
        "location": "kanto-route-11",
        "conditions": []
    },
    {
        "minLevel": 15,
        "maxLevel": 25,
        "area": "kanto-route-12-area",
        "method": "super-rod",
        "location": "kanto-route-12",
        "conditions": []
    },
    {
        "minLevel": 15,
        "maxLevel": 25,
        "area": "kanto-route-13-area",
        "method": "super-rod",
        "location": "kanto-route-13",
        "conditions": []
    },
    {
        "minLevel": 15,
        "maxLevel": 25,
        "area": "kanto-sea-route-19-area",
        "method": "super-rod",
        "location": "kanto-sea-route-19",
        "conditions": []
    },
    {
        "minLevel": 15,
        "maxLevel": 25,
        "area": "kanto-sea-route-20-area",
        "method": "super-rod",
        "location": "kanto-sea-route-20",
        "conditions": []
    },
    {
        "minLevel": 15,
        "maxLevel": 25,
        "area": "kanto-sea-route-21-area",
        "method": "super-rod",
        "location": "kanto-sea-route-21",
        "conditions": []
    },
    {
        "minLevel": 15,
        "maxLevel": 25,
        "area": "kanto-route-22-area",
        "method": "super-rod",
        "location": "kanto-route-22",
        "conditions": []
    },
    {
        "minLevel": 15,
        "maxLevel": 25,
        "area": "kanto-route-24-area",
        "method": "super-rod",
        "location": "kanto-route-24",
        "conditions": []
    },
    {
        "minLevel": 15,
        "maxLevel": 25,
        "area": "kanto-route-25-area",
        "method": "super-rod",
        "location": "kanto-route-25",
        "conditions": []
    },
    {
        "minLevel": 15,
        "maxLevel": 25,
        "area": "kanto-route-4-area",
        "method": "super-rod",
        "location": "kanto-route-4",
        "conditions": []
    },
    {
        "minLevel": 15,
        "maxLevel": 25,
        "area": "kanto-route-6-area",
        "method": "super-rod",
        "location": "kanto-route-6",
        "conditions": []
    },
    {
        "minLevel": 15,
        "maxLevel": 25,
        "area": "seafoam-islands-b3f",
        "method": "super-rod",
        "location": "seafoam-islands",
        "conditions": []
    },
    {
        "minLevel": 25,
        "maxLevel": 35,
        "area": "seafoam-islands-b3f",
        "method": "super-rod",
        "location": "seafoam-islands",
        "conditions": []
    },
    {
        "minLevel": 15,
        "maxLevel": 25,
        "area": "seafoam-islands-b4f",
        "method": "super-rod",
        "location": "seafoam-islands",
        "conditions": []
    },
    {
        "minLevel": 25,
        "maxLevel": 35,
        "area": "seafoam-islands-b4f",
        "method": "super-rod",
        "location": "seafoam-islands",
        "conditions": []
    },
    {
        "minLevel": 15,
        "maxLevel": 25,
        "area": "cerulean-cave-1f",
        "method": "super-rod",
        "location": "cerulean-cave",
        "conditions": []
    },
    {
        "minLevel": 15,
        "maxLevel": 25,
        "area": "cerulean-cave-b1f",
        "method": "super-rod",
        "location": "cerulean-cave",
        "conditions": []
    },
    {
        "minLevel": 25,
        "maxLevel": 35,
        "area": "cerulean-cave-b1f",
        "method": "super-rod",
        "location": "cerulean-cave",
        "conditions": []
    },
    {
        "minLevel": 15,
        "maxLevel": 25,
        "area": "vermilion-city-area",
        "method": "super-rod",
        "location": "vermilion-city",
        "conditions": []
    },
    {
        "minLevel": 15,
        "maxLevel": 25,
        "area": "viridian-city-area",
        "method": "super-rod",
        "location": "viridian-city",
        "conditions": []
    },
    {
        "minLevel": 15,
        "maxLevel": 25,
        "area": "kanto-route-23-area",
        "method": "super-rod",
        "location": "kanto-route-23",
        "conditions": []
    },
    {
        "minLevel": 15,
        "maxLevel": 25,
        "area": "ss-anne-area",
        "method": "super-rod",
        "location": "ss-anne",
        "conditions": []
    },
    {
        "minLevel": 15,
        "maxLevel": 25,
        "area": "berry-forest-area",
        "method": "super-rod",
        "location": "berry-forest",
        "conditions": []
    },
    {
        "minLevel": 15,
        "maxLevel": 25,
        "area": "icefall-cave-entrance",
        "method": "super-rod",
        "location": "icefall-cave",
        "conditions": []
    },
    {
        "minLevel": 15,
        "maxLevel": 25,
        "area": "icefall-cave-waterfall",
        "method": "super-rod",
        "location": "icefall-cave",
        "conditions": []
    },
    {
        "minLevel": 15,
        "maxLevel": 25,
        "area": "kindle-road-area",
        "method": "super-rod",
        "location": "kindle-road",
        "conditions": []
    },
    {
        "minLevel": 15,
        "maxLevel": 25,
        "area": "treasure-beach-area",
        "method": "super-rod",
        "location": "treasure-beach",
        "conditions": []
    },
    {
        "minLevel": 15,
        "maxLevel": 25,
        "area": "cape-brink-area",
        "method": "super-rod",
        "location": "cape-brink",
        "conditions": []
    },
    {
        "minLevel": 15,
        "maxLevel": 25,
        "area": "bond-bridge-area",
        "method": "super-rod",
        "location": "bond-bridge",
        "conditions": []
    },
    {
        "minLevel": 15,
        "maxLevel": 25,
        "area": "resort-gorgeous-area",
        "method": "super-rod",
        "location": "resort-gorgeous",
        "conditions": []
    },
    {
        "minLevel": 15,
        "maxLevel": 25,
        "area": "water-labyrinth-area",
        "method": "super-rod",
        "location": "water-labyrinth",
        "conditions": []
    },
    {
        "minLevel": 15,
        "maxLevel": 25,
        "area": "five-isle-meadow-area",
        "method": "super-rod",
        "location": "five-isle-meadow",
        "conditions": []
    },
    {
        "minLevel": 15,
        "maxLevel": 25,
        "area": "memorial-pillar-area",
        "method": "super-rod",
        "location": "memorial-pillar",
        "conditions": []
    },
    {
        "minLevel": 15,
        "maxLevel": 25,
        "area": "outcast-island-area",
        "method": "super-rod",
        "location": "outcast-island",
        "conditions": []
    },
    {
        "minLevel": 15,
        "maxLevel": 25,
        "area": "green-path-area",
        "method": "super-rod",
        "location": "green-path",
        "conditions": []
    },
    {
        "minLevel": 15,
        "maxLevel": 25,
        "area": "water-path-area",
        "method": "super-rod",
        "location": "water-path",
        "conditions": []
    },
    {
        "minLevel": 15,
        "maxLevel": 25,
        "area": "ruin-valley-area",
        "method": "super-rod",
        "location": "ruin-valley",
        "conditions": []
    },
    {
        "minLevel": 15,
        "maxLevel": 25,
        "area": "trainer-tower-area",
        "method": "super-rod",
        "location": "trainer-tower",
        "conditions": []
    },
    {
        "minLevel": 15,
        "maxLevel": 25,
        "area": "tanoby-ruins-area",
        "method": "super-rod",
        "location": "tanoby-ruins",
        "conditions": []
    },
    {
        "minLevel": 15,
        "maxLevel": 25,
        "area": "one-island-area",
        "method": "super-rod",
        "location": "one-island",
        "conditions": []
    },
    {
        "minLevel": 15,
        "maxLevel": 25,
        "area": "four-island-area",
        "method": "super-rod",
        "location": "four-island",
        "conditions": []
    },
    {
        "minLevel": 15,
        "maxLevel": 25,
        "area": "five-island-area",
        "method": "super-rod",
        "location": "five-island",
        "conditions": []
    }
]