[
    {
        "minLevel": 15,
        "maxLevel": 15,
        "area": "pattern-bush-area",
        "method": "walk",
        "location": "pattern-bush",
        "conditions": []
    },
    {
        "minLevel": 20,
        "maxLevel": 20,
        "area": "pattern-bush-area",
        "method": "walk",
        "location": "pattern-bush",
        "conditions": []
    },
    {
        "minLevel": 25,
        "maxLevel": 25,
        "area": "pattern-bush-area",
        "method": "walk",
        "location": "pattern-bush",
        "conditions": []
    },
    {
        "minLevel": 30,
        "maxLevel": 30,
        "area": "pattern-bush-area",
        "method": "walk",
        "location": "pattern-bush",
        "conditions": []
    }
]