[
    {
        "minLevel": 9,
        "maxLevel": 9,
        "area": "pattern-bush-area",
        "method": "walk",
        "location": "pattern-bush",
        "conditions": []
    },
    {
        "minLevel": 14,
        "maxLevel": 14,
        "area": "pattern-bush-area",
        "method": "walk",
        "location": "pattern-bush",
        "conditions": []
    }
]