[
    {
        "minLevel": 10,
        "maxLevel": 10,
        "area": "kanto-route-5-area",
        "method": "walk",
        "location": "kanto-route-5",
        "conditions": []
    },
    {
        "minLevel": 12,
        "maxLevel": 12,
        "area": "kanto-route-5-area",
        "method": "walk",
        "location": "kanto-route-5",
        "conditions": []
    },
    {
        "minLevel": 14,
        "maxLevel": 14,
        "area": "kanto-route-5-area",
        "method": "walk",
        "location": "kanto-route-5",
        "conditions": []
    },
    {
        "minLevel": 16,
        "maxLevel": 16,
        "area": "kanto-route-5-area",
        "method": "walk",
        "location": "kanto-route-5",
        "conditions": []
    },
    {
        "minLevel": 10,
        "maxLevel": 10,
        "area": "kanto-route-6-area",
        "method": "walk",
        "location": "kanto-route-6",
        "conditions": []
    },
    {
        "minLevel": 12,
        "maxLevel": 12,
        "area": "kanto-route-6-area",
        "method": "walk",
        "location": "kanto-route-6",
        "conditions": []
    },
    {
        "minLevel": 14,
        "maxLevel": 14,
        "area": "kanto-route-6-area",
        "method": "walk",
        "location": "kanto-route-6",
        "conditions": []
    },
    {
        "minLevel": 16,
        "maxLevel": 16,
        "area": "kanto-route-6-area",
        "method": "walk",
        "location": "kanto-route-6",
        "conditions": []
    },
    {
        "minLevel": 17,
        "maxLevel": 17,
        "area": "kanto-route-7-area",
        "method": "walk",
        "location": "kanto-route-7",
        "conditions": []
    },
    {
        "minLevel": 18,
        "maxLevel": 18,
        "area": "kanto-route-7-area",
        "method": "walk",
        "location": "kanto-route-7",
        "conditions": []
    },
    {
        "minLevel": 17,
        "maxLevel": 17,
        "area": "kanto-route-7-area",
        "method": "walk",
        "location": "kanto-route-7",
        "conditions": []
    },
    {
        "minLevel": 19,
        "maxLevel": 19,
        "area": "kanto-route-7-area",
        "method": "walk",
        "location": "kanto-route-7",
        "conditions": []
    },
    {
        "minLevel": 17,
        "maxLevel": 17,
        "area": "kanto-route-7-area",
        "method": "walk",
        "location": "kanto-route-7",
        "conditions": []
    },
    {
        "minLevel": 20,
        "maxLevel": 20,
        "area": "kanto-route-7-area",
        "method": "walk",
        "location": "kanto-route-7",
        "conditions": []
    },
    {
        "minLevel": 18,
        "maxLevel": 18,
        "area": "kanto-route-8-area",
        "method": "walk",
        "location": "kanto-route-8",
        "conditions": []
    },
    {
        "minLevel": 20,
        "maxLevel": 20,
        "area": "kanto-route-8-area",
        "method": "walk",
        "location": "kanto-route-8",
        "conditions": []
    },
    {
        "minLevel": 31,
        "maxLevel": 31,
        "area": "kindle-road-area",
        "method": "walk",
        "location": "kindle-road",
        "conditions": []
    },
    {
        "minLevel": 31,
        "maxLevel": 31,
        "area": "treasure-beach-area",
        "method": "walk",
        "location": "treasure-beach",
        "conditions": []
    },
    {
        "minLevel": 31,
        "maxLevel": 31,
        "area": "cape-brink-area",
        "method": "walk",
        "location": "cape-brink",
        "conditions": []
    },
    {
        "minLevel": 31,
        "maxLevel": 31,
        "area": "bond-bridge-area",
        "method": "walk",
        "location": "bond-bridge",
        "conditions": []
    },
    {
        "minLevel": 41,
        "maxLevel": 41,
        "area": "five-isle-meadow-area",
        "method": "walk",
        "location": "five-isle-meadow",
        "conditions": []
    },
    {
        "minLevel": 41,
        "maxLevel": 41,
        "area": "water-path-area",
        "method": "walk",
        "location": "water-path",
        "conditions": []
    },
    {
        "minLevel": 43,
        "maxLevel": 43,
        "area": "ruin-valley-area",
        "method": "walk",
        "location": "ruin-valley",
        "conditions": []
    },
    {
        "minLevel": 41,
        "maxLevel": 41,
        "area": "canyon-entrance-area",
        "method": "walk",
        "location": "canyon-entrance",
        "conditions": []
    },
    {
        "minLevel": 43,
        "maxLevel": 43,
        "area": "sevault-canyon-area",
        "method": "walk",
        "location": "sevault-canyon",
        "conditions": []
    }
]