[
    {
        "minLevel": 15,
        "maxLevel": 15,
        "area": "ruin-valley-area",
        "method": "walk",
        "location": "ruin-valley",
        "conditions": []
    },
    {
        "minLevel": 20,
        "maxLevel": 20,
        "area": "ruin-valley-area",
        "method": "walk",
        "location": "ruin-valley",
        "conditions": []
    },
    {
        "minLevel": 20,
        "maxLevel": 20,
        "area": "ruin-valley-area",
        "method": "walk",
        "location": "ruin-valley",
        "conditions": []
    }
]