[
    {
        "minLevel": 6,
        "maxLevel": 6,
        "area": "kanto-route-3-area",
        "method": "walk",
        "location": "kanto-route-3",
        "conditions": []
    },
    {
        "minLevel": 7,
        "maxLevel": 7,
        "area": "kanto-route-3-area",
        "method": "walk",
        "location": "kanto-route-3",
        "conditions": []
    },
    {
        "minLevel": 22,
        "maxLevel": 22,
        "area": "kanto-safari-zone-middle",
        "method": "walk",
        "location": "kanto-safari-zone",
        "conditions": []
    },
    {
        "minLevel": 24,
        "maxLevel": 24,
        "area": "kanto-safari-zone-area-1-east",
        "method": "walk",
        "location": "kanto-safari-zone",
        "conditions": []
    },
    {
        "minLevel": 30,
        "maxLevel": 30,
        "area": "kanto-safari-zone-area-2-north",
        "method": "walk",
        "location": "kanto-safari-zone",
        "conditions": []
    },
    {
        "minLevel": 22,
        "maxLevel": 22,
        "area": "kanto-safari-zone-area-3-west",
        "method": "walk",
        "location": "kanto-safari-zone",
        "conditions": []
    }
]