[
    {
        "minLevel": 3,
        "maxLevel": 3,
        "area": "viridian-forest-area",
        "method": "walk",
        "location": "viridian-forest",
        "conditions": []
    },
    {
        "minLevel": 5,
        "maxLevel": 5,
        "area": "viridian-forest-area",
        "method": "walk",
        "location": "viridian-forest",
        "conditions": []
    },
    {
        "minLevel": 22,
        "maxLevel": 22,
        "area": "power-plant-area",
        "method": "walk",
        "location": "power-plant",
        "conditions": []
    },
    {
        "minLevel": 24,
        "maxLevel": 24,
        "area": "power-plant-area",
        "method": "walk",
        "location": "power-plant",
        "conditions": []
    },
    {
        "minLevel": 26,
        "maxLevel": 26,
        "area": "power-plant-area",
        "method": "walk",
        "location": "power-plant",
        "conditions": []
    },
    {
        "minLevel": 26,
        "maxLevel": 26,
        "area": "power-plant-area",
        "method": "walk",
        "location": "power-plant",
        "conditions": []
    }
]