[
    {
        "minLevel": 15,
        "maxLevel": 25,
        "area": "resort-gorgeous-area",
        "method": "super-rod",
        "location": "resort-gorgeous",
        "conditions": []
    },
    {
        "minLevel": 15,
        "maxLevel": 25,
        "area": "water-labyrinth-area",
        "method": "super-rod",
        "location": "water-labyrinth",
        "conditions": []
    },
    {
        "minLevel": 15,
        "maxLevel": 25,
        "area": "five-isle-meadow-area",
        "method": "super-rod",
        "location": "five-isle-meadow",
        "conditions": []
    },
    {
        "minLevel": 15,
        "maxLevel": 25,
        "area": "memorial-pillar-area",
        "method": "super-rod",
        "location": "memorial-pillar",
        "conditions": []
    },
    {
        "minLevel": 15,
        "maxLevel": 25,
        "area": "outcast-island-area",
        "method": "super-rod",
        "location": "outcast-island",
        "conditions": []
    },
    {
        "minLevel": 15,
        "maxLevel": 25,
        "area": "green-path-area",
        "method": "super-rod",
        "location": "green-path",
        "conditions": []
    },
    {
        "minLevel": 15,
        "maxLevel": 25,
        "area": "water-path-area",
        "method": "super-rod",
        "location": "water-path",
        "conditions": []
    },
    {
        "minLevel": 15,
        "maxLevel": 25,
        "area": "trainer-tower-area",
        "method": "super-rod",
        "location": "trainer-tower",
        "conditions": []
    },
    {
        "minLevel": 15,
        "maxLevel": 25,
        "area": "tanoby-ruins-area",
        "method": "super-rod",
        "location": "tanoby-ruins",
        "conditions": []
    }
]