[
    {
        "minLevel": 25,
        "maxLevel": 25,
        "area": "kanto-safari-zone-middle",
        "method": "walk",
        "location": "kanto-safari-zone",
        "conditions": []
    },
    {
        "minLevel": 26,
        "maxLevel": 26,
        "area": "kanto-safari-zone-area-2-north",
        "method": "walk",
        "location": "kanto-safari-zone",
        "conditions": []
    }
]