[
    {
        "minLevel": 20,
        "maxLevel": 30,
        "area": "fuchsia-city-area",
        "method": "super-rod",
        "location": "fuchsia-city",
        "conditions": []
    },
    {
        "minLevel": 20,
        "maxLevel": 30,
        "area": "kanto-safari-zone-middle",
        "method": "super-rod",
        "location": "kanto-safari-zone",
        "conditions": []
    },
    {
        "minLevel": 20,
        "maxLevel": 30,
        "area": "kanto-safari-zone-area-1-east",
        "method": "super-rod",
        "location": "kanto-safari-zone",
        "conditions": []
    },
    {
        "minLevel": 20,
        "maxLevel": 30,
        "area": "kanto-safari-zone-area-2-north",
        "method": "super-rod",
        "location": "kanto-safari-zone",
        "conditions": []
    },
    {
        "minLevel": 20,
        "maxLevel": 30,
        "area": "kanto-safari-zone-area-3-west",
        "method": "super-rod",
        "location": "kanto-safari-zone",
        "conditions": []
    },
    {
        "minLevel": 20,
        "maxLevel": 30,
        "area": "berry-forest-area",
        "method": "super-rod",
        "location": "berry-forest",
        "conditions": []
    }
]