[
    {
        "minLevel": 22,
        "maxLevel": 22,
        "area": "kanto-sea-route-21-area",
        "method": "walk",
        "location": "kanto-sea-route-21",
        "conditions": []
    },
    {
        "minLevel": 23,
        "maxLevel": 23,
        "area": "kanto-sea-route-21-area",
        "method": "walk",
        "location": "kanto-sea-route-21",
        "conditions": []
    },
    {
        "minLevel": 24,
        "maxLevel": 24,
        "area": "kanto-sea-route-21-area",
        "method": "walk",
        "location": "kanto-sea-route-21",
        "conditions": []
    },
    {
        "minLevel": 21,
        "maxLevel": 21,
        "area": "kanto-sea-route-21-area",
        "method": "walk",
        "location": "kanto-sea-route-21",
        "conditions": []
    },
    {
        "minLevel": 25,
        "maxLevel": 25,
        "area": "kanto-sea-route-21-area",
        "method": "walk",
        "location": "kanto-sea-route-21",
        "conditions": []
    },
    {
        "minLevel": 20,
        "maxLevel": 20,
        "area": "kanto-sea-route-21-area",
        "method": "walk",
        "location": "kanto-sea-route-21",
        "conditions": []
    },
    {
        "minLevel": 19,
        "maxLevel": 19,
        "area": "kanto-sea-route-21-area",
        "method": "walk",
        "location": "kanto-sea-route-21",
        "conditions": []
    },
    {
        "minLevel": 26,
        "maxLevel": 26,
        "area": "kanto-sea-route-21-area",
        "method": "walk",
        "location": "kanto-sea-route-21",
        "conditions": []
    },
    {
        "minLevel": 18,
        "maxLevel": 18,
        "area": "kanto-sea-route-21-area",
        "method": "walk",
        "location": "kanto-sea-route-21",
        "conditions": []
    },
    {
        "minLevel": 27,
        "maxLevel": 27,
        "area": "kanto-sea-route-21-area",
        "method": "walk",
        "location": "kanto-sea-route-21",
        "conditions": []
    },
    {
        "minLevel": 17,
        "maxLevel": 17,
        "area": "kanto-sea-route-21-area",
        "method": "walk",
        "location": "kanto-sea-route-21",
        "conditions": []
    },
    {
        "minLevel": 28,
        "maxLevel": 28,
        "area": "kanto-sea-route-21-area",
        "method": "walk",
        "location": "kanto-sea-route-21",
        "conditions": []
    },
    {
        "minLevel": 33,
        "maxLevel": 33,
        "area": "treasure-beach-area",
        "method": "walk",
        "location": "treasure-beach",
        "conditions": []
    },
    {
        "minLevel": 35,
        "maxLevel": 35,
        "area": "treasure-beach-area",
        "method": "walk",
        "location": "treasure-beach",
        "conditions": []
    }
]