{
    "name": "hoenn",
    "locations": [
        "petalburg-city",
        "slateport-city",
        "lilycove-city",
        "mossdeep-city",
        "sootopolis-city",
        "ever-grande-city",
        "meteor-falls",
        "rusturf-tunnel",
        "granite-cave",
        "petalburg-woods",
        "jagged-pass",
        "fiery-path",
        "mt-pyre",
        "seafloor-cavern",
        "cave-of-origin",
        "hoenn-victory-road",
        "shoal-cave",
        "new-mauville",
        "abandoned-ship",
        "sky-pillar",
        "hoenn-route-101",
        "hoenn-route-102",
        "hoenn-route-103",
        "hoenn-route-104",
        "hoenn-route-105",
        "hoenn-route-106",
        "hoenn-route-107",
        "hoenn-route-108",
        "hoenn-route-109",
        "hoenn-route-110",
        "hoenn-route-111",
        "hoenn-route-112",
        "hoenn-route-113",
        "hoenn-route-114",
        "hoenn-route-115",
        "hoenn-route-116",
        "hoenn-route-117",
        "hoenn-route-118",
        "hoenn-route-119",
        "hoenn-route-120",
        "hoenn-route-121",
        "hoenn-route-122",
        "hoenn-route-123",
        "hoenn-route-124",
        "hoenn-route-125",
        "hoenn-route-126",
        "hoenn-route-127",
        "hoenn-route-128",
        "hoenn-route-129",
        "hoenn-route-130",
        "hoenn-route-131",
        "hoenn-route-132",
        "hoenn-route-133",
        "hoenn-route-134",
        "hoenn-safari-zone",
        "dewford-town",
        "pacifidlog-town",
        "magma-hideout",
        "mirage-tower",
        "desert-underpass",
        "artisan-cave",
        "hoenn-altering-cave",
        "littleroot-town",
        "oldale-town",
        "lavaridge-town",
        "fallarbor-town",
        "verdanturf-town",
        "mauville-city",
        "rustboro-city",
        "fortree-city",
        "underwater",
        "mt-chimney",
        "mirage-island",
        "southern-island",
        "sealed-chamber",
        "scorched-slab",
        "island-cave",
        "desert-ruins",
        "ancient-tomb",
        "inside-of-truck",
        "secret-base",
        "hoenn-battle-tower",
        "hoenn-pokemon-league",
        "team-aqua-hideout",
        "sea-mauville",
        "team-magma-hideout",
        "battle-resort",
        "ss-tidal",
        "mirage-forest",
        "mirage-cave",
        "mirage-mountain",
        "trackless-forest",
        "pathless-plain",
        "nameless-cavern",
        "fabled-cave",
        "gnarled-den",
        "crescent-isle",
        "secret-islet",
        "soaring-in-the-sky",
        "secret-shore",
        "secret-meadow"
    ],
    "id": 3
}