{
    "encounters": [
        "poliwag",
        "poliwhirl",
        "politoed",
        "dunsparce",
        "altaria",
        "buizel",
        "floatzel",
        "tranquill",
        "unfezant",
        "audino",
        "basculin-red-striped",
        "basculin-blue-striped"
    ],
    "id": "unova-victory-road-2-unknown-area-79"
}