{
    "name": "Ruines Bonville",
    "areas": [
        "solaceon-ruins-2f",
        "solaceon-ruins-1f",
        "solaceon-ruins-b1f-a",
        "solaceon-ruins-b1f-b",
        "solaceon-ruins-b1f-c",
        "solaceon-ruins-b2f-a",
        "solaceon-ruins-b2f-b",
        "solaceon-ruins-b2f-c",
        "solaceon-ruins-b3f-a",
        "solaceon-ruins-b3f-b",
        "solaceon-ruins-b3f-c",
        "solaceon-ruins-b3f-d",
        "solaceon-ruins-b3f-e",
        "solaceon-ruins-b4f-a",
        "solaceon-ruins-b4f-b",
        "solaceon-ruins-b4f-c",
        "solaceon-ruins-b4f-d",
        "solaceon-ruins-b5f"
    ],
    "id": "solaceon-ruins"
}