[
    {
        "minLevel": 29,
        "maxLevel": 29,
        "area": "hoenn-safari-zone-nwmach-bike-area",
        "method": "walk",
        "location": "hoenn-safari-zone",
        "conditions": []
    },
    {
        "minLevel": 31,
        "maxLevel": 31,
        "area": "hoenn-safari-zone-nwmach-bike-area",
        "method": "walk",
        "location": "hoenn-safari-zone",
        "conditions": []
    }
]