[
    {
        "minLevel": 7,
        "maxLevel": 7,
        "area": "granite-cave-1f",
        "method": "walk",
        "location": "granite-cave",
        "conditions": []
    },
    {
        "minLevel": 8,
        "maxLevel": 8,
        "area": "granite-cave-1f",
        "method": "walk",
        "location": "granite-cave",
        "conditions": []
    },
    {
        "minLevel": 6,
        "maxLevel": 6,
        "area": "granite-cave-1f",
        "method": "walk",
        "location": "granite-cave",
        "conditions": []
    },
    {
        "minLevel": 9,
        "maxLevel": 9,
        "area": "granite-cave-1f",
        "method": "walk",
        "location": "granite-cave",
        "conditions": []
    },
    {
        "minLevel": 10,
        "maxLevel": 15,
        "area": "granite-cave-b2f",
        "method": "rock-smash",
        "location": "granite-cave",
        "conditions": []
    },
    {
        "minLevel": 5,
        "maxLevel": 10,
        "area": "granite-cave-b2f",
        "method": "rock-smash",
        "location": "granite-cave",
        "conditions": []
    },
    {
        "minLevel": 15,
        "maxLevel": 20,
        "area": "granite-cave-b2f",
        "method": "rock-smash",
        "location": "granite-cave",
        "conditions": []
    },
    {
        "minLevel": 15,
        "maxLevel": 20,
        "area": "granite-cave-b2f",
        "method": "rock-smash",
        "location": "granite-cave",
        "conditions": []
    },
    {
        "minLevel": 30,
        "maxLevel": 40,
        "area": "hoenn-victory-road-b1f",
        "method": "rock-smash",
        "location": "hoenn-victory-road",
        "conditions": []
    },
    {
        "minLevel": 10,
        "maxLevel": 15,
        "area": "hoenn-route-111-area",
        "method": "rock-smash",
        "location": "hoenn-route-111",
        "conditions": []
    },
    {
        "minLevel": 5,
        "maxLevel": 10,
        "area": "hoenn-route-111-area",
        "method": "rock-smash",
        "location": "hoenn-route-111",
        "conditions": []
    },
    {
        "minLevel": 15,
        "maxLevel": 20,
        "area": "hoenn-route-111-area",
        "method": "rock-smash",
        "location": "hoenn-route-111",
        "conditions": []
    },
    {
        "minLevel": 15,
        "maxLevel": 20,
        "area": "hoenn-route-111-area",
        "method": "rock-smash",
        "location": "hoenn-route-111",
        "conditions": []
    },
    {
        "minLevel": 15,
        "maxLevel": 20,
        "area": "hoenn-route-111-area",
        "method": "rock-smash",
        "location": "hoenn-route-111",
        "conditions": []
    },
    {
        "minLevel": 10,
        "maxLevel": 15,
        "area": "hoenn-route-114-area",
        "method": "rock-smash",
        "location": "hoenn-route-114",
        "conditions": []
    },
    {
        "minLevel": 5,
        "maxLevel": 10,
        "area": "hoenn-route-114-area",
        "method": "rock-smash",
        "location": "hoenn-route-114",
        "conditions": []
    },
    {
        "minLevel": 15,
        "maxLevel": 20,
        "area": "hoenn-route-114-area",
        "method": "rock-smash",
        "location": "hoenn-route-114",
        "conditions": []
    },
    {
        "minLevel": 15,
        "maxLevel": 20,
        "area": "hoenn-route-114-area",
        "method": "rock-smash",
        "location": "hoenn-route-114",
        "conditions": []
    },
    {
        "minLevel": 15,
        "maxLevel": 20,
        "area": "hoenn-route-114-area",
        "method": "rock-smash",
        "location": "hoenn-route-114",
        "conditions": []
    },
    {
        "minLevel": 10,
        "maxLevel": 15,
        "area": "hoenn-safari-zone-neacro-bike-area",
        "method": "rock-smash",
        "location": "hoenn-safari-zone",
        "conditions": []
    },
    {
        "minLevel": 5,
        "maxLevel": 10,
        "area": "hoenn-safari-zone-neacro-bike-area",
        "method": "rock-smash",
        "location": "hoenn-safari-zone",
        "conditions": []
    },
    {
        "minLevel": 15,
        "maxLevel": 20,
        "area": "hoenn-safari-zone-neacro-bike-area",
        "method": "rock-smash",
        "location": "hoenn-safari-zone",
        "conditions": []
    },
    {
        "minLevel": 20,
        "maxLevel": 25,
        "area": "hoenn-safari-zone-neacro-bike-area",
        "method": "rock-smash",
        "location": "hoenn-safari-zone",
        "conditions": []
    },
    {
        "minLevel": 25,
        "maxLevel": 30,
        "area": "hoenn-safari-zone-neacro-bike-area",
        "method": "rock-smash",
        "location": "hoenn-safari-zone",
        "conditions": []
    },
    {
        "minLevel": 27,
        "maxLevel": 27,
        "area": "magma-hideout-area",
        "method": "walk",
        "location": "magma-hideout",
        "conditions": []
    },
    {
        "minLevel": 28,
        "maxLevel": 28,
        "area": "magma-hideout-area",
        "method": "walk",
        "location": "magma-hideout",
        "conditions": []
    },
    {
        "minLevel": 29,
        "maxLevel": 29,
        "area": "magma-hideout-area",
        "method": "walk",
        "location": "magma-hideout",
        "conditions": []
    },
    {
        "minLevel": 30,
        "maxLevel": 30,
        "area": "magma-hideout-area",
        "method": "walk",
        "location": "magma-hideout",
        "conditions": []
    },
    {
        "minLevel": 30,
        "maxLevel": 30,
        "area": "magma-hideout-area",
        "method": "walk",
        "location": "magma-hideout",
        "conditions": []
    }
]