[
    {
        "minLevel": 37,
        "maxLevel": 37,
        "area": "hoenn-safari-zone-expansion-south",
        "method": "walk",
        "location": "hoenn-safari-zone",
        "conditions": []
    },
    {
        "minLevel": 40,
        "maxLevel": 40,
        "area": "hoenn-safari-zone-expansion-south",
        "method": "walk",
        "location": "hoenn-safari-zone",
        "conditions": []
    }
]