[
    {
        "minLevel": 25,
        "maxLevel": 30,
        "area": "hoenn-route-132-area",
        "method": "super-rod",
        "location": "hoenn-route-132",
        "conditions": []
    },
    {
        "minLevel": 25,
        "maxLevel": 30,
        "area": "hoenn-route-133-area",
        "method": "super-rod",
        "location": "hoenn-route-133",
        "conditions": []
    },
    {
        "minLevel": 25,
        "maxLevel": 30,
        "area": "hoenn-route-134-area",
        "method": "super-rod",
        "location": "hoenn-route-134",
        "conditions": []
    }
]