[
    {
        "minLevel": 38,
        "maxLevel": 38,
        "area": "hoenn-victory-road-b1f",
        "method": "walk",
        "location": "hoenn-victory-road",
        "conditions": []
    },
    {
        "minLevel": 38,
        "maxLevel": 38,
        "area": "hoenn-victory-road-b1f",
        "method": "walk",
        "location": "hoenn-victory-road",
        "conditions": []
    },
    {
        "minLevel": 42,
        "maxLevel": 42,
        "area": "hoenn-victory-road-b2f",
        "method": "walk",
        "location": "hoenn-victory-road",
        "conditions": []
    },
    {
        "minLevel": 44,
        "maxLevel": 44,
        "area": "hoenn-victory-road-b2f",
        "method": "walk",
        "location": "hoenn-victory-road",
        "conditions": []
    }
]