[
    {
        "minLevel": 25,
        "maxLevel": 25,
        "area": "hoenn-route-120-area",
        "method": "walk",
        "location": "hoenn-route-120",
        "conditions": []
    },
    {
        "minLevel": 27,
        "maxLevel": 27,
        "area": "hoenn-route-120-area",
        "method": "walk",
        "location": "hoenn-route-120",
        "conditions": []
    },
    {
        "minLevel": 26,
        "maxLevel": 26,
        "area": "hoenn-route-121-area",
        "method": "walk",
        "location": "hoenn-route-121",
        "conditions": []
    },
    {
        "minLevel": 28,
        "maxLevel": 28,
        "area": "hoenn-route-121-area",
        "method": "walk",
        "location": "hoenn-route-121",
        "conditions": []
    },
    {
        "minLevel": 26,
        "maxLevel": 26,
        "area": "hoenn-route-123-area",
        "method": "walk",
        "location": "hoenn-route-123",
        "conditions": []
    },
    {
        "minLevel": 28,
        "maxLevel": 28,
        "area": "hoenn-route-123-area",
        "method": "walk",
        "location": "hoenn-route-123",
        "conditions": []
    }
]