[
    {
        "minLevel": 13,
        "maxLevel": 13,
        "area": "hoenn-route-110-area",
        "method": "walk",
        "location": "hoenn-route-110",
        "conditions": []
    },
    {
        "minLevel": 13,
        "maxLevel": 13,
        "area": "hoenn-route-117-area",
        "method": "walk",
        "location": "hoenn-route-117",
        "conditions": []
    },
    {
        "minLevel": 14,
        "maxLevel": 14,
        "area": "hoenn-route-117-area",
        "method": "walk",
        "location": "hoenn-route-117",
        "conditions": []
    },
    {
        "minLevel": 13,
        "maxLevel": 13,
        "area": "hoenn-route-117-area",
        "method": "walk",
        "location": "hoenn-route-117",
        "conditions": []
    },
    {
        "minLevel": 25,
        "maxLevel": 25,
        "area": "hoenn-route-119-area",
        "method": "walk",
        "location": "hoenn-route-119",
        "conditions": []
    },
    {
        "minLevel": 26,
        "maxLevel": 26,
        "area": "hoenn-route-119-area",
        "method": "walk",
        "location": "hoenn-route-119",
        "conditions": []
    },
    {
        "minLevel": 27,
        "maxLevel": 27,
        "area": "hoenn-route-119-area",
        "method": "walk",
        "location": "hoenn-route-119",
        "conditions": []
    },
    {
        "minLevel": 24,
        "maxLevel": 24,
        "area": "hoenn-route-119-area",
        "method": "walk",
        "location": "hoenn-route-119",
        "conditions": []
    },
    {
        "minLevel": 25,
        "maxLevel": 25,
        "area": "hoenn-route-120-area",
        "method": "walk",
        "location": "hoenn-route-120",
        "conditions": []
    },
    {
        "minLevel": 26,
        "maxLevel": 26,
        "area": "hoenn-route-120-area",
        "method": "walk",
        "location": "hoenn-route-120",
        "conditions": []
    },
    {
        "minLevel": 27,
        "maxLevel": 27,
        "area": "hoenn-route-120-area",
        "method": "walk",
        "location": "hoenn-route-120",
        "conditions": []
    },
    {
        "minLevel": 26,
        "maxLevel": 26,
        "area": "hoenn-route-121-area",
        "method": "walk",
        "location": "hoenn-route-121",
        "conditions": []
    },
    {
        "minLevel": 28,
        "maxLevel": 28,
        "area": "hoenn-route-121-area",
        "method": "walk",
        "location": "hoenn-route-121",
        "conditions": []
    },
    {
        "minLevel": 26,
        "maxLevel": 26,
        "area": "hoenn-route-123-area",
        "method": "walk",
        "location": "hoenn-route-123",
        "conditions": []
    },
    {
        "minLevel": 28,
        "maxLevel": 28,
        "area": "hoenn-route-123-area",
        "method": "walk",
        "location": "hoenn-route-123",
        "conditions": []
    },
    {
        "minLevel": 27,
        "maxLevel": 27,
        "area": "hoenn-safari-zone-nwmach-bike-area",
        "method": "walk",
        "location": "hoenn-safari-zone",
        "conditions": []
    },
    {
        "minLevel": 29,
        "maxLevel": 29,
        "area": "hoenn-safari-zone-nwmach-bike-area",
        "method": "walk",
        "location": "hoenn-safari-zone",
        "conditions": []
    },
    {
        "minLevel": 27,
        "maxLevel": 27,
        "area": "hoenn-safari-zone-neacro-bike-area",
        "method": "walk",
        "location": "hoenn-safari-zone",
        "conditions": []
    },
    {
        "minLevel": 29,
        "maxLevel": 29,
        "area": "hoenn-safari-zone-neacro-bike-area",
        "method": "walk",
        "location": "hoenn-safari-zone",
        "conditions": []
    },
    {
        "minLevel": 25,
        "maxLevel": 25,
        "area": "hoenn-safari-zone-sw",
        "method": "walk",
        "location": "hoenn-safari-zone",
        "conditions": []
    },
    {
        "minLevel": 27,
        "maxLevel": 27,
        "area": "hoenn-safari-zone-sw",
        "method": "walk",
        "location": "hoenn-safari-zone",
        "conditions": []
    },
    {
        "minLevel": 25,
        "maxLevel": 25,
        "area": "hoenn-safari-zone-se",
        "method": "walk",
        "location": "hoenn-safari-zone",
        "conditions": []
    },
    {
        "minLevel": 27,
        "maxLevel": 27,
        "area": "hoenn-safari-zone-se",
        "method": "walk",
        "location": "hoenn-safari-zone",
        "conditions": []
    }
]