[
    {
        "minLevel": 30,
        "maxLevel": 35,
        "area": "hoenn-safari-zone-expansion-south",
        "method": "good-rod",
        "location": "hoenn-safari-zone",
        "conditions": []
    },
    {
        "minLevel": 25,
        "maxLevel": 30,
        "area": "hoenn-safari-zone-expansion-south",
        "method": "super-rod",
        "location": "hoenn-safari-zone",
        "conditions": []
    },
    {
        "minLevel": 30,
        "maxLevel": 35,
        "area": "hoenn-safari-zone-expansion-south",
        "method": "super-rod",
        "location": "hoenn-safari-zone",
        "conditions": []
    },
    {
        "minLevel": 30,
        "maxLevel": 35,
        "area": "hoenn-safari-zone-expansion-south",
        "method": "super-rod",
        "location": "hoenn-safari-zone",
        "conditions": []
    }
]