[
    {
        "minLevel": 3,
        "maxLevel": 3,
        "area": "hoenn-route-102-area",
        "method": "walk",
        "location": "hoenn-route-102",
        "conditions": []
    },
    {
        "minLevel": 13,
        "maxLevel": 13,
        "area": "hoenn-route-117-area",
        "method": "walk",
        "location": "hoenn-route-117",
        "conditions": []
    },
    {
        "minLevel": 25,
        "maxLevel": 25,
        "area": "hoenn-route-120-area",
        "method": "walk",
        "location": "hoenn-route-120",
        "conditions": []
    }
]