[
    {
        "minLevel": 30,
        "maxLevel": 35,
        "area": "mossdeep-city-area",
        "method": "super-rod",
        "location": "mossdeep-city",
        "conditions": []
    },
    {
        "minLevel": 30,
        "maxLevel": 35,
        "area": "hoenn-route-103-area",
        "method": "super-rod",
        "location": "hoenn-route-103",
        "conditions": []
    },
    {
        "minLevel": 30,
        "maxLevel": 35,
        "area": "hoenn-route-118-area",
        "method": "super-rod",
        "location": "hoenn-route-118",
        "conditions": []
    },
    {
        "minLevel": 30,
        "maxLevel": 35,
        "area": "hoenn-route-122-area",
        "method": "super-rod",
        "location": "hoenn-route-122",
        "conditions": []
    },
    {
        "minLevel": 30,
        "maxLevel": 35,
        "area": "hoenn-route-124-area",
        "method": "super-rod",
        "location": "hoenn-route-124",
        "conditions": []
    },
    {
        "minLevel": 30,
        "maxLevel": 35,
        "area": "hoenn-route-125-area",
        "method": "super-rod",
        "location": "hoenn-route-125",
        "conditions": []
    },
    {
        "minLevel": 30,
        "maxLevel": 35,
        "area": "hoenn-route-126-area",
        "method": "super-rod",
        "location": "hoenn-route-126",
        "conditions": []
    },
    {
        "minLevel": 30,
        "maxLevel": 35,
        "area": "hoenn-route-127-area",
        "method": "super-rod",
        "location": "hoenn-route-127",
        "conditions": []
    },
    {
        "minLevel": 30,
        "maxLevel": 35,
        "area": "hoenn-route-129-area",
        "method": "super-rod",
        "location": "hoenn-route-129",
        "conditions": []
    },
    {
        "minLevel": 30,
        "maxLevel": 35,
        "area": "hoenn-route-130-area",
        "method": "super-rod",
        "location": "hoenn-route-130",
        "conditions": []
    },
    {
        "minLevel": 30,
        "maxLevel": 35,
        "area": "hoenn-route-131-area",
        "method": "super-rod",
        "location": "hoenn-route-131",
        "conditions": []
    },
    {
        "minLevel": 30,
        "maxLevel": 35,
        "area": "hoenn-route-132-area",
        "method": "super-rod",
        "location": "hoenn-route-132",
        "conditions": []
    },
    {
        "minLevel": 30,
        "maxLevel": 35,
        "area": "hoenn-route-133-area",
        "method": "super-rod",
        "location": "hoenn-route-133",
        "conditions": []
    },
    {
        "minLevel": 30,
        "maxLevel": 35,
        "area": "hoenn-route-134-area",
        "method": "super-rod",
        "location": "hoenn-route-134",
        "conditions": []
    },
    {
        "minLevel": 30,
        "maxLevel": 35,
        "area": "pacifidlog-town-area",
        "method": "super-rod",
        "location": "pacifidlog-town",
        "conditions": []
    }
]