[
    {
        "minLevel": 6,
        "maxLevel": 6,
        "area": "rusturf-tunnel-area",
        "method": "walk",
        "location": "rusturf-tunnel",
        "conditions": []
    },
    {
        "minLevel": 7,
        "maxLevel": 7,
        "area": "rusturf-tunnel-area",
        "method": "walk",
        "location": "rusturf-tunnel",
        "conditions": []
    },
    {
        "minLevel": 6,
        "maxLevel": 6,
        "area": "rusturf-tunnel-area",
        "method": "walk",
        "location": "rusturf-tunnel",
        "conditions": []
    },
    {
        "minLevel": 6,
        "maxLevel": 6,
        "area": "rusturf-tunnel-area",
        "method": "walk",
        "location": "rusturf-tunnel",
        "conditions": []
    },
    {
        "minLevel": 7,
        "maxLevel": 7,
        "area": "rusturf-tunnel-area",
        "method": "walk",
        "location": "rusturf-tunnel",
        "conditions": []
    },
    {
        "minLevel": 7,
        "maxLevel": 7,
        "area": "rusturf-tunnel-area",
        "method": "walk",
        "location": "rusturf-tunnel",
        "conditions": []
    },
    {
        "minLevel": 5,
        "maxLevel": 5,
        "area": "rusturf-tunnel-area",
        "method": "walk",
        "location": "rusturf-tunnel",
        "conditions": []
    },
    {
        "minLevel": 8,
        "maxLevel": 8,
        "area": "rusturf-tunnel-area",
        "method": "walk",
        "location": "rusturf-tunnel",
        "conditions": []
    },
    {
        "minLevel": 5,
        "maxLevel": 5,
        "area": "rusturf-tunnel-area",
        "method": "walk",
        "location": "rusturf-tunnel",
        "conditions": []
    },
    {
        "minLevel": 8,
        "maxLevel": 8,
        "area": "rusturf-tunnel-area",
        "method": "walk",
        "location": "rusturf-tunnel",
        "conditions": []
    },
    {
        "minLevel": 5,
        "maxLevel": 5,
        "area": "rusturf-tunnel-area",
        "method": "walk",
        "location": "rusturf-tunnel",
        "conditions": []
    },
    {
        "minLevel": 8,
        "maxLevel": 8,
        "area": "rusturf-tunnel-area",
        "method": "walk",
        "location": "rusturf-tunnel",
        "conditions": []
    },
    {
        "minLevel": 36,
        "maxLevel": 36,
        "area": "hoenn-victory-road-1f",
        "method": "walk",
        "location": "hoenn-victory-road",
        "conditions": []
    },
    {
        "minLevel": 36,
        "maxLevel": 36,
        "area": "hoenn-victory-road-1f",
        "method": "walk",
        "location": "hoenn-victory-road",
        "conditions": []
    },
    {
        "minLevel": 6,
        "maxLevel": 6,
        "area": "hoenn-route-116-area",
        "method": "walk",
        "location": "hoenn-route-116",
        "conditions": []
    },
    {
        "minLevel": 35,
        "maxLevel": 35,
        "area": "desert-underpass-area",
        "method": "walk",
        "location": "desert-underpass",
        "conditions": []
    },
    {
        "minLevel": 36,
        "maxLevel": 36,
        "area": "desert-underpass-area",
        "method": "walk",
        "location": "desert-underpass",
        "conditions": []
    },
    {
        "minLevel": 38,
        "maxLevel": 38,
        "area": "desert-underpass-area",
        "method": "walk",
        "location": "desert-underpass",
        "conditions": []
    }
]