{
    "encounters": [
        "tentacool",
        "tentacruel",
        "voltorb",
        "mr-mime",
        "magikarp",
        "gyarados",
        "ditto",
        "wingull",
        "pelipper",
        "floatzel",
        "shellos",
        "gastrodon",
        "glameow",
        "chatot",
        "finneon",
        "lumineon"
    ],
    "id": "sinnoh-route-218-area"
}