{
    "encounters": [
        "poliwag",
        "poliwhirl",
        "poliwrath",
        "onix",
        "steelix",
        "nosepass",
        "lairon",
        "boldore",
        "woobat",
        "excadrill",
        "basculin-red-striped",
        "durant",
        "basculin-blue-striped"
    ],
    "id": "clay-tunnel-area"
}