{
    "encounters": [
        "oddish",
        "tentacool",
        "magikarp",
        "poochyena",
        "zigzagoon",
        "wingull",
        "pelipper",
        "electrike",
        "plusle",
        "minun",
        "gulpin",
        "wailmer"
    ],
    "id": "hoenn-route-110-area"
}