{
    "encounters": [
        "goldeen",
        "seaking",
        "corphish",
        "crawdaunt",
        "basculin-red-striped",
        "basculin-blue-striped"
    ],
    "id": "striaton-city-area"
}