[
    {
        "minLevel": 53,
        "maxLevel": 53,
        "area": "sinnoh-route-228-area",
        "method": "walk",
        "location": "sinnoh-route-228",
        "conditions": ["swarm-yes"]
    },
    {
        "minLevel": 53,
        "maxLevel": 53,
        "area": "sinnoh-route-228-area",
        "method": "walk",
        "location": "sinnoh-route-228",
        "conditions": ["swarm-yes"]
    }
]