[
    {
        "minLevel": 15,
        "maxLevel": 15,
        "area": "mt-coronet-route-207",
        "method": "walk",
        "location": "mt-coronet",
        "conditions": []
    },
    {
        "minLevel": 15,
        "maxLevel": 15,
        "area": "mt-coronet-route-207",
        "method": "walk",
        "location": "mt-coronet",
        "conditions": []
    },
    {
        "minLevel": 37,
        "maxLevel": 37,
        "area": "mt-coronet-2f",
        "method": "walk",
        "location": "mt-coronet",
        "conditions": []
    },
    {
        "minLevel": 38,
        "maxLevel": 38,
        "area": "mt-coronet-2f",
        "method": "walk",
        "location": "mt-coronet",
        "conditions": []
    },
    {
        "minLevel": 37,
        "maxLevel": 37,
        "area": "mt-coronet-3f",
        "method": "walk",
        "location": "mt-coronet",
        "conditions": []
    },
    {
        "minLevel": 38,
        "maxLevel": 38,
        "area": "mt-coronet-3f",
        "method": "walk",
        "location": "mt-coronet",
        "conditions": []
    },
    {
        "minLevel": 39,
        "maxLevel": 39,
        "area": "mt-coronet-snowfall",
        "method": "walk",
        "location": "mt-coronet",
        "conditions": []
    },
    {
        "minLevel": 40,
        "maxLevel": 40,
        "area": "mt-coronet-snowfall",
        "method": "walk",
        "location": "mt-coronet",
        "conditions": []
    },
    {
        "minLevel": 39,
        "maxLevel": 39,
        "area": "mt-coronet-blizzard",
        "method": "walk",
        "location": "mt-coronet",
        "conditions": []
    },
    {
        "minLevel": 40,
        "maxLevel": 40,
        "area": "mt-coronet-blizzard",
        "method": "walk",
        "location": "mt-coronet",
        "conditions": []
    },
    {
        "minLevel": 39,
        "maxLevel": 39,
        "area": "mt-coronet-4f",
        "method": "walk",
        "location": "mt-coronet",
        "conditions": []
    },
    {
        "minLevel": 40,
        "maxLevel": 40,
        "area": "mt-coronet-4f",
        "method": "walk",
        "location": "mt-coronet",
        "conditions": []
    },
    {
        "minLevel": 40,
        "maxLevel": 40,
        "area": "mt-coronet-5f",
        "method": "walk",
        "location": "mt-coronet",
        "conditions": []
    },
    {
        "minLevel": 38,
        "maxLevel": 38,
        "area": "mt-coronet-cave",
        "method": "walk",
        "location": "mt-coronet",
        "conditions": []
    },
    {
        "minLevel": 40,
        "maxLevel": 40,
        "area": "mt-coronet-cave",
        "method": "walk",
        "location": "mt-coronet",
        "conditions": []
    },
    {
        "minLevel": 30,
        "maxLevel": 30,
        "area": "mt-coronet-route-216",
        "method": "walk",
        "location": "mt-coronet",
        "conditions": []
    },
    {
        "minLevel": 30,
        "maxLevel": 30,
        "area": "mt-coronet-route-216",
        "method": "walk",
        "location": "mt-coronet",
        "conditions": []
    },
    {
        "minLevel": 13,
        "maxLevel": 13,
        "area": "mt-coronet-route-211",
        "method": "walk",
        "location": "mt-coronet",
        "conditions": []
    },
    {
        "minLevel": 13,
        "maxLevel": 13,
        "area": "mt-coronet-route-211",
        "method": "walk",
        "location": "mt-coronet",
        "conditions": []
    },
    {
        "minLevel": 30,
        "maxLevel": 30,
        "area": "mt-coronet-b1f",
        "method": "walk",
        "location": "mt-coronet",
        "conditions": []
    },
    {
        "minLevel": 30,
        "maxLevel": 30,
        "area": "mt-coronet-b1f",
        "method": "walk",
        "location": "mt-coronet",
        "conditions": []
    },
    {
        "minLevel": 35,
        "maxLevel": 35,
        "area": "lake-valor-area",
        "method": "walk",
        "location": "lake-valor",
        "conditions": []
    },
    {
        "minLevel": 36,
        "maxLevel": 36,
        "area": "lake-valor-area",
        "method": "walk",
        "location": "lake-valor",
        "conditions": []
    },
    {
        "minLevel": 34,
        "maxLevel": 34,
        "area": "lake-acuity-area",
        "method": "walk",
        "location": "lake-acuity",
        "conditions": []
    },
    {
        "minLevel": 36,
        "maxLevel": 36,
        "area": "lake-acuity-area",
        "method": "walk",
        "location": "lake-acuity",
        "conditions": []
    },
    {
        "minLevel": 13,
        "maxLevel": 13,
        "area": "sinnoh-route-211-west-towards-eterna-city",
        "method": "walk",
        "location": "sinnoh-route-211",
        "conditions": []
    },
    {
        "minLevel": 13,
        "maxLevel": 13,
        "area": "sinnoh-route-211-west-towards-eterna-city",
        "method": "walk",
        "location": "sinnoh-route-211",
        "conditions": []
    },
    {
        "minLevel": 27,
        "maxLevel": 27,
        "area": "sinnoh-route-211-east-towards-celestic-town",
        "method": "walk",
        "location": "sinnoh-route-211",
        "conditions": []
    },
    {
        "minLevel": 28,
        "maxLevel": 28,
        "area": "sinnoh-route-211-east-towards-celestic-town",
        "method": "walk",
        "location": "sinnoh-route-211",
        "conditions": []
    }
]