[
    {
        "minLevel": 16,
        "maxLevel": 16,
        "area": "sinnoh-route-208-area",
        "method": "walk",
        "location": "sinnoh-route-208",
        "conditions": ["swarm-yes"]
    },
    {
        "minLevel": 16,
        "maxLevel": 16,
        "area": "sinnoh-route-208-area",
        "method": "walk",
        "location": "sinnoh-route-208",
        "conditions": ["swarm-yes"]
    }
]