[
    {
        "minLevel": 41,
        "maxLevel": 41,
        "area": "sinnoh-route-222-area",
        "method": "walk",
        "location": "sinnoh-route-222",
        "conditions": ["radar-on"]
    },
    {
        "minLevel": 41,
        "maxLevel": 41,
        "area": "sinnoh-route-222-area",
        "method": "walk",
        "location": "sinnoh-route-222",
        "conditions": ["radar-on"]
    },
    {
        "minLevel": 42,
        "maxLevel": 42,
        "area": "sinnoh-route-222-area",
        "method": "walk",
        "location": "sinnoh-route-222",
        "conditions": ["radar-on"]
    },
    {
        "minLevel": 42,
        "maxLevel": 42,
        "area": "sinnoh-route-222-area",
        "method": "walk",
        "location": "sinnoh-route-222",
        "conditions": ["radar-on"]
    }
]