[
    {
        "minLevel": 16,
        "maxLevel": 16,
        "area": "old-chateau-2f-right-room",
        "method": "walk",
        "location": "old-chateau",
        "conditions": ["slot2-ruby"]
    },
    {
        "minLevel": 16,
        "maxLevel": 16,
        "area": "old-chateau-2f-right-room",
        "method": "walk",
        "location": "old-chateau",
        "conditions": ["slot2-sapphire"]
    },
    {
        "minLevel": 16,
        "maxLevel": 16,
        "area": "old-chateau-2f-right-room",
        "method": "walk",
        "location": "old-chateau",
        "conditions": ["slot2-emerald"]
    },
    {
        "minLevel": 16,
        "maxLevel": 16,
        "area": "old-chateau-2f-right-room",
        "method": "walk",
        "location": "old-chateau",
        "conditions": ["slot2-firered"]
    },
    {
        "minLevel": 16,
        "maxLevel": 16,
        "area": "old-chateau-2f-right-room",
        "method": "walk",
        "location": "old-chateau",
        "conditions": ["slot2-leafgreen"]
    }
]