[
    {
        "minLevel": 2,
        "maxLevel": 2,
        "area": "sinnoh-route-201-area",
        "method": "walk",
        "location": "sinnoh-route-201",
        "conditions": ["slot2-firered"]
    },
    {
        "minLevel": 2,
        "maxLevel": 2,
        "area": "sinnoh-route-201-area",
        "method": "walk",
        "location": "sinnoh-route-201",
        "conditions": ["slot2-firered"]
    },
    {
        "minLevel": 2,
        "maxLevel": 2,
        "area": "sinnoh-route-202-area",
        "method": "walk",
        "location": "sinnoh-route-202",
        "conditions": ["slot2-firered"]
    },
    {
        "minLevel": 2,
        "maxLevel": 2,
        "area": "sinnoh-route-202-area",
        "method": "walk",
        "location": "sinnoh-route-202",
        "conditions": ["slot2-firered"]
    }
]