[
    {
        "minLevel": 15,
        "maxLevel": 20,
        "area": "sinnoh-sea-route-226-area",
        "method": "good-rod",
        "location": "sinnoh-sea-route-226",
        "conditions": []
    },
    {
        "minLevel": 10,
        "maxLevel": 25,
        "area": "sinnoh-sea-route-226-area",
        "method": "good-rod",
        "location": "sinnoh-sea-route-226",
        "conditions": []
    },
    {
        "minLevel": 10,
        "maxLevel": 25,
        "area": "sinnoh-sea-route-226-area",
        "method": "good-rod",
        "location": "sinnoh-sea-route-226",
        "conditions": []
    }
]