[
    {
        "minLevel": 25,
        "maxLevel": 25,
        "area": "sinnoh-route-210-west-towards-celestic-town",
        "method": "walk",
        "location": "sinnoh-route-210",
        "conditions": ["radar-on"]
    },
    {
        "minLevel": 26,
        "maxLevel": 26,
        "area": "sinnoh-route-210-west-towards-celestic-town",
        "method": "walk",
        "location": "sinnoh-route-210",
        "conditions": ["radar-on"]
    },
    {
        "minLevel": 26,
        "maxLevel": 26,
        "area": "sinnoh-route-210-west-towards-celestic-town",
        "method": "walk",
        "location": "sinnoh-route-210",
        "conditions": ["radar-on"]
    },
    {
        "minLevel": 26,
        "maxLevel": 26,
        "area": "sinnoh-route-210-west-towards-celestic-town",
        "method": "walk",
        "location": "sinnoh-route-210",
        "conditions": ["radar-on"]
    }
]