[
    {
        "minLevel": 6,
        "maxLevel": 6,
        "area": "sinnoh-route-207-area",
        "method": "walk",
        "location": "sinnoh-route-207",
        "conditions": ["radar-on"]
    },
    {
        "minLevel": 6,
        "maxLevel": 6,
        "area": "sinnoh-route-207-area",
        "method": "walk",
        "location": "sinnoh-route-207",
        "conditions": ["radar-on"]
    },
    {
        "minLevel": 7,
        "maxLevel": 7,
        "area": "sinnoh-route-207-area",
        "method": "walk",
        "location": "sinnoh-route-207",
        "conditions": ["radar-on"]
    },
    {
        "minLevel": 7,
        "maxLevel": 7,
        "area": "sinnoh-route-207-area",
        "method": "walk",
        "location": "sinnoh-route-207",
        "conditions": ["radar-on"]
    }
]