[
    {
        "minLevel": 23,
        "maxLevel": 23,
        "area": "sinnoh-route-214-area",
        "method": "walk",
        "location": "sinnoh-route-214",
        "conditions": ["radar-on"]
    },
    {
        "minLevel": 24,
        "maxLevel": 24,
        "area": "sinnoh-route-214-area",
        "method": "walk",
        "location": "sinnoh-route-214",
        "conditions": ["radar-on"]
    },
    {
        "minLevel": 24,
        "maxLevel": 24,
        "area": "sinnoh-route-214-area",
        "method": "walk",
        "location": "sinnoh-route-214",
        "conditions": ["radar-on"]
    },
    {
        "minLevel": 24,
        "maxLevel": 24,
        "area": "sinnoh-route-214-area",
        "method": "walk",
        "location": "sinnoh-route-214",
        "conditions": ["radar-on"]
    },
    {
        "minLevel": 20,
        "maxLevel": 20,
        "area": "sinnoh-route-215-area",
        "method": "walk",
        "location": "sinnoh-route-215",
        "conditions": ["radar-on"]
    },
    {
        "minLevel": 20,
        "maxLevel": 20,
        "area": "sinnoh-route-215-area",
        "method": "walk",
        "location": "sinnoh-route-215",
        "conditions": ["radar-on"]
    },
    {
        "minLevel": 22,
        "maxLevel": 22,
        "area": "sinnoh-route-215-area",
        "method": "walk",
        "location": "sinnoh-route-215",
        "conditions": ["radar-on"]
    },
    {
        "minLevel": 22,
        "maxLevel": 22,
        "area": "sinnoh-route-215-area",
        "method": "walk",
        "location": "sinnoh-route-215",
        "conditions": ["radar-on"]
    }
]