[
    {
        "minLevel": 11,
        "maxLevel": 11,
        "area": "eterna-forest-area",
        "method": "walk",
        "location": "eterna-forest",
        "conditions": ["time-night"]
    },
    {
        "minLevel": 10,
        "maxLevel": 10,
        "area": "eterna-forest-area",
        "method": "walk",
        "location": "eterna-forest",
        "conditions": ["time-night"]
    },
    {
        "minLevel": 17,
        "maxLevel": 17,
        "area": "lost-tower-1f",
        "method": "walk",
        "location": "lost-tower",
        "conditions": ["time-night"]
    },
    {
        "minLevel": 17,
        "maxLevel": 17,
        "area": "lost-tower-1f",
        "method": "walk",
        "location": "lost-tower",
        "conditions": ["time-night"]
    },
    {
        "minLevel": 18,
        "maxLevel": 18,
        "area": "lost-tower-2f",
        "method": "walk",
        "location": "lost-tower",
        "conditions": ["time-night"]
    },
    {
        "minLevel": 18,
        "maxLevel": 18,
        "area": "lost-tower-2f",
        "method": "walk",
        "location": "lost-tower",
        "conditions": ["time-night"]
    },
    {
        "minLevel": 19,
        "maxLevel": 19,
        "area": "lost-tower-3f",
        "method": "walk",
        "location": "lost-tower",
        "conditions": ["time-night"]
    },
    {
        "minLevel": 19,
        "maxLevel": 19,
        "area": "lost-tower-3f",
        "method": "walk",
        "location": "lost-tower",
        "conditions": ["time-night"]
    },
    {
        "minLevel": 20,
        "maxLevel": 20,
        "area": "lost-tower-4f",
        "method": "walk",
        "location": "lost-tower",
        "conditions": ["time-night"]
    },
    {
        "minLevel": 20,
        "maxLevel": 20,
        "area": "lost-tower-4f",
        "method": "walk",
        "location": "lost-tower",
        "conditions": ["time-night"]
    },
    {
        "minLevel": 21,
        "maxLevel": 21,
        "area": "lost-tower-5f",
        "method": "walk",
        "location": "lost-tower",
        "conditions": ["time-night"]
    },
    {
        "minLevel": 21,
        "maxLevel": 21,
        "area": "lost-tower-5f",
        "method": "walk",
        "location": "lost-tower",
        "conditions": ["time-night"]
    }
]