[
    {
        "minLevel": 10,
        "maxLevel": 10,
        "area": "eterna-forest-area",
        "method": "walk",
        "location": "eterna-forest",
        "conditions": ["radar-on"]
    },
    {
        "minLevel": 11,
        "maxLevel": 11,
        "area": "eterna-forest-area",
        "method": "walk",
        "location": "eterna-forest",
        "conditions": ["radar-on"]
    },
    {
        "minLevel": 12,
        "maxLevel": 12,
        "area": "eterna-forest-area",
        "method": "walk",
        "location": "eterna-forest",
        "conditions": ["radar-on"]
    },
    {
        "minLevel": 12,
        "maxLevel": 12,
        "area": "eterna-forest-area",
        "method": "walk",
        "location": "eterna-forest",
        "conditions": ["radar-on"]
    }
]