[
    {
        "minLevel": 20,
        "maxLevel": 30,
        "area": "eterna-city-area",
        "method": "surf",
        "location": "eterna-city",
        "conditions": []
    },
    {
        "minLevel": 20,
        "maxLevel": 40,
        "area": "eterna-city-area",
        "method": "surf",
        "location": "eterna-city",
        "conditions": []
    },
    {
        "minLevel": 26,
        "maxLevel": 26,
        "area": "great-marsh-area-1",
        "method": "walk",
        "location": "great-marsh",
        "conditions": ["slot2-none"]
    },
    {
        "minLevel": 26,
        "maxLevel": 26,
        "area": "great-marsh-area-1",
        "method": "walk",
        "location": "great-marsh",
        "conditions": ["slot2-ruby"]
    },
    {
        "minLevel": 26,
        "maxLevel": 26,
        "area": "great-marsh-area-1",
        "method": "walk",
        "location": "great-marsh",
        "conditions": ["slot2-sapphire"]
    },
    {
        "minLevel": 26,
        "maxLevel": 26,
        "area": "great-marsh-area-1",
        "method": "walk",
        "location": "great-marsh",
        "conditions": ["slot2-emerald"]
    },
    {
        "minLevel": 26,
        "maxLevel": 26,
        "area": "great-marsh-area-1",
        "method": "walk",
        "location": "great-marsh",
        "conditions": ["slot2-leafgreen"]
    },
    {
        "minLevel": 24,
        "maxLevel": 24,
        "area": "great-marsh-area-1",
        "method": "walk",
        "location": "great-marsh",
        "conditions": ["slot2-none"]
    },
    {
        "minLevel": 24,
        "maxLevel": 24,
        "area": "great-marsh-area-1",
        "method": "walk",
        "location": "great-marsh",
        "conditions": ["slot2-ruby"]
    },
    {
        "minLevel": 24,
        "maxLevel": 24,
        "area": "great-marsh-area-1",
        "method": "walk",
        "location": "great-marsh",
        "conditions": ["slot2-sapphire"]
    },
    {
        "minLevel": 24,
        "maxLevel": 24,
        "area": "great-marsh-area-1",
        "method": "walk",
        "location": "great-marsh",
        "conditions": ["slot2-emerald"]
    },
    {
        "minLevel": 24,
        "maxLevel": 24,
        "area": "great-marsh-area-1",
        "method": "walk",
        "location": "great-marsh",
        "conditions": ["slot2-leafgreen"]
    },
    {
        "minLevel": 20,
        "maxLevel": 40,
        "area": "great-marsh-area-1",
        "method": "surf",
        "location": "great-marsh",
        "conditions": []
    },
    {
        "minLevel": 20,
        "maxLevel": 40,
        "area": "great-marsh-area-1",
        "method": "surf",
        "location": "great-marsh",
        "conditions": []
    },
    {
        "minLevel": 26,
        "maxLevel": 26,
        "area": "great-marsh-area-2",
        "method": "walk",
        "location": "great-marsh",
        "conditions": ["slot2-none"]
    },
    {
        "minLevel": 26,
        "maxLevel": 26,
        "area": "great-marsh-area-2",
        "method": "walk",
        "location": "great-marsh",
        "conditions": ["slot2-ruby"]
    },
    {
        "minLevel": 26,
        "maxLevel": 26,
        "area": "great-marsh-area-2",
        "method": "walk",
        "location": "great-marsh",
        "conditions": ["slot2-sapphire"]
    },
    {
        "minLevel": 26,
        "maxLevel": 26,
        "area": "great-marsh-area-2",
        "method": "walk",
        "location": "great-marsh",
        "conditions": ["slot2-emerald"]
    },
    {
        "minLevel": 26,
        "maxLevel": 26,
        "area": "great-marsh-area-2",
        "method": "walk",
        "location": "great-marsh",
        "conditions": ["slot2-leafgreen"]
    },
    {
        "minLevel": 24,
        "maxLevel": 24,
        "area": "great-marsh-area-2",
        "method": "walk",
        "location": "great-marsh",
        "conditions": ["slot2-none"]
    },
    {
        "minLevel": 24,
        "maxLevel": 24,
        "area": "great-marsh-area-2",
        "method": "walk",
        "location": "great-marsh",
        "conditions": ["slot2-ruby"]
    },
    {
        "minLevel": 24,
        "maxLevel": 24,
        "area": "great-marsh-area-2",
        "method": "walk",
        "location": "great-marsh",
        "conditions": ["slot2-sapphire"]
    },
    {
        "minLevel": 24,
        "maxLevel": 24,
        "area": "great-marsh-area-2",
        "method": "walk",
        "location": "great-marsh",
        "conditions": ["slot2-emerald"]
    },
    {
        "minLevel": 24,
        "maxLevel": 24,
        "area": "great-marsh-area-2",
        "method": "walk",
        "location": "great-marsh",
        "conditions": ["slot2-leafgreen"]
    },
    {
        "minLevel": 20,
        "maxLevel": 40,
        "area": "great-marsh-area-2",
        "method": "surf",
        "location": "great-marsh",
        "conditions": []
    },
    {
        "minLevel": 20,
        "maxLevel": 40,
        "area": "great-marsh-area-2",
        "method": "surf",
        "location": "great-marsh",
        "conditions": []
    },
    {
        "minLevel": 24,
        "maxLevel": 24,
        "area": "great-marsh-area-3",
        "method": "walk",
        "location": "great-marsh",
        "conditions": ["slot2-none"]
    },
    {
        "minLevel": 24,
        "maxLevel": 24,
        "area": "great-marsh-area-3",
        "method": "walk",
        "location": "great-marsh",
        "conditions": ["slot2-ruby"]
    },
    {
        "minLevel": 24,
        "maxLevel": 24,
        "area": "great-marsh-area-3",
        "method": "walk",
        "location": "great-marsh",
        "conditions": ["slot2-sapphire"]
    },
    {
        "minLevel": 24,
        "maxLevel": 24,
        "area": "great-marsh-area-3",
        "method": "walk",
        "location": "great-marsh",
        "conditions": ["slot2-emerald"]
    },
    {
        "minLevel": 24,
        "maxLevel": 24,
        "area": "great-marsh-area-3",
        "method": "walk",
        "location": "great-marsh",
        "conditions": ["slot2-leafgreen"]
    },
    {
        "minLevel": 22,
        "maxLevel": 22,
        "area": "great-marsh-area-3",
        "method": "walk",
        "location": "great-marsh",
        "conditions": ["slot2-none"]
    },
    {
        "minLevel": 22,
        "maxLevel": 22,
        "area": "great-marsh-area-3",
        "method": "walk",
        "location": "great-marsh",
        "conditions": ["slot2-ruby"]
    },
    {
        "minLevel": 22,
        "maxLevel": 22,
        "area": "great-marsh-area-3",
        "method": "walk",
        "location": "great-marsh",
        "conditions": ["slot2-sapphire"]
    },
    {
        "minLevel": 22,
        "maxLevel": 22,
        "area": "great-marsh-area-3",
        "method": "walk",
        "location": "great-marsh",
        "conditions": ["slot2-emerald"]
    },
    {
        "minLevel": 22,
        "maxLevel": 22,
        "area": "great-marsh-area-3",
        "method": "walk",
        "location": "great-marsh",
        "conditions": ["slot2-leafgreen"]
    },
    {
        "minLevel": 20,
        "maxLevel": 40,
        "area": "great-marsh-area-3",
        "method": "surf",
        "location": "great-marsh",
        "conditions": []
    },
    {
        "minLevel": 20,
        "maxLevel": 40,
        "area": "great-marsh-area-3",
        "method": "surf",
        "location": "great-marsh",
        "conditions": []
    },
    {
        "minLevel": 24,
        "maxLevel": 24,
        "area": "great-marsh-area-4",
        "method": "walk",
        "location": "great-marsh",
        "conditions": ["slot2-none"]
    },
    {
        "minLevel": 24,
        "maxLevel": 24,
        "area": "great-marsh-area-4",
        "method": "walk",
        "location": "great-marsh",
        "conditions": ["slot2-ruby"]
    },
    {
        "minLevel": 24,
        "maxLevel": 24,
        "area": "great-marsh-area-4",
        "method": "walk",
        "location": "great-marsh",
        "conditions": ["slot2-sapphire"]
    },
    {
        "minLevel": 24,
        "maxLevel": 24,
        "area": "great-marsh-area-4",
        "method": "walk",
        "location": "great-marsh",
        "conditions": ["slot2-emerald"]
    },
    {
        "minLevel": 24,
        "maxLevel": 24,
        "area": "great-marsh-area-4",
        "method": "walk",
        "location": "great-marsh",
        "conditions": ["slot2-leafgreen"]
    },
    {
        "minLevel": 22,
        "maxLevel": 22,
        "area": "great-marsh-area-4",
        "method": "walk",
        "location": "great-marsh",
        "conditions": ["slot2-none"]
    },
    {
        "minLevel": 22,
        "maxLevel": 22,
        "area": "great-marsh-area-4",
        "method": "walk",
        "location": "great-marsh",
        "conditions": ["slot2-ruby"]
    },
    {
        "minLevel": 22,
        "maxLevel": 22,
        "area": "great-marsh-area-4",
        "method": "walk",
        "location": "great-marsh",
        "conditions": ["slot2-sapphire"]
    },
    {
        "minLevel": 22,
        "maxLevel": 22,
        "area": "great-marsh-area-4",
        "method": "walk",
        "location": "great-marsh",
        "conditions": ["slot2-emerald"]
    },
    {
        "minLevel": 22,
        "maxLevel": 22,
        "area": "great-marsh-area-4",
        "method": "walk",
        "location": "great-marsh",
        "conditions": ["slot2-leafgreen"]
    },
    {
        "minLevel": 20,
        "maxLevel": 40,
        "area": "great-marsh-area-4",
        "method": "surf",
        "location": "great-marsh",
        "conditions": []
    },
    {
        "minLevel": 20,
        "maxLevel": 40,
        "area": "great-marsh-area-4",
        "method": "surf",
        "location": "great-marsh",
        "conditions": []
    },
    {
        "minLevel": 22,
        "maxLevel": 22,
        "area": "great-marsh-area-6",
        "method": "walk",
        "location": "great-marsh",
        "conditions": ["slot2-none"]
    },
    {
        "minLevel": 22,
        "maxLevel": 22,
        "area": "great-marsh-area-6",
        "method": "walk",
        "location": "great-marsh",
        "conditions": ["slot2-ruby"]
    },
    {
        "minLevel": 22,
        "maxLevel": 22,
        "area": "great-marsh-area-6",
        "method": "walk",
        "location": "great-marsh",
        "conditions": ["slot2-sapphire"]
    },
    {
        "minLevel": 22,
        "maxLevel": 22,
        "area": "great-marsh-area-6",
        "method": "walk",
        "location": "great-marsh",
        "conditions": ["slot2-emerald"]
    },
    {
        "minLevel": 22,
        "maxLevel": 22,
        "area": "great-marsh-area-6",
        "method": "walk",
        "location": "great-marsh",
        "conditions": ["slot2-leafgreen"]
    },
    {
        "minLevel": 20,
        "maxLevel": 20,
        "area": "great-marsh-area-6",
        "method": "walk",
        "location": "great-marsh",
        "conditions": ["slot2-none"]
    },
    {
        "minLevel": 20,
        "maxLevel": 20,
        "area": "great-marsh-area-6",
        "method": "walk",
        "location": "great-marsh",
        "conditions": ["slot2-ruby"]
    },
    {
        "minLevel": 20,
        "maxLevel": 20,
        "area": "great-marsh-area-6",
        "method": "walk",
        "location": "great-marsh",
        "conditions": ["slot2-sapphire"]
    },
    {
        "minLevel": 20,
        "maxLevel": 20,
        "area": "great-marsh-area-6",
        "method": "walk",
        "location": "great-marsh",
        "conditions": ["slot2-emerald"]
    },
    {
        "minLevel": 20,
        "maxLevel": 20,
        "area": "great-marsh-area-6",
        "method": "walk",
        "location": "great-marsh",
        "conditions": ["slot2-leafgreen"]
    },
    {
        "minLevel": 20,
        "maxLevel": 40,
        "area": "great-marsh-area-6",
        "method": "surf",
        "location": "great-marsh",
        "conditions": []
    },
    {
        "minLevel": 20,
        "maxLevel": 40,
        "area": "great-marsh-area-6",
        "method": "surf",
        "location": "great-marsh",
        "conditions": []
    },
    {
        "minLevel": 5,
        "maxLevel": 5,
        "area": "ravaged-path-area",
        "method": "walk",
        "location": "ravaged-path",
        "conditions": []
    },
    {
        "minLevel": 5,
        "maxLevel": 5,
        "area": "ravaged-path-area",
        "method": "walk",
        "location": "ravaged-path",
        "conditions": []
    },
    {
        "minLevel": 20,
        "maxLevel": 30,
        "area": "ravaged-path-area",
        "method": "surf",
        "location": "ravaged-path",
        "conditions": []
    },
    {
        "minLevel": 8,
        "maxLevel": 8,
        "area": "oreburgh-gate-b1f",
        "method": "walk",
        "location": "oreburgh-gate",
        "conditions": []
    },
    {
        "minLevel": 9,
        "maxLevel": 9,
        "area": "oreburgh-gate-b1f",
        "method": "walk",
        "location": "oreburgh-gate",
        "conditions": []
    },
    {
        "minLevel": 8,
        "maxLevel": 8,
        "area": "oreburgh-gate-b1f",
        "method": "walk",
        "location": "oreburgh-gate",
        "conditions": []
    },
    {
        "minLevel": 10,
        "maxLevel": 10,
        "area": "oreburgh-gate-b1f",
        "method": "walk",
        "location": "oreburgh-gate",
        "conditions": []
    },
    {
        "minLevel": 20,
        "maxLevel": 30,
        "area": "oreburgh-gate-b1f",
        "method": "surf",
        "location": "oreburgh-gate",
        "conditions": []
    },
    {
        "minLevel": 20,
        "maxLevel": 30,
        "area": "lake-verity-before-galactic-intervention",
        "method": "surf",
        "location": "lake-verity",
        "conditions": []
    },
    {
        "minLevel": 20,
        "maxLevel": 40,
        "area": "lake-verity-before-galactic-intervention",
        "method": "surf",
        "location": "lake-verity",
        "conditions": []
    },
    {
        "minLevel": 20,
        "maxLevel": 30,
        "area": "lake-verity-after-galactic-intervention",
        "method": "surf",
        "location": "lake-verity",
        "conditions": []
    },
    {
        "minLevel": 20,
        "maxLevel": 40,
        "area": "lake-verity-after-galactic-intervention",
        "method": "surf",
        "location": "lake-verity",
        "conditions": []
    },
    {
        "minLevel": 35,
        "maxLevel": 35,
        "area": "lake-valor-area",
        "method": "walk",
        "location": "lake-valor",
        "conditions": ["radar-off"]
    },
    {
        "minLevel": 36,
        "maxLevel": 36,
        "area": "lake-valor-area",
        "method": "walk",
        "location": "lake-valor",
        "conditions": ["radar-off"]
    },
    {
        "minLevel": 20,
        "maxLevel": 30,
        "area": "lake-valor-area",
        "method": "surf",
        "location": "lake-valor",
        "conditions": []
    },
    {
        "minLevel": 20,
        "maxLevel": 40,
        "area": "lake-valor-area",
        "method": "surf",
        "location": "lake-valor",
        "conditions": []
    },
    {
        "minLevel": 36,
        "maxLevel": 36,
        "area": "lake-acuity-area",
        "method": "walk",
        "location": "lake-acuity",
        "conditions": ["time-morning"]
    },
    {
        "minLevel": 36,
        "maxLevel": 36,
        "area": "lake-acuity-area",
        "method": "walk",
        "location": "lake-acuity",
        "conditions": ["time-day"]
    },
    {
        "minLevel": 34,
        "maxLevel": 34,
        "area": "lake-acuity-area",
        "method": "walk",
        "location": "lake-acuity",
        "conditions": ["radar-off"]
    },
    {
        "minLevel": 35,
        "maxLevel": 35,
        "area": "lake-acuity-area",
        "method": "walk",
        "location": "lake-acuity",
        "conditions": ["radar-off"]
    },
    {
        "minLevel": 20,
        "maxLevel": 30,
        "area": "lake-acuity-area",
        "method": "surf",
        "location": "lake-acuity",
        "conditions": []
    },
    {
        "minLevel": 20,
        "maxLevel": 40,
        "area": "lake-acuity-area",
        "method": "surf",
        "location": "lake-acuity",
        "conditions": []
    },
    {
        "minLevel": 20,
        "maxLevel": 30,
        "area": "sinnoh-route-203-area",
        "method": "surf",
        "location": "sinnoh-route-203",
        "conditions": []
    },
    {
        "minLevel": 20,
        "maxLevel": 40,
        "area": "sinnoh-route-203-area",
        "method": "surf",
        "location": "sinnoh-route-203",
        "conditions": []
    },
    {
        "minLevel": 20,
        "maxLevel": 30,
        "area": "sinnoh-route-204-south-towards-jubilife-city",
        "method": "surf",
        "location": "sinnoh-route-204",
        "conditions": []
    },
    {
        "minLevel": 20,
        "maxLevel": 40,
        "area": "sinnoh-route-204-south-towards-jubilife-city",
        "method": "surf",
        "location": "sinnoh-route-204",
        "conditions": []
    },
    {
        "minLevel": 20,
        "maxLevel": 30,
        "area": "sinnoh-route-204-north-towards-floaroma-town",
        "method": "surf",
        "location": "sinnoh-route-204",
        "conditions": []
    },
    {
        "minLevel": 20,
        "maxLevel": 40,
        "area": "sinnoh-route-204-north-towards-floaroma-town",
        "method": "surf",
        "location": "sinnoh-route-204",
        "conditions": []
    },
    {
        "minLevel": 20,
        "maxLevel": 30,
        "area": "sinnoh-route-205-east-towards-eterna-city",
        "method": "surf",
        "location": "sinnoh-route-205",
        "conditions": []
    },
    {
        "minLevel": 20,
        "maxLevel": 40,
        "area": "sinnoh-route-205-east-towards-eterna-city",
        "method": "surf",
        "location": "sinnoh-route-205",
        "conditions": []
    },
    {
        "minLevel": 16,
        "maxLevel": 16,
        "area": "sinnoh-route-208-area",
        "method": "walk",
        "location": "sinnoh-route-208",
        "conditions": ["swarm-no"]
    },
    {
        "minLevel": 17,
        "maxLevel": 17,
        "area": "sinnoh-route-208-area",
        "method": "walk",
        "location": "sinnoh-route-208",
        "conditions": []
    },
    {
        "minLevel": 18,
        "maxLevel": 18,
        "area": "sinnoh-route-208-area",
        "method": "walk",
        "location": "sinnoh-route-208",
        "conditions": ["slot2-none"]
    },
    {
        "minLevel": 18,
        "maxLevel": 18,
        "area": "sinnoh-route-208-area",
        "method": "walk",
        "location": "sinnoh-route-208",
        "conditions": ["slot2-emerald"]
    },
    {
        "minLevel": 18,
        "maxLevel": 18,
        "area": "sinnoh-route-208-area",
        "method": "walk",
        "location": "sinnoh-route-208",
        "conditions": ["slot2-firered"]
    },
    {
        "minLevel": 18,
        "maxLevel": 18,
        "area": "sinnoh-route-208-area",
        "method": "walk",
        "location": "sinnoh-route-208",
        "conditions": ["slot2-leafgreen"]
    },
    {
        "minLevel": 18,
        "maxLevel": 18,
        "area": "sinnoh-route-208-area",
        "method": "walk",
        "location": "sinnoh-route-208",
        "conditions": ["radar-off"]
    },
    {
        "minLevel": 20,
        "maxLevel": 30,
        "area": "sinnoh-route-208-area",
        "method": "surf",
        "location": "sinnoh-route-208",
        "conditions": []
    },
    {
        "minLevel": 20,
        "maxLevel": 40,
        "area": "sinnoh-route-208-area",
        "method": "surf",
        "location": "sinnoh-route-208",
        "conditions": []
    },
    {
        "minLevel": 20,
        "maxLevel": 30,
        "area": "sinnoh-route-209-area",
        "method": "surf",
        "location": "sinnoh-route-209",
        "conditions": []
    },
    {
        "minLevel": 20,
        "maxLevel": 40,
        "area": "sinnoh-route-209-area",
        "method": "surf",
        "location": "sinnoh-route-209",
        "conditions": []
    },
    {
        "minLevel": 25,
        "maxLevel": 25,
        "area": "sinnoh-route-210-west-towards-celestic-town",
        "method": "walk",
        "location": "sinnoh-route-210",
        "conditions": []
    },
    {
        "minLevel": 20,
        "maxLevel": 30,
        "area": "sinnoh-route-210-west-towards-celestic-town",
        "method": "surf",
        "location": "sinnoh-route-210",
        "conditions": []
    },
    {
        "minLevel": 20,
        "maxLevel": 40,
        "area": "sinnoh-route-210-west-towards-celestic-town",
        "method": "surf",
        "location": "sinnoh-route-210",
        "conditions": []
    },
    {
        "minLevel": 20,
        "maxLevel": 30,
        "area": "sinnoh-route-212-north-towards-hearthome-city",
        "method": "surf",
        "location": "sinnoh-route-212",
        "conditions": []
    },
    {
        "minLevel": 20,
        "maxLevel": 40,
        "area": "sinnoh-route-212-north-towards-hearthome-city",
        "method": "surf",
        "location": "sinnoh-route-212",
        "conditions": []
    },
    {
        "minLevel": 20,
        "maxLevel": 30,
        "area": "sinnoh-route-214-area",
        "method": "surf",
        "location": "sinnoh-route-214",
        "conditions": []
    },
    {
        "minLevel": 20,
        "maxLevel": 40,
        "area": "sinnoh-route-214-area",
        "method": "surf",
        "location": "sinnoh-route-214",
        "conditions": []
    },
    {
        "minLevel": 20,
        "maxLevel": 30,
        "area": "twinleaf-town-area",
        "method": "surf",
        "location": "twinleaf-town",
        "conditions": []
    },
    {
        "minLevel": 20,
        "maxLevel": 40,
        "area": "twinleaf-town-area",
        "method": "surf",
        "location": "twinleaf-town",
        "conditions": []
    },
    {
        "minLevel": 20,
        "maxLevel": 30,
        "area": "celestic-town-area",
        "method": "surf",
        "location": "celestic-town",
        "conditions": []
    },
    {
        "minLevel": 20,
        "maxLevel": 40,
        "area": "celestic-town-area",
        "method": "surf",
        "location": "celestic-town",
        "conditions": []
    }
]