[
    {
        "minLevel": 20,
        "maxLevel": 20,
        "area": "sinnoh-route-225-area",
        "method": "walk",
        "location": "sinnoh-route-225",
        "conditions": []
    },
    {
        "minLevel": 22,
        "maxLevel": 22,
        "area": "sinnoh-route-225-area",
        "method": "walk",
        "location": "sinnoh-route-225",
        "conditions": ["radar-off"]
    },
    {
        "minLevel": 20,
        "maxLevel": 20,
        "area": "sinnoh-sea-route-226-area",
        "method": "walk",
        "location": "sinnoh-sea-route-226",
        "conditions": []
    },
    {
        "minLevel": 22,
        "maxLevel": 22,
        "area": "sinnoh-sea-route-226-area",
        "method": "walk",
        "location": "sinnoh-sea-route-226",
        "conditions": ["radar-off"]
    }
]