[
    {
        "minLevel": 30,
        "maxLevel": 40,
        "area": "lake-verity-before-galactic-intervention",
        "method": "super-rod",
        "location": "lake-verity",
        "conditions": []
    },
    {
        "minLevel": 20,
        "maxLevel": 50,
        "area": "lake-verity-before-galactic-intervention",
        "method": "super-rod",
        "location": "lake-verity",
        "conditions": []
    },
    {
        "minLevel": 20,
        "maxLevel": 50,
        "area": "lake-verity-before-galactic-intervention",
        "method": "super-rod",
        "location": "lake-verity",
        "conditions": []
    },
    {
        "minLevel": 30,
        "maxLevel": 40,
        "area": "lake-verity-after-galactic-intervention",
        "method": "super-rod",
        "location": "lake-verity",
        "conditions": []
    },
    {
        "minLevel": 20,
        "maxLevel": 50,
        "area": "lake-verity-after-galactic-intervention",
        "method": "super-rod",
        "location": "lake-verity",
        "conditions": []
    },
    {
        "minLevel": 20,
        "maxLevel": 50,
        "area": "lake-verity-after-galactic-intervention",
        "method": "super-rod",
        "location": "lake-verity",
        "conditions": []
    },
    {
        "minLevel": 30,
        "maxLevel": 40,
        "area": "lake-valor-area",
        "method": "super-rod",
        "location": "lake-valor",
        "conditions": []
    },
    {
        "minLevel": 20,
        "maxLevel": 50,
        "area": "lake-valor-area",
        "method": "super-rod",
        "location": "lake-valor",
        "conditions": []
    },
    {
        "minLevel": 20,
        "maxLevel": 50,
        "area": "lake-valor-area",
        "method": "super-rod",
        "location": "lake-valor",
        "conditions": []
    },
    {
        "minLevel": 30,
        "maxLevel": 40,
        "area": "lake-acuity-area",
        "method": "super-rod",
        "location": "lake-acuity",
        "conditions": []
    },
    {
        "minLevel": 20,
        "maxLevel": 50,
        "area": "lake-acuity-area",
        "method": "super-rod",
        "location": "lake-acuity",
        "conditions": []
    },
    {
        "minLevel": 20,
        "maxLevel": 50,
        "area": "lake-acuity-area",
        "method": "super-rod",
        "location": "lake-acuity",
        "conditions": []
    },
    {
        "minLevel": 30,
        "maxLevel": 40,
        "area": "sinnoh-route-203-area",
        "method": "super-rod",
        "location": "sinnoh-route-203",
        "conditions": []
    },
    {
        "minLevel": 20,
        "maxLevel": 50,
        "area": "sinnoh-route-203-area",
        "method": "super-rod",
        "location": "sinnoh-route-203",
        "conditions": []
    },
    {
        "minLevel": 20,
        "maxLevel": 50,
        "area": "sinnoh-route-203-area",
        "method": "super-rod",
        "location": "sinnoh-route-203",
        "conditions": []
    },
    {
        "minLevel": 30,
        "maxLevel": 40,
        "area": "sinnoh-route-204-south-towards-jubilife-city",
        "method": "super-rod",
        "location": "sinnoh-route-204",
        "conditions": []
    },
    {
        "minLevel": 20,
        "maxLevel": 50,
        "area": "sinnoh-route-204-south-towards-jubilife-city",
        "method": "super-rod",
        "location": "sinnoh-route-204",
        "conditions": []
    },
    {
        "minLevel": 20,
        "maxLevel": 50,
        "area": "sinnoh-route-204-south-towards-jubilife-city",
        "method": "super-rod",
        "location": "sinnoh-route-204",
        "conditions": []
    },
    {
        "minLevel": 30,
        "maxLevel": 40,
        "area": "sinnoh-route-204-north-towards-floaroma-town",
        "method": "super-rod",
        "location": "sinnoh-route-204",
        "conditions": []
    },
    {
        "minLevel": 20,
        "maxLevel": 50,
        "area": "sinnoh-route-204-north-towards-floaroma-town",
        "method": "super-rod",
        "location": "sinnoh-route-204",
        "conditions": []
    },
    {
        "minLevel": 20,
        "maxLevel": 50,
        "area": "sinnoh-route-204-north-towards-floaroma-town",
        "method": "super-rod",
        "location": "sinnoh-route-204",
        "conditions": []
    },
    {
        "minLevel": 30,
        "maxLevel": 40,
        "area": "sinnoh-route-209-area",
        "method": "super-rod",
        "location": "sinnoh-route-209",
        "conditions": []
    },
    {
        "minLevel": 20,
        "maxLevel": 50,
        "area": "sinnoh-route-209-area",
        "method": "super-rod",
        "location": "sinnoh-route-209",
        "conditions": []
    },
    {
        "minLevel": 20,
        "maxLevel": 50,
        "area": "sinnoh-route-209-area",
        "method": "super-rod",
        "location": "sinnoh-route-209",
        "conditions": []
    },
    {
        "minLevel": 30,
        "maxLevel": 40,
        "area": "sinnoh-route-212-north-towards-hearthome-city",
        "method": "super-rod",
        "location": "sinnoh-route-212",
        "conditions": []
    },
    {
        "minLevel": 20,
        "maxLevel": 50,
        "area": "sinnoh-route-212-north-towards-hearthome-city",
        "method": "super-rod",
        "location": "sinnoh-route-212",
        "conditions": []
    },
    {
        "minLevel": 20,
        "maxLevel": 50,
        "area": "sinnoh-route-212-north-towards-hearthome-city",
        "method": "super-rod",
        "location": "sinnoh-route-212",
        "conditions": []
    },
    {
        "minLevel": 30,
        "maxLevel": 40,
        "area": "sinnoh-route-214-area",
        "method": "super-rod",
        "location": "sinnoh-route-214",
        "conditions": []
    },
    {
        "minLevel": 20,
        "maxLevel": 50,
        "area": "sinnoh-route-214-area",
        "method": "super-rod",
        "location": "sinnoh-route-214",
        "conditions": []
    },
    {
        "minLevel": 20,
        "maxLevel": 50,
        "area": "sinnoh-route-214-area",
        "method": "super-rod",
        "location": "sinnoh-route-214",
        "conditions": []
    },
    {
        "minLevel": 30,
        "maxLevel": 40,
        "area": "twinleaf-town-area",
        "method": "super-rod",
        "location": "twinleaf-town",
        "conditions": []
    },
    {
        "minLevel": 20,
        "maxLevel": 50,
        "area": "twinleaf-town-area",
        "method": "super-rod",
        "location": "twinleaf-town",
        "conditions": []
    },
    {
        "minLevel": 20,
        "maxLevel": 50,
        "area": "twinleaf-town-area",
        "method": "super-rod",
        "location": "twinleaf-town",
        "conditions": []
    },
    {
        "minLevel": 30,
        "maxLevel": 40,
        "area": "resort-area-area",
        "method": "super-rod",
        "location": "resort-area",
        "conditions": []
    },
    {
        "minLevel": 20,
        "maxLevel": 50,
        "area": "resort-area-area",
        "method": "super-rod",
        "location": "resort-area",
        "conditions": []
    },
    {
        "minLevel": 20,
        "maxLevel": 50,
        "area": "resort-area-area",
        "method": "super-rod",
        "location": "resort-area",
        "conditions": []
    },
    {
        "minLevel": 30,
        "maxLevel": 40,
        "area": "sendoff-spring-area",
        "method": "super-rod",
        "location": "sendoff-spring",
        "conditions": []
    },
    {
        "minLevel": 20,
        "maxLevel": 50,
        "area": "sendoff-spring-area",
        "method": "super-rod",
        "location": "sendoff-spring",
        "conditions": []
    },
    {
        "minLevel": 20,
        "maxLevel": 50,
        "area": "sendoff-spring-area",
        "method": "super-rod",
        "location": "sendoff-spring",
        "conditions": []
    }
]