[
    {
        "minLevel": 10,
        "maxLevel": 10,
        "area": "eterna-forest-area",
        "method": "walk",
        "location": "eterna-forest",
        "conditions": ["swarm-yes"]
    },
    {
        "minLevel": 10,
        "maxLevel": 10,
        "area": "eterna-forest-area",
        "method": "walk",
        "location": "eterna-forest",
        "conditions": ["swarm-yes"]
    }
]