[
    {
        "minLevel": 22,
        "maxLevel": 22,
        "area": "sinnoh-route-229-area",
        "method": "walk",
        "location": "sinnoh-route-229",
        "conditions": ["radar-on"]
    },
    {
        "minLevel": 22,
        "maxLevel": 22,
        "area": "sinnoh-route-229-area",
        "method": "walk",
        "location": "sinnoh-route-229",
        "conditions": ["radar-on"]
    }
]