[
    {
        "minLevel": 12,
        "maxLevel": 12,
        "area": "johto-route-34-area",
        "method": "walk",
        "location": "johto-route-34",
        "conditions": ["time-night"]
    },
    {
        "minLevel": 12,
        "maxLevel": 12,
        "area": "johto-route-35-area",
        "method": "walk",
        "location": "johto-route-35",
        "conditions": [
            "swarm-no",
            "time-night"
        ]
    }
]