[
    {
        "minLevel": 3,
        "maxLevel": 3,
        "area": "dark-cave-violet-city-entrance",
        "method": "walk",
        "location": "dark-cave",
        "conditions": [
            "time-day",
            "swarm-no"
        ]
    },
    {
        "minLevel": 2,
        "maxLevel": 2,
        "area": "dark-cave-violet-city-entrance",
        "method": "walk",
        "location": "dark-cave",
        "conditions": [
            "time-day",
            "swarm-no"
        ]
    },
    {
        "minLevel": 4,
        "maxLevel": 4,
        "area": "dark-cave-violet-city-entrance",
        "method": "walk",
        "location": "dark-cave",
        "conditions": [
            "time-day",
            "swarm-no"
        ]
    },
    {
        "minLevel": 3,
        "maxLevel": 3,
        "area": "dark-cave-violet-city-entrance",
        "method": "walk",
        "location": "dark-cave",
        "conditions": [
            "time-morning",
            "swarm-no"
        ]
    },
    {
        "minLevel": 2,
        "maxLevel": 2,
        "area": "dark-cave-violet-city-entrance",
        "method": "walk",
        "location": "dark-cave",
        "conditions": [
            "time-morning",
            "swarm-no"
        ]
    },
    {
        "minLevel": 4,
        "maxLevel": 4,
        "area": "dark-cave-violet-city-entrance",
        "method": "walk",
        "location": "dark-cave",
        "conditions": [
            "time-morning",
            "swarm-no"
        ]
    },
    {
        "minLevel": 3,
        "maxLevel": 3,
        "area": "dark-cave-violet-city-entrance",
        "method": "walk",
        "location": "dark-cave",
        "conditions": [
            "swarm-no",
            "time-night"
        ]
    },
    {
        "minLevel": 2,
        "maxLevel": 2,
        "area": "dark-cave-violet-city-entrance",
        "method": "walk",
        "location": "dark-cave",
        "conditions": [
            "swarm-no",
            "time-night"
        ]
    },
    {
        "minLevel": 4,
        "maxLevel": 4,
        "area": "dark-cave-violet-city-entrance",
        "method": "walk",
        "location": "dark-cave",
        "conditions": [
            "swarm-no",
            "time-night"
        ]
    },
    {
        "minLevel": 3,
        "maxLevel": 3,
        "area": "dark-cave-violet-city-entrance",
        "method": "walk",
        "location": "dark-cave",
        "conditions": ["swarm-yes"]
    },
    {
        "minLevel": 2,
        "maxLevel": 2,
        "area": "dark-cave-violet-city-entrance",
        "method": "walk",
        "location": "dark-cave",
        "conditions": ["swarm-yes"]
    },
    {
        "minLevel": 23,
        "maxLevel": 23,
        "area": "dark-cave-blackthorn-city-entrance",
        "method": "walk",
        "location": "dark-cave",
        "conditions": ["time-day"]
    },
    {
        "minLevel": 23,
        "maxLevel": 23,
        "area": "dark-cave-blackthorn-city-entrance",
        "method": "walk",
        "location": "dark-cave",
        "conditions": ["time-morning"]
    },
    {
        "minLevel": 23,
        "maxLevel": 23,
        "area": "dark-cave-blackthorn-city-entrance",
        "method": "walk",
        "location": "dark-cave",
        "conditions": ["time-night"]
    },
    {
        "minLevel": 14,
        "maxLevel": 14,
        "area": "mt-mortar-1f",
        "method": "walk",
        "location": "mt-mortar",
        "conditions": ["time-day"]
    },
    {
        "minLevel": 14,
        "maxLevel": 14,
        "area": "mt-mortar-1f",
        "method": "walk",
        "location": "mt-mortar",
        "conditions": ["time-morning"]
    },
    {
        "minLevel": 14,
        "maxLevel": 14,
        "area": "mt-mortar-1f",
        "method": "walk",
        "location": "mt-mortar",
        "conditions": ["time-night"]
    },
    {
        "minLevel": 13,
        "maxLevel": 13,
        "area": "mt-mortar-lower-cave",
        "method": "walk",
        "location": "mt-mortar",
        "conditions": ["time-day"]
    },
    {
        "minLevel": 13,
        "maxLevel": 13,
        "area": "mt-mortar-lower-cave",
        "method": "walk",
        "location": "mt-mortar",
        "conditions": ["time-morning"]
    },
    {
        "minLevel": 13,
        "maxLevel": 13,
        "area": "mt-mortar-lower-cave",
        "method": "walk",
        "location": "mt-mortar",
        "conditions": ["time-night"]
    },
    {
        "minLevel": 31,
        "maxLevel": 31,
        "area": "mt-mortar-upper-cave",
        "method": "walk",
        "location": "mt-mortar",
        "conditions": ["time-day"]
    },
    {
        "minLevel": 31,
        "maxLevel": 31,
        "area": "mt-mortar-upper-cave",
        "method": "walk",
        "location": "mt-mortar",
        "conditions": ["time-morning"]
    },
    {
        "minLevel": 31,
        "maxLevel": 31,
        "area": "mt-mortar-upper-cave",
        "method": "walk",
        "location": "mt-mortar",
        "conditions": ["time-night"]
    },
    {
        "minLevel": 16,
        "maxLevel": 16,
        "area": "mt-mortar-b1f",
        "method": "walk",
        "location": "mt-mortar",
        "conditions": ["time-day"]
    },
    {
        "minLevel": 16,
        "maxLevel": 16,
        "area": "mt-mortar-b1f",
        "method": "walk",
        "location": "mt-mortar",
        "conditions": ["time-morning"]
    },
    {
        "minLevel": 16,
        "maxLevel": 16,
        "area": "mt-mortar-b1f",
        "method": "walk",
        "location": "mt-mortar",
        "conditions": ["time-night"]
    },
    {
        "minLevel": 6,
        "maxLevel": 6,
        "area": "johto-route-33-area",
        "method": "walk",
        "location": "johto-route-33",
        "conditions": ["time-day"]
    },
    {
        "minLevel": 6,
        "maxLevel": 6,
        "area": "johto-route-33-area",
        "method": "walk",
        "location": "johto-route-33",
        "conditions": ["time-morning"]
    },
    {
        "minLevel": 6,
        "maxLevel": 6,
        "area": "johto-route-33-area",
        "method": "walk",
        "location": "johto-route-33",
        "conditions": ["time-night"]
    },
    {
        "minLevel": 23,
        "maxLevel": 23,
        "area": "johto-route-45-area",
        "method": "walk",
        "location": "johto-route-45",
        "conditions": ["time-day"]
    },
    {
        "minLevel": 23,
        "maxLevel": 23,
        "area": "johto-route-45-area",
        "method": "walk",
        "location": "johto-route-45",
        "conditions": ["time-morning"]
    },
    {
        "minLevel": 23,
        "maxLevel": 23,
        "area": "johto-route-45-area",
        "method": "walk",
        "location": "johto-route-45",
        "conditions": ["time-night"]
    },
    {
        "minLevel": 2,
        "maxLevel": 2,
        "area": "johto-route-46-area",
        "method": "walk",
        "location": "johto-route-46",
        "conditions": ["time-day"]
    },
    {
        "minLevel": 3,
        "maxLevel": 3,
        "area": "johto-route-46-area",
        "method": "walk",
        "location": "johto-route-46",
        "conditions": ["time-day"]
    },
    {
        "minLevel": 2,
        "maxLevel": 2,
        "area": "johto-route-46-area",
        "method": "walk",
        "location": "johto-route-46",
        "conditions": ["time-morning"]
    },
    {
        "minLevel": 3,
        "maxLevel": 3,
        "area": "johto-route-46-area",
        "method": "walk",
        "location": "johto-route-46",
        "conditions": ["time-morning"]
    },
    {
        "minLevel": 2,
        "maxLevel": 2,
        "area": "johto-route-46-area",
        "method": "walk",
        "location": "johto-route-46",
        "conditions": ["time-night"]
    },
    {
        "minLevel": 3,
        "maxLevel": 3,
        "area": "johto-route-46-area",
        "method": "walk",
        "location": "johto-route-46",
        "conditions": ["time-night"]
    },
    {
        "minLevel": 6,
        "maxLevel": 6,
        "area": "union-cave-1f",
        "method": "walk",
        "location": "union-cave",
        "conditions": ["time-day"]
    },
    {
        "minLevel": 6,
        "maxLevel": 6,
        "area": "union-cave-1f",
        "method": "walk",
        "location": "union-cave",
        "conditions": ["time-morning"]
    },
    {
        "minLevel": 6,
        "maxLevel": 6,
        "area": "union-cave-1f",
        "method": "walk",
        "location": "union-cave",
        "conditions": ["time-night"]
    },
    {
        "minLevel": 8,
        "maxLevel": 8,
        "area": "union-cave-b1f",
        "method": "walk",
        "location": "union-cave",
        "conditions": ["time-day"]
    },
    {
        "minLevel": 8,
        "maxLevel": 8,
        "area": "union-cave-b1f",
        "method": "walk",
        "location": "union-cave",
        "conditions": ["time-morning"]
    },
    {
        "minLevel": 8,
        "maxLevel": 8,
        "area": "union-cave-b1f",
        "method": "walk",
        "location": "union-cave",
        "conditions": ["time-night"]
    },
    {
        "minLevel": 20,
        "maxLevel": 20,
        "area": "union-cave-b2f",
        "method": "walk",
        "location": "union-cave",
        "conditions": ["time-day"]
    },
    {
        "minLevel": 20,
        "maxLevel": 20,
        "area": "union-cave-b2f",
        "method": "walk",
        "location": "union-cave",
        "conditions": ["time-morning"]
    },
    {
        "minLevel": 20,
        "maxLevel": 20,
        "area": "union-cave-b2f",
        "method": "walk",
        "location": "union-cave",
        "conditions": ["time-night"]
    }
]