[
    {
        "minLevel": 15,
        "maxLevel": 19,
        "area": "ilex-forest-area",
        "method": "surf",
        "location": "ilex-forest",
        "conditions": []
    },
    {
        "minLevel": 48,
        "maxLevel": 48,
        "area": "mt-silver-2f",
        "method": "walk",
        "location": "mt-silver",
        "conditions": ["time-night"]
    },
    {
        "minLevel": 40,
        "maxLevel": 44,
        "area": "mt-silver-2f",
        "method": "surf",
        "location": "mt-silver",
        "conditions": []
    },
    {
        "minLevel": 45,
        "maxLevel": 45,
        "area": "mt-silver-top",
        "method": "walk",
        "location": "mt-silver",
        "conditions": ["time-night"]
    },
    {
        "minLevel": 20,
        "maxLevel": 24,
        "area": "johto-route-35-area",
        "method": "surf",
        "location": "johto-route-35",
        "conditions": []
    }
]