[
    {
        "minLevel": 20,
        "maxLevel": 20,
        "area": "lake-of-rage-area",
        "method": "good-rod",
        "location": "lake-of-rage",
        "conditions": []
    },
    {
        "minLevel": 40,
        "maxLevel": 40,
        "area": "lake-of-rage-area",
        "method": "super-rod",
        "location": "lake-of-rage",
        "conditions": []
    },
    {
        "minLevel": 15,
        "maxLevel": 19,
        "area": "lake-of-rage-area",
        "method": "surf",
        "location": "lake-of-rage",
        "conditions": []
    }
]