[
    {
        "minLevel": 22,
        "maxLevel": 22,
        "area": "ice-path-b1f",
        "method": "walk",
        "location": "ice-path",
        "conditions": ["time-day"]
    },
    {
        "minLevel": 22,
        "maxLevel": 22,
        "area": "ice-path-b1f",
        "method": "walk",
        "location": "ice-path",
        "conditions": ["time-morning"]
    },
    {
        "minLevel": 22,
        "maxLevel": 22,
        "area": "ice-path-b2f",
        "method": "walk",
        "location": "ice-path",
        "conditions": ["time-day"]
    },
    {
        "minLevel": 24,
        "maxLevel": 24,
        "area": "ice-path-b2f",
        "method": "walk",
        "location": "ice-path",
        "conditions": ["time-day"]
    },
    {
        "minLevel": 22,
        "maxLevel": 22,
        "area": "ice-path-b2f",
        "method": "walk",
        "location": "ice-path",
        "conditions": ["time-morning"]
    },
    {
        "minLevel": 24,
        "maxLevel": 24,
        "area": "ice-path-b2f",
        "method": "walk",
        "location": "ice-path",
        "conditions": ["time-morning"]
    },
    {
        "minLevel": 22,
        "maxLevel": 22,
        "area": "ice-path-b3f",
        "method": "walk",
        "location": "ice-path",
        "conditions": ["time-day"]
    },
    {
        "minLevel": 24,
        "maxLevel": 24,
        "area": "ice-path-b3f",
        "method": "walk",
        "location": "ice-path",
        "conditions": ["time-day"]
    },
    {
        "minLevel": 26,
        "maxLevel": 26,
        "area": "ice-path-b3f",
        "method": "walk",
        "location": "ice-path",
        "conditions": ["time-day"]
    },
    {
        "minLevel": 22,
        "maxLevel": 22,
        "area": "ice-path-b3f",
        "method": "walk",
        "location": "ice-path",
        "conditions": ["time-morning"]
    },
    {
        "minLevel": 24,
        "maxLevel": 24,
        "area": "ice-path-b3f",
        "method": "walk",
        "location": "ice-path",
        "conditions": ["time-morning"]
    },
    {
        "minLevel": 26,
        "maxLevel": 26,
        "area": "ice-path-b3f",
        "method": "walk",
        "location": "ice-path",
        "conditions": ["time-morning"]
    }
]