[
    {
        "minLevel": 7,
        "maxLevel": 7,
        "area": "ilex-forest-area",
        "method": "walk",
        "location": "ilex-forest",
        "conditions": ["time-day"]
    },
    {
        "minLevel": 7,
        "maxLevel": 7,
        "area": "ilex-forest-area",
        "method": "walk",
        "location": "ilex-forest",
        "conditions": ["time-morning"]
    }
]