[
    {
        "minLevel": 16,
        "maxLevel": 16,
        "area": "johto-route-38-area",
        "method": "walk",
        "location": "johto-route-38",
        "conditions": ["time-day"]
    },
    {
        "minLevel": 16,
        "maxLevel": 16,
        "area": "johto-route-38-area",
        "method": "walk",
        "location": "johto-route-38",
        "conditions": ["time-morning"]
    },
    {
        "minLevel": 16,
        "maxLevel": 16,
        "area": "johto-route-38-area",
        "method": "walk",
        "location": "johto-route-38",
        "conditions": ["time-night"]
    },
    {
        "minLevel": 16,
        "maxLevel": 16,
        "area": "johto-route-39-area",
        "method": "walk",
        "location": "johto-route-39",
        "conditions": ["time-day"]
    },
    {
        "minLevel": 16,
        "maxLevel": 16,
        "area": "johto-route-39-area",
        "method": "walk",
        "location": "johto-route-39",
        "conditions": ["time-morning"]
    },
    {
        "minLevel": 16,
        "maxLevel": 16,
        "area": "johto-route-39-area",
        "method": "walk",
        "location": "johto-route-39",
        "conditions": ["time-night"]
    }
]