[
    {
        "minLevel": 20,
        "maxLevel": 20,
        "area": "ruins-of-alph-outside",
        "method": "walk",
        "location": "ruins-of-alph",
        "conditions": ["time-day"]
    },
    {
        "minLevel": 22,
        "maxLevel": 22,
        "area": "ruins-of-alph-outside",
        "method": "walk",
        "location": "ruins-of-alph",
        "conditions": ["time-day"]
    },
    {
        "minLevel": 18,
        "maxLevel": 18,
        "area": "ruins-of-alph-outside",
        "method": "walk",
        "location": "ruins-of-alph",
        "conditions": ["time-day"]
    },
    {
        "minLevel": 24,
        "maxLevel": 24,
        "area": "ruins-of-alph-outside",
        "method": "walk",
        "location": "ruins-of-alph",
        "conditions": ["time-day"]
    },
    {
        "minLevel": 20,
        "maxLevel": 20,
        "area": "ruins-of-alph-outside",
        "method": "walk",
        "location": "ruins-of-alph",
        "conditions": ["time-morning"]
    },
    {
        "minLevel": 22,
        "maxLevel": 22,
        "area": "ruins-of-alph-outside",
        "method": "walk",
        "location": "ruins-of-alph",
        "conditions": ["time-morning"]
    },
    {
        "minLevel": 18,
        "maxLevel": 18,
        "area": "ruins-of-alph-outside",
        "method": "walk",
        "location": "ruins-of-alph",
        "conditions": ["time-morning"]
    },
    {
        "minLevel": 24,
        "maxLevel": 24,
        "area": "ruins-of-alph-outside",
        "method": "walk",
        "location": "ruins-of-alph",
        "conditions": ["time-morning"]
    },
    {
        "minLevel": 20,
        "maxLevel": 20,
        "area": "ruins-of-alph-outside",
        "method": "walk",
        "location": "ruins-of-alph",
        "conditions": ["time-night"]
    },
    {
        "minLevel": 22,
        "maxLevel": 22,
        "area": "ruins-of-alph-outside",
        "method": "walk",
        "location": "ruins-of-alph",
        "conditions": ["time-night"]
    },
    {
        "minLevel": 18,
        "maxLevel": 18,
        "area": "ruins-of-alph-outside",
        "method": "walk",
        "location": "ruins-of-alph",
        "conditions": ["time-night"]
    },
    {
        "minLevel": 24,
        "maxLevel": 24,
        "area": "ruins-of-alph-outside",
        "method": "walk",
        "location": "ruins-of-alph",
        "conditions": ["time-night"]
    }
]