[
    {
        "minLevel": 14,
        "maxLevel": 14,
        "area": "johto-route-37-area",
        "method": "walk",
        "location": "johto-route-37",
        "conditions": ["time-night"]
    },
    {
        "minLevel": 16,
        "maxLevel": 16,
        "area": "johto-route-37-area",
        "method": "walk",
        "location": "johto-route-37",
        "conditions": ["time-night"]
    }
]