[
    {
        "minLevel": 30,
        "maxLevel": 40,
        "area": "seafoam-islands-b4f",
        "method": "surf",
        "location": "seafoam-islands",
        "conditions": []
    },
    {
        "minLevel": 20,
        "maxLevel": 20,
        "area": "seafoam-islands-b4f",
        "method": "good-rod",
        "location": "seafoam-islands",
        "conditions": []
    },
    {
        "minLevel": 40,
        "maxLevel": 40,
        "area": "seafoam-islands-b4f",
        "method": "super-rod",
        "location": "seafoam-islands",
        "conditions": []
    }
]