[
    {
        "minLevel": 6,
        "maxLevel": 6,
        "area": "kanto-route-3-area",
        "method": "walk",
        "location": "kanto-route-3",
        "conditions": []
    },
    {
        "minLevel": 6,
        "maxLevel": 6,
        "area": "kanto-route-3-area",
        "method": "walk",
        "location": "kanto-route-3",
        "conditions": []
    },
    {
        "minLevel": 6,
        "maxLevel": 6,
        "area": "kanto-route-4-area",
        "method": "walk",
        "location": "kanto-route-4",
        "conditions": []
    },
    {
        "minLevel": 6,
        "maxLevel": 6,
        "area": "kanto-route-4-area",
        "method": "walk",
        "location": "kanto-route-4",
        "conditions": []
    }
]