[
    {
        "minLevel": 23,
        "maxLevel": 23,
        "area": "kanto-route-13-area",
        "method": "walk",
        "location": "kanto-route-13",
        "conditions": ["swarm-no"]
    },
    {
        "minLevel": 23,
        "maxLevel": 23,
        "area": "kanto-route-13-area",
        "method": "walk",
        "location": "kanto-route-13",
        "conditions": ["radio-off"]
    },
    {
        "minLevel": 23,
        "maxLevel": 23,
        "area": "kanto-route-14-area",
        "method": "walk",
        "location": "kanto-route-14",
        "conditions": []
    },
    {
        "minLevel": 23,
        "maxLevel": 23,
        "area": "kanto-route-14-area",
        "method": "walk",
        "location": "kanto-route-14",
        "conditions": ["radio-off"]
    },
    {
        "minLevel": 23,
        "maxLevel": 23,
        "area": "kanto-route-15-area",
        "method": "walk",
        "location": "kanto-route-15",
        "conditions": []
    },
    {
        "minLevel": 23,
        "maxLevel": 23,
        "area": "kanto-route-15-area",
        "method": "walk",
        "location": "kanto-route-15",
        "conditions": ["radio-off"]
    }
]