[
    {
        "minLevel": 5,
        "maxLevel": 5,
        "area": "viridian-forest-area",
        "method": "walk",
        "location": "viridian-forest",
        "conditions": ["radio-hoenn"]
    },
    {
        "minLevel": 5,
        "maxLevel": 5,
        "area": "viridian-forest-area",
        "method": "walk",
        "location": "viridian-forest",
        "conditions": ["radio-hoenn"]
    }
]