[
    {
        "minLevel": 10,
        "maxLevel": 10,
        "area": "kanto-route-24-area",
        "method": "walk",
        "location": "kanto-route-24",
        "conditions": ["time-night"]
    },
    {
        "minLevel": 10,
        "maxLevel": 10,
        "area": "kanto-route-24-area",
        "method": "walk",
        "location": "kanto-route-24",
        "conditions": [
            "radio-off",
            "time-night"
        ]
    },
    {
        "minLevel": 10,
        "maxLevel": 10,
        "area": "kanto-route-25-area",
        "method": "walk",
        "location": "kanto-route-25",
        "conditions": [
            "swarm-no",
            "time-night"
        ]
    },
    {
        "minLevel": 10,
        "maxLevel": 10,
        "area": "kanto-route-25-area",
        "method": "walk",
        "location": "kanto-route-25",
        "conditions": [
            "radio-off",
            "time-night"
        ]
    },
    {
        "minLevel": 13,
        "maxLevel": 13,
        "area": "kanto-route-5-area",
        "method": "walk",
        "location": "kanto-route-5",
        "conditions": ["time-night"]
    },
    {
        "minLevel": 13,
        "maxLevel": 13,
        "area": "kanto-route-5-area",
        "method": "walk",
        "location": "kanto-route-5",
        "conditions": ["time-night"]
    },
    {
        "minLevel": 13,
        "maxLevel": 13,
        "area": "kanto-route-5-area",
        "method": "walk",
        "location": "kanto-route-5",
        "conditions": [
            "radio-off",
            "time-night"
        ]
    },
    {
        "minLevel": 13,
        "maxLevel": 13,
        "area": "kanto-route-5-area",
        "method": "walk",
        "location": "kanto-route-5",
        "conditions": [
            "radio-off",
            "time-night"
        ]
    },
    {
        "minLevel": 13,
        "maxLevel": 13,
        "area": "kanto-route-6-area",
        "method": "walk",
        "location": "kanto-route-6",
        "conditions": ["time-night"]
    },
    {
        "minLevel": 13,
        "maxLevel": 13,
        "area": "kanto-route-6-area",
        "method": "walk",
        "location": "kanto-route-6",
        "conditions": ["time-night"]
    },
    {
        "minLevel": 13,
        "maxLevel": 13,
        "area": "kanto-route-6-area",
        "method": "walk",
        "location": "kanto-route-6",
        "conditions": [
            "radio-off",
            "time-night"
        ]
    },
    {
        "minLevel": 13,
        "maxLevel": 13,
        "area": "kanto-route-6-area",
        "method": "walk",
        "location": "kanto-route-6",
        "conditions": [
            "radio-off",
            "time-night"
        ]
    }
]