{
    "encounters": [
        "spearow",
        "fearow",
        "meowth",
        "persian",
        "psyduck",
        "tentacool",
        "tentacruel",
        "slowpoke",
        "krabby",
        "kingler",
        "tangela",
        "horsea",
        "seadra",
        "magikarp",
        "gyarados"
    ],
    "id": "treasure-beach-area"
}