[
    {
        "minLevel": 50,
        "maxLevel": 50,
        "area": "kalos-route-21-area",
        "method": "purple-flowers",
        "location": "kalos-route-21",
        "conditions": []
    },
    {
        "minLevel": 51,
        "maxLevel": 51,
        "area": "kalos-route-21-area",
        "method": "purple-flowers",
        "location": "kalos-route-21",
        "conditions": []
    },
    {
        "minLevel": 50,
        "maxLevel": 50,
        "area": "kalos-route-21-area",
        "method": "red-flowers",
        "location": "kalos-route-21",
        "conditions": []
    },
    {
        "minLevel": 51,
        "maxLevel": 51,
        "area": "kalos-route-21-area",
        "method": "red-flowers",
        "location": "kalos-route-21",
        "conditions": []
    }
]