[
    {
        "minLevel": 14,
        "maxLevel": 14,
        "area": "kalos-route-8-area",
        "method": "walk",
        "location": "kalos-route-8",
        "conditions": []
    },
    {
        "minLevel": 15,
        "maxLevel": 15,
        "area": "kalos-route-8-area",
        "method": "walk",
        "location": "kalos-route-8",
        "conditions": []
    },
    {
        "minLevel": 14,
        "maxLevel": 14,
        "area": "kalos-route-8-area",
        "method": "yellow-flowers",
        "location": "kalos-route-8",
        "conditions": []
    },
    {
        "minLevel": 15,
        "maxLevel": 15,
        "area": "kalos-route-8-area",
        "method": "yellow-flowers",
        "location": "kalos-route-8",
        "conditions": []
    }
]