[
    {
        "minLevel": 34,
        "maxLevel": 34,
        "area": "kalos-route-15-area",
        "method": "surf",
        "location": "kalos-route-15",
        "conditions": []
    },
    {
        "minLevel": 36,
        "maxLevel": 36,
        "area": "kalos-route-15-area",
        "method": "surf",
        "location": "kalos-route-15",
        "conditions": []
    },
    {
        "minLevel": 35,
        "maxLevel": 35,
        "area": "kalos-route-16-area",
        "method": "yellow-flowers",
        "location": "kalos-route-16",
        "conditions": []
    },
    {
        "minLevel": 36,
        "maxLevel": 36,
        "area": "kalos-route-16-area",
        "method": "yellow-flowers",
        "location": "kalos-route-16",
        "conditions": []
    },
    {
        "minLevel": 34,
        "maxLevel": 34,
        "area": "kalos-route-16-area",
        "method": "surf",
        "location": "kalos-route-16",
        "conditions": []
    },
    {
        "minLevel": 36,
        "maxLevel": 36,
        "area": "kalos-route-16-area",
        "method": "surf",
        "location": "kalos-route-16",
        "conditions": []
    },
    {
        "minLevel": 38,
        "maxLevel": 38,
        "area": "frost-cavern-unknown-area-313",
        "method": "surf",
        "location": "frost-cavern",
        "conditions": []
    },
    {
        "minLevel": 40,
        "maxLevel": 40,
        "area": "frost-cavern-unknown-area-313",
        "method": "surf",
        "location": "frost-cavern",
        "conditions": []
    },
    {
        "minLevel": 38,
        "maxLevel": 38,
        "area": "frost-cavern-unknown-area-315",
        "method": "surf",
        "location": "frost-cavern",
        "conditions": []
    },
    {
        "minLevel": 40,
        "maxLevel": 40,
        "area": "frost-cavern-unknown-area-315",
        "method": "surf",
        "location": "frost-cavern",
        "conditions": []
    },
    {
        "minLevel": 44,
        "maxLevel": 44,
        "area": "couriway-town-area",
        "method": "surf",
        "location": "couriway-town",
        "conditions": []
    },
    {
        "minLevel": 46,
        "maxLevel": 46,
        "area": "couriway-town-area",
        "method": "surf",
        "location": "couriway-town",
        "conditions": []
    },
    {
        "minLevel": 50,
        "maxLevel": 50,
        "area": "kalos-route-21-area",
        "method": "purple-flowers",
        "location": "kalos-route-21",
        "conditions": []
    },
    {
        "minLevel": 51,
        "maxLevel": 51,
        "area": "kalos-route-21-area",
        "method": "purple-flowers",
        "location": "kalos-route-21",
        "conditions": []
    },
    {
        "minLevel": 52,
        "maxLevel": 52,
        "area": "kalos-route-21-area",
        "method": "purple-flowers",
        "location": "kalos-route-21",
        "conditions": []
    },
    {
        "minLevel": 50,
        "maxLevel": 50,
        "area": "kalos-route-21-area",
        "method": "purple-flowers",
        "location": "kalos-route-21",
        "conditions": []
    },
    {
        "minLevel": 52,
        "maxLevel": 52,
        "area": "kalos-route-21-area",
        "method": "red-flowers",
        "location": "kalos-route-21",
        "conditions": []
    },
    {
        "minLevel": 50,
        "maxLevel": 50,
        "area": "kalos-route-21-area",
        "method": "surf",
        "location": "kalos-route-21",
        "conditions": []
    },
    {
        "minLevel": 52,
        "maxLevel": 52,
        "area": "kalos-route-21-area",
        "method": "surf",
        "location": "kalos-route-21",
        "conditions": []
    },
    {
        "minLevel": 57,
        "maxLevel": 57,
        "area": "kalos-victory-road-unknown-area-322",
        "method": "surf",
        "location": "kalos-victory-road",
        "conditions": []
    },
    {
        "minLevel": 59,
        "maxLevel": 59,
        "area": "kalos-victory-road-unknown-area-322",
        "method": "surf",
        "location": "kalos-victory-road",
        "conditions": []
    },
    {
        "minLevel": 57,
        "maxLevel": 57,
        "area": "kalos-victory-road-unknown-area-327",
        "method": "surf",
        "location": "kalos-victory-road",
        "conditions": []
    },
    {
        "minLevel": 59,
        "maxLevel": 59,
        "area": "kalos-victory-road-unknown-area-327",
        "method": "surf",
        "location": "kalos-victory-road",
        "conditions": []
    },
    {
        "minLevel": 57,
        "maxLevel": 57,
        "area": "kalos-victory-road-unknown-area-328",
        "method": "surf",
        "location": "kalos-victory-road",
        "conditions": []
    },
    {
        "minLevel": 59,
        "maxLevel": 59,
        "area": "kalos-victory-road-unknown-area-328",
        "method": "surf",
        "location": "kalos-victory-road",
        "conditions": []
    }
]