[
    {
        "minLevel": 19,
        "maxLevel": 19,
        "area": "kalos-route-10-area",
        "method": "walk",
        "location": "kalos-route-10",
        "conditions": []
    },
    {
        "minLevel": 20,
        "maxLevel": 20,
        "area": "kalos-route-10-area",
        "method": "walk",
        "location": "kalos-route-10",
        "conditions": []
    },
    {
        "minLevel": 21,
        "maxLevel": 21,
        "area": "kalos-route-10-area",
        "method": "yellow-flowers",
        "location": "kalos-route-10",
        "conditions": []
    }
]