[
    {
        "minLevel": 30,
        "maxLevel": 30,
        "area": "kalos-route-14-area",
        "method": "walk",
        "location": "kalos-route-14",
        "conditions": []
    },
    {
        "minLevel": 30,
        "maxLevel": 30,
        "area": "kalos-route-14-area",
        "method": "rough-terrain",
        "location": "kalos-route-14",
        "conditions": []
    },
    {
        "minLevel": 47,
        "maxLevel": 47,
        "area": "kalos-route-19-area",
        "method": "yellow-flowers",
        "location": "kalos-route-19",
        "conditions": []
    },
    {
        "minLevel": 47,
        "maxLevel": 47,
        "area": "kalos-route-19-area",
        "method": "purple-flowers",
        "location": "kalos-route-19",
        "conditions": []
    },
    {
        "minLevel": 47,
        "maxLevel": 47,
        "area": "kalos-route-19-area",
        "method": "rough-terrain",
        "location": "kalos-route-19",
        "conditions": []
    }
]