[
    {
        "minLevel": 10,
        "maxLevel": 10,
        "area": "kalos-route-5-area",
        "method": "walk",
        "location": "kalos-route-5",
        "conditions": []
    },
    {
        "minLevel": 8,
        "maxLevel": 8,
        "area": "kalos-route-5-area",
        "method": "purple-flowers",
        "location": "kalos-route-5",
        "conditions": []
    },
    {
        "minLevel": 9,
        "maxLevel": 9,
        "area": "kalos-route-5-area",
        "method": "purple-flowers",
        "location": "kalos-route-5",
        "conditions": []
    }
]