[
    {
        "minLevel": 3,
        "maxLevel": 3,
        "area": "santalune-forest-area",
        "method": "walk",
        "location": "santalune-forest",
        "conditions": []
    },
    {
        "minLevel": 4,
        "maxLevel": 4,
        "area": "santalune-forest-area",
        "method": "walk",
        "location": "santalune-forest",
        "conditions": []
    },
    {
        "minLevel": 4,
        "maxLevel": 4,
        "area": "kalos-route-3-area",
        "method": "walk",
        "location": "kalos-route-3",
        "conditions": []
    },
    {
        "minLevel": 5,
        "maxLevel": 5,
        "area": "kalos-route-3-area",
        "method": "walk",
        "location": "kalos-route-3",
        "conditions": []
    }
]