[
    {
        "minLevel": 35,
        "maxLevel": 35,
        "area": "kalos-route-14-area",
        "method": "good-rod",
        "location": "kalos-route-14",
        "conditions": []
    },
    {
        "minLevel": 35,
        "maxLevel": 35,
        "area": "kalos-route-14-area",
        "method": "super-rod",
        "location": "kalos-route-14",
        "conditions": []
    },
    {
        "minLevel": 35,
        "maxLevel": 35,
        "area": "kalos-route-14-area",
        "method": "super-rod",
        "location": "kalos-route-14",
        "conditions": []
    },
    {
        "minLevel": 25,
        "maxLevel": 25,
        "area": "laverre-city-area",
        "method": "good-rod",
        "location": "laverre-city",
        "conditions": []
    },
    {
        "minLevel": 35,
        "maxLevel": 35,
        "area": "laverre-city-area",
        "method": "super-rod",
        "location": "laverre-city",
        "conditions": []
    },
    {
        "minLevel": 35,
        "maxLevel": 35,
        "area": "laverre-city-area",
        "method": "super-rod",
        "location": "laverre-city",
        "conditions": []
    },
    {
        "minLevel": 25,
        "maxLevel": 25,
        "area": "kalos-route-15-area",
        "method": "good-rod",
        "location": "kalos-route-15",
        "conditions": []
    },
    {
        "minLevel": 35,
        "maxLevel": 35,
        "area": "kalos-route-15-area",
        "method": "super-rod",
        "location": "kalos-route-15",
        "conditions": []
    },
    {
        "minLevel": 35,
        "maxLevel": 35,
        "area": "kalos-route-15-area",
        "method": "super-rod",
        "location": "kalos-route-15",
        "conditions": []
    },
    {
        "minLevel": 25,
        "maxLevel": 25,
        "area": "kalos-route-16-area",
        "method": "good-rod",
        "location": "kalos-route-16",
        "conditions": []
    },
    {
        "minLevel": 35,
        "maxLevel": 35,
        "area": "kalos-route-16-area",
        "method": "super-rod",
        "location": "kalos-route-16",
        "conditions": []
    },
    {
        "minLevel": 35,
        "maxLevel": 35,
        "area": "kalos-route-16-area",
        "method": "super-rod",
        "location": "kalos-route-16",
        "conditions": []
    },
    {
        "minLevel": 38,
        "maxLevel": 38,
        "area": "frost-cavern-unknown-area-313",
        "method": "surf",
        "location": "frost-cavern",
        "conditions": []
    },
    {
        "minLevel": 39,
        "maxLevel": 39,
        "area": "frost-cavern-unknown-area-313",
        "method": "surf",
        "location": "frost-cavern",
        "conditions": []
    },
    {
        "minLevel": 40,
        "maxLevel": 40,
        "area": "frost-cavern-unknown-area-313",
        "method": "surf",
        "location": "frost-cavern",
        "conditions": []
    },
    {
        "minLevel": 30,
        "maxLevel": 30,
        "area": "frost-cavern-unknown-area-313",
        "method": "good-rod",
        "location": "frost-cavern",
        "conditions": []
    },
    {
        "minLevel": 40,
        "maxLevel": 40,
        "area": "frost-cavern-unknown-area-313",
        "method": "super-rod",
        "location": "frost-cavern",
        "conditions": []
    },
    {
        "minLevel": 40,
        "maxLevel": 40,
        "area": "frost-cavern-unknown-area-313",
        "method": "super-rod",
        "location": "frost-cavern",
        "conditions": []
    },
    {
        "minLevel": 38,
        "maxLevel": 38,
        "area": "frost-cavern-unknown-area-315",
        "method": "surf",
        "location": "frost-cavern",
        "conditions": []
    },
    {
        "minLevel": 39,
        "maxLevel": 39,
        "area": "frost-cavern-unknown-area-315",
        "method": "surf",
        "location": "frost-cavern",
        "conditions": []
    },
    {
        "minLevel": 40,
        "maxLevel": 40,
        "area": "frost-cavern-unknown-area-315",
        "method": "surf",
        "location": "frost-cavern",
        "conditions": []
    },
    {
        "minLevel": 30,
        "maxLevel": 30,
        "area": "frost-cavern-unknown-area-315",
        "method": "good-rod",
        "location": "frost-cavern",
        "conditions": []
    },
    {
        "minLevel": 40,
        "maxLevel": 40,
        "area": "frost-cavern-unknown-area-315",
        "method": "super-rod",
        "location": "frost-cavern",
        "conditions": []
    },
    {
        "minLevel": 40,
        "maxLevel": 40,
        "area": "frost-cavern-unknown-area-315",
        "method": "super-rod",
        "location": "frost-cavern",
        "conditions": []
    },
    {
        "minLevel": 35,
        "maxLevel": 35,
        "area": "couriway-town-area",
        "method": "good-rod",
        "location": "couriway-town",
        "conditions": []
    },
    {
        "minLevel": 45,
        "maxLevel": 45,
        "area": "couriway-town-area",
        "method": "super-rod",
        "location": "couriway-town",
        "conditions": []
    },
    {
        "minLevel": 45,
        "maxLevel": 45,
        "area": "couriway-town-area",
        "method": "super-rod",
        "location": "couriway-town",
        "conditions": []
    },
    {
        "minLevel": 35,
        "maxLevel": 35,
        "area": "kalos-route-19-area",
        "method": "good-rod",
        "location": "kalos-route-19",
        "conditions": []
    },
    {
        "minLevel": 45,
        "maxLevel": 45,
        "area": "kalos-route-19-area",
        "method": "super-rod",
        "location": "kalos-route-19",
        "conditions": []
    },
    {
        "minLevel": 48,
        "maxLevel": 48,
        "area": "pokemon-village-area",
        "method": "surf",
        "location": "pokemon-village",
        "conditions": []
    },
    {
        "minLevel": 50,
        "maxLevel": 50,
        "area": "pokemon-village-area",
        "method": "surf",
        "location": "pokemon-village",
        "conditions": []
    },
    {
        "minLevel": 40,
        "maxLevel": 40,
        "area": "pokemon-village-area",
        "method": "good-rod",
        "location": "pokemon-village",
        "conditions": []
    },
    {
        "minLevel": 50,
        "maxLevel": 50,
        "area": "pokemon-village-area",
        "method": "super-rod",
        "location": "pokemon-village",
        "conditions": []
    },
    {
        "minLevel": 50,
        "maxLevel": 50,
        "area": "pokemon-village-area",
        "method": "super-rod",
        "location": "pokemon-village",
        "conditions": []
    },
    {
        "minLevel": 40,
        "maxLevel": 40,
        "area": "kalos-route-21-area",
        "method": "good-rod",
        "location": "kalos-route-21",
        "conditions": []
    },
    {
        "minLevel": 50,
        "maxLevel": 50,
        "area": "kalos-route-21-area",
        "method": "super-rod",
        "location": "kalos-route-21",
        "conditions": []
    },
    {
        "minLevel": 57,
        "maxLevel": 57,
        "area": "kalos-victory-road-unknown-area-322",
        "method": "surf",
        "location": "kalos-victory-road",
        "conditions": []
    },
    {
        "minLevel": 58,
        "maxLevel": 58,
        "area": "kalos-victory-road-unknown-area-322",
        "method": "surf",
        "location": "kalos-victory-road",
        "conditions": []
    },
    {
        "minLevel": 59,
        "maxLevel": 59,
        "area": "kalos-victory-road-unknown-area-322",
        "method": "surf",
        "location": "kalos-victory-road",
        "conditions": []
    },
    {
        "minLevel": 45,
        "maxLevel": 45,
        "area": "kalos-victory-road-unknown-area-322",
        "method": "good-rod",
        "location": "kalos-victory-road",
        "conditions": []
    },
    {
        "minLevel": 55,
        "maxLevel": 55,
        "area": "kalos-victory-road-unknown-area-322",
        "method": "super-rod",
        "location": "kalos-victory-road",
        "conditions": []
    },
    {
        "minLevel": 55,
        "maxLevel": 55,
        "area": "kalos-victory-road-unknown-area-322",
        "method": "super-rod",
        "location": "kalos-victory-road",
        "conditions": []
    },
    {
        "minLevel": 45,
        "maxLevel": 45,
        "area": "kalos-victory-road-unknown-area-327",
        "method": "good-rod",
        "location": "kalos-victory-road",
        "conditions": []
    },
    {
        "minLevel": 55,
        "maxLevel": 55,
        "area": "kalos-victory-road-unknown-area-327",
        "method": "super-rod",
        "location": "kalos-victory-road",
        "conditions": []
    },
    {
        "minLevel": 55,
        "maxLevel": 55,
        "area": "kalos-victory-road-unknown-area-327",
        "method": "super-rod",
        "location": "kalos-victory-road",
        "conditions": []
    },
    {
        "minLevel": 57,
        "maxLevel": 57,
        "area": "kalos-victory-road-unknown-area-328",
        "method": "surf",
        "location": "kalos-victory-road",
        "conditions": []
    },
    {
        "minLevel": 58,
        "maxLevel": 58,
        "area": "kalos-victory-road-unknown-area-328",
        "method": "surf",
        "location": "kalos-victory-road",
        "conditions": []
    },
    {
        "minLevel": 59,
        "maxLevel": 59,
        "area": "kalos-victory-road-unknown-area-328",
        "method": "surf",
        "location": "kalos-victory-road",
        "conditions": []
    },
    {
        "minLevel": 45,
        "maxLevel": 45,
        "area": "kalos-victory-road-unknown-area-328",
        "method": "good-rod",
        "location": "kalos-victory-road",
        "conditions": []
    },
    {
        "minLevel": 55,
        "maxLevel": 55,
        "area": "kalos-victory-road-unknown-area-328",
        "method": "super-rod",
        "location": "kalos-victory-road",
        "conditions": []
    }
]