[
    {
        "minLevel": 35,
        "maxLevel": 35,
        "area": "cyllage-city-area",
        "method": "super-rod",
        "location": "cyllage-city",
        "conditions": []
    },
    {
        "minLevel": 35,
        "maxLevel": 35,
        "area": "ambrette-town-area",
        "method": "super-rod",
        "location": "ambrette-town",
        "conditions": []
    }
]