[
    {
        "minLevel": 30,
        "maxLevel": 30,
        "area": "kalos-route-14-area",
        "method": "walk",
        "location": "kalos-route-14",
        "conditions": []
    },
    {
        "minLevel": 31,
        "maxLevel": 31,
        "area": "kalos-route-14-area",
        "method": "walk",
        "location": "kalos-route-14",
        "conditions": []
    },
    {
        "minLevel": 34,
        "maxLevel": 34,
        "area": "kalos-route-15-area",
        "method": "walk",
        "location": "kalos-route-15",
        "conditions": []
    },
    {
        "minLevel": 35,
        "maxLevel": 35,
        "area": "kalos-route-15-area",
        "method": "walk",
        "location": "kalos-route-15",
        "conditions": []
    },
    {
        "minLevel": 36,
        "maxLevel": 36,
        "area": "kalos-route-15-area",
        "method": "red-flowers",
        "location": "kalos-route-15",
        "conditions": []
    },
    {
        "minLevel": 34,
        "maxLevel": 34,
        "area": "kalos-route-16-area",
        "method": "yellow-flowers",
        "location": "kalos-route-16",
        "conditions": []
    },
    {
        "minLevel": 35,
        "maxLevel": 35,
        "area": "kalos-route-16-area",
        "method": "yellow-flowers",
        "location": "kalos-route-16",
        "conditions": []
    }
]