[
    {
        "minLevel": 23,
        "maxLevel": 23,
        "area": "kalos-route-12-area",
        "method": "walk",
        "location": "kalos-route-12",
        "conditions": []
    },
    {
        "minLevel": 24,
        "maxLevel": 24,
        "area": "kalos-route-12-area",
        "method": "walk",
        "location": "kalos-route-12",
        "conditions": []
    },
    {
        "minLevel": 25,
        "maxLevel": 25,
        "area": "kalos-route-12-area",
        "method": "walk",
        "location": "kalos-route-12",
        "conditions": []
    },
    {
        "minLevel": 27,
        "maxLevel": 27,
        "area": "kalos-route-12-area",
        "method": "yellow-flowers",
        "location": "kalos-route-12",
        "conditions": []
    },
    {
        "minLevel": 25,
        "maxLevel": 25,
        "area": "azure-bay-area",
        "method": "walk",
        "location": "azure-bay",
        "conditions": []
    },
    {
        "minLevel": 26,
        "maxLevel": 26,
        "area": "azure-bay-area",
        "method": "walk",
        "location": "azure-bay",
        "conditions": []
    },
    {
        "minLevel": 27,
        "maxLevel": 27,
        "area": "azure-bay-area",
        "method": "walk",
        "location": "azure-bay",
        "conditions": []
    },
    {
        "minLevel": 27,
        "maxLevel": 27,
        "area": "azure-bay-area",
        "method": "walk",
        "location": "azure-bay",
        "conditions": []
    }
]