[
    {
        "minLevel": 31,
        "maxLevel": 31,
        "area": "kalos-route-14-area",
        "method": "rough-terrain",
        "location": "kalos-route-14",
        "conditions": []
    },
    {
        "minLevel": 32,
        "maxLevel": 32,
        "area": "kalos-route-14-area",
        "method": "rough-terrain",
        "location": "kalos-route-14",
        "conditions": []
    },
    {
        "minLevel": 30,
        "maxLevel": 30,
        "area": "kalos-route-14-area",
        "method": "surf",
        "location": "kalos-route-14",
        "conditions": []
    },
    {
        "minLevel": 31,
        "maxLevel": 31,
        "area": "kalos-route-14-area",
        "method": "surf",
        "location": "kalos-route-14",
        "conditions": []
    },
    {
        "minLevel": 32,
        "maxLevel": 32,
        "area": "kalos-route-14-area",
        "method": "surf",
        "location": "kalos-route-14",
        "conditions": []
    },
    {
        "minLevel": 47,
        "maxLevel": 47,
        "area": "kalos-route-19-area",
        "method": "rough-terrain",
        "location": "kalos-route-19",
        "conditions": []
    },
    {
        "minLevel": 48,
        "maxLevel": 48,
        "area": "kalos-route-19-area",
        "method": "rough-terrain",
        "location": "kalos-route-19",
        "conditions": []
    },
    {
        "minLevel": 46,
        "maxLevel": 46,
        "area": "kalos-route-19-area",
        "method": "surf",
        "location": "kalos-route-19",
        "conditions": []
    },
    {
        "minLevel": 48,
        "maxLevel": 48,
        "area": "kalos-route-19-area",
        "method": "surf",
        "location": "kalos-route-19",
        "conditions": []
    }
]