[
    {
        "minLevel": 22,
        "maxLevel": 22,
        "area": "kalos-route-11-area",
        "method": "walk",
        "location": "kalos-route-11",
        "conditions": []
    },
    {
        "minLevel": 23,
        "maxLevel": 23,
        "area": "kalos-route-11-area",
        "method": "walk",
        "location": "kalos-route-11",
        "conditions": []
    }
]