[
    {
        "minLevel": 31,
        "maxLevel": 31,
        "area": "kalos-route-14-area",
        "method": "walk",
        "location": "kalos-route-14",
        "conditions": []
    },
    {
        "minLevel": 32,
        "maxLevel": 32,
        "area": "kalos-route-14-area",
        "method": "walk",
        "location": "kalos-route-14",
        "conditions": []
    },
    {
        "minLevel": 35,
        "maxLevel": 35,
        "area": "kalos-route-16-area",
        "method": "yellow-flowers",
        "location": "kalos-route-16",
        "conditions": []
    },
    {
        "minLevel": 36,
        "maxLevel": 36,
        "area": "kalos-route-16-area",
        "method": "yellow-flowers",
        "location": "kalos-route-16",
        "conditions": []
    },
    {
        "minLevel": 48,
        "maxLevel": 48,
        "area": "kalos-route-19-area",
        "method": "yellow-flowers",
        "location": "kalos-route-19",
        "conditions": []
    },
    {
        "minLevel": 46,
        "maxLevel": 46,
        "area": "kalos-route-19-area",
        "method": "purple-flowers",
        "location": "kalos-route-19",
        "conditions": []
    },
    {
        "minLevel": 47,
        "maxLevel": 47,
        "area": "kalos-route-19-area",
        "method": "purple-flowers",
        "location": "kalos-route-19",
        "conditions": []
    }
]