{
    "encounters": [
        "pidgey",
        "pidgeotto",
        "oddish",
        "gloom",
        "venonat",
        "venomoth",
        "psyduck",
        "golduck",
        "poliwag",
        "bellsprout",
        "weepinbell",
        "slowpoke",
        "slowbro",
        "drowzee",
        "hypno",
        "exeggcute",
        "goldeen",
        "seaking",
        "magikarp",
        "gyarados"
    ],
    "id": "berry-forest-area"
}