{
    "encounters": [
        "clefairy",
        "golbat",
        "machoke",
        "graveler",
        "nosepass",
        "medicham",
        "lunatone",
        "solrock",
        "chingling",
        "bronzor",
        "bronzong"
    ],
    "id": "mt-coronet-3f"
}