{
    "encounters": [
        "caterpie",
        "metapod",
        "weedle",
        "kakuna",
        "pikachu",
        "pansage",
        "pansear",
        "panpour",
        "fletchling",
        "scatterbug"
    ],
    "id": "santalune-forest-area"
}