{
    "encounters": [
        "numel",
        "camerupt",
        "spoink",
        "grumpig",
        "skorupi",
        "boldore",
        "woobat",
        "excadrill"
    ],
    "id": "reversal-mountain-unknown-area-59"
}