{
    "encounters": [
        "psyduck",
        "poliwag",
        "slowpoke",
        "krabby",
        "goldeen",
        "seaking",
        "magikarp",
        "gyarados"
    ],
    "id": "fuchsia-city-area"
}