{
    "encounters": [
        "golbat",
        "golduck",
        "quagsire",
        "misdreavus",
        "teddiursa",
        "ursaring",
        "phanpy",
        "donphan",
        "larvitar",
        "pupitar",
        "makuhita",
        "absol",
        "chingling",
        "bronzor"
    ],
    "id": "mt-silver-3f"
}