{
    "encounters": [
        "goldeen",
        "seaking",
        "marill",
        "azumarill",
        "vigoroth",
        "slaking",
        "pansage",
        "pansear",
        "panpour",
        "pidove",
        "tranquill",
        "audino",
        "sewaddle",
        "swadloon",
        "venipede",
        "whirlipede",
        "scolipede",
        "cottonee",
        "whimsicott",
        "petilil",
        "lilligant",
        "basculin-red-striped",
        "basculin-blue-striped"
    ],
    "id": "pinwheel-forest-inside"
}