{
    "encounters": [
        "jigglypuff",
        "wigglytuff",
        "golduck",
        "goldeen",
        "seaking",
        "shuckle",
        "swablu",
        "altaria",
        "tropius",
        "absol",
        "buizel",
        "floatzel",
        "drifblim",
        "audino",
        "basculin-red-striped",
        "emolga",
        "beheeyem",
        "mienfoo",
        "mienshao",
        "basculin-blue-striped"
    ],
    "id": "unova-route-14-area"
}