{
    "encounters": [
        "golduck",
        "poliwag",
        "poliwhirl",
        "poliwrath",
        "gligar",
        "buizel",
        "floatzel",
        "gliscor",
        "audino",
        "throh",
        "sawk",
        "basculin-red-striped",
        "emolga",
        "amoonguss",
        "mienfoo",
        "mienshao",
        "bouffalant",
        "rufflet",
        "vullaby",
        "basculin-blue-striped"
    ],
    "id": "unova-route-23-area"
}