[
    {
        "minLevel": 30,
        "maxLevel": 30,
        "area": "kanto-route-26-area",
        "method": "walk",
        "location": "kanto-route-26",
        "conditions": ["time-day"]
    },
    {
        "minLevel": 30,
        "maxLevel": 30,
        "area": "kanto-route-26-area",
        "method": "walk",
        "location": "kanto-route-26",
        "conditions": ["time-day"]
    },
    {
        "minLevel": 30,
        "maxLevel": 30,
        "area": "kanto-route-26-area",
        "method": "walk",
        "location": "kanto-route-26",
        "conditions": ["time-morning"]
    },
    {
        "minLevel": 43,
        "maxLevel": 43,
        "area": "kanto-route-28-area",
        "method": "walk",
        "location": "kanto-route-28",
        "conditions": ["time-day"]
    },
    {
        "minLevel": 43,
        "maxLevel": 43,
        "area": "kanto-route-28-area",
        "method": "walk",
        "location": "kanto-route-28",
        "conditions": ["time-day"]
    },
    {
        "minLevel": 43,
        "maxLevel": 43,
        "area": "kanto-route-28-area",
        "method": "walk",
        "location": "kanto-route-28",
        "conditions": ["time-morning"]
    },
    {
        "minLevel": 43,
        "maxLevel": 43,
        "area": "kanto-route-28-area",
        "method": "walk",
        "location": "kanto-route-28",
        "conditions": ["time-morning"]
    }
]