[
    {
        "minLevel": 4,
        "maxLevel": 4,
        "area": "kanto-route-22-area",
        "method": "walk",
        "location": "kanto-route-22",
        "conditions": ["time-morning"]
    },
    {
        "minLevel": 4,
        "maxLevel": 4,
        "area": "kanto-route-22-area",
        "method": "walk",
        "location": "kanto-route-22",
        "conditions": ["time-day"]
    },
    {
        "minLevel": 28,
        "maxLevel": 28,
        "area": "kanto-route-26-area",
        "method": "walk",
        "location": "kanto-route-26",
        "conditions": ["time-day"]
    },
    {
        "minLevel": 30,
        "maxLevel": 30,
        "area": "kanto-route-26-area",
        "method": "walk",
        "location": "kanto-route-26",
        "conditions": ["time-day"]
    },
    {
        "minLevel": 28,
        "maxLevel": 28,
        "area": "kanto-route-26-area",
        "method": "walk",
        "location": "kanto-route-26",
        "conditions": ["time-morning"]
    },
    {
        "minLevel": 30,
        "maxLevel": 30,
        "area": "kanto-route-26-area",
        "method": "walk",
        "location": "kanto-route-26",
        "conditions": ["time-morning"]
    },
    {
        "minLevel": 28,
        "maxLevel": 28,
        "area": "kanto-route-27-area",
        "method": "walk",
        "location": "kanto-route-27",
        "conditions": ["time-day"]
    },
    {
        "minLevel": 30,
        "maxLevel": 30,
        "area": "kanto-route-27-area",
        "method": "walk",
        "location": "kanto-route-27",
        "conditions": ["time-day"]
    },
    {
        "minLevel": 28,
        "maxLevel": 28,
        "area": "kanto-route-27-area",
        "method": "walk",
        "location": "kanto-route-27",
        "conditions": ["time-morning"]
    },
    {
        "minLevel": 30,
        "maxLevel": 30,
        "area": "kanto-route-27-area",
        "method": "walk",
        "location": "kanto-route-27",
        "conditions": ["time-morning"]
    },
    {
        "minLevel": 41,
        "maxLevel": 41,
        "area": "kanto-route-28-area",
        "method": "walk",
        "location": "kanto-route-28",
        "conditions": ["time-day"]
    },
    {
        "minLevel": 41,
        "maxLevel": 41,
        "area": "kanto-route-28-area",
        "method": "walk",
        "location": "kanto-route-28",
        "conditions": ["time-morning"]
    }
]