[
    {
        "minLevel": 25,
        "maxLevel": 25,
        "area": "kanto-route-13-area",
        "method": "walk",
        "location": "kanto-route-13",
        "conditions": ["time-day"]
    },
    {
        "minLevel": 25,
        "maxLevel": 25,
        "area": "kanto-route-13-area",
        "method": "walk",
        "location": "kanto-route-13",
        "conditions": ["time-morning"]
    },
    {
        "minLevel": 25,
        "maxLevel": 25,
        "area": "kanto-route-14-area",
        "method": "walk",
        "location": "kanto-route-14",
        "conditions": ["time-day"]
    },
    {
        "minLevel": 25,
        "maxLevel": 25,
        "area": "kanto-route-14-area",
        "method": "walk",
        "location": "kanto-route-14",
        "conditions": ["time-morning"]
    },
    {
        "minLevel": 25,
        "maxLevel": 25,
        "area": "kanto-route-15-area",
        "method": "walk",
        "location": "kanto-route-15",
        "conditions": ["time-day"]
    },
    {
        "minLevel": 25,
        "maxLevel": 25,
        "area": "kanto-route-15-area",
        "method": "walk",
        "location": "kanto-route-15",
        "conditions": ["time-morning"]
    },
    {
        "minLevel": 7,
        "maxLevel": 7,
        "area": "kanto-route-2-south-towards-viridian-city",
        "method": "walk",
        "location": "kanto-route-2",
        "conditions": ["time-day"]
    },
    {
        "minLevel": 7,
        "maxLevel": 7,
        "area": "kanto-route-2-south-towards-viridian-city",
        "method": "walk",
        "location": "kanto-route-2",
        "conditions": ["time-morning"]
    },
    {
        "minLevel": 12,
        "maxLevel": 12,
        "area": "kanto-route-25-area",
        "method": "walk",
        "location": "kanto-route-25",
        "conditions": ["time-day"]
    },
    {
        "minLevel": 10,
        "maxLevel": 10,
        "area": "kanto-route-25-area",
        "method": "walk",
        "location": "kanto-route-25",
        "conditions": ["time-morning"]
    },
    {
        "minLevel": 17,
        "maxLevel": 17,
        "area": "kanto-route-8-area",
        "method": "walk",
        "location": "kanto-route-8",
        "conditions": ["time-morning"]
    },
    {
        "minLevel": 19,
        "maxLevel": 19,
        "area": "kanto-route-8-area",
        "method": "walk",
        "location": "kanto-route-8",
        "conditions": ["time-morning"]
    },
    {
        "minLevel": 17,
        "maxLevel": 17,
        "area": "kanto-route-8-area",
        "method": "walk",
        "location": "kanto-route-8",
        "conditions": ["time-day"]
    },
    {
        "minLevel": 19,
        "maxLevel": 19,
        "area": "kanto-route-8-area",
        "method": "walk",
        "location": "kanto-route-8",
        "conditions": ["time-day"]
    }
]