[
    {
        "minLevel": 35,
        "maxLevel": 35,
        "area": "kanto-victory-road-1-1f",
        "method": "walk",
        "location": "kanto-victory-road-1",
        "conditions": []
    },
    {
        "minLevel": 35,
        "maxLevel": 35,
        "area": "kanto-victory-road-1-1f",
        "method": "walk",
        "location": "kanto-victory-road-1",
        "conditions": []
    },
    {
        "minLevel": 35,
        "maxLevel": 35,
        "area": "kanto-victory-road-1-2f",
        "method": "walk",
        "location": "kanto-victory-road-1",
        "conditions": []
    },
    {
        "minLevel": 35,
        "maxLevel": 35,
        "area": "kanto-victory-road-1-2f",
        "method": "walk",
        "location": "kanto-victory-road-1",
        "conditions": []
    },
    {
        "minLevel": 35,
        "maxLevel": 35,
        "area": "kanto-victory-road-1-3f",
        "method": "walk",
        "location": "kanto-victory-road-1",
        "conditions": []
    },
    {
        "minLevel": 35,
        "maxLevel": 35,
        "area": "kanto-victory-road-1-3f",
        "method": "walk",
        "location": "kanto-victory-road-1",
        "conditions": []
    }
]