[
    {
        "minLevel": 10,
        "maxLevel": 30,
        "area": "driftveil-city-area",
        "method": "surf-spots",
        "location": "driftveil-city",
        "conditions": []
    },
    {
        "minLevel": 10,
        "maxLevel": 30,
        "area": "driftveil-city-area",
        "method": "surf-spots",
        "location": "driftveil-city",
        "conditions": []
    },
    {
        "minLevel": 10,
        "maxLevel": 30,
        "area": "driftveil-city-area",
        "method": "surf-spots",
        "location": "driftveil-city",
        "conditions": []
    },
    {
        "minLevel": 5,
        "maxLevel": 20,
        "area": "unova-route-4-area",
        "method": "surf-spots",
        "location": "unova-route-4",
        "conditions": []
    },
    {
        "minLevel": 5,
        "maxLevel": 20,
        "area": "unova-route-4-area",
        "method": "surf-spots",
        "location": "unova-route-4",
        "conditions": []
    },
    {
        "minLevel": 5,
        "maxLevel": 20,
        "area": "unova-route-4-area",
        "method": "surf-spots",
        "location": "unova-route-4",
        "conditions": []
    },
    {
        "minLevel": 5,
        "maxLevel": 20,
        "area": "unova-route-17-area",
        "method": "surf-spots",
        "location": "unova-route-17",
        "conditions": []
    },
    {
        "minLevel": 5,
        "maxLevel": 20,
        "area": "unova-route-17-area",
        "method": "surf-spots",
        "location": "unova-route-17",
        "conditions": []
    },
    {
        "minLevel": 5,
        "maxLevel": 20,
        "area": "unova-route-17-area",
        "method": "surf-spots",
        "location": "unova-route-17",
        "conditions": []
    },
    {
        "minLevel": 5,
        "maxLevel": 20,
        "area": "unova-route-18-area",
        "method": "surf-spots",
        "location": "unova-route-18",
        "conditions": []
    },
    {
        "minLevel": 5,
        "maxLevel": 20,
        "area": "unova-route-18-area",
        "method": "surf-spots",
        "location": "unova-route-18",
        "conditions": []
    },
    {
        "minLevel": 5,
        "maxLevel": 20,
        "area": "unova-route-18-area",
        "method": "surf-spots",
        "location": "unova-route-18",
        "conditions": []
    },
    {
        "minLevel": 5,
        "maxLevel": 20,
        "area": "p2-laboratory-area",
        "method": "surf-spots",
        "location": "p2-laboratory",
        "conditions": []
    },
    {
        "minLevel": 5,
        "maxLevel": 20,
        "area": "p2-laboratory-area",
        "method": "surf-spots",
        "location": "p2-laboratory",
        "conditions": []
    },
    {
        "minLevel": 5,
        "maxLevel": 20,
        "area": "p2-laboratory-area",
        "method": "surf-spots",
        "location": "p2-laboratory",
        "conditions": []
    }
]