[
    {
        "minLevel": 39,
        "maxLevel": 39,
        "area": "unova-route-10-area",
        "method": "dark-grass",
        "location": "unova-route-10",
        "conditions": []
    },
    {
        "minLevel": 39,
        "maxLevel": 39,
        "area": "unova-route-10-area",
        "method": "dark-grass",
        "location": "unova-route-10",
        "conditions": []
    },
    {
        "minLevel": 40,
        "maxLevel": 40,
        "area": "unova-route-10-area",
        "method": "dark-grass",
        "location": "unova-route-10",
        "conditions": []
    },
    {
        "minLevel": 38,
        "maxLevel": 38,
        "area": "unova-route-10-victory-road-gate",
        "method": "dark-grass",
        "location": "unova-route-10",
        "conditions": []
    },
    {
        "minLevel": 39,
        "maxLevel": 39,
        "area": "unova-route-10-victory-road-gate",
        "method": "dark-grass",
        "location": "unova-route-10",
        "conditions": []
    },
    {
        "minLevel": 40,
        "maxLevel": 40,
        "area": "unova-route-10-victory-road-gate",
        "method": "dark-grass",
        "location": "unova-route-10",
        "conditions": []
    },
    {
        "minLevel": 58,
        "maxLevel": 58,
        "area": "unova-route-11-area",
        "method": "dark-grass",
        "location": "unova-route-11",
        "conditions": []
    },
    {
        "minLevel": 48,
        "maxLevel": 48,
        "area": "unova-route-11-area",
        "method": "walk",
        "location": "unova-route-11",
        "conditions": []
    }
]