[
    {
        "minLevel": 35,
        "maxLevel": 55,
        "area": "striaton-city-area",
        "method": "super-rod",
        "location": "striaton-city",
        "conditions": []
    },
    {
        "minLevel": 5,
        "maxLevel": 15,
        "area": "striaton-city-area",
        "method": "surf",
        "location": "striaton-city",
        "conditions": []
    },
    {
        "minLevel": 5,
        "maxLevel": 15,
        "area": "striaton-city-area",
        "method": "surf",
        "location": "striaton-city",
        "conditions": []
    },
    {
        "minLevel": 5,
        "maxLevel": 15,
        "area": "striaton-city-area",
        "method": "surf",
        "location": "striaton-city",
        "conditions": []
    },
    {
        "minLevel": 5,
        "maxLevel": 15,
        "area": "striaton-city-area",
        "method": "surf",
        "location": "striaton-city",
        "conditions": []
    },
    {
        "minLevel": 5,
        "maxLevel": 15,
        "area": "striaton-city-area",
        "method": "surf",
        "location": "striaton-city",
        "conditions": []
    },
    {
        "minLevel": 35,
        "maxLevel": 55,
        "area": "unova-route-1-area",
        "method": "super-rod",
        "location": "unova-route-1",
        "conditions": []
    },
    {
        "minLevel": 35,
        "maxLevel": 55,
        "area": "unova-route-1-area",
        "method": "super-rod",
        "location": "unova-route-1",
        "conditions": []
    },
    {
        "minLevel": 35,
        "maxLevel": 55,
        "area": "unova-route-1-area",
        "method": "super-rod",
        "location": "unova-route-1",
        "conditions": []
    },
    {
        "minLevel": 5,
        "maxLevel": 15,
        "area": "unova-route-1-area",
        "method": "surf",
        "location": "unova-route-1",
        "conditions": []
    },
    {
        "minLevel": 5,
        "maxLevel": 15,
        "area": "unova-route-1-area",
        "method": "surf",
        "location": "unova-route-1",
        "conditions": []
    },
    {
        "minLevel": 5,
        "maxLevel": 15,
        "area": "unova-route-1-area",
        "method": "surf",
        "location": "unova-route-1",
        "conditions": []
    },
    {
        "minLevel": 5,
        "maxLevel": 15,
        "area": "unova-route-1-area",
        "method": "surf",
        "location": "unova-route-1",
        "conditions": []
    },
    {
        "minLevel": 5,
        "maxLevel": 15,
        "area": "unova-route-1-area",
        "method": "surf",
        "location": "unova-route-1",
        "conditions": []
    },
    {
        "minLevel": 35,
        "maxLevel": 55,
        "area": "unova-route-3-area",
        "method": "super-rod",
        "location": "unova-route-3",
        "conditions": []
    },
    {
        "minLevel": 5,
        "maxLevel": 15,
        "area": "unova-route-3-area",
        "method": "surf",
        "location": "unova-route-3",
        "conditions": []
    },
    {
        "minLevel": 5,
        "maxLevel": 15,
        "area": "unova-route-3-area",
        "method": "surf",
        "location": "unova-route-3",
        "conditions": []
    },
    {
        "minLevel": 5,
        "maxLevel": 15,
        "area": "unova-route-3-area",
        "method": "surf",
        "location": "unova-route-3",
        "conditions": []
    },
    {
        "minLevel": 5,
        "maxLevel": 15,
        "area": "unova-route-3-area",
        "method": "surf",
        "location": "unova-route-3",
        "conditions": []
    },
    {
        "minLevel": 5,
        "maxLevel": 15,
        "area": "unova-route-3-area",
        "method": "surf",
        "location": "unova-route-3",
        "conditions": []
    },
    {
        "minLevel": 35,
        "maxLevel": 55,
        "area": "unova-route-6-area",
        "method": "super-rod",
        "location": "unova-route-6",
        "conditions": []
    },
    {
        "minLevel": 10,
        "maxLevel": 25,
        "area": "unova-route-6-area",
        "method": "surf",
        "location": "unova-route-6",
        "conditions": []
    },
    {
        "minLevel": 10,
        "maxLevel": 25,
        "area": "unova-route-6-area",
        "method": "surf",
        "location": "unova-route-6",
        "conditions": []
    },
    {
        "minLevel": 10,
        "maxLevel": 25,
        "area": "unova-route-6-area",
        "method": "surf",
        "location": "unova-route-6",
        "conditions": []
    },
    {
        "minLevel": 10,
        "maxLevel": 25,
        "area": "unova-route-6-area",
        "method": "surf",
        "location": "unova-route-6",
        "conditions": []
    },
    {
        "minLevel": 10,
        "maxLevel": 25,
        "area": "unova-route-6-area",
        "method": "surf",
        "location": "unova-route-6",
        "conditions": []
    },
    {
        "minLevel": 35,
        "maxLevel": 55,
        "area": "unova-route-11-area",
        "method": "super-rod",
        "location": "unova-route-11",
        "conditions": []
    },
    {
        "minLevel": 25,
        "maxLevel": 55,
        "area": "unova-route-11-area",
        "method": "surf",
        "location": "unova-route-11",
        "conditions": []
    },
    {
        "minLevel": 25,
        "maxLevel": 55,
        "area": "unova-route-11-area",
        "method": "surf",
        "location": "unova-route-11",
        "conditions": []
    },
    {
        "minLevel": 25,
        "maxLevel": 55,
        "area": "unova-route-11-area",
        "method": "surf",
        "location": "unova-route-11",
        "conditions": []
    },
    {
        "minLevel": 25,
        "maxLevel": 55,
        "area": "unova-route-11-area",
        "method": "surf",
        "location": "unova-route-11",
        "conditions": []
    },
    {
        "minLevel": 35,
        "maxLevel": 55,
        "area": "unova-route-14-area",
        "method": "super-rod",
        "location": "unova-route-14",
        "conditions": []
    },
    {
        "minLevel": 25,
        "maxLevel": 55,
        "area": "unova-route-14-area",
        "method": "surf",
        "location": "unova-route-14",
        "conditions": []
    },
    {
        "minLevel": 25,
        "maxLevel": 55,
        "area": "unova-route-14-area",
        "method": "surf",
        "location": "unova-route-14",
        "conditions": []
    },
    {
        "minLevel": 25,
        "maxLevel": 55,
        "area": "unova-route-14-area",
        "method": "surf",
        "location": "unova-route-14",
        "conditions": []
    },
    {
        "minLevel": 25,
        "maxLevel": 55,
        "area": "unova-route-14-area",
        "method": "surf",
        "location": "unova-route-14",
        "conditions": []
    },
    {
        "minLevel": 35,
        "maxLevel": 55,
        "area": "pinwheel-forest-inside",
        "method": "super-rod",
        "location": "pinwheel-forest",
        "conditions": []
    },
    {
        "minLevel": 5,
        "maxLevel": 20,
        "area": "pinwheel-forest-inside",
        "method": "surf",
        "location": "pinwheel-forest",
        "conditions": []
    },
    {
        "minLevel": 5,
        "maxLevel": 20,
        "area": "pinwheel-forest-inside",
        "method": "surf",
        "location": "pinwheel-forest",
        "conditions": []
    },
    {
        "minLevel": 5,
        "maxLevel": 20,
        "area": "pinwheel-forest-inside",
        "method": "surf",
        "location": "pinwheel-forest",
        "conditions": []
    },
    {
        "minLevel": 5,
        "maxLevel": 20,
        "area": "pinwheel-forest-inside",
        "method": "surf",
        "location": "pinwheel-forest",
        "conditions": []
    },
    {
        "minLevel": 5,
        "maxLevel": 20,
        "area": "pinwheel-forest-inside",
        "method": "surf",
        "location": "pinwheel-forest",
        "conditions": []
    },
    {
        "minLevel": 35,
        "maxLevel": 55,
        "area": "dragonspiral-tower-outside",
        "method": "super-rod",
        "location": "dragonspiral-tower",
        "conditions": []
    },
    {
        "minLevel": 15,
        "maxLevel": 35,
        "area": "dragonspiral-tower-outside",
        "method": "surf",
        "location": "dragonspiral-tower",
        "conditions": []
    },
    {
        "minLevel": 15,
        "maxLevel": 35,
        "area": "dragonspiral-tower-outside",
        "method": "surf",
        "location": "dragonspiral-tower",
        "conditions": []
    },
    {
        "minLevel": 15,
        "maxLevel": 35,
        "area": "dragonspiral-tower-outside",
        "method": "surf",
        "location": "dragonspiral-tower",
        "conditions": []
    },
    {
        "minLevel": 15,
        "maxLevel": 35,
        "area": "dragonspiral-tower-outside",
        "method": "surf",
        "location": "dragonspiral-tower",
        "conditions": []
    },
    {
        "minLevel": 15,
        "maxLevel": 35,
        "area": "dragonspiral-tower-outside",
        "method": "surf",
        "location": "dragonspiral-tower",
        "conditions": []
    },
    {
        "minLevel": 35,
        "maxLevel": 55,
        "area": "unova-victory-road-unknown-area-53",
        "method": "super-rod",
        "location": "unova-victory-road",
        "conditions": []
    },
    {
        "minLevel": 20,
        "maxLevel": 45,
        "area": "unova-victory-road-unknown-area-53",
        "method": "surf",
        "location": "unova-victory-road",
        "conditions": []
    },
    {
        "minLevel": 20,
        "maxLevel": 45,
        "area": "unova-victory-road-unknown-area-53",
        "method": "surf",
        "location": "unova-victory-road",
        "conditions": []
    },
    {
        "minLevel": 20,
        "maxLevel": 45,
        "area": "unova-victory-road-unknown-area-53",
        "method": "surf",
        "location": "unova-victory-road",
        "conditions": []
    },
    {
        "minLevel": 20,
        "maxLevel": 45,
        "area": "unova-victory-road-unknown-area-53",
        "method": "surf",
        "location": "unova-victory-road",
        "conditions": []
    },
    {
        "minLevel": 20,
        "maxLevel": 45,
        "area": "unova-victory-road-unknown-area-53",
        "method": "surf",
        "location": "unova-victory-road",
        "conditions": []
    },
    {
        "minLevel": 35,
        "maxLevel": 55,
        "area": "unova-victory-road-unknown-area-58",
        "method": "super-rod",
        "location": "unova-victory-road",
        "conditions": []
    },
    {
        "minLevel": 20,
        "maxLevel": 45,
        "area": "unova-victory-road-unknown-area-58",
        "method": "surf",
        "location": "unova-victory-road",
        "conditions": []
    },
    {
        "minLevel": 20,
        "maxLevel": 45,
        "area": "unova-victory-road-unknown-area-58",
        "method": "surf",
        "location": "unova-victory-road",
        "conditions": []
    },
    {
        "minLevel": 20,
        "maxLevel": 45,
        "area": "unova-victory-road-unknown-area-58",
        "method": "surf",
        "location": "unova-victory-road",
        "conditions": []
    },
    {
        "minLevel": 20,
        "maxLevel": 45,
        "area": "unova-victory-road-unknown-area-58",
        "method": "surf",
        "location": "unova-victory-road",
        "conditions": []
    },
    {
        "minLevel": 20,
        "maxLevel": 45,
        "area": "unova-victory-road-unknown-area-58",
        "method": "surf",
        "location": "unova-victory-road",
        "conditions": []
    },
    {
        "minLevel": 35,
        "maxLevel": 55,
        "area": "wellspring-cave-area",
        "method": "super-rod",
        "location": "wellspring-cave",
        "conditions": []
    },
    {
        "minLevel": 5,
        "maxLevel": 15,
        "area": "wellspring-cave-area",
        "method": "surf",
        "location": "wellspring-cave",
        "conditions": []
    },
    {
        "minLevel": 5,
        "maxLevel": 15,
        "area": "wellspring-cave-area",
        "method": "surf",
        "location": "wellspring-cave",
        "conditions": []
    },
    {
        "minLevel": 5,
        "maxLevel": 15,
        "area": "wellspring-cave-area",
        "method": "surf",
        "location": "wellspring-cave",
        "conditions": []
    },
    {
        "minLevel": 5,
        "maxLevel": 15,
        "area": "wellspring-cave-area",
        "method": "surf",
        "location": "wellspring-cave",
        "conditions": []
    },
    {
        "minLevel": 5,
        "maxLevel": 15,
        "area": "wellspring-cave-area",
        "method": "surf",
        "location": "wellspring-cave",
        "conditions": []
    },
    {
        "minLevel": 35,
        "maxLevel": 55,
        "area": "challengers-cave-b2f",
        "method": "super-rod",
        "location": "challengers-cave",
        "conditions": []
    },
    {
        "minLevel": 25,
        "maxLevel": 55,
        "area": "challengers-cave-b2f",
        "method": "surf",
        "location": "challengers-cave",
        "conditions": []
    },
    {
        "minLevel": 25,
        "maxLevel": 55,
        "area": "challengers-cave-b2f",
        "method": "surf",
        "location": "challengers-cave",
        "conditions": []
    },
    {
        "minLevel": 25,
        "maxLevel": 55,
        "area": "challengers-cave-b2f",
        "method": "surf",
        "location": "challengers-cave",
        "conditions": []
    },
    {
        "minLevel": 25,
        "maxLevel": 55,
        "area": "challengers-cave-b2f",
        "method": "surf",
        "location": "challengers-cave",
        "conditions": []
    },
    {
        "minLevel": 25,
        "maxLevel": 55,
        "area": "challengers-cave-b2f",
        "method": "surf",
        "location": "challengers-cave",
        "conditions": []
    },
    {
        "minLevel": 35,
        "maxLevel": 55,
        "area": "giant-chasm-area",
        "method": "super-rod",
        "location": "giant-chasm",
        "conditions": []
    },
    {
        "minLevel": 25,
        "maxLevel": 55,
        "area": "giant-chasm-area",
        "method": "surf",
        "location": "giant-chasm",
        "conditions": []
    },
    {
        "minLevel": 25,
        "maxLevel": 55,
        "area": "giant-chasm-area",
        "method": "surf",
        "location": "giant-chasm",
        "conditions": []
    },
    {
        "minLevel": 25,
        "maxLevel": 55,
        "area": "giant-chasm-area",
        "method": "surf",
        "location": "giant-chasm",
        "conditions": []
    },
    {
        "minLevel": 25,
        "maxLevel": 55,
        "area": "giant-chasm-area",
        "method": "surf",
        "location": "giant-chasm",
        "conditions": []
    },
    {
        "minLevel": 35,
        "maxLevel": 55,
        "area": "giant-chasm-forest-cave",
        "method": "super-rod",
        "location": "giant-chasm",
        "conditions": []
    },
    {
        "minLevel": 25,
        "maxLevel": 55,
        "area": "giant-chasm-forest-cave",
        "method": "surf",
        "location": "giant-chasm",
        "conditions": []
    },
    {
        "minLevel": 25,
        "maxLevel": 55,
        "area": "giant-chasm-forest-cave",
        "method": "surf",
        "location": "giant-chasm",
        "conditions": []
    },
    {
        "minLevel": 25,
        "maxLevel": 55,
        "area": "giant-chasm-forest-cave",
        "method": "surf",
        "location": "giant-chasm",
        "conditions": []
    },
    {
        "minLevel": 25,
        "maxLevel": 55,
        "area": "giant-chasm-forest-cave",
        "method": "surf",
        "location": "giant-chasm",
        "conditions": []
    },
    {
        "minLevel": 35,
        "maxLevel": 55,
        "area": "village-bridge-area",
        "method": "super-rod",
        "location": "village-bridge",
        "conditions": []
    },
    {
        "minLevel": 25,
        "maxLevel": 55,
        "area": "village-bridge-area",
        "method": "surf",
        "location": "village-bridge",
        "conditions": []
    },
    {
        "minLevel": 25,
        "maxLevel": 55,
        "area": "village-bridge-area",
        "method": "surf",
        "location": "village-bridge",
        "conditions": []
    },
    {
        "minLevel": 25,
        "maxLevel": 55,
        "area": "village-bridge-area",
        "method": "surf",
        "location": "village-bridge",
        "conditions": []
    },
    {
        "minLevel": 25,
        "maxLevel": 55,
        "area": "village-bridge-area",
        "method": "surf",
        "location": "village-bridge",
        "conditions": []
    },
    {
        "minLevel": 25,
        "maxLevel": 55,
        "area": "village-bridge-area",
        "method": "surf",
        "location": "village-bridge",
        "conditions": []
    },
    {
        "minLevel": 35,
        "maxLevel": 55,
        "area": "abundant-shrine-area",
        "method": "super-rod",
        "location": "abundant-shrine",
        "conditions": []
    },
    {
        "minLevel": 25,
        "maxLevel": 55,
        "area": "abundant-shrine-area",
        "method": "surf",
        "location": "abundant-shrine",
        "conditions": []
    },
    {
        "minLevel": 25,
        "maxLevel": 55,
        "area": "abundant-shrine-area",
        "method": "surf",
        "location": "abundant-shrine",
        "conditions": []
    },
    {
        "minLevel": 25,
        "maxLevel": 55,
        "area": "abundant-shrine-area",
        "method": "surf",
        "location": "abundant-shrine",
        "conditions": []
    },
    {
        "minLevel": 25,
        "maxLevel": 55,
        "area": "abundant-shrine-area",
        "method": "surf",
        "location": "abundant-shrine",
        "conditions": []
    },
    {
        "minLevel": 35,
        "maxLevel": 55,
        "area": "lostlorn-forest-area",
        "method": "super-rod",
        "location": "lostlorn-forest",
        "conditions": []
    },
    {
        "minLevel": 5,
        "maxLevel": 20,
        "area": "lostlorn-forest-area",
        "method": "surf",
        "location": "lostlorn-forest",
        "conditions": []
    },
    {
        "minLevel": 5,
        "maxLevel": 20,
        "area": "lostlorn-forest-area",
        "method": "surf",
        "location": "lostlorn-forest",
        "conditions": []
    },
    {
        "minLevel": 5,
        "maxLevel": 20,
        "area": "lostlorn-forest-area",
        "method": "surf",
        "location": "lostlorn-forest",
        "conditions": []
    },
    {
        "minLevel": 5,
        "maxLevel": 20,
        "area": "lostlorn-forest-area",
        "method": "surf",
        "location": "lostlorn-forest",
        "conditions": []
    },
    {
        "minLevel": 5,
        "maxLevel": 20,
        "area": "lostlorn-forest-area",
        "method": "surf",
        "location": "lostlorn-forest",
        "conditions": []
    }
]