[
    {
        "minLevel": 37,
        "maxLevel": 37,
        "area": "dragonspiral-tower-entrance",
        "method": "dark-grass",
        "location": "dragonspiral-tower",
        "conditions": ["season-winter"]
    },
    {
        "minLevel": 37,
        "maxLevel": 37,
        "area": "dragonspiral-tower-outside",
        "method": "dark-grass",
        "location": "dragonspiral-tower",
        "conditions": ["season-winter"]
    }
]