[
    {
        "minLevel": 47,
        "maxLevel": 47,
        "area": "relic-castle-d",
        "method": "walk",
        "location": "relic-castle",
        "conditions": []
    },
    {
        "minLevel": 47,
        "maxLevel": 47,
        "area": "relic-castle-d",
        "method": "walk",
        "location": "relic-castle",
        "conditions": []
    },
    {
        "minLevel": 48,
        "maxLevel": 48,
        "area": "relic-castle-d",
        "method": "walk",
        "location": "relic-castle",
        "conditions": []
    },
    {
        "minLevel": 48,
        "maxLevel": 48,
        "area": "relic-castle-d",
        "method": "walk",
        "location": "relic-castle",
        "conditions": []
    },
    {
        "minLevel": 49,
        "maxLevel": 49,
        "area": "relic-castle-d",
        "method": "walk",
        "location": "relic-castle",
        "conditions": []
    },
    {
        "minLevel": 49,
        "maxLevel": 49,
        "area": "relic-castle-d",
        "method": "walk",
        "location": "relic-castle",
        "conditions": []
    },
    {
        "minLevel": 50,
        "maxLevel": 50,
        "area": "relic-castle-d",
        "method": "walk",
        "location": "relic-castle",
        "conditions": []
    },
    {
        "minLevel": 50,
        "maxLevel": 50,
        "area": "relic-castle-d",
        "method": "walk",
        "location": "relic-castle",
        "conditions": []
    },
    {
        "minLevel": 50,
        "maxLevel": 50,
        "area": "relic-castle-d",
        "method": "walk",
        "location": "relic-castle",
        "conditions": []
    },
    {
        "minLevel": 50,
        "maxLevel": 50,
        "area": "relic-castle-d",
        "method": "walk",
        "location": "relic-castle",
        "conditions": []
    },
    {
        "minLevel": 50,
        "maxLevel": 50,
        "area": "relic-castle-d",
        "method": "walk",
        "location": "relic-castle",
        "conditions": []
    },
    {
        "minLevel": 50,
        "maxLevel": 50,
        "area": "relic-castle-d",
        "method": "walk",
        "location": "relic-castle",
        "conditions": []
    }
]