[
    {
        "minLevel": 25,
        "maxLevel": 60,
        "area": "unova-route-13-area",
        "method": "surf-spots",
        "location": "unova-route-13",
        "conditions": []
    },
    {
        "minLevel": 25,
        "maxLevel": 60,
        "area": "undella-town-area",
        "method": "surf-spots",
        "location": "undella-town",
        "conditions": []
    }
]