[
    {
        "minLevel": 31,
        "maxLevel": 31,
        "area": "twist-mountain-area",
        "method": "walk",
        "location": "twist-mountain",
        "conditions": ["season-winter"]
    },
    {
        "minLevel": 31,
        "maxLevel": 31,
        "area": "twist-mountain-area",
        "method": "walk",
        "location": "twist-mountain",
        "conditions": ["season-spring"]
    },
    {
        "minLevel": 28,
        "maxLevel": 28,
        "area": "twist-mountain-area",
        "method": "walk",
        "location": "twist-mountain",
        "conditions": ["season-summer"]
    },
    {
        "minLevel": 31,
        "maxLevel": 31,
        "area": "twist-mountain-area",
        "method": "walk",
        "location": "twist-mountain",
        "conditions": ["season-autumn"]
    },
    {
        "minLevel": 31,
        "maxLevel": 31,
        "area": "twist-mountain-area",
        "method": "walk",
        "location": "twist-mountain",
        "conditions": ["season-winter"]
    }
]