[
    {
        "minLevel": 15,
        "maxLevel": 15,
        "area": "unova-route-4-area",
        "method": "walk",
        "location": "unova-route-4",
        "conditions": []
    },
    {
        "minLevel": 16,
        "maxLevel": 16,
        "area": "unova-route-4-area",
        "method": "walk",
        "location": "unova-route-4",
        "conditions": []
    },
    {
        "minLevel": 17,
        "maxLevel": 17,
        "area": "unova-route-4-area",
        "method": "walk",
        "location": "unova-route-4",
        "conditions": []
    },
    {
        "minLevel": 18,
        "maxLevel": 18,
        "area": "unova-route-4-area",
        "method": "walk",
        "location": "unova-route-4",
        "conditions": []
    },
    {
        "minLevel": 18,
        "maxLevel": 18,
        "area": "unova-route-4-area",
        "method": "walk",
        "location": "unova-route-4",
        "conditions": []
    },
    {
        "minLevel": 19,
        "maxLevel": 19,
        "area": "desert-resort-entrance",
        "method": "walk",
        "location": "desert-resort",
        "conditions": []
    },
    {
        "minLevel": 20,
        "maxLevel": 20,
        "area": "desert-resort-entrance",
        "method": "walk",
        "location": "desert-resort",
        "conditions": []
    },
    {
        "minLevel": 19,
        "maxLevel": 19,
        "area": "desert-resort-area",
        "method": "walk",
        "location": "desert-resort",
        "conditions": []
    },
    {
        "minLevel": 20,
        "maxLevel": 20,
        "area": "desert-resort-area",
        "method": "walk",
        "location": "desert-resort",
        "conditions": []
    }
]