[
    {
        "minLevel": 35,
        "maxLevel": 70,
        "area": "giant-chasm-area",
        "method": "surf-spots",
        "location": "giant-chasm",
        "conditions": []
    },
    {
        "minLevel": 35,
        "maxLevel": 70,
        "area": "giant-chasm-area",
        "method": "surf-spots",
        "location": "giant-chasm",
        "conditions": []
    },
    {
        "minLevel": 35,
        "maxLevel": 70,
        "area": "giant-chasm-area",
        "method": "surf-spots",
        "location": "giant-chasm",
        "conditions": []
    },
    {
        "minLevel": 35,
        "maxLevel": 70,
        "area": "giant-chasm-forest-cave",
        "method": "surf-spots",
        "location": "giant-chasm",
        "conditions": []
    },
    {
        "minLevel": 35,
        "maxLevel": 70,
        "area": "giant-chasm-forest-cave",
        "method": "surf-spots",
        "location": "giant-chasm",
        "conditions": []
    },
    {
        "minLevel": 35,
        "maxLevel": 70,
        "area": "giant-chasm-forest-cave",
        "method": "surf-spots",
        "location": "giant-chasm",
        "conditions": []
    }
]