[
    {
        "minLevel": 37,
        "maxLevel": 37,
        "area": "unova-victory-road-unknown-area-53",
        "method": "walk",
        "location": "unova-victory-road",
        "conditions": []
    },
    {
        "minLevel": 38,
        "maxLevel": 38,
        "area": "unova-victory-road-unknown-area-53",
        "method": "walk",
        "location": "unova-victory-road",
        "conditions": []
    },
    {
        "minLevel": 39,
        "maxLevel": 39,
        "area": "unova-victory-road-unknown-area-53",
        "method": "walk",
        "location": "unova-victory-road",
        "conditions": []
    },
    {
        "minLevel": 40,
        "maxLevel": 40,
        "area": "unova-victory-road-unknown-area-53",
        "method": "walk",
        "location": "unova-victory-road",
        "conditions": []
    },
    {
        "minLevel": 40,
        "maxLevel": 40,
        "area": "unova-victory-road-unknown-area-53",
        "method": "walk",
        "location": "unova-victory-road",
        "conditions": []
    },
    {
        "minLevel": 37,
        "maxLevel": 37,
        "area": "unova-victory-road-unknown-area-54",
        "method": "walk",
        "location": "unova-victory-road",
        "conditions": []
    },
    {
        "minLevel": 38,
        "maxLevel": 38,
        "area": "unova-victory-road-unknown-area-54",
        "method": "walk",
        "location": "unova-victory-road",
        "conditions": []
    },
    {
        "minLevel": 39,
        "maxLevel": 39,
        "area": "unova-victory-road-unknown-area-54",
        "method": "walk",
        "location": "unova-victory-road",
        "conditions": []
    },
    {
        "minLevel": 40,
        "maxLevel": 40,
        "area": "unova-victory-road-unknown-area-54",
        "method": "walk",
        "location": "unova-victory-road",
        "conditions": []
    },
    {
        "minLevel": 40,
        "maxLevel": 40,
        "area": "unova-victory-road-unknown-area-54",
        "method": "walk",
        "location": "unova-victory-road",
        "conditions": []
    },
    {
        "minLevel": 37,
        "maxLevel": 37,
        "area": "unova-victory-road-unknown-area-55",
        "method": "walk",
        "location": "unova-victory-road",
        "conditions": []
    },
    {
        "minLevel": 38,
        "maxLevel": 38,
        "area": "unova-victory-road-unknown-area-55",
        "method": "walk",
        "location": "unova-victory-road",
        "conditions": []
    },
    {
        "minLevel": 39,
        "maxLevel": 39,
        "area": "unova-victory-road-unknown-area-55",
        "method": "walk",
        "location": "unova-victory-road",
        "conditions": []
    },
    {
        "minLevel": 40,
        "maxLevel": 40,
        "area": "unova-victory-road-unknown-area-55",
        "method": "walk",
        "location": "unova-victory-road",
        "conditions": []
    },
    {
        "minLevel": 40,
        "maxLevel": 40,
        "area": "unova-victory-road-unknown-area-55",
        "method": "walk",
        "location": "unova-victory-road",
        "conditions": []
    },
    {
        "minLevel": 39,
        "maxLevel": 39,
        "area": "unova-victory-road-unknown-area-56",
        "method": "walk",
        "location": "unova-victory-road",
        "conditions": []
    },
    {
        "minLevel": 40,
        "maxLevel": 40,
        "area": "unova-victory-road-unknown-area-56",
        "method": "walk",
        "location": "unova-victory-road",
        "conditions": []
    },
    {
        "minLevel": 41,
        "maxLevel": 41,
        "area": "unova-victory-road-unknown-area-56",
        "method": "walk",
        "location": "unova-victory-road",
        "conditions": []
    },
    {
        "minLevel": 42,
        "maxLevel": 42,
        "area": "unova-victory-road-unknown-area-56",
        "method": "walk",
        "location": "unova-victory-road",
        "conditions": []
    },
    {
        "minLevel": 42,
        "maxLevel": 42,
        "area": "unova-victory-road-unknown-area-56",
        "method": "walk",
        "location": "unova-victory-road",
        "conditions": []
    },
    {
        "minLevel": 37,
        "maxLevel": 37,
        "area": "unova-victory-road-unknown-area-57",
        "method": "walk",
        "location": "unova-victory-road",
        "conditions": []
    },
    {
        "minLevel": 38,
        "maxLevel": 38,
        "area": "unova-victory-road-unknown-area-57",
        "method": "walk",
        "location": "unova-victory-road",
        "conditions": []
    },
    {
        "minLevel": 39,
        "maxLevel": 39,
        "area": "unova-victory-road-unknown-area-57",
        "method": "walk",
        "location": "unova-victory-road",
        "conditions": []
    },
    {
        "minLevel": 40,
        "maxLevel": 40,
        "area": "unova-victory-road-unknown-area-57",
        "method": "walk",
        "location": "unova-victory-road",
        "conditions": []
    },
    {
        "minLevel": 40,
        "maxLevel": 40,
        "area": "unova-victory-road-unknown-area-57",
        "method": "walk",
        "location": "unova-victory-road",
        "conditions": []
    },
    {
        "minLevel": 37,
        "maxLevel": 37,
        "area": "unova-victory-road-unknown-area-58",
        "method": "walk",
        "location": "unova-victory-road",
        "conditions": []
    },
    {
        "minLevel": 38,
        "maxLevel": 38,
        "area": "unova-victory-road-unknown-area-58",
        "method": "walk",
        "location": "unova-victory-road",
        "conditions": []
    },
    {
        "minLevel": 39,
        "maxLevel": 39,
        "area": "unova-victory-road-unknown-area-58",
        "method": "walk",
        "location": "unova-victory-road",
        "conditions": []
    },
    {
        "minLevel": 40,
        "maxLevel": 40,
        "area": "unova-victory-road-unknown-area-58",
        "method": "walk",
        "location": "unova-victory-road",
        "conditions": []
    },
    {
        "minLevel": 40,
        "maxLevel": 40,
        "area": "unova-victory-road-unknown-area-58",
        "method": "walk",
        "location": "unova-victory-road",
        "conditions": []
    },
    {
        "minLevel": 37,
        "maxLevel": 37,
        "area": "unova-victory-road-unknown-area-59",
        "method": "walk",
        "location": "unova-victory-road",
        "conditions": []
    },
    {
        "minLevel": 38,
        "maxLevel": 38,
        "area": "unova-victory-road-unknown-area-59",
        "method": "walk",
        "location": "unova-victory-road",
        "conditions": []
    },
    {
        "minLevel": 39,
        "maxLevel": 39,
        "area": "unova-victory-road-unknown-area-59",
        "method": "walk",
        "location": "unova-victory-road",
        "conditions": []
    },
    {
        "minLevel": 40,
        "maxLevel": 40,
        "area": "unova-victory-road-unknown-area-59",
        "method": "walk",
        "location": "unova-victory-road",
        "conditions": []
    },
    {
        "minLevel": 40,
        "maxLevel": 40,
        "area": "unova-victory-road-unknown-area-59",
        "method": "walk",
        "location": "unova-victory-road",
        "conditions": []
    },
    {
        "minLevel": 37,
        "maxLevel": 37,
        "area": "unova-victory-road-unknown-area-60",
        "method": "walk",
        "location": "unova-victory-road",
        "conditions": []
    },
    {
        "minLevel": 38,
        "maxLevel": 38,
        "area": "unova-victory-road-unknown-area-60",
        "method": "walk",
        "location": "unova-victory-road",
        "conditions": []
    },
    {
        "minLevel": 39,
        "maxLevel": 39,
        "area": "unova-victory-road-unknown-area-60",
        "method": "walk",
        "location": "unova-victory-road",
        "conditions": []
    },
    {
        "minLevel": 40,
        "maxLevel": 40,
        "area": "unova-victory-road-unknown-area-60",
        "method": "walk",
        "location": "unova-victory-road",
        "conditions": []
    },
    {
        "minLevel": 40,
        "maxLevel": 40,
        "area": "unova-victory-road-unknown-area-60",
        "method": "walk",
        "location": "unova-victory-road",
        "conditions": []
    },
    {
        "minLevel": 37,
        "maxLevel": 37,
        "area": "unova-victory-road-unknown-area-61",
        "method": "walk",
        "location": "unova-victory-road",
        "conditions": []
    },
    {
        "minLevel": 38,
        "maxLevel": 38,
        "area": "unova-victory-road-unknown-area-61",
        "method": "walk",
        "location": "unova-victory-road",
        "conditions": []
    },
    {
        "minLevel": 39,
        "maxLevel": 39,
        "area": "unova-victory-road-unknown-area-61",
        "method": "walk",
        "location": "unova-victory-road",
        "conditions": []
    },
    {
        "minLevel": 40,
        "maxLevel": 40,
        "area": "unova-victory-road-unknown-area-61",
        "method": "walk",
        "location": "unova-victory-road",
        "conditions": []
    },
    {
        "minLevel": 40,
        "maxLevel": 40,
        "area": "unova-victory-road-unknown-area-61",
        "method": "walk",
        "location": "unova-victory-road",
        "conditions": []
    },
    {
        "minLevel": 39,
        "maxLevel": 39,
        "area": "unova-victory-road-unknown-area-62",
        "method": "walk",
        "location": "unova-victory-road",
        "conditions": []
    },
    {
        "minLevel": 40,
        "maxLevel": 40,
        "area": "unova-victory-road-unknown-area-62",
        "method": "walk",
        "location": "unova-victory-road",
        "conditions": []
    },
    {
        "minLevel": 41,
        "maxLevel": 41,
        "area": "unova-victory-road-unknown-area-62",
        "method": "walk",
        "location": "unova-victory-road",
        "conditions": []
    },
    {
        "minLevel": 42,
        "maxLevel": 42,
        "area": "unova-victory-road-unknown-area-62",
        "method": "walk",
        "location": "unova-victory-road",
        "conditions": []
    },
    {
        "minLevel": 42,
        "maxLevel": 42,
        "area": "unova-victory-road-unknown-area-62",
        "method": "walk",
        "location": "unova-victory-road",
        "conditions": []
    },
    {
        "minLevel": 39,
        "maxLevel": 39,
        "area": "unova-victory-road-unknown-area-63",
        "method": "walk",
        "location": "unova-victory-road",
        "conditions": []
    },
    {
        "minLevel": 40,
        "maxLevel": 40,
        "area": "unova-victory-road-unknown-area-63",
        "method": "walk",
        "location": "unova-victory-road",
        "conditions": []
    },
    {
        "minLevel": 41,
        "maxLevel": 41,
        "area": "unova-victory-road-unknown-area-63",
        "method": "walk",
        "location": "unova-victory-road",
        "conditions": []
    },
    {
        "minLevel": 42,
        "maxLevel": 42,
        "area": "unova-victory-road-unknown-area-63",
        "method": "walk",
        "location": "unova-victory-road",
        "conditions": []
    },
    {
        "minLevel": 42,
        "maxLevel": 42,
        "area": "unova-victory-road-unknown-area-63",
        "method": "walk",
        "location": "unova-victory-road",
        "conditions": []
    },
    {
        "minLevel": 39,
        "maxLevel": 39,
        "area": "unova-victory-road-unknown-area-64",
        "method": "walk",
        "location": "unova-victory-road",
        "conditions": []
    },
    {
        "minLevel": 40,
        "maxLevel": 40,
        "area": "unova-victory-road-unknown-area-64",
        "method": "walk",
        "location": "unova-victory-road",
        "conditions": []
    },
    {
        "minLevel": 41,
        "maxLevel": 41,
        "area": "unova-victory-road-unknown-area-64",
        "method": "walk",
        "location": "unova-victory-road",
        "conditions": []
    },
    {
        "minLevel": 42,
        "maxLevel": 42,
        "area": "unova-victory-road-unknown-area-64",
        "method": "walk",
        "location": "unova-victory-road",
        "conditions": []
    },
    {
        "minLevel": 42,
        "maxLevel": 42,
        "area": "unova-victory-road-unknown-area-64",
        "method": "walk",
        "location": "unova-victory-road",
        "conditions": []
    },
    {
        "minLevel": 39,
        "maxLevel": 39,
        "area": "unova-victory-road-unknown-area-65",
        "method": "walk",
        "location": "unova-victory-road",
        "conditions": []
    },
    {
        "minLevel": 40,
        "maxLevel": 40,
        "area": "unova-victory-road-unknown-area-65",
        "method": "walk",
        "location": "unova-victory-road",
        "conditions": []
    },
    {
        "minLevel": 41,
        "maxLevel": 41,
        "area": "unova-victory-road-unknown-area-65",
        "method": "walk",
        "location": "unova-victory-road",
        "conditions": []
    },
    {
        "minLevel": 42,
        "maxLevel": 42,
        "area": "unova-victory-road-unknown-area-65",
        "method": "walk",
        "location": "unova-victory-road",
        "conditions": []
    },
    {
        "minLevel": 42,
        "maxLevel": 42,
        "area": "unova-victory-road-unknown-area-65",
        "method": "walk",
        "location": "unova-victory-road",
        "conditions": []
    },
    {
        "minLevel": 39,
        "maxLevel": 39,
        "area": "unova-victory-road-unknown-area-66",
        "method": "walk",
        "location": "unova-victory-road",
        "conditions": []
    },
    {
        "minLevel": 40,
        "maxLevel": 40,
        "area": "unova-victory-road-unknown-area-66",
        "method": "walk",
        "location": "unova-victory-road",
        "conditions": []
    },
    {
        "minLevel": 41,
        "maxLevel": 41,
        "area": "unova-victory-road-unknown-area-66",
        "method": "walk",
        "location": "unova-victory-road",
        "conditions": []
    },
    {
        "minLevel": 42,
        "maxLevel": 42,
        "area": "unova-victory-road-unknown-area-66",
        "method": "walk",
        "location": "unova-victory-road",
        "conditions": []
    },
    {
        "minLevel": 42,
        "maxLevel": 42,
        "area": "unova-victory-road-unknown-area-66",
        "method": "walk",
        "location": "unova-victory-road",
        "conditions": []
    },
    {
        "minLevel": 39,
        "maxLevel": 39,
        "area": "trial-chamber-area",
        "method": "walk",
        "location": "trial-chamber",
        "conditions": []
    },
    {
        "minLevel": 40,
        "maxLevel": 40,
        "area": "trial-chamber-area",
        "method": "walk",
        "location": "trial-chamber",
        "conditions": []
    },
    {
        "minLevel": 41,
        "maxLevel": 41,
        "area": "trial-chamber-area",
        "method": "walk",
        "location": "trial-chamber",
        "conditions": []
    },
    {
        "minLevel": 42,
        "maxLevel": 42,
        "area": "trial-chamber-area",
        "method": "walk",
        "location": "trial-chamber",
        "conditions": []
    },
    {
        "minLevel": 42,
        "maxLevel": 42,
        "area": "trial-chamber-area",
        "method": "walk",
        "location": "trial-chamber",
        "conditions": []
    }
]