[
    {
        "minLevel": 35,
        "maxLevel": 55,
        "area": "unova-route-1-area",
        "method": "super-rod",
        "location": "unova-route-1",
        "conditions": []
    },
    {
        "minLevel": 35,
        "maxLevel": 55,
        "area": "unova-route-1-area",
        "method": "super-rod",
        "location": "unova-route-1",
        "conditions": []
    },
    {
        "minLevel": 35,
        "maxLevel": 60,
        "area": "unova-route-1-area",
        "method": "super-rod-spots",
        "location": "unova-route-1",
        "conditions": []
    }
]