[
    {
        "minLevel": 30,
        "maxLevel": 30,
        "area": "dragonspiral-tower-1f",
        "method": "walk",
        "location": "dragonspiral-tower",
        "conditions": []
    },
    {
        "minLevel": 31,
        "maxLevel": 31,
        "area": "dragonspiral-tower-1f",
        "method": "walk",
        "location": "dragonspiral-tower",
        "conditions": []
    },
    {
        "minLevel": 32,
        "maxLevel": 32,
        "area": "dragonspiral-tower-1f",
        "method": "walk",
        "location": "dragonspiral-tower",
        "conditions": []
    },
    {
        "minLevel": 32,
        "maxLevel": 32,
        "area": "dragonspiral-tower-1f",
        "method": "walk",
        "location": "dragonspiral-tower",
        "conditions": []
    },
    {
        "minLevel": 33,
        "maxLevel": 33,
        "area": "dragonspiral-tower-1f",
        "method": "walk",
        "location": "dragonspiral-tower",
        "conditions": []
    },
    {
        "minLevel": 33,
        "maxLevel": 33,
        "area": "dragonspiral-tower-1f",
        "method": "walk",
        "location": "dragonspiral-tower",
        "conditions": []
    },
    {
        "minLevel": 30,
        "maxLevel": 30,
        "area": "dragonspiral-tower-2f",
        "method": "walk",
        "location": "dragonspiral-tower",
        "conditions": []
    },
    {
        "minLevel": 30,
        "maxLevel": 30,
        "area": "dragonspiral-tower-2f",
        "method": "walk",
        "location": "dragonspiral-tower",
        "conditions": []
    },
    {
        "minLevel": 31,
        "maxLevel": 31,
        "area": "dragonspiral-tower-2f",
        "method": "walk",
        "location": "dragonspiral-tower",
        "conditions": []
    },
    {
        "minLevel": 31,
        "maxLevel": 31,
        "area": "dragonspiral-tower-2f",
        "method": "walk",
        "location": "dragonspiral-tower",
        "conditions": []
    },
    {
        "minLevel": 32,
        "maxLevel": 32,
        "area": "dragonspiral-tower-2f",
        "method": "walk",
        "location": "dragonspiral-tower",
        "conditions": []
    },
    {
        "minLevel": 32,
        "maxLevel": 32,
        "area": "dragonspiral-tower-2f",
        "method": "walk",
        "location": "dragonspiral-tower",
        "conditions": []
    },
    {
        "minLevel": 32,
        "maxLevel": 32,
        "area": "dragonspiral-tower-2f",
        "method": "walk",
        "location": "dragonspiral-tower",
        "conditions": []
    },
    {
        "minLevel": 32,
        "maxLevel": 32,
        "area": "dragonspiral-tower-2f",
        "method": "walk",
        "location": "dragonspiral-tower",
        "conditions": []
    },
    {
        "minLevel": 33,
        "maxLevel": 33,
        "area": "dragonspiral-tower-2f",
        "method": "walk",
        "location": "dragonspiral-tower",
        "conditions": []
    },
    {
        "minLevel": 33,
        "maxLevel": 33,
        "area": "dragonspiral-tower-2f",
        "method": "walk",
        "location": "dragonspiral-tower",
        "conditions": []
    },
    {
        "minLevel": 33,
        "maxLevel": 33,
        "area": "dragonspiral-tower-2f",
        "method": "walk",
        "location": "dragonspiral-tower",
        "conditions": []
    },
    {
        "minLevel": 33,
        "maxLevel": 33,
        "area": "dragonspiral-tower-2f",
        "method": "walk",
        "location": "dragonspiral-tower",
        "conditions": []
    }
]