[
    {
        "minLevel": 35,
        "maxLevel": 70,
        "area": "driftveil-city-area",
        "method": "super-rod-spots",
        "location": "driftveil-city",
        "conditions": []
    },
    {
        "minLevel": 35,
        "maxLevel": 70,
        "area": "unova-route-4-area",
        "method": "super-rod-spots",
        "location": "unova-route-4",
        "conditions": []
    },
    {
        "minLevel": 35,
        "maxLevel": 70,
        "area": "unova-route-13-area",
        "method": "super-rod-spots",
        "location": "unova-route-13",
        "conditions": []
    }
]