[
    {
        "minLevel": 23,
        "maxLevel": 23,
        "area": "unova-route-5-area",
        "method": "dark-grass",
        "location": "unova-route-5",
        "conditions": []
    },
    {
        "minLevel": 25,
        "maxLevel": 25,
        "area": "unova-route-5-area",
        "method": "dark-grass",
        "location": "unova-route-5",
        "conditions": []
    },
    {
        "minLevel": 20,
        "maxLevel": 20,
        "area": "unova-route-5-area",
        "method": "walk",
        "location": "unova-route-5",
        "conditions": []
    },
    {
        "minLevel": 22,
        "maxLevel": 22,
        "area": "unova-route-5-area",
        "method": "walk",
        "location": "unova-route-5",
        "conditions": []
    },
    {
        "minLevel": 38,
        "maxLevel": 38,
        "area": "unova-route-9-area",
        "method": "dark-grass",
        "location": "unova-route-9",
        "conditions": []
    },
    {
        "minLevel": 33,
        "maxLevel": 33,
        "area": "unova-route-9-area",
        "method": "walk",
        "location": "unova-route-9",
        "conditions": []
    },
    {
        "minLevel": 23,
        "maxLevel": 23,
        "area": "unova-route-16-area",
        "method": "dark-grass",
        "location": "unova-route-16",
        "conditions": []
    },
    {
        "minLevel": 25,
        "maxLevel": 25,
        "area": "unova-route-16-area",
        "method": "dark-grass",
        "location": "unova-route-16",
        "conditions": []
    },
    {
        "minLevel": 20,
        "maxLevel": 20,
        "area": "unova-route-16-area",
        "method": "walk",
        "location": "unova-route-16",
        "conditions": []
    },
    {
        "minLevel": 22,
        "maxLevel": 22,
        "area": "unova-route-16-area",
        "method": "walk",
        "location": "unova-route-16",
        "conditions": []
    },
    {
        "minLevel": 47,
        "maxLevel": 47,
        "area": "dreamyard-area",
        "method": "dark-grass",
        "location": "dreamyard",
        "conditions": []
    }
]