[
    {
        "minLevel": 63,
        "maxLevel": 63,
        "area": "giant-chasm-forest",
        "method": "dark-grass",
        "location": "giant-chasm",
        "conditions": []
    },
    {
        "minLevel": 65,
        "maxLevel": 65,
        "area": "giant-chasm-forest",
        "method": "dark-grass",
        "location": "giant-chasm",
        "conditions": []
    },
    {
        "minLevel": 65,
        "maxLevel": 65,
        "area": "giant-chasm-forest",
        "method": "dark-grass",
        "location": "giant-chasm",
        "conditions": []
    },
    {
        "minLevel": 53,
        "maxLevel": 53,
        "area": "giant-chasm-forest",
        "method": "walk",
        "location": "giant-chasm",
        "conditions": []
    },
    {
        "minLevel": 55,
        "maxLevel": 55,
        "area": "giant-chasm-forest",
        "method": "walk",
        "location": "giant-chasm",
        "conditions": []
    },
    {
        "minLevel": 55,
        "maxLevel": 55,
        "area": "giant-chasm-forest",
        "method": "walk",
        "location": "giant-chasm",
        "conditions": []
    }
]