[
    {
        "minLevel": 48,
        "maxLevel": 48,
        "area": "dreamyard-area",
        "method": "dark-grass",
        "location": "dreamyard",
        "conditions": []
    },
    {
        "minLevel": 8,
        "maxLevel": 8,
        "area": "dreamyard-area",
        "method": "walk",
        "location": "dreamyard",
        "conditions": []
    },
    {
        "minLevel": 10,
        "maxLevel": 10,
        "area": "dreamyard-area",
        "method": "walk",
        "location": "dreamyard",
        "conditions": []
    },
    {
        "minLevel": 48,
        "maxLevel": 48,
        "area": "dreamyard-b1f",
        "method": "dark-grass",
        "location": "dreamyard",
        "conditions": []
    },
    {
        "minLevel": 49,
        "maxLevel": 49,
        "area": "dreamyard-b1f",
        "method": "dark-grass",
        "location": "dreamyard",
        "conditions": []
    }
]