[
    {
        "minLevel": 30,
        "maxLevel": 30,
        "area": "icirrus-city-area",
        "method": "walk",
        "location": "icirrus-city",
        "conditions": ["season-spring"]
    },
    {
        "minLevel": 30,
        "maxLevel": 30,
        "area": "icirrus-city-area",
        "method": "walk",
        "location": "icirrus-city",
        "conditions": ["season-summer"]
    },
    {
        "minLevel": 30,
        "maxLevel": 30,
        "area": "icirrus-city-area",
        "method": "walk",
        "location": "icirrus-city",
        "conditions": ["season-autumn"]
    },
    {
        "minLevel": 31,
        "maxLevel": 31,
        "area": "icirrus-city-area",
        "method": "walk",
        "location": "icirrus-city",
        "conditions": ["season-spring"]
    },
    {
        "minLevel": 31,
        "maxLevel": 31,
        "area": "icirrus-city-area",
        "method": "walk",
        "location": "icirrus-city",
        "conditions": ["season-summer"]
    },
    {
        "minLevel": 31,
        "maxLevel": 31,
        "area": "icirrus-city-area",
        "method": "walk",
        "location": "icirrus-city",
        "conditions": ["season-autumn"]
    },
    {
        "minLevel": 32,
        "maxLevel": 32,
        "area": "icirrus-city-area",
        "method": "walk",
        "location": "icirrus-city",
        "conditions": ["season-spring"]
    },
    {
        "minLevel": 32,
        "maxLevel": 32,
        "area": "icirrus-city-area",
        "method": "walk",
        "location": "icirrus-city",
        "conditions": ["season-summer"]
    },
    {
        "minLevel": 32,
        "maxLevel": 32,
        "area": "icirrus-city-area",
        "method": "walk",
        "location": "icirrus-city",
        "conditions": ["season-autumn"]
    },
    {
        "minLevel": 33,
        "maxLevel": 33,
        "area": "icirrus-city-area",
        "method": "walk",
        "location": "icirrus-city",
        "conditions": ["season-spring"]
    },
    {
        "minLevel": 33,
        "maxLevel": 33,
        "area": "icirrus-city-area",
        "method": "walk",
        "location": "icirrus-city",
        "conditions": ["season-summer"]
    },
    {
        "minLevel": 33,
        "maxLevel": 33,
        "area": "icirrus-city-area",
        "method": "walk",
        "location": "icirrus-city",
        "conditions": ["season-autumn"]
    },
    {
        "minLevel": 33,
        "maxLevel": 33,
        "area": "icirrus-city-area",
        "method": "walk",
        "location": "icirrus-city",
        "conditions": ["season-spring"]
    },
    {
        "minLevel": 33,
        "maxLevel": 33,
        "area": "icirrus-city-area",
        "method": "walk",
        "location": "icirrus-city",
        "conditions": ["season-summer"]
    },
    {
        "minLevel": 33,
        "maxLevel": 33,
        "area": "icirrus-city-area",
        "method": "walk",
        "location": "icirrus-city",
        "conditions": ["season-autumn"]
    },
    {
        "minLevel": 30,
        "maxLevel": 30,
        "area": "unova-route-8-area",
        "method": "walk",
        "location": "unova-route-8",
        "conditions": ["season-spring"]
    },
    {
        "minLevel": 30,
        "maxLevel": 30,
        "area": "unova-route-8-area",
        "method": "walk",
        "location": "unova-route-8",
        "conditions": ["season-summer"]
    },
    {
        "minLevel": 30,
        "maxLevel": 30,
        "area": "unova-route-8-area",
        "method": "walk",
        "location": "unova-route-8",
        "conditions": ["season-autumn"]
    },
    {
        "minLevel": 31,
        "maxLevel": 31,
        "area": "unova-route-8-area",
        "method": "walk",
        "location": "unova-route-8",
        "conditions": ["season-spring"]
    },
    {
        "minLevel": 31,
        "maxLevel": 31,
        "area": "unova-route-8-area",
        "method": "walk",
        "location": "unova-route-8",
        "conditions": ["season-summer"]
    },
    {
        "minLevel": 31,
        "maxLevel": 31,
        "area": "unova-route-8-area",
        "method": "walk",
        "location": "unova-route-8",
        "conditions": ["season-autumn"]
    },
    {
        "minLevel": 32,
        "maxLevel": 32,
        "area": "unova-route-8-area",
        "method": "walk",
        "location": "unova-route-8",
        "conditions": ["season-spring"]
    },
    {
        "minLevel": 32,
        "maxLevel": 32,
        "area": "unova-route-8-area",
        "method": "walk",
        "location": "unova-route-8",
        "conditions": ["season-summer"]
    },
    {
        "minLevel": 32,
        "maxLevel": 32,
        "area": "unova-route-8-area",
        "method": "walk",
        "location": "unova-route-8",
        "conditions": ["season-autumn"]
    },
    {
        "minLevel": 33,
        "maxLevel": 33,
        "area": "unova-route-8-area",
        "method": "walk",
        "location": "unova-route-8",
        "conditions": ["season-spring"]
    },
    {
        "minLevel": 33,
        "maxLevel": 33,
        "area": "unova-route-8-area",
        "method": "walk",
        "location": "unova-route-8",
        "conditions": ["season-summer"]
    },
    {
        "minLevel": 33,
        "maxLevel": 33,
        "area": "unova-route-8-area",
        "method": "walk",
        "location": "unova-route-8",
        "conditions": ["season-autumn"]
    },
    {
        "minLevel": 33,
        "maxLevel": 33,
        "area": "unova-route-8-area",
        "method": "walk",
        "location": "unova-route-8",
        "conditions": ["season-spring"]
    },
    {
        "minLevel": 33,
        "maxLevel": 33,
        "area": "unova-route-8-area",
        "method": "walk",
        "location": "unova-route-8",
        "conditions": ["season-summer"]
    },
    {
        "minLevel": 33,
        "maxLevel": 33,
        "area": "unova-route-8-area",
        "method": "walk",
        "location": "unova-route-8",
        "conditions": ["season-autumn"]
    },
    {
        "minLevel": 30,
        "maxLevel": 30,
        "area": "moor-of-icirrus-area",
        "method": "walk",
        "location": "moor-of-icirrus",
        "conditions": ["season-spring"]
    },
    {
        "minLevel": 30,
        "maxLevel": 30,
        "area": "moor-of-icirrus-area",
        "method": "walk",
        "location": "moor-of-icirrus",
        "conditions": ["season-summer"]
    },
    {
        "minLevel": 30,
        "maxLevel": 30,
        "area": "moor-of-icirrus-area",
        "method": "walk",
        "location": "moor-of-icirrus",
        "conditions": ["season-autumn"]
    },
    {
        "minLevel": 31,
        "maxLevel": 31,
        "area": "moor-of-icirrus-area",
        "method": "walk",
        "location": "moor-of-icirrus",
        "conditions": ["season-spring"]
    },
    {
        "minLevel": 31,
        "maxLevel": 31,
        "area": "moor-of-icirrus-area",
        "method": "walk",
        "location": "moor-of-icirrus",
        "conditions": ["season-summer"]
    },
    {
        "minLevel": 31,
        "maxLevel": 31,
        "area": "moor-of-icirrus-area",
        "method": "walk",
        "location": "moor-of-icirrus",
        "conditions": ["season-autumn"]
    },
    {
        "minLevel": 32,
        "maxLevel": 32,
        "area": "moor-of-icirrus-area",
        "method": "walk",
        "location": "moor-of-icirrus",
        "conditions": ["season-spring"]
    },
    {
        "minLevel": 32,
        "maxLevel": 32,
        "area": "moor-of-icirrus-area",
        "method": "walk",
        "location": "moor-of-icirrus",
        "conditions": ["season-summer"]
    },
    {
        "minLevel": 32,
        "maxLevel": 32,
        "area": "moor-of-icirrus-area",
        "method": "walk",
        "location": "moor-of-icirrus",
        "conditions": ["season-autumn"]
    },
    {
        "minLevel": 33,
        "maxLevel": 33,
        "area": "moor-of-icirrus-area",
        "method": "walk",
        "location": "moor-of-icirrus",
        "conditions": ["season-spring"]
    },
    {
        "minLevel": 33,
        "maxLevel": 33,
        "area": "moor-of-icirrus-area",
        "method": "walk",
        "location": "moor-of-icirrus",
        "conditions": ["season-summer"]
    },
    {
        "minLevel": 33,
        "maxLevel": 33,
        "area": "moor-of-icirrus-area",
        "method": "walk",
        "location": "moor-of-icirrus",
        "conditions": ["season-autumn"]
    },
    {
        "minLevel": 33,
        "maxLevel": 33,
        "area": "moor-of-icirrus-area",
        "method": "walk",
        "location": "moor-of-icirrus",
        "conditions": ["season-spring"]
    },
    {
        "minLevel": 33,
        "maxLevel": 33,
        "area": "moor-of-icirrus-area",
        "method": "walk",
        "location": "moor-of-icirrus",
        "conditions": ["season-summer"]
    },
    {
        "minLevel": 33,
        "maxLevel": 33,
        "area": "moor-of-icirrus-area",
        "method": "walk",
        "location": "moor-of-icirrus",
        "conditions": ["season-autumn"]
    }
]