[
    {
        "minLevel": 35,
        "maxLevel": 55,
        "area": "unova-route-6-area",
        "method": "super-rod",
        "location": "unova-route-6",
        "conditions": []
    },
    {
        "minLevel": 35,
        "maxLevel": 55,
        "area": "unova-route-6-area",
        "method": "super-rod",
        "location": "unova-route-6",
        "conditions": []
    },
    {
        "minLevel": 35,
        "maxLevel": 55,
        "area": "unova-route-6-area",
        "method": "super-rod",
        "location": "unova-route-6",
        "conditions": []
    },
    {
        "minLevel": 35,
        "maxLevel": 55,
        "area": "unova-victory-road-unknown-area-53",
        "method": "super-rod",
        "location": "unova-victory-road",
        "conditions": []
    },
    {
        "minLevel": 35,
        "maxLevel": 55,
        "area": "unova-victory-road-unknown-area-53",
        "method": "super-rod",
        "location": "unova-victory-road",
        "conditions": []
    },
    {
        "minLevel": 35,
        "maxLevel": 55,
        "area": "unova-victory-road-unknown-area-53",
        "method": "super-rod",
        "location": "unova-victory-road",
        "conditions": []
    },
    {
        "minLevel": 35,
        "maxLevel": 55,
        "area": "unova-victory-road-unknown-area-58",
        "method": "super-rod",
        "location": "unova-victory-road",
        "conditions": []
    },
    {
        "minLevel": 35,
        "maxLevel": 55,
        "area": "unova-victory-road-unknown-area-58",
        "method": "super-rod",
        "location": "unova-victory-road",
        "conditions": []
    },
    {
        "minLevel": 35,
        "maxLevel": 55,
        "area": "unova-victory-road-unknown-area-58",
        "method": "super-rod",
        "location": "unova-victory-road",
        "conditions": []
    },
    {
        "minLevel": 35,
        "maxLevel": 55,
        "area": "wellspring-cave-area",
        "method": "super-rod",
        "location": "wellspring-cave",
        "conditions": []
    },
    {
        "minLevel": 35,
        "maxLevel": 55,
        "area": "wellspring-cave-area",
        "method": "super-rod",
        "location": "wellspring-cave",
        "conditions": []
    },
    {
        "minLevel": 35,
        "maxLevel": 55,
        "area": "wellspring-cave-area",
        "method": "super-rod",
        "location": "wellspring-cave",
        "conditions": []
    },
    {
        "minLevel": 35,
        "maxLevel": 55,
        "area": "challengers-cave-b2f",
        "method": "super-rod",
        "location": "challengers-cave",
        "conditions": []
    },
    {
        "minLevel": 35,
        "maxLevel": 55,
        "area": "challengers-cave-b2f",
        "method": "super-rod",
        "location": "challengers-cave",
        "conditions": []
    },
    {
        "minLevel": 35,
        "maxLevel": 55,
        "area": "challengers-cave-b2f",
        "method": "super-rod",
        "location": "challengers-cave",
        "conditions": []
    },
    {
        "minLevel": 35,
        "maxLevel": 55,
        "area": "giant-chasm-area",
        "method": "super-rod",
        "location": "giant-chasm",
        "conditions": []
    },
    {
        "minLevel": 35,
        "maxLevel": 55,
        "area": "giant-chasm-area",
        "method": "super-rod",
        "location": "giant-chasm",
        "conditions": []
    },
    {
        "minLevel": 35,
        "maxLevel": 55,
        "area": "giant-chasm-area",
        "method": "super-rod",
        "location": "giant-chasm",
        "conditions": []
    },
    {
        "minLevel": 35,
        "maxLevel": 55,
        "area": "giant-chasm-forest-cave",
        "method": "super-rod",
        "location": "giant-chasm",
        "conditions": []
    },
    {
        "minLevel": 35,
        "maxLevel": 55,
        "area": "giant-chasm-forest-cave",
        "method": "super-rod",
        "location": "giant-chasm",
        "conditions": []
    },
    {
        "minLevel": 35,
        "maxLevel": 55,
        "area": "giant-chasm-forest-cave",
        "method": "super-rod",
        "location": "giant-chasm",
        "conditions": []
    }
]