[
    {
        "minLevel": 49,
        "maxLevel": 49,
        "area": "challengers-cave-1f",
        "method": "walk",
        "location": "challengers-cave",
        "conditions": []
    },
    {
        "minLevel": 49,
        "maxLevel": 49,
        "area": "challengers-cave-b1f",
        "method": "walk",
        "location": "challengers-cave",
        "conditions": []
    },
    {
        "minLevel": 49,
        "maxLevel": 49,
        "area": "challengers-cave-b2f",
        "method": "walk",
        "location": "challengers-cave",
        "conditions": []
    }
]