[
    {
        "minLevel": 14,
        "maxLevel": 14,
        "area": "pinwheel-forest-inside",
        "method": "walk",
        "location": "pinwheel-forest",
        "conditions": []
    },
    {
        "minLevel": 15,
        "maxLevel": 15,
        "area": "pinwheel-forest-inside",
        "method": "walk",
        "location": "pinwheel-forest",
        "conditions": []
    },
    {
        "minLevel": 16,
        "maxLevel": 16,
        "area": "pinwheel-forest-inside",
        "method": "walk",
        "location": "pinwheel-forest",
        "conditions": []
    },
    {
        "minLevel": 17,
        "maxLevel": 17,
        "area": "pinwheel-forest-inside",
        "method": "walk",
        "location": "pinwheel-forest",
        "conditions": []
    }
]