[
    {
        "minLevel": 35,
        "maxLevel": 55,
        "area": "unova-route-13-area",
        "method": "super-rod",
        "location": "unova-route-13",
        "conditions": []
    },
    {
        "minLevel": 35,
        "maxLevel": 60,
        "area": "unova-route-13-area",
        "method": "super-rod-spots",
        "location": "unova-route-13",
        "conditions": []
    },
    {
        "minLevel": 35,
        "maxLevel": 55,
        "area": "undella-town-area",
        "method": "super-rod",
        "location": "undella-town",
        "conditions": []
    },
    {
        "minLevel": 35,
        "maxLevel": 60,
        "area": "undella-town-area",
        "method": "super-rod-spots",
        "location": "undella-town",
        "conditions": []
    },
    {
        "minLevel": 35,
        "maxLevel": 55,
        "area": "undella-bay-area",
        "method": "super-rod",
        "location": "undella-bay",
        "conditions": []
    },
    {
        "minLevel": 35,
        "maxLevel": 60,
        "area": "undella-bay-area",
        "method": "super-rod-spots",
        "location": "undella-bay",
        "conditions": []
    }
]