[
    {
        "minLevel": 48,
        "maxLevel": 48,
        "area": "giant-chasm-area",
        "method": "walk",
        "location": "giant-chasm",
        "conditions": []
    },
    {
        "minLevel": 58,
        "maxLevel": 58,
        "area": "giant-chasm-forest-cave",
        "method": "walk",
        "location": "giant-chasm",
        "conditions": []
    }
]