[
    {
        "minLevel": 58,
        "maxLevel": 58,
        "area": "unova-route-13-area",
        "method": "dark-grass",
        "location": "unova-route-13",
        "conditions": []
    },
    {
        "minLevel": 48,
        "maxLevel": 48,
        "area": "unova-route-13-area",
        "method": "walk",
        "location": "unova-route-13",
        "conditions": []
    },
    {
        "minLevel": 58,
        "maxLevel": 58,
        "area": "giant-chasm-outside",
        "method": "dark-grass",
        "location": "giant-chasm",
        "conditions": []
    },
    {
        "minLevel": 48,
        "maxLevel": 48,
        "area": "giant-chasm-outside",
        "method": "walk",
        "location": "giant-chasm",
        "conditions": []
    },
    {
        "minLevel": 50,
        "maxLevel": 50,
        "area": "giant-chasm-area",
        "method": "walk",
        "location": "giant-chasm",
        "conditions": []
    },
    {
        "minLevel": 65,
        "maxLevel": 65,
        "area": "giant-chasm-forest",
        "method": "dark-grass",
        "location": "giant-chasm",
        "conditions": []
    },
    {
        "minLevel": 55,
        "maxLevel": 55,
        "area": "giant-chasm-forest",
        "method": "walk",
        "location": "giant-chasm",
        "conditions": []
    },
    {
        "minLevel": 60,
        "maxLevel": 60,
        "area": "giant-chasm-forest-cave",
        "method": "walk",
        "location": "giant-chasm",
        "conditions": []
    }
]