[
    {
        "minLevel": 35,
        "maxLevel": 70,
        "area": "unova-route-13-area",
        "method": "surf-spots",
        "location": "unova-route-13",
        "conditions": []
    },
    {
        "minLevel": 35,
        "maxLevel": 70,
        "area": "unova-route-13-area",
        "method": "surf-spots",
        "location": "unova-route-13",
        "conditions": []
    },
    {
        "minLevel": 35,
        "maxLevel": 70,
        "area": "unova-route-13-area",
        "method": "surf-spots",
        "location": "unova-route-13",
        "conditions": []
    }
]