[
    {
        "minLevel": 57,
        "maxLevel": 57,
        "area": "unova-route-13-area",
        "method": "dark-grass",
        "location": "unova-route-13",
        "conditions": []
    },
    {
        "minLevel": 47,
        "maxLevel": 47,
        "area": "unova-route-13-area",
        "method": "walk",
        "location": "unova-route-13",
        "conditions": []
    },
    {
        "minLevel": 57,
        "maxLevel": 57,
        "area": "giant-chasm-outside",
        "method": "dark-grass",
        "location": "giant-chasm",
        "conditions": []
    },
    {
        "minLevel": 47,
        "maxLevel": 47,
        "area": "giant-chasm-outside",
        "method": "walk",
        "location": "giant-chasm",
        "conditions": []
    }
]