[
    {
        "minLevel": 22,
        "maxLevel": 22,
        "area": "unova-route-5-area",
        "method": "dark-grass",
        "location": "unova-route-5",
        "conditions": []
    },
    {
        "minLevel": 24,
        "maxLevel": 24,
        "area": "unova-route-5-area",
        "method": "dark-grass",
        "location": "unova-route-5",
        "conditions": []
    },
    {
        "minLevel": 19,
        "maxLevel": 19,
        "area": "unova-route-5-area",
        "method": "walk",
        "location": "unova-route-5",
        "conditions": []
    },
    {
        "minLevel": 21,
        "maxLevel": 21,
        "area": "unova-route-5-area",
        "method": "walk",
        "location": "unova-route-5",
        "conditions": []
    },
    {
        "minLevel": 22,
        "maxLevel": 22,
        "area": "unova-route-16-area",
        "method": "dark-grass",
        "location": "unova-route-16",
        "conditions": []
    },
    {
        "minLevel": 24,
        "maxLevel": 24,
        "area": "unova-route-16-area",
        "method": "dark-grass",
        "location": "unova-route-16",
        "conditions": []
    },
    {
        "minLevel": 19,
        "maxLevel": 19,
        "area": "unova-route-16-area",
        "method": "walk",
        "location": "unova-route-16",
        "conditions": []
    },
    {
        "minLevel": 21,
        "maxLevel": 21,
        "area": "unova-route-16-area",
        "method": "walk",
        "location": "unova-route-16",
        "conditions": []
    }
]