[
    {
        "minLevel": 27,
        "maxLevel": 27,
        "area": "unova-route-6-area",
        "method": "dark-grass",
        "location": "unova-route-6",
        "conditions": ["season-winter"]
    },
    {
        "minLevel": 29,
        "maxLevel": 29,
        "area": "unova-route-6-area",
        "method": "dark-grass",
        "location": "unova-route-6",
        "conditions": ["season-winter"]
    },
    {
        "minLevel": 29,
        "maxLevel": 29,
        "area": "unova-route-6-area",
        "method": "dark-grass",
        "location": "unova-route-6",
        "conditions": ["season-winter"]
    },
    {
        "minLevel": 23,
        "maxLevel": 23,
        "area": "unova-route-6-area",
        "method": "walk",
        "location": "unova-route-6",
        "conditions": ["season-winter"]
    },
    {
        "minLevel": 25,
        "maxLevel": 25,
        "area": "unova-route-6-area",
        "method": "walk",
        "location": "unova-route-6",
        "conditions": ["season-winter"]
    },
    {
        "minLevel": 25,
        "maxLevel": 25,
        "area": "unova-route-6-area",
        "method": "walk",
        "location": "unova-route-6",
        "conditions": ["season-winter"]
    },
    {
        "minLevel": 24,
        "maxLevel": 24,
        "area": "cold-storage-area",
        "method": "dark-grass",
        "location": "cold-storage",
        "conditions": []
    },
    {
        "minLevel": 25,
        "maxLevel": 25,
        "area": "cold-storage-area",
        "method": "dark-grass",
        "location": "cold-storage",
        "conditions": []
    },
    {
        "minLevel": 26,
        "maxLevel": 26,
        "area": "cold-storage-area",
        "method": "dark-grass",
        "location": "cold-storage",
        "conditions": []
    },
    {
        "minLevel": 27,
        "maxLevel": 27,
        "area": "cold-storage-area",
        "method": "dark-grass",
        "location": "cold-storage",
        "conditions": []
    },
    {
        "minLevel": 27,
        "maxLevel": 27,
        "area": "cold-storage-area",
        "method": "dark-grass",
        "location": "cold-storage",
        "conditions": []
    },
    {
        "minLevel": 20,
        "maxLevel": 20,
        "area": "cold-storage-area",
        "method": "walk",
        "location": "cold-storage",
        "conditions": []
    },
    {
        "minLevel": 21,
        "maxLevel": 21,
        "area": "cold-storage-area",
        "method": "walk",
        "location": "cold-storage",
        "conditions": []
    },
    {
        "minLevel": 22,
        "maxLevel": 22,
        "area": "cold-storage-area",
        "method": "walk",
        "location": "cold-storage",
        "conditions": []
    },
    {
        "minLevel": 23,
        "maxLevel": 23,
        "area": "cold-storage-area",
        "method": "walk",
        "location": "cold-storage",
        "conditions": []
    },
    {
        "minLevel": 23,
        "maxLevel": 23,
        "area": "cold-storage-area",
        "method": "walk",
        "location": "cold-storage",
        "conditions": []
    },
    {
        "minLevel": 31,
        "maxLevel": 31,
        "area": "dragonspiral-tower-entrance",
        "method": "walk",
        "location": "dragonspiral-tower",
        "conditions": ["season-winter"]
    },
    {
        "minLevel": 31,
        "maxLevel": 31,
        "area": "dragonspiral-tower-entrance",
        "method": "walk",
        "location": "dragonspiral-tower",
        "conditions": ["season-winter"]
    },
    {
        "minLevel": 32,
        "maxLevel": 32,
        "area": "dragonspiral-tower-entrance",
        "method": "walk",
        "location": "dragonspiral-tower",
        "conditions": ["season-winter"]
    },
    {
        "minLevel": 33,
        "maxLevel": 33,
        "area": "dragonspiral-tower-entrance",
        "method": "walk",
        "location": "dragonspiral-tower",
        "conditions": ["season-winter"]
    },
    {
        "minLevel": 31,
        "maxLevel": 31,
        "area": "dragonspiral-tower-outside",
        "method": "walk",
        "location": "dragonspiral-tower",
        "conditions": ["season-winter"]
    },
    {
        "minLevel": 32,
        "maxLevel": 32,
        "area": "dragonspiral-tower-outside",
        "method": "walk",
        "location": "dragonspiral-tower",
        "conditions": ["season-winter"]
    },
    {
        "minLevel": 32,
        "maxLevel": 32,
        "area": "dragonspiral-tower-outside",
        "method": "walk",
        "location": "dragonspiral-tower",
        "conditions": ["season-winter"]
    },
    {
        "minLevel": 33,
        "maxLevel": 33,
        "area": "dragonspiral-tower-outside",
        "method": "walk",
        "location": "dragonspiral-tower",
        "conditions": ["season-winter"]
    }
]