[
    {
        "minLevel": 35,
        "maxLevel": 70,
        "area": "icirrus-city-area",
        "method": "super-rod-spots",
        "location": "icirrus-city",
        "conditions": []
    },
    {
        "minLevel": 45,
        "maxLevel": 70,
        "area": "icirrus-city-area",
        "method": "super-rod-spots",
        "location": "icirrus-city",
        "conditions": []
    },
    {
        "minLevel": 45,
        "maxLevel": 70,
        "area": "icirrus-city-area",
        "method": "super-rod-spots",
        "location": "icirrus-city",
        "conditions": []
    },
    {
        "minLevel": 35,
        "maxLevel": 70,
        "area": "unova-route-8-area",
        "method": "super-rod-spots",
        "location": "unova-route-8",
        "conditions": []
    },
    {
        "minLevel": 45,
        "maxLevel": 70,
        "area": "unova-route-8-area",
        "method": "super-rod-spots",
        "location": "unova-route-8",
        "conditions": []
    },
    {
        "minLevel": 45,
        "maxLevel": 70,
        "area": "unova-route-8-area",
        "method": "super-rod-spots",
        "location": "unova-route-8",
        "conditions": []
    },
    {
        "minLevel": 35,
        "maxLevel": 70,
        "area": "moor-of-icirrus-area",
        "method": "super-rod-spots",
        "location": "moor-of-icirrus",
        "conditions": []
    },
    {
        "minLevel": 45,
        "maxLevel": 70,
        "area": "moor-of-icirrus-area",
        "method": "super-rod-spots",
        "location": "moor-of-icirrus",
        "conditions": []
    },
    {
        "minLevel": 45,
        "maxLevel": 70,
        "area": "moor-of-icirrus-area",
        "method": "super-rod-spots",
        "location": "moor-of-icirrus",
        "conditions": []
    }
]