{
    "encounters": [
        "caterpie",
        "weedle",
        "zubat",
        "psyduck",
        "golduck",
        "goldeen",
        "seaking",
        "magikarp",
        "gyarados",
        "sunkern",
        "pineco",
        "wurmple",
        "lotad",
        "seedot",
        "starly",
        "bidoof",
        "kricketot",
        "shinx",
        "budew"
    ],
    "id": "sinnoh-route-204-north-towards-floaroma-town"
}