[
    {
        "minLevel": 59,
        "maxLevel": 59,
        "area": "unova-route-14-area",
        "method": "dark-grass",
        "location": "unova-route-14",
        "conditions": []
    },
    {
        "minLevel": 49,
        "maxLevel": 49,
        "area": "unova-route-14-area",
        "method": "walk",
        "location": "unova-route-14",
        "conditions": []
    }
]