[
    {
        "minLevel": 24,
        "maxLevel": 24,
        "area": "chargestone-cave-1f",
        "method": "walk",
        "location": "chargestone-cave",
        "conditions": []
    },
    {
        "minLevel": 24,
        "maxLevel": 24,
        "area": "chargestone-cave-b1f",
        "method": "walk",
        "location": "chargestone-cave",
        "conditions": []
    },
    {
        "minLevel": 24,
        "maxLevel": 24,
        "area": "chargestone-cave-b2f",
        "method": "walk",
        "location": "chargestone-cave",
        "conditions": []
    },
    {
        "minLevel": 28,
        "maxLevel": 28,
        "area": "twist-mountain-area",
        "method": "walk",
        "location": "twist-mountain",
        "conditions": ["season-spring"]
    },
    {
        "minLevel": 28,
        "maxLevel": 28,
        "area": "twist-mountain-area",
        "method": "walk",
        "location": "twist-mountain",
        "conditions": ["season-summer"]
    },
    {
        "minLevel": 28,
        "maxLevel": 28,
        "area": "twist-mountain-area",
        "method": "walk",
        "location": "twist-mountain",
        "conditions": ["season-autumn"]
    },
    {
        "minLevel": 29,
        "maxLevel": 29,
        "area": "twist-mountain-area",
        "method": "walk",
        "location": "twist-mountain",
        "conditions": ["season-winter"]
    },
    {
        "minLevel": 29,
        "maxLevel": 29,
        "area": "twist-mountain-area",
        "method": "walk",
        "location": "twist-mountain",
        "conditions": ["season-spring"]
    },
    {
        "minLevel": 29,
        "maxLevel": 29,
        "area": "twist-mountain-area",
        "method": "walk",
        "location": "twist-mountain",
        "conditions": ["season-summer"]
    },
    {
        "minLevel": 29,
        "maxLevel": 29,
        "area": "twist-mountain-area",
        "method": "walk",
        "location": "twist-mountain",
        "conditions": ["season-autumn"]
    },
    {
        "minLevel": 30,
        "maxLevel": 30,
        "area": "twist-mountain-area",
        "method": "walk",
        "location": "twist-mountain",
        "conditions": []
    },
    {
        "minLevel": 30,
        "maxLevel": 30,
        "area": "twist-mountain-area",
        "method": "walk",
        "location": "twist-mountain",
        "conditions": ["season-spring"]
    },
    {
        "minLevel": 31,
        "maxLevel": 31,
        "area": "twist-mountain-area",
        "method": "walk",
        "location": "twist-mountain",
        "conditions": ["season-summer"]
    },
    {
        "minLevel": 30,
        "maxLevel": 30,
        "area": "twist-mountain-area",
        "method": "walk",
        "location": "twist-mountain",
        "conditions": ["season-autumn"]
    },
    {
        "minLevel": 31,
        "maxLevel": 31,
        "area": "twist-mountain-area",
        "method": "walk",
        "location": "twist-mountain",
        "conditions": ["season-spring"]
    },
    {
        "minLevel": 31,
        "maxLevel": 31,
        "area": "twist-mountain-area",
        "method": "walk",
        "location": "twist-mountain",
        "conditions": ["season-autumn"]
    },
    {
        "minLevel": 39,
        "maxLevel": 39,
        "area": "unova-victory-road-unknown-area-53",
        "method": "walk",
        "location": "unova-victory-road",
        "conditions": []
    },
    {
        "minLevel": 37,
        "maxLevel": 37,
        "area": "unova-victory-road-unknown-area-54",
        "method": "walk",
        "location": "unova-victory-road",
        "conditions": []
    },
    {
        "minLevel": 39,
        "maxLevel": 39,
        "area": "unova-victory-road-unknown-area-54",
        "method": "walk",
        "location": "unova-victory-road",
        "conditions": []
    },
    {
        "minLevel": 37,
        "maxLevel": 37,
        "area": "unova-victory-road-unknown-area-55",
        "method": "walk",
        "location": "unova-victory-road",
        "conditions": []
    },
    {
        "minLevel": 39,
        "maxLevel": 39,
        "area": "unova-victory-road-unknown-area-55",
        "method": "walk",
        "location": "unova-victory-road",
        "conditions": []
    },
    {
        "minLevel": 39,
        "maxLevel": 39,
        "area": "unova-victory-road-unknown-area-56",
        "method": "walk",
        "location": "unova-victory-road",
        "conditions": []
    },
    {
        "minLevel": 41,
        "maxLevel": 41,
        "area": "unova-victory-road-unknown-area-56",
        "method": "walk",
        "location": "unova-victory-road",
        "conditions": []
    },
    {
        "minLevel": 37,
        "maxLevel": 37,
        "area": "unova-victory-road-unknown-area-57",
        "method": "walk",
        "location": "unova-victory-road",
        "conditions": []
    },
    {
        "minLevel": 39,
        "maxLevel": 39,
        "area": "unova-victory-road-unknown-area-57",
        "method": "walk",
        "location": "unova-victory-road",
        "conditions": []
    },
    {
        "minLevel": 39,
        "maxLevel": 39,
        "area": "unova-victory-road-unknown-area-58",
        "method": "walk",
        "location": "unova-victory-road",
        "conditions": []
    },
    {
        "minLevel": 37,
        "maxLevel": 37,
        "area": "unova-victory-road-unknown-area-59",
        "method": "walk",
        "location": "unova-victory-road",
        "conditions": []
    },
    {
        "minLevel": 39,
        "maxLevel": 39,
        "area": "unova-victory-road-unknown-area-59",
        "method": "walk",
        "location": "unova-victory-road",
        "conditions": []
    },
    {
        "minLevel": 37,
        "maxLevel": 37,
        "area": "unova-victory-road-unknown-area-60",
        "method": "walk",
        "location": "unova-victory-road",
        "conditions": []
    },
    {
        "minLevel": 39,
        "maxLevel": 39,
        "area": "unova-victory-road-unknown-area-60",
        "method": "walk",
        "location": "unova-victory-road",
        "conditions": []
    },
    {
        "minLevel": 37,
        "maxLevel": 37,
        "area": "unova-victory-road-unknown-area-61",
        "method": "walk",
        "location": "unova-victory-road",
        "conditions": []
    },
    {
        "minLevel": 39,
        "maxLevel": 39,
        "area": "unova-victory-road-unknown-area-61",
        "method": "walk",
        "location": "unova-victory-road",
        "conditions": []
    },
    {
        "minLevel": 39,
        "maxLevel": 39,
        "area": "unova-victory-road-unknown-area-62",
        "method": "walk",
        "location": "unova-victory-road",
        "conditions": []
    },
    {
        "minLevel": 41,
        "maxLevel": 41,
        "area": "unova-victory-road-unknown-area-62",
        "method": "walk",
        "location": "unova-victory-road",
        "conditions": []
    },
    {
        "minLevel": 39,
        "maxLevel": 39,
        "area": "unova-victory-road-unknown-area-63",
        "method": "walk",
        "location": "unova-victory-road",
        "conditions": []
    },
    {
        "minLevel": 41,
        "maxLevel": 41,
        "area": "unova-victory-road-unknown-area-63",
        "method": "walk",
        "location": "unova-victory-road",
        "conditions": []
    },
    {
        "minLevel": 39,
        "maxLevel": 39,
        "area": "unova-victory-road-unknown-area-64",
        "method": "walk",
        "location": "unova-victory-road",
        "conditions": []
    },
    {
        "minLevel": 41,
        "maxLevel": 41,
        "area": "unova-victory-road-unknown-area-64",
        "method": "walk",
        "location": "unova-victory-road",
        "conditions": []
    },
    {
        "minLevel": 39,
        "maxLevel": 39,
        "area": "unova-victory-road-unknown-area-65",
        "method": "walk",
        "location": "unova-victory-road",
        "conditions": []
    },
    {
        "minLevel": 41,
        "maxLevel": 41,
        "area": "unova-victory-road-unknown-area-65",
        "method": "walk",
        "location": "unova-victory-road",
        "conditions": []
    },
    {
        "minLevel": 39,
        "maxLevel": 39,
        "area": "unova-victory-road-unknown-area-66",
        "method": "walk",
        "location": "unova-victory-road",
        "conditions": []
    },
    {
        "minLevel": 41,
        "maxLevel": 41,
        "area": "unova-victory-road-unknown-area-66",
        "method": "walk",
        "location": "unova-victory-road",
        "conditions": []
    },
    {
        "minLevel": 28,
        "maxLevel": 28,
        "area": "mistralton-cave-area",
        "method": "walk",
        "location": "mistralton-cave",
        "conditions": []
    },
    {
        "minLevel": 29,
        "maxLevel": 29,
        "area": "mistralton-cave-area",
        "method": "walk",
        "location": "mistralton-cave",
        "conditions": []
    },
    {
        "minLevel": 30,
        "maxLevel": 30,
        "area": "mistralton-cave-area",
        "method": "walk",
        "location": "mistralton-cave",
        "conditions": []
    },
    {
        "minLevel": 30,
        "maxLevel": 30,
        "area": "mistralton-cave-area",
        "method": "walk",
        "location": "mistralton-cave",
        "conditions": []
    },
    {
        "minLevel": 31,
        "maxLevel": 31,
        "area": "mistralton-cave-area",
        "method": "walk",
        "location": "mistralton-cave",
        "conditions": []
    },
    {
        "minLevel": 31,
        "maxLevel": 31,
        "area": "mistralton-cave-area",
        "method": "walk",
        "location": "mistralton-cave",
        "conditions": []
    },
    {
        "minLevel": 48,
        "maxLevel": 48,
        "area": "challengers-cave-1f",
        "method": "walk",
        "location": "challengers-cave",
        "conditions": []
    },
    {
        "minLevel": 48,
        "maxLevel": 48,
        "area": "challengers-cave-b1f",
        "method": "walk",
        "location": "challengers-cave",
        "conditions": []
    },
    {
        "minLevel": 48,
        "maxLevel": 48,
        "area": "challengers-cave-b2f",
        "method": "walk",
        "location": "challengers-cave",
        "conditions": []
    },
    {
        "minLevel": 49,
        "maxLevel": 49,
        "area": "giant-chasm-area",
        "method": "walk",
        "location": "giant-chasm",
        "conditions": []
    },
    {
        "minLevel": 59,
        "maxLevel": 59,
        "area": "giant-chasm-forest-cave",
        "method": "walk",
        "location": "giant-chasm",
        "conditions": []
    },
    {
        "minLevel": 39,
        "maxLevel": 39,
        "area": "trial-chamber-area",
        "method": "walk",
        "location": "trial-chamber",
        "conditions": []
    },
    {
        "minLevel": 41,
        "maxLevel": 41,
        "area": "trial-chamber-area",
        "method": "walk",
        "location": "trial-chamber",
        "conditions": []
    },
    {
        "minLevel": 28,
        "maxLevel": 28,
        "area": "guidance-chamber-area",
        "method": "walk",
        "location": "guidance-chamber",
        "conditions": []
    },
    {
        "minLevel": 29,
        "maxLevel": 29,
        "area": "guidance-chamber-area",
        "method": "walk",
        "location": "guidance-chamber",
        "conditions": []
    },
    {
        "minLevel": 30,
        "maxLevel": 30,
        "area": "guidance-chamber-area",
        "method": "walk",
        "location": "guidance-chamber",
        "conditions": []
    },
    {
        "minLevel": 30,
        "maxLevel": 30,
        "area": "guidance-chamber-area",
        "method": "walk",
        "location": "guidance-chamber",
        "conditions": []
    },
    {
        "minLevel": 31,
        "maxLevel": 31,
        "area": "guidance-chamber-area",
        "method": "walk",
        "location": "guidance-chamber",
        "conditions": []
    },
    {
        "minLevel": 31,
        "maxLevel": 31,
        "area": "guidance-chamber-area",
        "method": "walk",
        "location": "guidance-chamber",
        "conditions": []
    }
]