[
    {
        "minLevel": 58,
        "maxLevel": 58,
        "area": "unova-route-11-area",
        "method": "dark-grass",
        "location": "unova-route-11",
        "conditions": []
    },
    {
        "minLevel": 60,
        "maxLevel": 60,
        "area": "unova-route-11-area",
        "method": "dark-grass",
        "location": "unova-route-11",
        "conditions": []
    },
    {
        "minLevel": 60,
        "maxLevel": 60,
        "area": "unova-route-11-area",
        "method": "dark-grass",
        "location": "unova-route-11",
        "conditions": []
    },
    {
        "minLevel": 58,
        "maxLevel": 58,
        "area": "village-bridge-area",
        "method": "dark-grass",
        "location": "village-bridge",
        "conditions": []
    },
    {
        "minLevel": 60,
        "maxLevel": 60,
        "area": "village-bridge-area",
        "method": "dark-grass",
        "location": "village-bridge",
        "conditions": []
    }
]