[
    {
        "minLevel": 35,
        "maxLevel": 55,
        "area": "driftveil-city-area",
        "method": "super-rod",
        "location": "driftveil-city",
        "conditions": []
    },
    {
        "minLevel": 35,
        "maxLevel": 60,
        "area": "driftveil-city-area",
        "method": "super-rod-spots",
        "location": "driftveil-city",
        "conditions": []
    },
    {
        "minLevel": 35,
        "maxLevel": 55,
        "area": "unova-route-18-area",
        "method": "super-rod",
        "location": "unova-route-18",
        "conditions": []
    }
]