[
    {
        "minLevel": 31,
        "maxLevel": 31,
        "area": "dragonspiral-tower-entrance",
        "method": "walk",
        "location": "dragonspiral-tower",
        "conditions": ["season-spring"]
    },
    {
        "minLevel": 31,
        "maxLevel": 31,
        "area": "dragonspiral-tower-entrance",
        "method": "walk",
        "location": "dragonspiral-tower",
        "conditions": ["season-summer"]
    },
    {
        "minLevel": 31,
        "maxLevel": 31,
        "area": "dragonspiral-tower-entrance",
        "method": "walk",
        "location": "dragonspiral-tower",
        "conditions": ["season-autumn"]
    },
    {
        "minLevel": 32,
        "maxLevel": 32,
        "area": "dragonspiral-tower-entrance",
        "method": "walk",
        "location": "dragonspiral-tower",
        "conditions": ["season-spring"]
    },
    {
        "minLevel": 32,
        "maxLevel": 32,
        "area": "dragonspiral-tower-entrance",
        "method": "walk",
        "location": "dragonspiral-tower",
        "conditions": ["season-summer"]
    },
    {
        "minLevel": 32,
        "maxLevel": 32,
        "area": "dragonspiral-tower-entrance",
        "method": "walk",
        "location": "dragonspiral-tower",
        "conditions": ["season-autumn"]
    },
    {
        "minLevel": 33,
        "maxLevel": 33,
        "area": "dragonspiral-tower-entrance",
        "method": "walk",
        "location": "dragonspiral-tower",
        "conditions": ["season-spring"]
    },
    {
        "minLevel": 33,
        "maxLevel": 33,
        "area": "dragonspiral-tower-entrance",
        "method": "walk",
        "location": "dragonspiral-tower",
        "conditions": ["season-summer"]
    },
    {
        "minLevel": 33,
        "maxLevel": 33,
        "area": "dragonspiral-tower-entrance",
        "method": "walk",
        "location": "dragonspiral-tower",
        "conditions": ["season-autumn"]
    },
    {
        "minLevel": 35,
        "maxLevel": 35,
        "area": "dragonspiral-tower-outside",
        "method": "dark-grass",
        "location": "dragonspiral-tower",
        "conditions": ["season-spring"]
    },
    {
        "minLevel": 35,
        "maxLevel": 35,
        "area": "dragonspiral-tower-outside",
        "method": "dark-grass",
        "location": "dragonspiral-tower",
        "conditions": ["season-summer"]
    },
    {
        "minLevel": 35,
        "maxLevel": 35,
        "area": "dragonspiral-tower-outside",
        "method": "dark-grass",
        "location": "dragonspiral-tower",
        "conditions": ["season-autumn"]
    },
    {
        "minLevel": 36,
        "maxLevel": 36,
        "area": "dragonspiral-tower-outside",
        "method": "dark-grass",
        "location": "dragonspiral-tower",
        "conditions": ["season-spring"]
    },
    {
        "minLevel": 36,
        "maxLevel": 36,
        "area": "dragonspiral-tower-outside",
        "method": "dark-grass",
        "location": "dragonspiral-tower",
        "conditions": ["season-summer"]
    },
    {
        "minLevel": 36,
        "maxLevel": 36,
        "area": "dragonspiral-tower-outside",
        "method": "dark-grass",
        "location": "dragonspiral-tower",
        "conditions": ["season-autumn"]
    },
    {
        "minLevel": 37,
        "maxLevel": 37,
        "area": "dragonspiral-tower-outside",
        "method": "dark-grass",
        "location": "dragonspiral-tower",
        "conditions": ["season-spring"]
    },
    {
        "minLevel": 37,
        "maxLevel": 37,
        "area": "dragonspiral-tower-outside",
        "method": "dark-grass",
        "location": "dragonspiral-tower",
        "conditions": ["season-summer"]
    },
    {
        "minLevel": 37,
        "maxLevel": 37,
        "area": "dragonspiral-tower-outside",
        "method": "dark-grass",
        "location": "dragonspiral-tower",
        "conditions": ["season-autumn"]
    },
    {
        "minLevel": 31,
        "maxLevel": 31,
        "area": "dragonspiral-tower-outside",
        "method": "walk",
        "location": "dragonspiral-tower",
        "conditions": ["season-spring"]
    },
    {
        "minLevel": 31,
        "maxLevel": 31,
        "area": "dragonspiral-tower-outside",
        "method": "walk",
        "location": "dragonspiral-tower",
        "conditions": ["season-summer"]
    },
    {
        "minLevel": 31,
        "maxLevel": 31,
        "area": "dragonspiral-tower-outside",
        "method": "walk",
        "location": "dragonspiral-tower",
        "conditions": ["season-autumn"]
    },
    {
        "minLevel": 32,
        "maxLevel": 32,
        "area": "dragonspiral-tower-outside",
        "method": "walk",
        "location": "dragonspiral-tower",
        "conditions": ["season-spring"]
    },
    {
        "minLevel": 32,
        "maxLevel": 32,
        "area": "dragonspiral-tower-outside",
        "method": "walk",
        "location": "dragonspiral-tower",
        "conditions": ["season-summer"]
    },
    {
        "minLevel": 32,
        "maxLevel": 32,
        "area": "dragonspiral-tower-outside",
        "method": "walk",
        "location": "dragonspiral-tower",
        "conditions": ["season-autumn"]
    },
    {
        "minLevel": 33,
        "maxLevel": 33,
        "area": "dragonspiral-tower-outside",
        "method": "walk",
        "location": "dragonspiral-tower",
        "conditions": ["season-spring"]
    },
    {
        "minLevel": 33,
        "maxLevel": 33,
        "area": "dragonspiral-tower-outside",
        "method": "walk",
        "location": "dragonspiral-tower",
        "conditions": ["season-summer"]
    },
    {
        "minLevel": 33,
        "maxLevel": 33,
        "area": "dragonspiral-tower-outside",
        "method": "walk",
        "location": "dragonspiral-tower",
        "conditions": ["season-autumn"]
    },
    {
        "minLevel": 30,
        "maxLevel": 30,
        "area": "dragonspiral-tower-1f",
        "method": "walk",
        "location": "dragonspiral-tower",
        "conditions": []
    },
    {
        "minLevel": 31,
        "maxLevel": 31,
        "area": "dragonspiral-tower-1f",
        "method": "walk",
        "location": "dragonspiral-tower",
        "conditions": []
    },
    {
        "minLevel": 32,
        "maxLevel": 32,
        "area": "dragonspiral-tower-1f",
        "method": "walk",
        "location": "dragonspiral-tower",
        "conditions": []
    },
    {
        "minLevel": 33,
        "maxLevel": 33,
        "area": "dragonspiral-tower-1f",
        "method": "walk",
        "location": "dragonspiral-tower",
        "conditions": []
    },
    {
        "minLevel": 33,
        "maxLevel": 33,
        "area": "dragonspiral-tower-1f",
        "method": "walk",
        "location": "dragonspiral-tower",
        "conditions": []
    }
]