[
    {
        "minLevel": 57,
        "maxLevel": 57,
        "area": "unova-route-11-area",
        "method": "dark-grass",
        "location": "unova-route-11",
        "conditions": []
    },
    {
        "minLevel": 60,
        "maxLevel": 60,
        "area": "unova-route-11-area",
        "method": "dark-grass",
        "location": "unova-route-11",
        "conditions": []
    },
    {
        "minLevel": 60,
        "maxLevel": 60,
        "area": "unova-route-11-area",
        "method": "dark-grass",
        "location": "unova-route-11",
        "conditions": []
    },
    {
        "minLevel": 47,
        "maxLevel": 47,
        "area": "unova-route-11-area",
        "method": "walk",
        "location": "unova-route-11",
        "conditions": []
    },
    {
        "minLevel": 50,
        "maxLevel": 50,
        "area": "unova-route-11-area",
        "method": "walk",
        "location": "unova-route-11",
        "conditions": []
    },
    {
        "minLevel": 50,
        "maxLevel": 50,
        "area": "unova-route-11-area",
        "method": "walk",
        "location": "unova-route-11",
        "conditions": []
    },
    {
        "minLevel": 57,
        "maxLevel": 57,
        "area": "unova-route-15-area",
        "method": "dark-grass",
        "location": "unova-route-15",
        "conditions": []
    },
    {
        "minLevel": 47,
        "maxLevel": 47,
        "area": "unova-route-15-area",
        "method": "walk",
        "location": "unova-route-15",
        "conditions": []
    },
    {
        "minLevel": 49,
        "maxLevel": 49,
        "area": "unova-route-15-area",
        "method": "walk",
        "location": "unova-route-15",
        "conditions": []
    },
    {
        "minLevel": 49,
        "maxLevel": 49,
        "area": "unova-route-15-area",
        "method": "walk",
        "location": "unova-route-15",
        "conditions": []
    }
]