[
    {
        "minLevel": 50,
        "maxLevel": 50,
        "area": "unova-route-11-area",
        "method": "grass-spots",
        "location": "unova-route-11",
        "conditions": []
    },
    {
        "minLevel": 50,
        "maxLevel": 50,
        "area": "unova-route-11-area",
        "method": "grass-spots",
        "location": "unova-route-11",
        "conditions": []
    },
    {
        "minLevel": 50,
        "maxLevel": 50,
        "area": "unova-route-15-area",
        "method": "grass-spots",
        "location": "unova-route-15",
        "conditions": []
    },
    {
        "minLevel": 50,
        "maxLevel": 50,
        "area": "unova-route-15-area",
        "method": "grass-spots",
        "location": "unova-route-15",
        "conditions": []
    }
]