[
    {
        "minLevel": 60,
        "maxLevel": 60,
        "area": "unova-route-12-area",
        "method": "dark-grass",
        "location": "unova-route-12",
        "conditions": []
    },
    {
        "minLevel": 50,
        "maxLevel": 50,
        "area": "unova-route-12-area",
        "method": "walk",
        "location": "unova-route-12",
        "conditions": []
    }
]