[
    {
        "minLevel": 32,
        "maxLevel": 32,
        "area": "unova-route-1-area",
        "method": "dark-grass",
        "location": "unova-route-1",
        "conditions": []
    },
    {
        "minLevel": 33,
        "maxLevel": 33,
        "area": "unova-route-1-area",
        "method": "dark-grass",
        "location": "unova-route-1",
        "conditions": []
    },
    {
        "minLevel": 34,
        "maxLevel": 34,
        "area": "unova-route-1-area",
        "method": "dark-grass",
        "location": "unova-route-1",
        "conditions": []
    },
    {
        "minLevel": 34,
        "maxLevel": 34,
        "area": "unova-route-1-area",
        "method": "dark-grass",
        "location": "unova-route-1",
        "conditions": []
    },
    {
        "minLevel": 38,
        "maxLevel": 38,
        "area": "unova-route-10-area",
        "method": "dark-grass",
        "location": "unova-route-10",
        "conditions": []
    },
    {
        "minLevel": 39,
        "maxLevel": 39,
        "area": "unova-route-10-area",
        "method": "dark-grass",
        "location": "unova-route-10",
        "conditions": []
    },
    {
        "minLevel": 33,
        "maxLevel": 33,
        "area": "unova-route-10-area",
        "method": "walk",
        "location": "unova-route-10",
        "conditions": []
    },
    {
        "minLevel": 34,
        "maxLevel": 34,
        "area": "unova-route-10-area",
        "method": "walk",
        "location": "unova-route-10",
        "conditions": []
    },
    {
        "minLevel": 38,
        "maxLevel": 38,
        "area": "unova-route-10-victory-road-gate",
        "method": "dark-grass",
        "location": "unova-route-10",
        "conditions": []
    },
    {
        "minLevel": 39,
        "maxLevel": 39,
        "area": "unova-route-10-victory-road-gate",
        "method": "dark-grass",
        "location": "unova-route-10",
        "conditions": []
    },
    {
        "minLevel": 33,
        "maxLevel": 33,
        "area": "unova-route-10-victory-road-gate",
        "method": "walk",
        "location": "unova-route-10",
        "conditions": []
    },
    {
        "minLevel": 34,
        "maxLevel": 34,
        "area": "unova-route-10-victory-road-gate",
        "method": "walk",
        "location": "unova-route-10",
        "conditions": []
    },
    {
        "minLevel": 25,
        "maxLevel": 25,
        "area": "cold-storage-area",
        "method": "dark-grass",
        "location": "cold-storage",
        "conditions": []
    },
    {
        "minLevel": 26,
        "maxLevel": 26,
        "area": "cold-storage-area",
        "method": "dark-grass",
        "location": "cold-storage",
        "conditions": []
    },
    {
        "minLevel": 27,
        "maxLevel": 27,
        "area": "cold-storage-area",
        "method": "dark-grass",
        "location": "cold-storage",
        "conditions": []
    },
    {
        "minLevel": 27,
        "maxLevel": 27,
        "area": "cold-storage-area",
        "method": "dark-grass",
        "location": "cold-storage",
        "conditions": []
    },
    {
        "minLevel": 21,
        "maxLevel": 21,
        "area": "cold-storage-area",
        "method": "walk",
        "location": "cold-storage",
        "conditions": []
    },
    {
        "minLevel": 22,
        "maxLevel": 22,
        "area": "cold-storage-area",
        "method": "walk",
        "location": "cold-storage",
        "conditions": []
    },
    {
        "minLevel": 23,
        "maxLevel": 23,
        "area": "cold-storage-area",
        "method": "walk",
        "location": "cold-storage",
        "conditions": []
    },
    {
        "minLevel": 23,
        "maxLevel": 23,
        "area": "cold-storage-area",
        "method": "walk",
        "location": "cold-storage",
        "conditions": []
    },
    {
        "minLevel": 28,
        "maxLevel": 28,
        "area": "p2-laboratory-area",
        "method": "walk",
        "location": "p2-laboratory",
        "conditions": []
    },
    {
        "minLevel": 29,
        "maxLevel": 29,
        "area": "p2-laboratory-area",
        "method": "walk",
        "location": "p2-laboratory",
        "conditions": []
    },
    {
        "minLevel": 30,
        "maxLevel": 30,
        "area": "p2-laboratory-area",
        "method": "walk",
        "location": "p2-laboratory",
        "conditions": []
    },
    {
        "minLevel": 31,
        "maxLevel": 31,
        "area": "p2-laboratory-area",
        "method": "walk",
        "location": "p2-laboratory",
        "conditions": []
    }
]