[
    {
        "minLevel": 50,
        "maxLevel": 50,
        "area": "abundant-shrine-area",
        "method": "grass-spots",
        "location": "abundant-shrine",
        "conditions": []
    },
    {
        "minLevel": 50,
        "maxLevel": 50,
        "area": "abundant-shrine-area",
        "method": "grass-spots",
        "location": "abundant-shrine",
        "conditions": []
    }
]