[
    {
        "minLevel": 48,
        "maxLevel": 48,
        "area": "relic-castle-c",
        "method": "walk",
        "location": "relic-castle",
        "conditions": []
    },
    {
        "minLevel": 49,
        "maxLevel": 49,
        "area": "relic-castle-c",
        "method": "walk",
        "location": "relic-castle",
        "conditions": []
    }
]