[
    {
        "minLevel": 10,
        "maxLevel": 10,
        "area": "dreamyard-area",
        "method": "gift",
        "location": "dreamyard",
        "conditions": []
    },
    {
        "minLevel": 15,
        "maxLevel": 15,
        "area": "pinwheel-forest-inside",
        "method": "grass-spots",
        "location": "pinwheel-forest",
        "conditions": []
    },
    {
        "minLevel": 20,
        "maxLevel": 20,
        "area": "lostlorn-forest-area",
        "method": "grass-spots",
        "location": "lostlorn-forest",
        "conditions": []
    }
]