[
    {
        "minLevel": 48,
        "maxLevel": 48,
        "area": "dreamyard-area",
        "method": "dark-grass",
        "location": "dreamyard",
        "conditions": []
    },
    {
        "minLevel": 47,
        "maxLevel": 47,
        "area": "dreamyard-b1f",
        "method": "dark-grass",
        "location": "dreamyard",
        "conditions": []
    },
    {
        "minLevel": 48,
        "maxLevel": 48,
        "area": "dreamyard-b1f",
        "method": "dark-grass",
        "location": "dreamyard",
        "conditions": []
    },
    {
        "minLevel": 50,
        "maxLevel": 50,
        "area": "dreamyard-b1f",
        "method": "dark-grass",
        "location": "dreamyard",
        "conditions": []
    },
    {
        "minLevel": 50,
        "maxLevel": 50,
        "area": "dreamyard-b1f",
        "method": "dark-grass",
        "location": "dreamyard",
        "conditions": []
    }
]