[
    {
        "minLevel": 47,
        "maxLevel": 47,
        "area": "marvelous-bridge-area",
        "method": "bridge-spots",
        "location": "marvelous-bridge",
        "conditions": []
    },
    {
        "minLevel": 47,
        "maxLevel": 47,
        "area": "marvelous-bridge-area",
        "method": "bridge-spots",
        "location": "marvelous-bridge",
        "conditions": []
    },
    {
        "minLevel": 48,
        "maxLevel": 48,
        "area": "marvelous-bridge-area",
        "method": "bridge-spots",
        "location": "marvelous-bridge",
        "conditions": []
    },
    {
        "minLevel": 48,
        "maxLevel": 48,
        "area": "marvelous-bridge-area",
        "method": "bridge-spots",
        "location": "marvelous-bridge",
        "conditions": []
    },
    {
        "minLevel": 49,
        "maxLevel": 49,
        "area": "marvelous-bridge-area",
        "method": "bridge-spots",
        "location": "marvelous-bridge",
        "conditions": []
    },
    {
        "minLevel": 49,
        "maxLevel": 49,
        "area": "marvelous-bridge-area",
        "method": "bridge-spots",
        "location": "marvelous-bridge",
        "conditions": []
    },
    {
        "minLevel": 50,
        "maxLevel": 50,
        "area": "marvelous-bridge-area",
        "method": "bridge-spots",
        "location": "marvelous-bridge",
        "conditions": []
    },
    {
        "minLevel": 50,
        "maxLevel": 50,
        "area": "marvelous-bridge-area",
        "method": "bridge-spots",
        "location": "marvelous-bridge",
        "conditions": []
    },
    {
        "minLevel": 50,
        "maxLevel": 50,
        "area": "marvelous-bridge-area",
        "method": "bridge-spots",
        "location": "marvelous-bridge",
        "conditions": []
    },
    {
        "minLevel": 50,
        "maxLevel": 50,
        "area": "marvelous-bridge-area",
        "method": "bridge-spots",
        "location": "marvelous-bridge",
        "conditions": []
    },
    {
        "minLevel": 50,
        "maxLevel": 50,
        "area": "marvelous-bridge-area",
        "method": "bridge-spots",
        "location": "marvelous-bridge",
        "conditions": []
    },
    {
        "minLevel": 50,
        "maxLevel": 50,
        "area": "marvelous-bridge-area",
        "method": "bridge-spots",
        "location": "marvelous-bridge",
        "conditions": []
    }
]