[
    {
        "minLevel": 27,
        "maxLevel": 27,
        "area": "chargestone-cave-1f",
        "method": "walk",
        "location": "chargestone-cave",
        "conditions": []
    },
    {
        "minLevel": 27,
        "maxLevel": 27,
        "area": "chargestone-cave-1f",
        "method": "walk",
        "location": "chargestone-cave",
        "conditions": []
    },
    {
        "minLevel": 27,
        "maxLevel": 27,
        "area": "chargestone-cave-b1f",
        "method": "walk",
        "location": "chargestone-cave",
        "conditions": []
    },
    {
        "minLevel": 27,
        "maxLevel": 27,
        "area": "chargestone-cave-b1f",
        "method": "walk",
        "location": "chargestone-cave",
        "conditions": []
    },
    {
        "minLevel": 27,
        "maxLevel": 27,
        "area": "chargestone-cave-b2f",
        "method": "walk",
        "location": "chargestone-cave",
        "conditions": []
    },
    {
        "minLevel": 27,
        "maxLevel": 27,
        "area": "chargestone-cave-b2f",
        "method": "walk",
        "location": "chargestone-cave",
        "conditions": []
    }
]