{
    "encounters": [
        "zubat",
        "golbat",
        "psyduck",
        "golduck",
        "geodude",
        "magikarp",
        "gyarados",
        "barboach",
        "whiscash"
    ],
    "id": "oreburgh-gate-b1f"
}