{
    "name": "Ile de Fer",
    "areas": [
        "iron-island-area",
        "iron-island-1f",
        "iron-island-b1f-left",
        "iron-island-b1f-right",
        "iron-island-b2f-right",
        "iron-island-b2f-left",
        "iron-island-b3f"
    ],
    "id": "iron-island"
}