[
    {
        "minLevel": 15,
        "maxLevel": 15,
        "area": "johto-route-42-area",
        "method": "walk",
        "location": "johto-route-42",
        "conditions": ["time-day"]
    },
    {
        "minLevel": 17,
        "maxLevel": 17,
        "area": "johto-route-42-area",
        "method": "walk",
        "location": "johto-route-42",
        "conditions": ["time-day"]
    },
    {
        "minLevel": 17,
        "maxLevel": 17,
        "area": "johto-route-42-area",
        "method": "walk",
        "location": "johto-route-42",
        "conditions": ["time-day"]
    },
    {
        "minLevel": 15,
        "maxLevel": 15,
        "area": "johto-route-42-area",
        "method": "walk",
        "location": "johto-route-42",
        "conditions": ["time-morning"]
    },
    {
        "minLevel": 17,
        "maxLevel": 17,
        "area": "johto-route-42-area",
        "method": "walk",
        "location": "johto-route-42",
        "conditions": ["time-morning"]
    },
    {
        "minLevel": 17,
        "maxLevel": 17,
        "area": "johto-route-42-area",
        "method": "walk",
        "location": "johto-route-42",
        "conditions": ["time-morning"]
    },
    {
        "minLevel": 15,
        "maxLevel": 15,
        "area": "johto-route-42-area",
        "method": "walk",
        "location": "johto-route-42",
        "conditions": ["time-night"]
    },
    {
        "minLevel": 17,
        "maxLevel": 17,
        "area": "johto-route-42-area",
        "method": "walk",
        "location": "johto-route-42",
        "conditions": ["time-night"]
    },
    {
        "minLevel": 17,
        "maxLevel": 17,
        "area": "johto-route-42-area",
        "method": "walk",
        "location": "johto-route-42",
        "conditions": ["time-night"]
    },
    {
        "minLevel": 15,
        "maxLevel": 15,
        "area": "johto-route-43-area",
        "method": "walk",
        "location": "johto-route-43",
        "conditions": ["time-day"]
    },
    {
        "minLevel": 17,
        "maxLevel": 17,
        "area": "johto-route-43-area",
        "method": "walk",
        "location": "johto-route-43",
        "conditions": ["time-day"]
    },
    {
        "minLevel": 17,
        "maxLevel": 17,
        "area": "johto-route-43-area",
        "method": "walk",
        "location": "johto-route-43",
        "conditions": ["time-day"]
    },
    {
        "minLevel": 17,
        "maxLevel": 17,
        "area": "johto-route-43-area",
        "method": "walk",
        "location": "johto-route-43",
        "conditions": ["time-day"]
    },
    {
        "minLevel": 15,
        "maxLevel": 15,
        "area": "johto-route-43-area",
        "method": "walk",
        "location": "johto-route-43",
        "conditions": ["time-morning"]
    },
    {
        "minLevel": 15,
        "maxLevel": 15,
        "area": "johto-route-43-area",
        "method": "walk",
        "location": "johto-route-43",
        "conditions": ["time-night"]
    }
]