[
    {
        "minLevel": 10,
        "maxLevel": 10,
        "area": "cherrygrove-city-area",
        "method": "old-rod",
        "location": "cherrygrove-city",
        "conditions": []
    },
    {
        "minLevel": 20,
        "maxLevel": 20,
        "area": "cherrygrove-city-area",
        "method": "good-rod",
        "location": "cherrygrove-city",
        "conditions": ["time-day"]
    },
    {
        "minLevel": 20,
        "maxLevel": 20,
        "area": "cherrygrove-city-area",
        "method": "good-rod",
        "location": "cherrygrove-city",
        "conditions": ["time-day"]
    },
    {
        "minLevel": 20,
        "maxLevel": 20,
        "area": "cherrygrove-city-area",
        "method": "good-rod",
        "location": "cherrygrove-city",
        "conditions": ["time-morning"]
    },
    {
        "minLevel": 20,
        "maxLevel": 20,
        "area": "cherrygrove-city-area",
        "method": "good-rod",
        "location": "cherrygrove-city",
        "conditions": ["time-morning"]
    },
    {
        "minLevel": 20,
        "maxLevel": 20,
        "area": "cherrygrove-city-area",
        "method": "good-rod",
        "location": "cherrygrove-city",
        "conditions": ["time-night"]
    },
    {
        "minLevel": 20,
        "maxLevel": 20,
        "area": "cherrygrove-city-area",
        "method": "good-rod",
        "location": "cherrygrove-city",
        "conditions": ["time-night"]
    },
    {
        "minLevel": 40,
        "maxLevel": 40,
        "area": "cherrygrove-city-area",
        "method": "super-rod",
        "location": "cherrygrove-city",
        "conditions": []
    },
    {
        "minLevel": 40,
        "maxLevel": 40,
        "area": "cherrygrove-city-area",
        "method": "super-rod",
        "location": "cherrygrove-city",
        "conditions": []
    },
    {
        "minLevel": 40,
        "maxLevel": 40,
        "area": "cherrygrove-city-area",
        "method": "super-rod",
        "location": "cherrygrove-city",
        "conditions": []
    },
    {
        "minLevel": 40,
        "maxLevel": 40,
        "area": "cherrygrove-city-area",
        "method": "super-rod",
        "location": "cherrygrove-city",
        "conditions": []
    },
    {
        "minLevel": 40,
        "maxLevel": 40,
        "area": "cherrygrove-city-area",
        "method": "super-rod",
        "location": "cherrygrove-city",
        "conditions": []
    },
    {
        "minLevel": 40,
        "maxLevel": 40,
        "area": "cherrygrove-city-area",
        "method": "super-rod",
        "location": "cherrygrove-city",
        "conditions": []
    },
    {
        "minLevel": 10,
        "maxLevel": 10,
        "area": "cianwood-city-area",
        "method": "old-rod",
        "location": "cianwood-city",
        "conditions": []
    },
    {
        "minLevel": 20,
        "maxLevel": 20,
        "area": "cianwood-city-area",
        "method": "good-rod",
        "location": "cianwood-city",
        "conditions": ["time-day"]
    },
    {
        "minLevel": 20,
        "maxLevel": 20,
        "area": "cianwood-city-area",
        "method": "good-rod",
        "location": "cianwood-city",
        "conditions": ["time-day"]
    },
    {
        "minLevel": 20,
        "maxLevel": 20,
        "area": "cianwood-city-area",
        "method": "good-rod",
        "location": "cianwood-city",
        "conditions": ["time-morning"]
    },
    {
        "minLevel": 20,
        "maxLevel": 20,
        "area": "cianwood-city-area",
        "method": "good-rod",
        "location": "cianwood-city",
        "conditions": ["time-morning"]
    },
    {
        "minLevel": 20,
        "maxLevel": 20,
        "area": "cianwood-city-area",
        "method": "good-rod",
        "location": "cianwood-city",
        "conditions": ["time-night"]
    },
    {
        "minLevel": 20,
        "maxLevel": 20,
        "area": "cianwood-city-area",
        "method": "good-rod",
        "location": "cianwood-city",
        "conditions": ["time-night"]
    },
    {
        "minLevel": 40,
        "maxLevel": 40,
        "area": "cianwood-city-area",
        "method": "super-rod",
        "location": "cianwood-city",
        "conditions": []
    },
    {
        "minLevel": 40,
        "maxLevel": 40,
        "area": "cianwood-city-area",
        "method": "super-rod",
        "location": "cianwood-city",
        "conditions": []
    },
    {
        "minLevel": 40,
        "maxLevel": 40,
        "area": "cianwood-city-area",
        "method": "super-rod",
        "location": "cianwood-city",
        "conditions": []
    },
    {
        "minLevel": 40,
        "maxLevel": 40,
        "area": "cianwood-city-area",
        "method": "super-rod",
        "location": "cianwood-city",
        "conditions": []
    },
    {
        "minLevel": 40,
        "maxLevel": 40,
        "area": "cianwood-city-area",
        "method": "super-rod",
        "location": "cianwood-city",
        "conditions": []
    },
    {
        "minLevel": 40,
        "maxLevel": 40,
        "area": "cianwood-city-area",
        "method": "super-rod",
        "location": "cianwood-city",
        "conditions": []
    },
    {
        "minLevel": 15,
        "maxLevel": 15,
        "area": "cianwood-city-area",
        "method": "rock-smash",
        "location": "cianwood-city",
        "conditions": []
    },
    {
        "minLevel": 15,
        "maxLevel": 15,
        "area": "dark-cave-violet-city-entrance",
        "method": "rock-smash",
        "location": "dark-cave",
        "conditions": []
    },
    {
        "minLevel": 10,
        "maxLevel": 10,
        "area": "olivine-city-area",
        "method": "old-rod",
        "location": "olivine-city",
        "conditions": []
    },
    {
        "minLevel": 20,
        "maxLevel": 20,
        "area": "olivine-city-area",
        "method": "good-rod",
        "location": "olivine-city",
        "conditions": ["time-day"]
    },
    {
        "minLevel": 20,
        "maxLevel": 20,
        "area": "olivine-city-area",
        "method": "good-rod",
        "location": "olivine-city",
        "conditions": ["time-day"]
    },
    {
        "minLevel": 20,
        "maxLevel": 20,
        "area": "olivine-city-area",
        "method": "good-rod",
        "location": "olivine-city",
        "conditions": ["time-morning"]
    },
    {
        "minLevel": 20,
        "maxLevel": 20,
        "area": "olivine-city-area",
        "method": "good-rod",
        "location": "olivine-city",
        "conditions": ["time-morning"]
    },
    {
        "minLevel": 20,
        "maxLevel": 20,
        "area": "olivine-city-area",
        "method": "good-rod",
        "location": "olivine-city",
        "conditions": ["time-night"]
    },
    {
        "minLevel": 20,
        "maxLevel": 20,
        "area": "olivine-city-area",
        "method": "good-rod",
        "location": "olivine-city",
        "conditions": ["time-night"]
    },
    {
        "minLevel": 40,
        "maxLevel": 40,
        "area": "olivine-city-area",
        "method": "super-rod",
        "location": "olivine-city",
        "conditions": []
    },
    {
        "minLevel": 40,
        "maxLevel": 40,
        "area": "olivine-city-area",
        "method": "super-rod",
        "location": "olivine-city",
        "conditions": []
    },
    {
        "minLevel": 40,
        "maxLevel": 40,
        "area": "olivine-city-area",
        "method": "super-rod",
        "location": "olivine-city",
        "conditions": []
    },
    {
        "minLevel": 40,
        "maxLevel": 40,
        "area": "olivine-city-area",
        "method": "super-rod",
        "location": "olivine-city",
        "conditions": []
    },
    {
        "minLevel": 40,
        "maxLevel": 40,
        "area": "olivine-city-area",
        "method": "super-rod",
        "location": "olivine-city",
        "conditions": []
    },
    {
        "minLevel": 40,
        "maxLevel": 40,
        "area": "olivine-city-area",
        "method": "super-rod",
        "location": "olivine-city",
        "conditions": []
    },
    {
        "minLevel": 10,
        "maxLevel": 10,
        "area": "johto-route-34-area",
        "method": "old-rod",
        "location": "johto-route-34",
        "conditions": []
    },
    {
        "minLevel": 20,
        "maxLevel": 20,
        "area": "johto-route-34-area",
        "method": "good-rod",
        "location": "johto-route-34",
        "conditions": ["time-day"]
    },
    {
        "minLevel": 20,
        "maxLevel": 20,
        "area": "johto-route-34-area",
        "method": "good-rod",
        "location": "johto-route-34",
        "conditions": ["time-day"]
    },
    {
        "minLevel": 20,
        "maxLevel": 20,
        "area": "johto-route-34-area",
        "method": "good-rod",
        "location": "johto-route-34",
        "conditions": ["time-morning"]
    },
    {
        "minLevel": 20,
        "maxLevel": 20,
        "area": "johto-route-34-area",
        "method": "good-rod",
        "location": "johto-route-34",
        "conditions": ["time-morning"]
    },
    {
        "minLevel": 20,
        "maxLevel": 20,
        "area": "johto-route-34-area",
        "method": "good-rod",
        "location": "johto-route-34",
        "conditions": ["time-night"]
    },
    {
        "minLevel": 20,
        "maxLevel": 20,
        "area": "johto-route-34-area",
        "method": "good-rod",
        "location": "johto-route-34",
        "conditions": ["time-night"]
    },
    {
        "minLevel": 40,
        "maxLevel": 40,
        "area": "johto-route-34-area",
        "method": "super-rod",
        "location": "johto-route-34",
        "conditions": []
    },
    {
        "minLevel": 40,
        "maxLevel": 40,
        "area": "johto-route-34-area",
        "method": "super-rod",
        "location": "johto-route-34",
        "conditions": []
    },
    {
        "minLevel": 40,
        "maxLevel": 40,
        "area": "johto-route-34-area",
        "method": "super-rod",
        "location": "johto-route-34",
        "conditions": []
    },
    {
        "minLevel": 40,
        "maxLevel": 40,
        "area": "johto-route-34-area",
        "method": "super-rod",
        "location": "johto-route-34",
        "conditions": []
    },
    {
        "minLevel": 40,
        "maxLevel": 40,
        "area": "johto-route-34-area",
        "method": "super-rod",
        "location": "johto-route-34",
        "conditions": []
    },
    {
        "minLevel": 40,
        "maxLevel": 40,
        "area": "johto-route-34-area",
        "method": "super-rod",
        "location": "johto-route-34",
        "conditions": []
    },
    {
        "minLevel": 10,
        "maxLevel": 10,
        "area": "johto-sea-route-40-area",
        "method": "old-rod",
        "location": "johto-sea-route-40",
        "conditions": []
    },
    {
        "minLevel": 20,
        "maxLevel": 20,
        "area": "johto-sea-route-40-area",
        "method": "good-rod",
        "location": "johto-sea-route-40",
        "conditions": ["time-day"]
    },
    {
        "minLevel": 20,
        "maxLevel": 20,
        "area": "johto-sea-route-40-area",
        "method": "good-rod",
        "location": "johto-sea-route-40",
        "conditions": ["time-day"]
    },
    {
        "minLevel": 20,
        "maxLevel": 20,
        "area": "johto-sea-route-40-area",
        "method": "good-rod",
        "location": "johto-sea-route-40",
        "conditions": ["time-morning"]
    },
    {
        "minLevel": 20,
        "maxLevel": 20,
        "area": "johto-sea-route-40-area",
        "method": "good-rod",
        "location": "johto-sea-route-40",
        "conditions": ["time-morning"]
    },
    {
        "minLevel": 20,
        "maxLevel": 20,
        "area": "johto-sea-route-40-area",
        "method": "good-rod",
        "location": "johto-sea-route-40",
        "conditions": ["time-night"]
    },
    {
        "minLevel": 20,
        "maxLevel": 20,
        "area": "johto-sea-route-40-area",
        "method": "good-rod",
        "location": "johto-sea-route-40",
        "conditions": ["time-night"]
    },
    {
        "minLevel": 40,
        "maxLevel": 40,
        "area": "johto-sea-route-40-area",
        "method": "super-rod",
        "location": "johto-sea-route-40",
        "conditions": []
    },
    {
        "minLevel": 40,
        "maxLevel": 40,
        "area": "johto-sea-route-40-area",
        "method": "super-rod",
        "location": "johto-sea-route-40",
        "conditions": []
    },
    {
        "minLevel": 40,
        "maxLevel": 40,
        "area": "johto-sea-route-40-area",
        "method": "super-rod",
        "location": "johto-sea-route-40",
        "conditions": []
    },
    {
        "minLevel": 40,
        "maxLevel": 40,
        "area": "johto-sea-route-40-area",
        "method": "super-rod",
        "location": "johto-sea-route-40",
        "conditions": []
    },
    {
        "minLevel": 40,
        "maxLevel": 40,
        "area": "johto-sea-route-40-area",
        "method": "super-rod",
        "location": "johto-sea-route-40",
        "conditions": []
    },
    {
        "minLevel": 40,
        "maxLevel": 40,
        "area": "johto-sea-route-40-area",
        "method": "super-rod",
        "location": "johto-sea-route-40",
        "conditions": []
    },
    {
        "minLevel": 15,
        "maxLevel": 15,
        "area": "johto-sea-route-40-area",
        "method": "rock-smash",
        "location": "johto-sea-route-40",
        "conditions": []
    },
    {
        "minLevel": 10,
        "maxLevel": 10,
        "area": "union-cave-b2f",
        "method": "old-rod",
        "location": "union-cave",
        "conditions": []
    },
    {
        "minLevel": 20,
        "maxLevel": 20,
        "area": "union-cave-b2f",
        "method": "good-rod",
        "location": "union-cave",
        "conditions": ["time-day"]
    },
    {
        "minLevel": 20,
        "maxLevel": 20,
        "area": "union-cave-b2f",
        "method": "good-rod",
        "location": "union-cave",
        "conditions": ["time-day"]
    },
    {
        "minLevel": 20,
        "maxLevel": 20,
        "area": "union-cave-b2f",
        "method": "good-rod",
        "location": "union-cave",
        "conditions": ["time-morning"]
    },
    {
        "minLevel": 20,
        "maxLevel": 20,
        "area": "union-cave-b2f",
        "method": "good-rod",
        "location": "union-cave",
        "conditions": ["time-morning"]
    },
    {
        "minLevel": 20,
        "maxLevel": 20,
        "area": "union-cave-b2f",
        "method": "good-rod",
        "location": "union-cave",
        "conditions": ["time-night"]
    },
    {
        "minLevel": 20,
        "maxLevel": 20,
        "area": "union-cave-b2f",
        "method": "good-rod",
        "location": "union-cave",
        "conditions": ["time-night"]
    },
    {
        "minLevel": 40,
        "maxLevel": 40,
        "area": "union-cave-b2f",
        "method": "super-rod",
        "location": "union-cave",
        "conditions": []
    },
    {
        "minLevel": 40,
        "maxLevel": 40,
        "area": "union-cave-b2f",
        "method": "super-rod",
        "location": "union-cave",
        "conditions": []
    },
    {
        "minLevel": 40,
        "maxLevel": 40,
        "area": "union-cave-b2f",
        "method": "super-rod",
        "location": "union-cave",
        "conditions": []
    },
    {
        "minLevel": 40,
        "maxLevel": 40,
        "area": "union-cave-b2f",
        "method": "super-rod",
        "location": "union-cave",
        "conditions": []
    },
    {
        "minLevel": 40,
        "maxLevel": 40,
        "area": "union-cave-b2f",
        "method": "super-rod",
        "location": "union-cave",
        "conditions": []
    },
    {
        "minLevel": 40,
        "maxLevel": 40,
        "area": "union-cave-b2f",
        "method": "super-rod",
        "location": "union-cave",
        "conditions": []
    },
    {
        "minLevel": 22,
        "maxLevel": 22,
        "area": "whirl-islands-1f",
        "method": "walk",
        "location": "whirl-islands",
        "conditions": []
    },
    {
        "minLevel": 24,
        "maxLevel": 24,
        "area": "whirl-islands-1f",
        "method": "walk",
        "location": "whirl-islands",
        "conditions": []
    },
    {
        "minLevel": 10,
        "maxLevel": 10,
        "area": "whirl-islands-1f",
        "method": "old-rod",
        "location": "whirl-islands",
        "conditions": []
    },
    {
        "minLevel": 20,
        "maxLevel": 20,
        "area": "whirl-islands-1f",
        "method": "good-rod",
        "location": "whirl-islands",
        "conditions": []
    },
    {
        "minLevel": 20,
        "maxLevel": 20,
        "area": "whirl-islands-1f",
        "method": "good-rod",
        "location": "whirl-islands",
        "conditions": []
    },
    {
        "minLevel": 40,
        "maxLevel": 40,
        "area": "whirl-islands-1f",
        "method": "super-rod",
        "location": "whirl-islands",
        "conditions": []
    },
    {
        "minLevel": 23,
        "maxLevel": 23,
        "area": "whirl-islands-b1f",
        "method": "walk",
        "location": "whirl-islands",
        "conditions": []
    },
    {
        "minLevel": 25,
        "maxLevel": 25,
        "area": "whirl-islands-b1f",
        "method": "walk",
        "location": "whirl-islands",
        "conditions": []
    },
    {
        "minLevel": 23,
        "maxLevel": 23,
        "area": "whirl-islands-b2f",
        "method": "walk",
        "location": "whirl-islands",
        "conditions": []
    },
    {
        "minLevel": 25,
        "maxLevel": 25,
        "area": "whirl-islands-b2f",
        "method": "walk",
        "location": "whirl-islands",
        "conditions": []
    },
    {
        "minLevel": 10,
        "maxLevel": 10,
        "area": "whirl-islands-b2f",
        "method": "old-rod",
        "location": "whirl-islands",
        "conditions": []
    },
    {
        "minLevel": 20,
        "maxLevel": 20,
        "area": "whirl-islands-b2f",
        "method": "good-rod",
        "location": "whirl-islands",
        "conditions": []
    },
    {
        "minLevel": 20,
        "maxLevel": 20,
        "area": "whirl-islands-b2f",
        "method": "good-rod",
        "location": "whirl-islands",
        "conditions": []
    },
    {
        "minLevel": 40,
        "maxLevel": 40,
        "area": "whirl-islands-b2f",
        "method": "super-rod",
        "location": "whirl-islands",
        "conditions": []
    },
    {
        "minLevel": 24,
        "maxLevel": 24,
        "area": "whirl-islands-b3f",
        "method": "walk",
        "location": "whirl-islands",
        "conditions": []
    },
    {
        "minLevel": 26,
        "maxLevel": 26,
        "area": "whirl-islands-b3f",
        "method": "walk",
        "location": "whirl-islands",
        "conditions": []
    },
    {
        "minLevel": 10,
        "maxLevel": 10,
        "area": "whirl-islands-b3f",
        "method": "old-rod",
        "location": "whirl-islands",
        "conditions": []
    },
    {
        "minLevel": 20,
        "maxLevel": 20,
        "area": "whirl-islands-b3f",
        "method": "good-rod",
        "location": "whirl-islands",
        "conditions": []
    },
    {
        "minLevel": 20,
        "maxLevel": 20,
        "area": "whirl-islands-b3f",
        "method": "good-rod",
        "location": "whirl-islands",
        "conditions": []
    },
    {
        "minLevel": 40,
        "maxLevel": 40,
        "area": "whirl-islands-b3f",
        "method": "super-rod",
        "location": "whirl-islands",
        "conditions": []
    }
]