[
    {
        "minLevel": 15,
        "maxLevel": 15,
        "area": "mt-mortar-1f",
        "method": "walk",
        "location": "mt-mortar",
        "conditions": ["swarm-no"]
    },
    {
        "minLevel": 13,
        "maxLevel": 13,
        "area": "mt-mortar-1f",
        "method": "walk",
        "location": "mt-mortar",
        "conditions": ["swarm-yes"]
    },
    {
        "minLevel": 15,
        "maxLevel": 15,
        "area": "mt-mortar-1f",
        "method": "walk",
        "location": "mt-mortar",
        "conditions": ["swarm-yes"]
    },
    {
        "minLevel": 20,
        "maxLevel": 20,
        "area": "mt-mortar-1f",
        "method": "surf",
        "location": "mt-mortar",
        "conditions": ["swarm-yes"]
    }
]