[
    {
        "minLevel": 42,
        "maxLevel": 42,
        "area": "mt-silver-outside",
        "method": "walk",
        "location": "mt-silver",
        "conditions": ["time-day"]
    },
    {
        "minLevel": 42,
        "maxLevel": 42,
        "area": "mt-silver-outside",
        "method": "walk",
        "location": "mt-silver",
        "conditions": ["time-morning"]
    },
    {
        "minLevel": 42,
        "maxLevel": 42,
        "area": "mt-silver-outside",
        "method": "walk",
        "location": "mt-silver",
        "conditions": ["time-night"]
    }
]