[
    {
        "minLevel": 3,
        "maxLevel": 3,
        "area": "johto-route-29-area",
        "method": "walk",
        "location": "johto-route-29",
        "conditions": ["time-day"]
    },
    {
        "minLevel": 2,
        "maxLevel": 2,
        "area": "johto-route-29-area",
        "method": "walk",
        "location": "johto-route-29",
        "conditions": ["time-day"]
    },
    {
        "minLevel": 3,
        "maxLevel": 3,
        "area": "johto-route-29-area",
        "method": "walk",
        "location": "johto-route-29",
        "conditions": ["time-morning"]
    },
    {
        "minLevel": 2,
        "maxLevel": 2,
        "area": "johto-route-29-area",
        "method": "walk",
        "location": "johto-route-29",
        "conditions": ["time-morning"]
    }
]