[
    {
        "minLevel": 27,
        "maxLevel": 27,
        "area": "johto-route-45-area",
        "method": "walk",
        "location": "johto-route-45",
        "conditions": []
    },
    {
        "minLevel": 27,
        "maxLevel": 27,
        "area": "johto-route-45-area",
        "method": "walk",
        "location": "johto-route-45",
        "conditions": []
    }
]