[
    {
        "minLevel": 41,
        "maxLevel": 41,
        "area": "mt-silver-outside",
        "method": "walk",
        "location": "mt-silver",
        "conditions": ["time-day"]
    },
    {
        "minLevel": 41,
        "maxLevel": 41,
        "area": "mt-silver-outside",
        "method": "walk",
        "location": "mt-silver",
        "conditions": ["time-morning"]
    },
    {
        "minLevel": 41,
        "maxLevel": 41,
        "area": "mt-silver-outside",
        "method": "walk",
        "location": "mt-silver",
        "conditions": ["time-night"]
    },
    {
        "minLevel": 23,
        "maxLevel": 23,
        "area": "johto-route-44-area",
        "method": "walk",
        "location": "johto-route-44",
        "conditions": []
    }
]