[
    {
        "minLevel": 5,
        "maxLevel": 5,
        "area": "ruins-of-alph-interior-a",
        "method": "walk",
        "location": "ruins-of-alph",
        "conditions": []
    },
    {
        "minLevel": 5,
        "maxLevel": 5,
        "area": "ruins-of-alph-interior-a",
        "method": "walk",
        "location": "ruins-of-alph",
        "conditions": []
    },
    {
        "minLevel": 5,
        "maxLevel": 5,
        "area": "ruins-of-alph-interior-a",
        "method": "walk",
        "location": "ruins-of-alph",
        "conditions": []
    },
    {
        "minLevel": 5,
        "maxLevel": 5,
        "area": "ruins-of-alph-interior-a",
        "method": "walk",
        "location": "ruins-of-alph",
        "conditions": []
    },
    {
        "minLevel": 5,
        "maxLevel": 5,
        "area": "ruins-of-alph-interior-a",
        "method": "walk",
        "location": "ruins-of-alph",
        "conditions": []
    },
    {
        "minLevel": 5,
        "maxLevel": 5,
        "area": "ruins-of-alph-interior-a",
        "method": "walk",
        "location": "ruins-of-alph",
        "conditions": []
    },
    {
        "minLevel": 5,
        "maxLevel": 5,
        "area": "ruins-of-alph-interior-a",
        "method": "walk",
        "location": "ruins-of-alph",
        "conditions": []
    },
    {
        "minLevel": 5,
        "maxLevel": 5,
        "area": "ruins-of-alph-interior-b",
        "method": "walk",
        "location": "ruins-of-alph",
        "conditions": []
    },
    {
        "minLevel": 5,
        "maxLevel": 5,
        "area": "ruins-of-alph-interior-b",
        "method": "walk",
        "location": "ruins-of-alph",
        "conditions": []
    },
    {
        "minLevel": 5,
        "maxLevel": 5,
        "area": "ruins-of-alph-interior-b",
        "method": "walk",
        "location": "ruins-of-alph",
        "conditions": []
    },
    {
        "minLevel": 5,
        "maxLevel": 5,
        "area": "ruins-of-alph-interior-b",
        "method": "walk",
        "location": "ruins-of-alph",
        "conditions": []
    },
    {
        "minLevel": 5,
        "maxLevel": 5,
        "area": "ruins-of-alph-interior-b",
        "method": "walk",
        "location": "ruins-of-alph",
        "conditions": []
    },
    {
        "minLevel": 5,
        "maxLevel": 5,
        "area": "ruins-of-alph-interior-b",
        "method": "walk",
        "location": "ruins-of-alph",
        "conditions": []
    },
    {
        "minLevel": 5,
        "maxLevel": 5,
        "area": "ruins-of-alph-interior-b",
        "method": "walk",
        "location": "ruins-of-alph",
        "conditions": []
    },
    {
        "minLevel": 5,
        "maxLevel": 5,
        "area": "ruins-of-alph-interior-c",
        "method": "walk",
        "location": "ruins-of-alph",
        "conditions": []
    },
    {
        "minLevel": 5,
        "maxLevel": 5,
        "area": "ruins-of-alph-interior-c",
        "method": "walk",
        "location": "ruins-of-alph",
        "conditions": []
    },
    {
        "minLevel": 5,
        "maxLevel": 5,
        "area": "ruins-of-alph-interior-c",
        "method": "walk",
        "location": "ruins-of-alph",
        "conditions": []
    },
    {
        "minLevel": 5,
        "maxLevel": 5,
        "area": "ruins-of-alph-interior-c",
        "method": "walk",
        "location": "ruins-of-alph",
        "conditions": []
    },
    {
        "minLevel": 5,
        "maxLevel": 5,
        "area": "ruins-of-alph-interior-c",
        "method": "walk",
        "location": "ruins-of-alph",
        "conditions": []
    },
    {
        "minLevel": 5,
        "maxLevel": 5,
        "area": "ruins-of-alph-interior-c",
        "method": "walk",
        "location": "ruins-of-alph",
        "conditions": []
    },
    {
        "minLevel": 5,
        "maxLevel": 5,
        "area": "ruins-of-alph-interior-c",
        "method": "walk",
        "location": "ruins-of-alph",
        "conditions": []
    },
    {
        "minLevel": 5,
        "maxLevel": 5,
        "area": "ruins-of-alph-interior-d",
        "method": "walk",
        "location": "ruins-of-alph",
        "conditions": []
    },
    {
        "minLevel": 5,
        "maxLevel": 5,
        "area": "ruins-of-alph-interior-d",
        "method": "walk",
        "location": "ruins-of-alph",
        "conditions": []
    },
    {
        "minLevel": 5,
        "maxLevel": 5,
        "area": "ruins-of-alph-interior-d",
        "method": "walk",
        "location": "ruins-of-alph",
        "conditions": []
    },
    {
        "minLevel": 5,
        "maxLevel": 5,
        "area": "ruins-of-alph-interior-d",
        "method": "walk",
        "location": "ruins-of-alph",
        "conditions": []
    },
    {
        "minLevel": 5,
        "maxLevel": 5,
        "area": "ruins-of-alph-interior-d",
        "method": "walk",
        "location": "ruins-of-alph",
        "conditions": []
    },
    {
        "minLevel": 5,
        "maxLevel": 5,
        "area": "ruins-of-alph-interior-d",
        "method": "walk",
        "location": "ruins-of-alph",
        "conditions": []
    },
    {
        "minLevel": 5,
        "maxLevel": 5,
        "area": "ruins-of-alph-interior-d",
        "method": "walk",
        "location": "ruins-of-alph",
        "conditions": []
    }
]