[
    {
        "minLevel": 4,
        "maxLevel": 4,
        "area": "johto-route-32-area",
        "method": "walk",
        "location": "johto-route-32",
        "conditions": ["time-morning"]
    },
    {
        "minLevel": 6,
        "maxLevel": 6,
        "area": "johto-route-32-area",
        "method": "walk",
        "location": "johto-route-32",
        "conditions": ["time-night"]
    },
    {
        "minLevel": 8,
        "maxLevel": 8,
        "area": "johto-route-32-area",
        "method": "walk",
        "location": "johto-route-32",
        "conditions": ["time-night"]
    },
    {
        "minLevel": 15,
        "maxLevel": 19,
        "area": "ruins-of-alph-outside",
        "method": "surf",
        "location": "ruins-of-alph",
        "conditions": []
    },
    {
        "minLevel": 15,
        "maxLevel": 19,
        "area": "union-cave-1f",
        "method": "surf",
        "location": "union-cave",
        "conditions": []
    },
    {
        "minLevel": 15,
        "maxLevel": 19,
        "area": "union-cave-b1f",
        "method": "surf",
        "location": "union-cave",
        "conditions": []
    }
]