{
    "encounters": [
        "clefairy",
        "golbat",
        "machoke",
        "graveler",
        "nosepass",
        "medicham",
        "lunatone",
        "solrock",
        "chingling",
        "bronzong"
    ],
    "id": "mt-coronet-cave"
}