{
    "encounters": [
        "nidoran-f",
        "nidoran-m",
        "growlithe",
        "doduo",
        "turtwig",
        "chimchar",
        "piplup",
        "starly",
        "bidoof",
        "kricketot"
    ],
    "id": "sinnoh-route-201-area"
}