{
    "encounters": [
        "fearow",
        "vulpix",
        "gloom",
        "diglett",
        "growlithe",
        "farfetchd",
        "tauros",
        "hoppip",
        "girafarig",
        "plusle",
        "minun",
        "shinx"
    ],
    "id": "johto-route-48-area"
}