[
    {
        "minLevel": 20,
        "maxLevel": 20,
        "area": "cinnabar-island-area",
        "method": "good-rod",
        "location": "cinnabar-island",
        "conditions": []
    },
    {
        "minLevel": 40,
        "maxLevel": 40,
        "area": "cinnabar-island-area",
        "method": "super-rod",
        "location": "cinnabar-island",
        "conditions": []
    },
    {
        "minLevel": 20,
        "maxLevel": 20,
        "area": "pallet-town-area",
        "method": "good-rod",
        "location": "pallet-town",
        "conditions": []
    },
    {
        "minLevel": 40,
        "maxLevel": 40,
        "area": "pallet-town-area",
        "method": "super-rod",
        "location": "pallet-town",
        "conditions": []
    },
    {
        "minLevel": 20,
        "maxLevel": 20,
        "area": "kanto-sea-route-20-area",
        "method": "good-rod",
        "location": "kanto-sea-route-20",
        "conditions": []
    },
    {
        "minLevel": 40,
        "maxLevel": 40,
        "area": "kanto-sea-route-20-area",
        "method": "super-rod",
        "location": "kanto-sea-route-20",
        "conditions": []
    },
    {
        "minLevel": 20,
        "maxLevel": 20,
        "area": "kanto-sea-route-21-area",
        "method": "good-rod",
        "location": "kanto-sea-route-21",
        "conditions": []
    },
    {
        "minLevel": 40,
        "maxLevel": 40,
        "area": "kanto-sea-route-21-area",
        "method": "super-rod",
        "location": "kanto-sea-route-21",
        "conditions": []
    },
    {
        "minLevel": 20,
        "maxLevel": 20,
        "area": "kanto-route-26-area",
        "method": "good-rod",
        "location": "kanto-route-26",
        "conditions": []
    },
    {
        "minLevel": 40,
        "maxLevel": 40,
        "area": "kanto-route-26-area",
        "method": "super-rod",
        "location": "kanto-route-26",
        "conditions": []
    },
    {
        "minLevel": 20,
        "maxLevel": 20,
        "area": "kanto-route-27-area",
        "method": "good-rod",
        "location": "kanto-route-27",
        "conditions": []
    },
    {
        "minLevel": 40,
        "maxLevel": 40,
        "area": "kanto-route-27-area",
        "method": "super-rod",
        "location": "kanto-route-27",
        "conditions": []
    },
    {
        "minLevel": 20,
        "maxLevel": 20,
        "area": "vermilion-city-area",
        "method": "good-rod",
        "location": "vermilion-city",
        "conditions": []
    },
    {
        "minLevel": 40,
        "maxLevel": 40,
        "area": "vermilion-city-area",
        "method": "super-rod",
        "location": "vermilion-city",
        "conditions": []
    },
    {
        "minLevel": 20,
        "maxLevel": 20,
        "area": "vermilion-city-ss-anne-dock",
        "method": "good-rod",
        "location": "vermilion-city",
        "conditions": []
    },
    {
        "minLevel": 40,
        "maxLevel": 40,
        "area": "vermilion-city-ss-anne-dock",
        "method": "super-rod",
        "location": "vermilion-city",
        "conditions": []
    }
]