[
    {
        "minLevel": 20,
        "maxLevel": 20,
        "area": "kanto-sea-route-19-area",
        "method": "good-rod",
        "location": "kanto-sea-route-19",
        "conditions": ["time-day"]
    },
    {
        "minLevel": 20,
        "maxLevel": 20,
        "area": "kanto-sea-route-19-area",
        "method": "good-rod",
        "location": "kanto-sea-route-19",
        "conditions": ["time-morning"]
    },
    {
        "minLevel": 40,
        "maxLevel": 40,
        "area": "kanto-sea-route-19-area",
        "method": "super-rod",
        "location": "kanto-sea-route-19",
        "conditions": []
    },
    {
        "minLevel": 40,
        "maxLevel": 40,
        "area": "kanto-sea-route-19-area",
        "method": "super-rod",
        "location": "kanto-sea-route-19",
        "conditions": []
    }
]