[
    {
        "minLevel": 15,
        "maxLevel": 15,
        "area": "digletts-cave-area",
        "method": "walk",
        "location": "digletts-cave",
        "conditions": []
    },
    {
        "minLevel": 17,
        "maxLevel": 17,
        "area": "digletts-cave-area",
        "method": "walk",
        "location": "digletts-cave",
        "conditions": []
    },
    {
        "minLevel": 19,
        "maxLevel": 19,
        "area": "digletts-cave-area",
        "method": "walk",
        "location": "digletts-cave",
        "conditions": []
    },
    {
        "minLevel": 13,
        "maxLevel": 13,
        "area": "digletts-cave-area",
        "method": "walk",
        "location": "digletts-cave",
        "conditions": []
    }
]