[
    {
        "minLevel": 14,
        "maxLevel": 14,
        "area": "rock-tunnel-b1f",
        "method": "walk",
        "location": "rock-tunnel",
        "conditions": []
    },
    {
        "minLevel": 14,
        "maxLevel": 14,
        "area": "rock-tunnel-b1f",
        "method": "walk",
        "location": "rock-tunnel",
        "conditions": []
    }
]