[
    {
        "minLevel": 23,
        "maxLevel": 23,
        "area": "kanto-route-13-area",
        "method": "walk",
        "location": "kanto-route-13",
        "conditions": ["time-day"]
    },
    {
        "minLevel": 23,
        "maxLevel": 23,
        "area": "kanto-route-13-area",
        "method": "walk",
        "location": "kanto-route-13",
        "conditions": ["time-morning"]
    },
    {
        "minLevel": 23,
        "maxLevel": 23,
        "area": "kanto-route-13-area",
        "method": "walk",
        "location": "kanto-route-13",
        "conditions": ["time-night"]
    },
    {
        "minLevel": 23,
        "maxLevel": 23,
        "area": "kanto-route-14-area",
        "method": "walk",
        "location": "kanto-route-14",
        "conditions": ["time-day"]
    },
    {
        "minLevel": 23,
        "maxLevel": 23,
        "area": "kanto-route-14-area",
        "method": "walk",
        "location": "kanto-route-14",
        "conditions": ["time-morning"]
    },
    {
        "minLevel": 23,
        "maxLevel": 23,
        "area": "kanto-route-14-area",
        "method": "walk",
        "location": "kanto-route-14",
        "conditions": ["time-night"]
    },
    {
        "minLevel": 23,
        "maxLevel": 23,
        "area": "kanto-route-15-area",
        "method": "walk",
        "location": "kanto-route-15",
        "conditions": ["time-day"]
    },
    {
        "minLevel": 23,
        "maxLevel": 23,
        "area": "kanto-route-15-area",
        "method": "walk",
        "location": "kanto-route-15",
        "conditions": ["time-morning"]
    },
    {
        "minLevel": 23,
        "maxLevel": 23,
        "area": "kanto-route-15-area",
        "method": "walk",
        "location": "kanto-route-15",
        "conditions": ["time-night"]
    }
]