{
    "encounters": [
        "zubat",
        "geodude",
        "krabby",
        "goldeen",
        "seaking",
        "magikarp",
        "dunsparce",
        "shuckle",
        "teddiursa",
        "makuhita",
        "absol",
        "chingling",
        "bronzor"
    ],
    "id": "dark-cave-violet-city-entrance"
}