[
    {
        "minLevel": 19,
        "maxLevel": 19,
        "area": "digletts-cave-area",
        "method": "walk",
        "location": "digletts-cave",
        "conditions": ["radio-sinnoh"]
    },
    {
        "minLevel": 19,
        "maxLevel": 19,
        "area": "digletts-cave-area",
        "method": "walk",
        "location": "digletts-cave",
        "conditions": ["radio-sinnoh"]
    },
    {
        "minLevel": 8,
        "maxLevel": 8,
        "area": "mt-moon-1f",
        "method": "walk",
        "location": "mt-moon",
        "conditions": ["radio-sinnoh"]
    },
    {
        "minLevel": 8,
        "maxLevel": 8,
        "area": "mt-moon-1f",
        "method": "walk",
        "location": "mt-moon",
        "conditions": ["radio-sinnoh"]
    },
    {
        "minLevel": 8,
        "maxLevel": 8,
        "area": "mt-moon-2f",
        "method": "walk",
        "location": "mt-moon",
        "conditions": ["radio-sinnoh"]
    },
    {
        "minLevel": 8,
        "maxLevel": 8,
        "area": "mt-moon-2f",
        "method": "walk",
        "location": "mt-moon",
        "conditions": ["radio-sinnoh"]
    },
    {
        "minLevel": 12,
        "maxLevel": 12,
        "area": "rock-tunnel-1f",
        "method": "walk",
        "location": "rock-tunnel",
        "conditions": ["radio-sinnoh"]
    },
    {
        "minLevel": 12,
        "maxLevel": 12,
        "area": "rock-tunnel-1f",
        "method": "walk",
        "location": "rock-tunnel",
        "conditions": ["radio-sinnoh"]
    },
    {
        "minLevel": 16,
        "maxLevel": 16,
        "area": "rock-tunnel-b1f",
        "method": "walk",
        "location": "rock-tunnel",
        "conditions": ["radio-sinnoh"]
    },
    {
        "minLevel": 16,
        "maxLevel": 16,
        "area": "rock-tunnel-b1f",
        "method": "walk",
        "location": "rock-tunnel",
        "conditions": ["radio-sinnoh"]
    },
    {
        "minLevel": 30,
        "maxLevel": 30,
        "area": "seafoam-islands-1f",
        "method": "walk",
        "location": "seafoam-islands",
        "conditions": ["radio-sinnoh"]
    },
    {
        "minLevel": 32,
        "maxLevel": 32,
        "area": "seafoam-islands-1f",
        "method": "walk",
        "location": "seafoam-islands",
        "conditions": ["radio-sinnoh"]
    },
    {
        "minLevel": 32,
        "maxLevel": 32,
        "area": "seafoam-islands-b1f",
        "method": "walk",
        "location": "seafoam-islands",
        "conditions": ["radio-sinnoh"]
    },
    {
        "minLevel": 34,
        "maxLevel": 34,
        "area": "seafoam-islands-b1f",
        "method": "walk",
        "location": "seafoam-islands",
        "conditions": ["radio-sinnoh"]
    },
    {
        "minLevel": 33,
        "maxLevel": 33,
        "area": "seafoam-islands-b2f",
        "method": "walk",
        "location": "seafoam-islands",
        "conditions": ["radio-sinnoh"]
    },
    {
        "minLevel": 35,
        "maxLevel": 35,
        "area": "seafoam-islands-b2f",
        "method": "walk",
        "location": "seafoam-islands",
        "conditions": ["radio-sinnoh"]
    },
    {
        "minLevel": 34,
        "maxLevel": 34,
        "area": "seafoam-islands-b3f",
        "method": "walk",
        "location": "seafoam-islands",
        "conditions": ["radio-sinnoh"]
    },
    {
        "minLevel": 36,
        "maxLevel": 36,
        "area": "seafoam-islands-b3f",
        "method": "walk",
        "location": "seafoam-islands",
        "conditions": ["radio-sinnoh"]
    },
    {
        "minLevel": 38,
        "maxLevel": 38,
        "area": "seafoam-islands-b4f",
        "method": "walk",
        "location": "seafoam-islands",
        "conditions": ["radio-sinnoh"]
    },
    {
        "minLevel": 38,
        "maxLevel": 38,
        "area": "seafoam-islands-b4f",
        "method": "walk",
        "location": "seafoam-islands",
        "conditions": ["radio-sinnoh"]
    },
    {
        "minLevel": 40,
        "maxLevel": 40,
        "area": "cerulean-cave-1f",
        "method": "walk",
        "location": "cerulean-cave",
        "conditions": ["radio-sinnoh"]
    },
    {
        "minLevel": 39,
        "maxLevel": 39,
        "area": "cerulean-cave-1f",
        "method": "walk",
        "location": "cerulean-cave",
        "conditions": ["radio-sinnoh"]
    },
    {
        "minLevel": 41,
        "maxLevel": 41,
        "area": "cerulean-cave-2f",
        "method": "walk",
        "location": "cerulean-cave",
        "conditions": ["radio-sinnoh"]
    },
    {
        "minLevel": 42,
        "maxLevel": 42,
        "area": "cerulean-cave-2f",
        "method": "walk",
        "location": "cerulean-cave",
        "conditions": ["radio-sinnoh"]
    },
    {
        "minLevel": 45,
        "maxLevel": 45,
        "area": "cerulean-cave-b1f",
        "method": "walk",
        "location": "cerulean-cave",
        "conditions": ["radio-sinnoh"]
    },
    {
        "minLevel": 45,
        "maxLevel": 45,
        "area": "cerulean-cave-b1f",
        "method": "walk",
        "location": "cerulean-cave",
        "conditions": ["radio-sinnoh"]
    },
    {
        "minLevel": 33,
        "maxLevel": 33,
        "area": "kanto-victory-road-1-1f",
        "method": "walk",
        "location": "kanto-victory-road-1",
        "conditions": ["radio-sinnoh"]
    },
    {
        "minLevel": 33,
        "maxLevel": 33,
        "area": "kanto-victory-road-1-1f",
        "method": "walk",
        "location": "kanto-victory-road-1",
        "conditions": ["radio-sinnoh"]
    },
    {
        "minLevel": 33,
        "maxLevel": 33,
        "area": "kanto-victory-road-1-2f",
        "method": "walk",
        "location": "kanto-victory-road-1",
        "conditions": ["radio-sinnoh"]
    },
    {
        "minLevel": 33,
        "maxLevel": 33,
        "area": "kanto-victory-road-1-2f",
        "method": "walk",
        "location": "kanto-victory-road-1",
        "conditions": ["radio-sinnoh"]
    },
    {
        "minLevel": 33,
        "maxLevel": 33,
        "area": "kanto-victory-road-1-3f",
        "method": "walk",
        "location": "kanto-victory-road-1",
        "conditions": ["radio-sinnoh"]
    },
    {
        "minLevel": 33,
        "maxLevel": 33,
        "area": "kanto-victory-road-1-3f",
        "method": "walk",
        "location": "kanto-victory-road-1",
        "conditions": ["radio-sinnoh"]
    }
]