[
    {
        "minLevel": 15,
        "maxLevel": 15,
        "area": "digletts-cave-area",
        "method": "walk",
        "location": "digletts-cave",
        "conditions": []
    },
    {
        "minLevel": 17,
        "maxLevel": 17,
        "area": "digletts-cave-area",
        "method": "walk",
        "location": "digletts-cave",
        "conditions": []
    },
    {
        "minLevel": 15,
        "maxLevel": 15,
        "area": "digletts-cave-area",
        "method": "walk",
        "location": "digletts-cave",
        "conditions": ["radio-off"]
    },
    {
        "minLevel": 17,
        "maxLevel": 17,
        "area": "digletts-cave-area",
        "method": "walk",
        "location": "digletts-cave",
        "conditions": ["radio-off"]
    },
    {
        "minLevel": 19,
        "maxLevel": 19,
        "area": "digletts-cave-area",
        "method": "walk",
        "location": "digletts-cave",
        "conditions": ["radio-off"]
    },
    {
        "minLevel": 19,
        "maxLevel": 19,
        "area": "digletts-cave-area",
        "method": "walk",
        "location": "digletts-cave",
        "conditions": ["radio-off"]
    },
    {
        "minLevel": 13,
        "maxLevel": 13,
        "area": "digletts-cave-area",
        "method": "walk",
        "location": "digletts-cave",
        "conditions": []
    },
    {
        "minLevel": 13,
        "maxLevel": 13,
        "area": "digletts-cave-area",
        "method": "walk",
        "location": "digletts-cave",
        "conditions": []
    },
    {
        "minLevel": 24,
        "maxLevel": 37,
        "area": "vermilion-city-area",
        "method": "rock-smash",
        "location": "vermilion-city",
        "conditions": []
    }
]