[
    {
        "minLevel": 32,
        "maxLevel": 32,
        "area": "seafoam-islands-1f",
        "method": "walk",
        "location": "seafoam-islands",
        "conditions": []
    },
    {
        "minLevel": 30,
        "maxLevel": 30,
        "area": "seafoam-islands-1f",
        "method": "walk",
        "location": "seafoam-islands",
        "conditions": ["radio-off"]
    },
    {
        "minLevel": 34,
        "maxLevel": 34,
        "area": "seafoam-islands-b1f",
        "method": "walk",
        "location": "seafoam-islands",
        "conditions": []
    },
    {
        "minLevel": 32,
        "maxLevel": 32,
        "area": "seafoam-islands-b1f",
        "method": "walk",
        "location": "seafoam-islands",
        "conditions": ["radio-off"]
    },
    {
        "minLevel": 35,
        "maxLevel": 35,
        "area": "seafoam-islands-b2f",
        "method": "walk",
        "location": "seafoam-islands",
        "conditions": []
    },
    {
        "minLevel": 33,
        "maxLevel": 33,
        "area": "seafoam-islands-b2f",
        "method": "walk",
        "location": "seafoam-islands",
        "conditions": ["radio-off"]
    },
    {
        "minLevel": 36,
        "maxLevel": 36,
        "area": "seafoam-islands-b3f",
        "method": "walk",
        "location": "seafoam-islands",
        "conditions": []
    },
    {
        "minLevel": 34,
        "maxLevel": 34,
        "area": "seafoam-islands-b3f",
        "method": "walk",
        "location": "seafoam-islands",
        "conditions": ["radio-off"]
    },
    {
        "minLevel": 40,
        "maxLevel": 40,
        "area": "seafoam-islands-b4f",
        "method": "walk",
        "location": "seafoam-islands",
        "conditions": []
    },
    {
        "minLevel": 39,
        "maxLevel": 39,
        "area": "seafoam-islands-b4f",
        "method": "walk",
        "location": "seafoam-islands",
        "conditions": []
    },
    {
        "minLevel": 38,
        "maxLevel": 38,
        "area": "seafoam-islands-b4f",
        "method": "walk",
        "location": "seafoam-islands",
        "conditions": []
    },
    {
        "minLevel": 39,
        "maxLevel": 39,
        "area": "cerulean-cave-1f",
        "method": "walk",
        "location": "cerulean-cave",
        "conditions": ["time-night"]
    },
    {
        "minLevel": 38,
        "maxLevel": 38,
        "area": "cerulean-cave-1f",
        "method": "walk",
        "location": "cerulean-cave",
        "conditions": ["time-night"]
    },
    {
        "minLevel": 38,
        "maxLevel": 38,
        "area": "cerulean-cave-1f",
        "method": "walk",
        "location": "cerulean-cave",
        "conditions": ["radio-off"]
    },
    {
        "minLevel": 41,
        "maxLevel": 41,
        "area": "cerulean-cave-2f",
        "method": "walk",
        "location": "cerulean-cave",
        "conditions": ["radio-off"]
    },
    {
        "minLevel": 41,
        "maxLevel": 41,
        "area": "cerulean-cave-2f",
        "method": "walk",
        "location": "cerulean-cave",
        "conditions": ["time-night"]
    },
    {
        "minLevel": 42,
        "maxLevel": 42,
        "area": "cerulean-cave-2f",
        "method": "walk",
        "location": "cerulean-cave",
        "conditions": ["time-night"]
    },
    {
        "minLevel": 41,
        "maxLevel": 41,
        "area": "cerulean-cave-2f",
        "method": "walk",
        "location": "cerulean-cave",
        "conditions": ["time-night"]
    },
    {
        "minLevel": 42,
        "maxLevel": 42,
        "area": "cerulean-cave-2f",
        "method": "walk",
        "location": "cerulean-cave",
        "conditions": ["time-night"]
    },
    {
        "minLevel": 47,
        "maxLevel": 47,
        "area": "cerulean-cave-b1f",
        "method": "walk",
        "location": "cerulean-cave",
        "conditions": ["radio-off"]
    },
    {
        "minLevel": 32,
        "maxLevel": 32,
        "area": "kanto-victory-road-1-1f",
        "method": "walk",
        "location": "kanto-victory-road-1",
        "conditions": []
    },
    {
        "minLevel": 32,
        "maxLevel": 32,
        "area": "kanto-victory-road-1-1f",
        "method": "walk",
        "location": "kanto-victory-road-1",
        "conditions": ["radio-off"]
    },
    {
        "minLevel": 32,
        "maxLevel": 32,
        "area": "kanto-victory-road-1-2f",
        "method": "walk",
        "location": "kanto-victory-road-1",
        "conditions": []
    },
    {
        "minLevel": 32,
        "maxLevel": 32,
        "area": "kanto-victory-road-1-2f",
        "method": "walk",
        "location": "kanto-victory-road-1",
        "conditions": ["radio-off"]
    },
    {
        "minLevel": 32,
        "maxLevel": 32,
        "area": "kanto-victory-road-1-3f",
        "method": "walk",
        "location": "kanto-victory-road-1",
        "conditions": []
    },
    {
        "minLevel": 32,
        "maxLevel": 32,
        "area": "kanto-victory-road-1-3f",
        "method": "walk",
        "location": "kanto-victory-road-1",
        "conditions": ["radio-off"]
    }
]