[
    {
        "minLevel": 10,
        "maxLevel": 10,
        "area": "cerulean-city-area",
        "method": "surf",
        "location": "cerulean-city",
        "conditions": []
    },
    {
        "minLevel": 5,
        "maxLevel": 5,
        "area": "cerulean-city-area",
        "method": "surf",
        "location": "cerulean-city",
        "conditions": []
    },
    {
        "minLevel": 10,
        "maxLevel": 10,
        "area": "cerulean-city-area",
        "method": "old-rod",
        "location": "cerulean-city",
        "conditions": []
    },
    {
        "minLevel": 10,
        "maxLevel": 10,
        "area": "cerulean-city-area",
        "method": "old-rod",
        "location": "cerulean-city",
        "conditions": []
    },
    {
        "minLevel": 20,
        "maxLevel": 20,
        "area": "cerulean-city-area",
        "method": "good-rod",
        "location": "cerulean-city",
        "conditions": []
    },
    {
        "minLevel": 20,
        "maxLevel": 20,
        "area": "cerulean-city-area",
        "method": "good-rod",
        "location": "cerulean-city",
        "conditions": []
    },
    {
        "minLevel": 20,
        "maxLevel": 20,
        "area": "cerulean-city-area",
        "method": "good-rod",
        "location": "cerulean-city",
        "conditions": []
    },
    {
        "minLevel": 20,
        "maxLevel": 20,
        "area": "cerulean-city-area",
        "method": "good-rod",
        "location": "cerulean-city",
        "conditions": []
    },
    {
        "minLevel": 40,
        "maxLevel": 40,
        "area": "cerulean-city-area",
        "method": "super-rod",
        "location": "cerulean-city",
        "conditions": []
    },
    {
        "minLevel": 40,
        "maxLevel": 40,
        "area": "cerulean-city-area",
        "method": "super-rod",
        "location": "cerulean-city",
        "conditions": []
    },
    {
        "minLevel": 15,
        "maxLevel": 15,
        "area": "kanto-route-10-area",
        "method": "surf",
        "location": "kanto-route-10",
        "conditions": []
    },
    {
        "minLevel": 10,
        "maxLevel": 10,
        "area": "kanto-route-10-area",
        "method": "surf",
        "location": "kanto-route-10",
        "conditions": []
    },
    {
        "minLevel": 10,
        "maxLevel": 10,
        "area": "kanto-route-10-area",
        "method": "old-rod",
        "location": "kanto-route-10",
        "conditions": []
    },
    {
        "minLevel": 10,
        "maxLevel": 10,
        "area": "kanto-route-10-area",
        "method": "old-rod",
        "location": "kanto-route-10",
        "conditions": []
    },
    {
        "minLevel": 20,
        "maxLevel": 20,
        "area": "kanto-route-10-area",
        "method": "good-rod",
        "location": "kanto-route-10",
        "conditions": []
    },
    {
        "minLevel": 20,
        "maxLevel": 20,
        "area": "kanto-route-10-area",
        "method": "good-rod",
        "location": "kanto-route-10",
        "conditions": []
    },
    {
        "minLevel": 20,
        "maxLevel": 20,
        "area": "kanto-route-10-area",
        "method": "good-rod",
        "location": "kanto-route-10",
        "conditions": []
    },
    {
        "minLevel": 20,
        "maxLevel": 20,
        "area": "kanto-route-10-area",
        "method": "good-rod",
        "location": "kanto-route-10",
        "conditions": []
    },
    {
        "minLevel": 40,
        "maxLevel": 40,
        "area": "kanto-route-10-area",
        "method": "super-rod",
        "location": "kanto-route-10",
        "conditions": []
    },
    {
        "minLevel": 40,
        "maxLevel": 40,
        "area": "kanto-route-10-area",
        "method": "super-rod",
        "location": "kanto-route-10",
        "conditions": []
    },
    {
        "minLevel": 10,
        "maxLevel": 10,
        "area": "kanto-route-24-area",
        "method": "surf",
        "location": "kanto-route-24",
        "conditions": []
    },
    {
        "minLevel": 5,
        "maxLevel": 5,
        "area": "kanto-route-24-area",
        "method": "surf",
        "location": "kanto-route-24",
        "conditions": []
    },
    {
        "minLevel": 10,
        "maxLevel": 10,
        "area": "kanto-route-24-area",
        "method": "old-rod",
        "location": "kanto-route-24",
        "conditions": []
    },
    {
        "minLevel": 10,
        "maxLevel": 10,
        "area": "kanto-route-24-area",
        "method": "old-rod",
        "location": "kanto-route-24",
        "conditions": []
    },
    {
        "minLevel": 20,
        "maxLevel": 20,
        "area": "kanto-route-24-area",
        "method": "good-rod",
        "location": "kanto-route-24",
        "conditions": []
    },
    {
        "minLevel": 20,
        "maxLevel": 20,
        "area": "kanto-route-24-area",
        "method": "good-rod",
        "location": "kanto-route-24",
        "conditions": []
    },
    {
        "minLevel": 20,
        "maxLevel": 20,
        "area": "kanto-route-24-area",
        "method": "good-rod",
        "location": "kanto-route-24",
        "conditions": []
    },
    {
        "minLevel": 20,
        "maxLevel": 20,
        "area": "kanto-route-24-area",
        "method": "good-rod",
        "location": "kanto-route-24",
        "conditions": []
    },
    {
        "minLevel": 40,
        "maxLevel": 40,
        "area": "kanto-route-24-area",
        "method": "super-rod",
        "location": "kanto-route-24",
        "conditions": []
    },
    {
        "minLevel": 40,
        "maxLevel": 40,
        "area": "kanto-route-24-area",
        "method": "super-rod",
        "location": "kanto-route-24",
        "conditions": []
    },
    {
        "minLevel": 10,
        "maxLevel": 10,
        "area": "kanto-route-25-area",
        "method": "surf",
        "location": "kanto-route-25",
        "conditions": []
    },
    {
        "minLevel": 5,
        "maxLevel": 5,
        "area": "kanto-route-25-area",
        "method": "surf",
        "location": "kanto-route-25",
        "conditions": []
    },
    {
        "minLevel": 10,
        "maxLevel": 10,
        "area": "kanto-route-25-area",
        "method": "old-rod",
        "location": "kanto-route-25",
        "conditions": []
    },
    {
        "minLevel": 10,
        "maxLevel": 10,
        "area": "kanto-route-25-area",
        "method": "old-rod",
        "location": "kanto-route-25",
        "conditions": []
    },
    {
        "minLevel": 20,
        "maxLevel": 20,
        "area": "kanto-route-25-area",
        "method": "good-rod",
        "location": "kanto-route-25",
        "conditions": []
    },
    {
        "minLevel": 20,
        "maxLevel": 20,
        "area": "kanto-route-25-area",
        "method": "good-rod",
        "location": "kanto-route-25",
        "conditions": []
    },
    {
        "minLevel": 20,
        "maxLevel": 20,
        "area": "kanto-route-25-area",
        "method": "good-rod",
        "location": "kanto-route-25",
        "conditions": []
    },
    {
        "minLevel": 20,
        "maxLevel": 20,
        "area": "kanto-route-25-area",
        "method": "good-rod",
        "location": "kanto-route-25",
        "conditions": []
    },
    {
        "minLevel": 40,
        "maxLevel": 40,
        "area": "kanto-route-25-area",
        "method": "super-rod",
        "location": "kanto-route-25",
        "conditions": []
    },
    {
        "minLevel": 40,
        "maxLevel": 40,
        "area": "kanto-route-25-area",
        "method": "super-rod",
        "location": "kanto-route-25",
        "conditions": []
    },
    {
        "minLevel": 10,
        "maxLevel": 10,
        "area": "kanto-route-4-area",
        "method": "surf",
        "location": "kanto-route-4",
        "conditions": []
    },
    {
        "minLevel": 5,
        "maxLevel": 5,
        "area": "kanto-route-4-area",
        "method": "surf",
        "location": "kanto-route-4",
        "conditions": []
    },
    {
        "minLevel": 10,
        "maxLevel": 10,
        "area": "kanto-route-4-area",
        "method": "old-rod",
        "location": "kanto-route-4",
        "conditions": []
    },
    {
        "minLevel": 10,
        "maxLevel": 10,
        "area": "kanto-route-4-area",
        "method": "old-rod",
        "location": "kanto-route-4",
        "conditions": []
    },
    {
        "minLevel": 20,
        "maxLevel": 20,
        "area": "kanto-route-4-area",
        "method": "good-rod",
        "location": "kanto-route-4",
        "conditions": []
    },
    {
        "minLevel": 20,
        "maxLevel": 20,
        "area": "kanto-route-4-area",
        "method": "good-rod",
        "location": "kanto-route-4",
        "conditions": []
    },
    {
        "minLevel": 20,
        "maxLevel": 20,
        "area": "kanto-route-4-area",
        "method": "good-rod",
        "location": "kanto-route-4",
        "conditions": []
    },
    {
        "minLevel": 20,
        "maxLevel": 20,
        "area": "kanto-route-4-area",
        "method": "good-rod",
        "location": "kanto-route-4",
        "conditions": []
    },
    {
        "minLevel": 40,
        "maxLevel": 40,
        "area": "kanto-route-4-area",
        "method": "super-rod",
        "location": "kanto-route-4",
        "conditions": []
    },
    {
        "minLevel": 40,
        "maxLevel": 40,
        "area": "kanto-route-4-area",
        "method": "super-rod",
        "location": "kanto-route-4",
        "conditions": []
    },
    {
        "minLevel": 15,
        "maxLevel": 15,
        "area": "kanto-route-9-area",
        "method": "surf",
        "location": "kanto-route-9",
        "conditions": []
    },
    {
        "minLevel": 10,
        "maxLevel": 10,
        "area": "kanto-route-9-area",
        "method": "surf",
        "location": "kanto-route-9",
        "conditions": []
    },
    {
        "minLevel": 10,
        "maxLevel": 10,
        "area": "kanto-route-9-area",
        "method": "old-rod",
        "location": "kanto-route-9",
        "conditions": []
    },
    {
        "minLevel": 10,
        "maxLevel": 10,
        "area": "kanto-route-9-area",
        "method": "old-rod",
        "location": "kanto-route-9",
        "conditions": []
    },
    {
        "minLevel": 20,
        "maxLevel": 20,
        "area": "kanto-route-9-area",
        "method": "good-rod",
        "location": "kanto-route-9",
        "conditions": []
    },
    {
        "minLevel": 20,
        "maxLevel": 20,
        "area": "kanto-route-9-area",
        "method": "good-rod",
        "location": "kanto-route-9",
        "conditions": []
    },
    {
        "minLevel": 20,
        "maxLevel": 20,
        "area": "kanto-route-9-area",
        "method": "good-rod",
        "location": "kanto-route-9",
        "conditions": []
    },
    {
        "minLevel": 20,
        "maxLevel": 20,
        "area": "kanto-route-9-area",
        "method": "good-rod",
        "location": "kanto-route-9",
        "conditions": []
    },
    {
        "minLevel": 40,
        "maxLevel": 40,
        "area": "kanto-route-9-area",
        "method": "super-rod",
        "location": "kanto-route-9",
        "conditions": []
    },
    {
        "minLevel": 40,
        "maxLevel": 40,
        "area": "kanto-route-9-area",
        "method": "super-rod",
        "location": "kanto-route-9",
        "conditions": []
    },
    {
        "minLevel": 20,
        "maxLevel": 20,
        "area": "cerulean-cave-1f",
        "method": "good-rod",
        "location": "cerulean-cave",
        "conditions": []
    },
    {
        "minLevel": 20,
        "maxLevel": 20,
        "area": "cerulean-cave-1f",
        "method": "good-rod",
        "location": "cerulean-cave",
        "conditions": ["time-morning"]
    },
    {
        "minLevel": 20,
        "maxLevel": 20,
        "area": "cerulean-cave-1f",
        "method": "good-rod",
        "location": "cerulean-cave",
        "conditions": ["time-day"]
    },
    {
        "minLevel": 20,
        "maxLevel": 20,
        "area": "cerulean-cave-2f",
        "method": "good-rod",
        "location": "cerulean-cave",
        "conditions": []
    },
    {
        "minLevel": 20,
        "maxLevel": 20,
        "area": "cerulean-cave-2f",
        "method": "good-rod",
        "location": "cerulean-cave",
        "conditions": ["time-morning"]
    },
    {
        "minLevel": 20,
        "maxLevel": 20,
        "area": "cerulean-cave-2f",
        "method": "good-rod",
        "location": "cerulean-cave",
        "conditions": ["time-day"]
    },
    {
        "minLevel": 20,
        "maxLevel": 20,
        "area": "cerulean-cave-b1f",
        "method": "good-rod",
        "location": "cerulean-cave",
        "conditions": []
    },
    {
        "minLevel": 20,
        "maxLevel": 20,
        "area": "cerulean-cave-b1f",
        "method": "good-rod",
        "location": "cerulean-cave",
        "conditions": ["time-morning"]
    },
    {
        "minLevel": 20,
        "maxLevel": 20,
        "area": "cerulean-cave-b1f",
        "method": "good-rod",
        "location": "cerulean-cave",
        "conditions": ["time-day"]
    }
]