[
    {
        "minLevel": 12,
        "maxLevel": 12,
        "area": "rock-tunnel-1f",
        "method": "walk",
        "location": "rock-tunnel",
        "conditions": ["radio-off"]
    },
    {
        "minLevel": 12,
        "maxLevel": 12,
        "area": "rock-tunnel-1f",
        "method": "walk",
        "location": "rock-tunnel",
        "conditions": ["radio-off"]
    }
]