[
    {
        "minLevel": 25,
        "maxLevel": 25,
        "area": "kanto-route-13-area",
        "method": "walk",
        "location": "kanto-route-13",
        "conditions": [
            "radio-off",
            "time-night"
        ]
    },
    {
        "minLevel": 25,
        "maxLevel": 25,
        "area": "kanto-route-13-area",
        "method": "walk",
        "location": "kanto-route-13",
        "conditions": [
            "radio-off",
            "time-night"
        ]
    },
    {
        "minLevel": 25,
        "maxLevel": 25,
        "area": "kanto-route-14-area",
        "method": "walk",
        "location": "kanto-route-14",
        "conditions": [
            "radio-off",
            "time-night"
        ]
    },
    {
        "minLevel": 25,
        "maxLevel": 25,
        "area": "kanto-route-14-area",
        "method": "walk",
        "location": "kanto-route-14",
        "conditions": [
            "radio-off",
            "time-night"
        ]
    },
    {
        "minLevel": 25,
        "maxLevel": 25,
        "area": "kanto-route-15-area",
        "method": "walk",
        "location": "kanto-route-15",
        "conditions": [
            "radio-off",
            "time-night"
        ]
    },
    {
        "minLevel": 25,
        "maxLevel": 25,
        "area": "kanto-route-15-area",
        "method": "walk",
        "location": "kanto-route-15",
        "conditions": [
            "radio-off",
            "time-night"
        ]
    },
    {
        "minLevel": 7,
        "maxLevel": 7,
        "area": "kanto-route-2-south-towards-viridian-city",
        "method": "walk",
        "location": "kanto-route-2",
        "conditions": ["time-night"]
    },
    {
        "minLevel": 7,
        "maxLevel": 7,
        "area": "kanto-route-2-south-towards-viridian-city",
        "method": "walk",
        "location": "kanto-route-2",
        "conditions": ["time-night"]
    },
    {
        "minLevel": 7,
        "maxLevel": 7,
        "area": "kanto-route-2-south-towards-viridian-city",
        "method": "walk",
        "location": "kanto-route-2",
        "conditions": ["time-night"]
    },
    {
        "minLevel": 7,
        "maxLevel": 7,
        "area": "kanto-route-2-north-towards-pewter-city",
        "method": "walk",
        "location": "kanto-route-2",
        "conditions": ["time-night"]
    },
    {
        "minLevel": 7,
        "maxLevel": 7,
        "area": "kanto-route-2-north-towards-pewter-city",
        "method": "walk",
        "location": "kanto-route-2",
        "conditions": ["time-night"]
    },
    {
        "minLevel": 7,
        "maxLevel": 7,
        "area": "kanto-route-2-north-towards-pewter-city",
        "method": "walk",
        "location": "kanto-route-2",
        "conditions": ["time-night"]
    },
    {
        "minLevel": 18,
        "maxLevel": 18,
        "area": "kanto-route-8-area",
        "method": "walk",
        "location": "kanto-route-8",
        "conditions": ["time-night"]
    },
    {
        "minLevel": 18,
        "maxLevel": 18,
        "area": "kanto-route-8-area",
        "method": "walk",
        "location": "kanto-route-8",
        "conditions": ["time-night"]
    },
    {
        "minLevel": 7,
        "maxLevel": 7,
        "area": "viridian-forest-area",
        "method": "walk",
        "location": "viridian-forest",
        "conditions": ["time-night"]
    },
    {
        "minLevel": 7,
        "maxLevel": 7,
        "area": "viridian-forest-area",
        "method": "walk",
        "location": "viridian-forest",
        "conditions": ["time-night"]
    },
    {
        "minLevel": 7,
        "maxLevel": 7,
        "area": "viridian-forest-area",
        "method": "walk",
        "location": "viridian-forest",
        "conditions": ["time-night"]
    },
    {
        "minLevel": 7,
        "maxLevel": 7,
        "area": "viridian-forest-area",
        "method": "walk",
        "location": "viridian-forest",
        "conditions": ["time-night"]
    }
]