[
    {
        "minLevel": 32,
        "maxLevel": 32,
        "area": "seafoam-islands-b1f",
        "method": "walk",
        "location": "seafoam-islands",
        "conditions": []
    },
    {
        "minLevel": 34,
        "maxLevel": 34,
        "area": "seafoam-islands-b1f",
        "method": "walk",
        "location": "seafoam-islands",
        "conditions": ["radio-off"]
    },
    {
        "minLevel": 33,
        "maxLevel": 33,
        "area": "seafoam-islands-b2f",
        "method": "walk",
        "location": "seafoam-islands",
        "conditions": []
    },
    {
        "minLevel": 35,
        "maxLevel": 35,
        "area": "seafoam-islands-b2f",
        "method": "walk",
        "location": "seafoam-islands",
        "conditions": ["radio-off"]
    },
    {
        "minLevel": 34,
        "maxLevel": 34,
        "area": "seafoam-islands-b3f",
        "method": "walk",
        "location": "seafoam-islands",
        "conditions": ["radio-off"]
    },
    {
        "minLevel": 34,
        "maxLevel": 34,
        "area": "seafoam-islands-b4f",
        "method": "walk",
        "location": "seafoam-islands",
        "conditions": ["radio-off"]
    },
    {
        "minLevel": 30,
        "maxLevel": 40,
        "area": "seafoam-islands-b4f",
        "method": "surf",
        "location": "seafoam-islands",
        "conditions": []
    }
]