[
    {
        "minLevel": 10,
        "maxLevel": 10,
        "area": "kanto-route-24-area",
        "method": "walk",
        "location": "kanto-route-24",
        "conditions": ["time-day"]
    },
    {
        "minLevel": 10,
        "maxLevel": 10,
        "area": "kanto-route-24-area",
        "method": "walk",
        "location": "kanto-route-24",
        "conditions": [
            "time-day",
            "radio-off"
        ]
    }
]