[
    {
        "minLevel": 16,
        "maxLevel": 16,
        "area": "kanto-route-10-area",
        "method": "walk",
        "location": "kanto-route-10",
        "conditions": ["radio-hoenn"]
    },
    {
        "minLevel": 17,
        "maxLevel": 17,
        "area": "kanto-route-10-area",
        "method": "walk",
        "location": "kanto-route-10",
        "conditions": ["radio-hoenn"]
    },
    {
        "minLevel": 23,
        "maxLevel": 23,
        "area": "kanto-route-13-area",
        "method": "walk",
        "location": "kanto-route-13",
        "conditions": ["radio-hoenn"]
    },
    {
        "minLevel": 23,
        "maxLevel": 23,
        "area": "kanto-route-13-area",
        "method": "walk",
        "location": "kanto-route-13",
        "conditions": ["radio-hoenn"]
    },
    {
        "minLevel": 30,
        "maxLevel": 30,
        "area": "kanto-sea-route-21-area",
        "method": "walk",
        "location": "kanto-sea-route-21",
        "conditions": ["radio-hoenn"]
    },
    {
        "minLevel": 25,
        "maxLevel": 25,
        "area": "kanto-sea-route-21-area",
        "method": "walk",
        "location": "kanto-sea-route-21",
        "conditions": ["radio-hoenn"]
    },
    {
        "minLevel": 3,
        "maxLevel": 3,
        "area": "kanto-route-22-area",
        "method": "walk",
        "location": "kanto-route-22",
        "conditions": ["radio-hoenn"]
    },
    {
        "minLevel": 3,
        "maxLevel": 3,
        "area": "kanto-route-22-area",
        "method": "walk",
        "location": "kanto-route-22",
        "conditions": ["radio-hoenn"]
    },
    {
        "minLevel": 8,
        "maxLevel": 8,
        "area": "kanto-route-24-area",
        "method": "walk",
        "location": "kanto-route-24",
        "conditions": ["radio-hoenn"]
    },
    {
        "minLevel": 10,
        "maxLevel": 10,
        "area": "kanto-route-24-area",
        "method": "walk",
        "location": "kanto-route-24",
        "conditions": ["radio-hoenn"]
    },
    {
        "minLevel": 8,
        "maxLevel": 8,
        "area": "kanto-route-25-area",
        "method": "walk",
        "location": "kanto-route-25",
        "conditions": ["radio-hoenn"]
    },
    {
        "minLevel": 10,
        "maxLevel": 10,
        "area": "kanto-route-25-area",
        "method": "walk",
        "location": "kanto-route-25",
        "conditions": ["radio-hoenn"]
    },
    {
        "minLevel": 28,
        "maxLevel": 28,
        "area": "kanto-route-26-area",
        "method": "walk",
        "location": "kanto-route-26",
        "conditions": ["radio-hoenn"]
    },
    {
        "minLevel": 28,
        "maxLevel": 28,
        "area": "kanto-route-26-area",
        "method": "walk",
        "location": "kanto-route-26",
        "conditions": ["radio-hoenn"]
    },
    {
        "minLevel": 28,
        "maxLevel": 28,
        "area": "kanto-route-27-area",
        "method": "walk",
        "location": "kanto-route-27",
        "conditions": ["radio-hoenn"]
    },
    {
        "minLevel": 28,
        "maxLevel": 28,
        "area": "kanto-route-27-area",
        "method": "walk",
        "location": "kanto-route-27",
        "conditions": ["radio-hoenn"]
    },
    {
        "minLevel": 39,
        "maxLevel": 39,
        "area": "kanto-route-28-area",
        "method": "walk",
        "location": "kanto-route-28",
        "conditions": ["radio-hoenn"]
    },
    {
        "minLevel": 40,
        "maxLevel": 40,
        "area": "kanto-route-28-area",
        "method": "walk",
        "location": "kanto-route-28",
        "conditions": ["radio-hoenn"]
    },
    {
        "minLevel": 5,
        "maxLevel": 5,
        "area": "kanto-route-4-area",
        "method": "walk",
        "location": "kanto-route-4",
        "conditions": ["radio-hoenn"]
    },
    {
        "minLevel": 5,
        "maxLevel": 5,
        "area": "kanto-route-4-area",
        "method": "walk",
        "location": "kanto-route-4",
        "conditions": ["radio-hoenn"]
    },
    {
        "minLevel": 13,
        "maxLevel": 13,
        "area": "kanto-route-6-area",
        "method": "walk",
        "location": "kanto-route-6",
        "conditions": ["radio-hoenn"]
    },
    {
        "minLevel": 13,
        "maxLevel": 13,
        "area": "kanto-route-6-area",
        "method": "walk",
        "location": "kanto-route-6",
        "conditions": ["radio-hoenn"]
    },
    {
        "minLevel": 13,
        "maxLevel": 13,
        "area": "kanto-route-9-area",
        "method": "walk",
        "location": "kanto-route-9",
        "conditions": ["radio-hoenn"]
    },
    {
        "minLevel": 15,
        "maxLevel": 15,
        "area": "kanto-route-9-area",
        "method": "walk",
        "location": "kanto-route-9",
        "conditions": ["radio-hoenn"]
    }
]