{
    "encounters": [
        "rattata",
        "raticate",
        "spearow",
        "fearow",
        "poliwag",
        "tentacool",
        "doduo",
        "grimer",
        "muk",
        "shellder",
        "krabby",
        "goldeen",
        "magikarp",
        "murkrow",
        "slugma",
        "plusle",
        "minun",
        "shinx"
    ],
    "id": "kanto-route-18-area"
}