{
    "encounters": [
        "poliwag",
        "tentacool",
        "tentacruel",
        "shellder",
        "krabby",
        "goldeen",
        "staryu",
        "magikarp",
        "chinchou",
        "lanturn",
        "wingull"
    ],
    "id": "vermilion-city-ss-anne-dock"
}