[
    {
        "minLevel": 3,
        "maxLevel": 3,
        "area": "sprout-tower-2f",
        "method": "walk",
        "location": "sprout-tower",
        "conditions": ["time-night"]
    },
    {
        "minLevel": 4,
        "maxLevel": 4,
        "area": "sprout-tower-2f",
        "method": "walk",
        "location": "sprout-tower",
        "conditions": ["time-night"]
    },
    {
        "minLevel": 5,
        "maxLevel": 5,
        "area": "sprout-tower-2f",
        "method": "walk",
        "location": "sprout-tower",
        "conditions": ["time-night"]
    },
    {
        "minLevel": 6,
        "maxLevel": 6,
        "area": "sprout-tower-2f",
        "method": "walk",
        "location": "sprout-tower",
        "conditions": ["time-night"]
    },
    {
        "minLevel": 3,
        "maxLevel": 3,
        "area": "sprout-tower-3f",
        "method": "walk",
        "location": "sprout-tower",
        "conditions": ["time-night"]
    },
    {
        "minLevel": 4,
        "maxLevel": 4,
        "area": "sprout-tower-3f",
        "method": "walk",
        "location": "sprout-tower",
        "conditions": ["time-night"]
    },
    {
        "minLevel": 5,
        "maxLevel": 5,
        "area": "sprout-tower-3f",
        "method": "walk",
        "location": "sprout-tower",
        "conditions": ["time-night"]
    },
    {
        "minLevel": 6,
        "maxLevel": 6,
        "area": "sprout-tower-3f",
        "method": "walk",
        "location": "sprout-tower",
        "conditions": ["time-night"]
    },
    {
        "minLevel": 20,
        "maxLevel": 20,
        "area": "bell-tower-2f",
        "method": "walk",
        "location": "bell-tower",
        "conditions": ["time-night"]
    },
    {
        "minLevel": 21,
        "maxLevel": 21,
        "area": "bell-tower-2f",
        "method": "walk",
        "location": "bell-tower",
        "conditions": ["time-night"]
    },
    {
        "minLevel": 22,
        "maxLevel": 22,
        "area": "bell-tower-2f",
        "method": "walk",
        "location": "bell-tower",
        "conditions": ["time-night"]
    },
    {
        "minLevel": 20,
        "maxLevel": 20,
        "area": "bell-tower-3f",
        "method": "walk",
        "location": "bell-tower",
        "conditions": ["time-night"]
    },
    {
        "minLevel": 21,
        "maxLevel": 21,
        "area": "bell-tower-3f",
        "method": "walk",
        "location": "bell-tower",
        "conditions": ["time-night"]
    },
    {
        "minLevel": 22,
        "maxLevel": 22,
        "area": "bell-tower-3f",
        "method": "walk",
        "location": "bell-tower",
        "conditions": ["time-night"]
    },
    {
        "minLevel": 20,
        "maxLevel": 20,
        "area": "bell-tower-4f",
        "method": "walk",
        "location": "bell-tower",
        "conditions": ["time-night"]
    },
    {
        "minLevel": 21,
        "maxLevel": 21,
        "area": "bell-tower-4f",
        "method": "walk",
        "location": "bell-tower",
        "conditions": ["time-night"]
    },
    {
        "minLevel": 22,
        "maxLevel": 22,
        "area": "bell-tower-4f",
        "method": "walk",
        "location": "bell-tower",
        "conditions": ["time-night"]
    },
    {
        "minLevel": 20,
        "maxLevel": 20,
        "area": "bell-tower-5f",
        "method": "walk",
        "location": "bell-tower",
        "conditions": ["time-night"]
    },
    {
        "minLevel": 21,
        "maxLevel": 21,
        "area": "bell-tower-5f",
        "method": "walk",
        "location": "bell-tower",
        "conditions": ["time-night"]
    },
    {
        "minLevel": 22,
        "maxLevel": 22,
        "area": "bell-tower-5f",
        "method": "walk",
        "location": "bell-tower",
        "conditions": ["time-night"]
    },
    {
        "minLevel": 20,
        "maxLevel": 20,
        "area": "bell-tower-6f",
        "method": "walk",
        "location": "bell-tower",
        "conditions": ["time-night"]
    },
    {
        "minLevel": 21,
        "maxLevel": 21,
        "area": "bell-tower-6f",
        "method": "walk",
        "location": "bell-tower",
        "conditions": ["time-night"]
    },
    {
        "minLevel": 22,
        "maxLevel": 22,
        "area": "bell-tower-6f",
        "method": "walk",
        "location": "bell-tower",
        "conditions": ["time-night"]
    },
    {
        "minLevel": 20,
        "maxLevel": 20,
        "area": "bell-tower-7f",
        "method": "walk",
        "location": "bell-tower",
        "conditions": ["time-night"]
    },
    {
        "minLevel": 21,
        "maxLevel": 21,
        "area": "bell-tower-7f",
        "method": "walk",
        "location": "bell-tower",
        "conditions": ["time-night"]
    },
    {
        "minLevel": 22,
        "maxLevel": 22,
        "area": "bell-tower-7f",
        "method": "walk",
        "location": "bell-tower",
        "conditions": ["time-night"]
    },
    {
        "minLevel": 20,
        "maxLevel": 20,
        "area": "bell-tower-8f",
        "method": "walk",
        "location": "bell-tower",
        "conditions": ["time-night"]
    },
    {
        "minLevel": 21,
        "maxLevel": 21,
        "area": "bell-tower-8f",
        "method": "walk",
        "location": "bell-tower",
        "conditions": ["time-night"]
    },
    {
        "minLevel": 22,
        "maxLevel": 22,
        "area": "bell-tower-8f",
        "method": "walk",
        "location": "bell-tower",
        "conditions": ["time-night"]
    },
    {
        "minLevel": 20,
        "maxLevel": 20,
        "area": "bell-tower-9f",
        "method": "walk",
        "location": "bell-tower",
        "conditions": ["time-night"]
    },
    {
        "minLevel": 21,
        "maxLevel": 21,
        "area": "bell-tower-9f",
        "method": "walk",
        "location": "bell-tower",
        "conditions": ["time-night"]
    },
    {
        "minLevel": 22,
        "maxLevel": 22,
        "area": "bell-tower-9f",
        "method": "walk",
        "location": "bell-tower",
        "conditions": ["time-night"]
    }
]