[
    {
        "minLevel": 23,
        "maxLevel": 23,
        "area": "dark-cave-blackthorn-city-entrance",
        "method": "walk",
        "location": "dark-cave",
        "conditions": []
    },
    {
        "minLevel": 23,
        "maxLevel": 23,
        "area": "dark-cave-blackthorn-city-entrance",
        "method": "walk",
        "location": "dark-cave",
        "conditions": []
    },
    {
        "minLevel": 22,
        "maxLevel": 22,
        "area": "ice-path-1f",
        "method": "walk",
        "location": "ice-path",
        "conditions": ["time-day"]
    },
    {
        "minLevel": 22,
        "maxLevel": 22,
        "area": "ice-path-1f",
        "method": "walk",
        "location": "ice-path",
        "conditions": ["time-morning"]
    },
    {
        "minLevel": 22,
        "maxLevel": 22,
        "area": "ice-path-1f",
        "method": "walk",
        "location": "ice-path",
        "conditions": ["time-night"]
    },
    {
        "minLevel": 22,
        "maxLevel": 22,
        "area": "ice-path-b1f",
        "method": "walk",
        "location": "ice-path",
        "conditions": ["time-day"]
    },
    {
        "minLevel": 22,
        "maxLevel": 22,
        "area": "ice-path-b1f",
        "method": "walk",
        "location": "ice-path",
        "conditions": ["time-morning"]
    },
    {
        "minLevel": 22,
        "maxLevel": 22,
        "area": "ice-path-b1f",
        "method": "walk",
        "location": "ice-path",
        "conditions": ["time-night"]
    },
    {
        "minLevel": 23,
        "maxLevel": 23,
        "area": "ice-path-b2f",
        "method": "walk",
        "location": "ice-path",
        "conditions": ["time-day"]
    },
    {
        "minLevel": 23,
        "maxLevel": 23,
        "area": "ice-path-b2f",
        "method": "walk",
        "location": "ice-path",
        "conditions": ["time-morning"]
    },
    {
        "minLevel": 23,
        "maxLevel": 23,
        "area": "ice-path-b2f",
        "method": "walk",
        "location": "ice-path",
        "conditions": ["time-night"]
    },
    {
        "minLevel": 24,
        "maxLevel": 24,
        "area": "ice-path-b3f",
        "method": "walk",
        "location": "ice-path",
        "conditions": ["time-day"]
    },
    {
        "minLevel": 24,
        "maxLevel": 24,
        "area": "ice-path-b3f",
        "method": "walk",
        "location": "ice-path",
        "conditions": ["time-morning"]
    },
    {
        "minLevel": 24,
        "maxLevel": 24,
        "area": "ice-path-b3f",
        "method": "walk",
        "location": "ice-path",
        "conditions": ["time-night"]
    },
    {
        "minLevel": 30,
        "maxLevel": 30,
        "area": "mt-mortar-upper-cave",
        "method": "walk",
        "location": "mt-mortar",
        "conditions": []
    },
    {
        "minLevel": 30,
        "maxLevel": 30,
        "area": "mt-mortar-upper-cave",
        "method": "walk",
        "location": "mt-mortar",
        "conditions": []
    },
    {
        "minLevel": 48,
        "maxLevel": 48,
        "area": "mt-silver-2f",
        "method": "walk",
        "location": "mt-silver",
        "conditions": ["time-morning"]
    },
    {
        "minLevel": 48,
        "maxLevel": 48,
        "area": "mt-silver-2f",
        "method": "walk",
        "location": "mt-silver",
        "conditions": ["time-day"]
    },
    {
        "minLevel": 48,
        "maxLevel": 48,
        "area": "mt-silver-2f",
        "method": "walk",
        "location": "mt-silver",
        "conditions": ["time-night"]
    },
    {
        "minLevel": 45,
        "maxLevel": 45,
        "area": "mt-silver-1f",
        "method": "walk",
        "location": "mt-silver",
        "conditions": []
    },
    {
        "minLevel": 51,
        "maxLevel": 51,
        "area": "mt-silver-top",
        "method": "walk",
        "location": "mt-silver",
        "conditions": []
    },
    {
        "minLevel": 48,
        "maxLevel": 48,
        "area": "mt-silver-top",
        "method": "walk",
        "location": "mt-silver",
        "conditions": []
    },
    {
        "minLevel": 23,
        "maxLevel": 23,
        "area": "slowpoke-well-b1f",
        "method": "walk",
        "location": "slowpoke-well",
        "conditions": []
    },
    {
        "minLevel": 22,
        "maxLevel": 22,
        "area": "tohjo-falls-area",
        "method": "walk",
        "location": "tohjo-falls",
        "conditions": []
    },
    {
        "minLevel": 22,
        "maxLevel": 22,
        "area": "union-cave-b2f",
        "method": "walk",
        "location": "union-cave",
        "conditions": []
    },
    {
        "minLevel": 23,
        "maxLevel": 23,
        "area": "whirl-islands-1f",
        "method": "walk",
        "location": "whirl-islands",
        "conditions": []
    },
    {
        "minLevel": 24,
        "maxLevel": 24,
        "area": "whirl-islands-b1f",
        "method": "walk",
        "location": "whirl-islands",
        "conditions": []
    },
    {
        "minLevel": 24,
        "maxLevel": 24,
        "area": "whirl-islands-b2f",
        "method": "walk",
        "location": "whirl-islands",
        "conditions": []
    },
    {
        "minLevel": 25,
        "maxLevel": 25,
        "area": "whirl-islands-b3f",
        "method": "walk",
        "location": "whirl-islands",
        "conditions": []
    }
]