[
    {
        "minLevel": 14,
        "maxLevel": 14,
        "area": "mt-mortar-1f",
        "method": "walk",
        "location": "mt-mortar",
        "conditions": ["swarm-no"]
    },
    {
        "minLevel": 14,
        "maxLevel": 14,
        "area": "mt-mortar-1f",
        "method": "walk",
        "location": "mt-mortar",
        "conditions": ["swarm-yes"]
    },
    {
        "minLevel": 13,
        "maxLevel": 13,
        "area": "mt-mortar-lower-cave",
        "method": "walk",
        "location": "mt-mortar",
        "conditions": []
    },
    {
        "minLevel": 15,
        "maxLevel": 15,
        "area": "mt-mortar-lower-cave",
        "method": "walk",
        "location": "mt-mortar",
        "conditions": []
    },
    {
        "minLevel": 28,
        "maxLevel": 28,
        "area": "mt-mortar-upper-cave",
        "method": "walk",
        "location": "mt-mortar",
        "conditions": []
    },
    {
        "minLevel": 16,
        "maxLevel": 16,
        "area": "mt-mortar-b1f",
        "method": "walk",
        "location": "mt-mortar",
        "conditions": []
    }
]