[
    {
        "minLevel": 5,
        "maxLevel": 5,
        "area": "johto-route-32-area",
        "method": "old-rod",
        "location": "johto-route-32",
        "conditions": ["swarm-yes"]
    },
    {
        "minLevel": 20,
        "maxLevel": 20,
        "area": "johto-route-32-area",
        "method": "good-rod",
        "location": "johto-route-32",
        "conditions": ["swarm-yes"]
    },
    {
        "minLevel": 20,
        "maxLevel": 20,
        "area": "johto-route-32-area",
        "method": "good-rod",
        "location": "johto-route-32",
        "conditions": ["swarm-yes"]
    },
    {
        "minLevel": 20,
        "maxLevel": 20,
        "area": "johto-route-32-area",
        "method": "good-rod",
        "location": "johto-route-32",
        "conditions": ["swarm-yes"]
    },
    {
        "minLevel": 40,
        "maxLevel": 40,
        "area": "johto-route-32-area",
        "method": "super-rod",
        "location": "johto-route-32",
        "conditions": ["swarm-no"]
    },
    {
        "minLevel": 40,
        "maxLevel": 40,
        "area": "johto-route-32-area",
        "method": "super-rod",
        "location": "johto-route-32",
        "conditions": ["swarm-yes"]
    },
    {
        "minLevel": 40,
        "maxLevel": 40,
        "area": "johto-route-32-area",
        "method": "super-rod",
        "location": "johto-route-32",
        "conditions": ["swarm-yes"]
    },
    {
        "minLevel": 40,
        "maxLevel": 40,
        "area": "johto-route-32-area",
        "method": "super-rod",
        "location": "johto-route-32",
        "conditions": ["swarm-yes"]
    },
    {
        "minLevel": 40,
        "maxLevel": 40,
        "area": "johto-route-32-area",
        "method": "super-rod",
        "location": "johto-route-32",
        "conditions": ["swarm-yes"]
    }
]