[
    {
        "minLevel": 10,
        "maxLevel": 10,
        "area": "johto-route-44-area",
        "method": "old-rod",
        "location": "johto-route-44",
        "conditions": ["swarm-yes"]
    },
    {
        "minLevel": 20,
        "maxLevel": 20,
        "area": "johto-route-44-area",
        "method": "good-rod",
        "location": "johto-route-44",
        "conditions": ["swarm-yes"]
    },
    {
        "minLevel": 20,
        "maxLevel": 20,
        "area": "johto-route-44-area",
        "method": "good-rod",
        "location": "johto-route-44",
        "conditions": ["swarm-yes"]
    },
    {
        "minLevel": 20,
        "maxLevel": 20,
        "area": "johto-route-44-area",
        "method": "good-rod",
        "location": "johto-route-44",
        "conditions": ["swarm-yes"]
    },
    {
        "minLevel": 40,
        "maxLevel": 40,
        "area": "johto-route-44-area",
        "method": "super-rod",
        "location": "johto-route-44",
        "conditions": ["swarm-no"]
    },
    {
        "minLevel": 40,
        "maxLevel": 40,
        "area": "johto-route-44-area",
        "method": "super-rod",
        "location": "johto-route-44",
        "conditions": ["swarm-yes"]
    },
    {
        "minLevel": 40,
        "maxLevel": 40,
        "area": "johto-route-44-area",
        "method": "super-rod",
        "location": "johto-route-44",
        "conditions": ["swarm-yes"]
    },
    {
        "minLevel": 40,
        "maxLevel": 40,
        "area": "johto-route-44-area",
        "method": "super-rod",
        "location": "johto-route-44",
        "conditions": ["swarm-yes"]
    },
    {
        "minLevel": 40,
        "maxLevel": 40,
        "area": "johto-route-44-area",
        "method": "super-rod",
        "location": "johto-route-44",
        "conditions": ["swarm-yes"]
    }
]