[
    {
        "minLevel": 40,
        "maxLevel": 40,
        "area": "whirl-islands-1f",
        "method": "super-rod",
        "location": "whirl-islands",
        "conditions": []
    },
    {
        "minLevel": 40,
        "maxLevel": 40,
        "area": "whirl-islands-b2f",
        "method": "super-rod",
        "location": "whirl-islands",
        "conditions": []
    },
    {
        "minLevel": 40,
        "maxLevel": 40,
        "area": "whirl-islands-b3f",
        "method": "super-rod",
        "location": "whirl-islands",
        "conditions": []
    }
]