[
    {
        "minLevel": 15,
        "maxLevel": 15,
        "area": "cianwood-city-area",
        "method": "rock-smash",
        "location": "cianwood-city",
        "conditions": []
    },
    {
        "minLevel": 15,
        "maxLevel": 15,
        "area": "cianwood-city-manias-house",
        "method": "gift",
        "location": "cianwood-city",
        "conditions": []
    },
    {
        "minLevel": 15,
        "maxLevel": 15,
        "area": "dark-cave-violet-city-entrance",
        "method": "rock-smash",
        "location": "dark-cave",
        "conditions": []
    },
    {
        "minLevel": 15,
        "maxLevel": 15,
        "area": "johto-sea-route-40-area",
        "method": "rock-smash",
        "location": "johto-sea-route-40",
        "conditions": []
    }
]