[
    {
        "minLevel": 13,
        "maxLevel": 13,
        "area": "johto-route-38-area",
        "method": "walk",
        "location": "johto-route-38",
        "conditions": [
            "time-day",
            "swarm-no"
        ]
    },
    {
        "minLevel": 13,
        "maxLevel": 13,
        "area": "johto-route-38-area",
        "method": "walk",
        "location": "johto-route-38",
        "conditions": [
            "time-morning",
            "swarm-no"
        ]
    },
    {
        "minLevel": 13,
        "maxLevel": 13,
        "area": "johto-route-38-area",
        "method": "walk",
        "location": "johto-route-38",
        "conditions": [
            "swarm-no",
            "time-night"
        ]
    },
    {
        "minLevel": 13,
        "maxLevel": 13,
        "area": "johto-route-38-area",
        "method": "walk",
        "location": "johto-route-38",
        "conditions": ["swarm-yes"]
    },
    {
        "minLevel": 13,
        "maxLevel": 13,
        "area": "johto-route-38-area",
        "method": "walk",
        "location": "johto-route-38",
        "conditions": ["swarm-yes"]
    },
    {
        "minLevel": 15,
        "maxLevel": 15,
        "area": "johto-route-39-area",
        "method": "walk",
        "location": "johto-route-39",
        "conditions": ["time-day"]
    },
    {
        "minLevel": 15,
        "maxLevel": 15,
        "area": "johto-route-39-area",
        "method": "walk",
        "location": "johto-route-39",
        "conditions": ["time-day"]
    },
    {
        "minLevel": 15,
        "maxLevel": 15,
        "area": "johto-route-39-area",
        "method": "walk",
        "location": "johto-route-39",
        "conditions": ["time-morning"]
    },
    {
        "minLevel": 15,
        "maxLevel": 15,
        "area": "johto-route-39-area",
        "method": "walk",
        "location": "johto-route-39",
        "conditions": ["time-morning"]
    },
    {
        "minLevel": 15,
        "maxLevel": 15,
        "area": "johto-route-39-area",
        "method": "walk",
        "location": "johto-route-39",
        "conditions": ["time-night"]
    },
    {
        "minLevel": 15,
        "maxLevel": 15,
        "area": "johto-route-39-area",
        "method": "walk",
        "location": "johto-route-39",
        "conditions": ["time-night"]
    }
]