[
    {
        "minLevel": 16,
        "maxLevel": 16,
        "area": "johto-route-43-area",
        "method": "walk",
        "location": "johto-route-43",
        "conditions": ["time-morning"]
    },
    {
        "minLevel": 16,
        "maxLevel": 16,
        "area": "johto-route-43-area",
        "method": "walk",
        "location": "johto-route-43",
        "conditions": ["time-night"]
    },
    {
        "minLevel": 16,
        "maxLevel": 16,
        "area": "johto-route-43-area",
        "method": "walk",
        "location": "johto-route-43",
        "conditions": ["time-night"]
    },
    {
        "minLevel": 16,
        "maxLevel": 16,
        "area": "johto-route-43-area",
        "method": "walk",
        "location": "johto-route-43",
        "conditions": ["time-night"]
    }
]