{
    "encounters": [
        "yanma",
        "toxicroak",
        "yanmega",
        "pidove",
        "audino",
        "timburr",
        "gurdurr",
        "tympole",
        "palpitoad",
        "seismitoad",
        "throh",
        "sawk"
    ],
    "id": "pinwheel-forest-outside"
}