[
    {
        "minLevel": 41,
        "maxLevel": 41,
        "area": "unova-route-11-area",
        "method": "dark-grass",
        "location": "unova-route-11",
        "conditions": []
    },
    {
        "minLevel": 37,
        "maxLevel": 37,
        "area": "unova-route-11-area",
        "method": "walk",
        "location": "unova-route-11",
        "conditions": []
    },
    {
        "minLevel": 44,
        "maxLevel": 44,
        "area": "unova-route-22-area",
        "method": "dark-grass",
        "location": "unova-route-22",
        "conditions": []
    },
    {
        "minLevel": 39,
        "maxLevel": 39,
        "area": "unova-route-22-area",
        "method": "walk",
        "location": "unova-route-22",
        "conditions": []
    },
    {
        "minLevel": 54,
        "maxLevel": 54,
        "area": "unova-route-23-area",
        "method": "dark-grass",
        "location": "unova-route-23",
        "conditions": []
    },
    {
        "minLevel": 49,
        "maxLevel": 49,
        "area": "unova-route-23-area",
        "method": "walk",
        "location": "unova-route-23",
        "conditions": []
    }
]