[
    {
        "minLevel": 5,
        "maxLevel": 15,
        "area": "unova-route-20-area",
        "method": "surf",
        "location": "unova-route-20",
        "conditions": []
    },
    {
        "minLevel": 5,
        "maxLevel": 15,
        "area": "floccesy-ranch-outer",
        "method": "surf",
        "location": "floccesy-ranch",
        "conditions": []
    },
    {
        "minLevel": 5,
        "maxLevel": 15,
        "area": "floccesy-ranch-inner",
        "method": "surf",
        "location": "floccesy-ranch",
        "conditions": []
    },
    {
        "minLevel": 5,
        "maxLevel": 5,
        "area": "floccesy-ranch-inner",
        "method": "walk",
        "location": "floccesy-ranch",
        "conditions": []
    }
]