[
    {
        "minLevel": 40,
        "maxLevel": 60,
        "area": "undella-bay-area",
        "method": "super-rod",
        "location": "undella-bay",
        "conditions": []
    },
    {
        "minLevel": 50,
        "maxLevel": 70,
        "area": "undella-bay-area",
        "method": "super-rod",
        "location": "undella-bay",
        "conditions": []
    },
    {
        "minLevel": 50,
        "maxLevel": 70,
        "area": "undella-bay-area",
        "method": "super-rod",
        "location": "undella-bay",
        "conditions": []
    },
    {
        "minLevel": 50,
        "maxLevel": 70,
        "area": "undella-bay-area",
        "method": "super-rod",
        "location": "undella-bay",
        "conditions": []
    },
    {
        "minLevel": 40,
        "maxLevel": 60,
        "area": "undella-bay-area",
        "method": "super-rod-spots",
        "location": "undella-bay",
        "conditions": []
    }
]