[
    {
        "minLevel": 47,
        "maxLevel": 47,
        "area": "giant-chasm-outside",
        "method": "grass-spots",
        "location": "giant-chasm",
        "conditions": []
    },
    {
        "minLevel": 47,
        "maxLevel": 47,
        "area": "giant-chasm-forest",
        "method": "grass-spots",
        "location": "giant-chasm",
        "conditions": []
    },
    {
        "minLevel": 47,
        "maxLevel": 47,
        "area": "giant-chasm-forest",
        "method": "grass-spots",
        "location": "giant-chasm",
        "conditions": []
    },
    {
        "minLevel": 47,
        "maxLevel": 47,
        "area": "giant-chasm-forest-cave",
        "method": "grass-spots",
        "location": "giant-chasm",
        "conditions": []
    },
    {
        "minLevel": 47,
        "maxLevel": 47,
        "area": "giant-chasm-forest-cave",
        "method": "grass-spots",
        "location": "giant-chasm",
        "conditions": []
    }
]