[
    {
        "minLevel": 39,
        "maxLevel": 39,
        "area": "unova-route-12-area",
        "method": "dark-grass",
        "location": "unova-route-12",
        "conditions": []
    },
    {
        "minLevel": 35,
        "maxLevel": 35,
        "area": "unova-route-12-area",
        "method": "walk",
        "location": "unova-route-12",
        "conditions": []
    },
    {
        "minLevel": 24,
        "maxLevel": 24,
        "area": "lostlorn-forest-area",
        "method": "dark-grass",
        "location": "lostlorn-forest",
        "conditions": []
    },
    {
        "minLevel": 22,
        "maxLevel": 22,
        "area": "lostlorn-forest-area",
        "method": "walk",
        "location": "lostlorn-forest",
        "conditions": []
    }
]