[
    {
        "minLevel": 57,
        "maxLevel": 57,
        "area": "unova-route-1-area",
        "method": "grass-spots",
        "location": "unova-route-1",
        "conditions": []
    },
    {
        "minLevel": 57,
        "maxLevel": 57,
        "area": "unova-route-2-area",
        "method": "grass-spots",
        "location": "unova-route-2",
        "conditions": []
    },
    {
        "minLevel": 25,
        "maxLevel": 25,
        "area": "unova-route-6-area",
        "method": "grass-spots",
        "location": "unova-route-6",
        "conditions": []
    },
    {
        "minLevel": 36,
        "maxLevel": 36,
        "area": "unova-route-12-area",
        "method": "grass-spots",
        "location": "unova-route-12",
        "conditions": []
    },
    {
        "minLevel": 57,
        "maxLevel": 57,
        "area": "unova-route-18-area",
        "method": "grass-spots",
        "location": "unova-route-18",
        "conditions": []
    },
    {
        "minLevel": 57,
        "maxLevel": 57,
        "area": "dreamyard-area",
        "method": "grass-spots",
        "location": "dreamyard",
        "conditions": []
    },
    {
        "minLevel": 37,
        "maxLevel": 37,
        "area": "village-bridge-area",
        "method": "grass-spots",
        "location": "village-bridge",
        "conditions": []
    },
    {
        "minLevel": 3,
        "maxLevel": 3,
        "area": "unova-route-20-area",
        "method": "grass-spots",
        "location": "unova-route-20",
        "conditions": []
    },
    {
        "minLevel": 5,
        "maxLevel": 5,
        "area": "floccesy-ranch-inner",
        "method": "grass-spots",
        "location": "floccesy-ranch",
        "conditions": []
    },
    {
        "minLevel": 49,
        "maxLevel": 49,
        "area": "unova-victory-road-2-unknown-area-72",
        "method": "grass-spots",
        "location": "unova-victory-road-2",
        "conditions": []
    },
    {
        "minLevel": 49,
        "maxLevel": 49,
        "area": "unova-victory-road-2-unknown-area-73",
        "method": "grass-spots",
        "location": "unova-victory-road-2",
        "conditions": []
    },
    {
        "minLevel": 49,
        "maxLevel": 49,
        "area": "unova-victory-road-2-unknown-area-79",
        "method": "grass-spots",
        "location": "unova-victory-road-2",
        "conditions": []
    },
    {
        "minLevel": 57,
        "maxLevel": 57,
        "area": "nature-sanctuary-area",
        "method": "grass-spots",
        "location": "nature-sanctuary",
        "conditions": []
    }
]