[
    {
        "minLevel": 40,
        "maxLevel": 60,
        "area": "striaton-city-area",
        "method": "super-rod",
        "location": "striaton-city",
        "conditions": []
    },
    {
        "minLevel": 50,
        "maxLevel": 70,
        "area": "striaton-city-area",
        "method": "super-rod",
        "location": "striaton-city",
        "conditions": []
    },
    {
        "minLevel": 50,
        "maxLevel": 70,
        "area": "striaton-city-area",
        "method": "super-rod",
        "location": "striaton-city",
        "conditions": []
    },
    {
        "minLevel": 50,
        "maxLevel": 70,
        "area": "striaton-city-area",
        "method": "super-rod",
        "location": "striaton-city",
        "conditions": []
    },
    {
        "minLevel": 40,
        "maxLevel": 60,
        "area": "striaton-city-area",
        "method": "super-rod-spots",
        "location": "striaton-city",
        "conditions": []
    },
    {
        "minLevel": 40,
        "maxLevel": 60,
        "area": "unova-route-3-area",
        "method": "super-rod",
        "location": "unova-route-3",
        "conditions": []
    },
    {
        "minLevel": 50,
        "maxLevel": 70,
        "area": "unova-route-3-area",
        "method": "super-rod",
        "location": "unova-route-3",
        "conditions": []
    },
    {
        "minLevel": 50,
        "maxLevel": 70,
        "area": "unova-route-3-area",
        "method": "super-rod",
        "location": "unova-route-3",
        "conditions": []
    },
    {
        "minLevel": 50,
        "maxLevel": 70,
        "area": "unova-route-3-area",
        "method": "super-rod",
        "location": "unova-route-3",
        "conditions": []
    },
    {
        "minLevel": 40,
        "maxLevel": 60,
        "area": "unova-route-3-area",
        "method": "super-rod-spots",
        "location": "unova-route-3",
        "conditions": []
    },
    {
        "minLevel": 40,
        "maxLevel": 50,
        "area": "unova-route-11-area",
        "method": "super-rod",
        "location": "unova-route-11",
        "conditions": []
    },
    {
        "minLevel": 50,
        "maxLevel": 60,
        "area": "unova-route-11-area",
        "method": "super-rod",
        "location": "unova-route-11",
        "conditions": []
    },
    {
        "minLevel": 50,
        "maxLevel": 60,
        "area": "unova-route-11-area",
        "method": "super-rod",
        "location": "unova-route-11",
        "conditions": []
    },
    {
        "minLevel": 50,
        "maxLevel": 60,
        "area": "unova-route-11-area",
        "method": "super-rod",
        "location": "unova-route-11",
        "conditions": []
    },
    {
        "minLevel": 40,
        "maxLevel": 60,
        "area": "unova-route-11-area",
        "method": "super-rod-spots",
        "location": "unova-route-11",
        "conditions": []
    },
    {
        "minLevel": 40,
        "maxLevel": 60,
        "area": "unova-route-14-area",
        "method": "super-rod",
        "location": "unova-route-14",
        "conditions": []
    },
    {
        "minLevel": 50,
        "maxLevel": 70,
        "area": "unova-route-14-area",
        "method": "super-rod",
        "location": "unova-route-14",
        "conditions": []
    },
    {
        "minLevel": 50,
        "maxLevel": 70,
        "area": "unova-route-14-area",
        "method": "super-rod",
        "location": "unova-route-14",
        "conditions": []
    },
    {
        "minLevel": 50,
        "maxLevel": 70,
        "area": "unova-route-14-area",
        "method": "super-rod",
        "location": "unova-route-14",
        "conditions": []
    },
    {
        "minLevel": 40,
        "maxLevel": 60,
        "area": "unova-route-14-area",
        "method": "super-rod-spots",
        "location": "unova-route-14",
        "conditions": []
    },
    {
        "minLevel": 40,
        "maxLevel": 60,
        "area": "pinwheel-forest-inside",
        "method": "super-rod",
        "location": "pinwheel-forest",
        "conditions": []
    },
    {
        "minLevel": 50,
        "maxLevel": 70,
        "area": "pinwheel-forest-inside",
        "method": "super-rod",
        "location": "pinwheel-forest",
        "conditions": []
    },
    {
        "minLevel": 50,
        "maxLevel": 70,
        "area": "pinwheel-forest-inside",
        "method": "super-rod",
        "location": "pinwheel-forest",
        "conditions": []
    },
    {
        "minLevel": 50,
        "maxLevel": 70,
        "area": "pinwheel-forest-inside",
        "method": "super-rod",
        "location": "pinwheel-forest",
        "conditions": []
    },
    {
        "minLevel": 35,
        "maxLevel": 60,
        "area": "pinwheel-forest-inside",
        "method": "super-rod-spots",
        "location": "pinwheel-forest",
        "conditions": []
    },
    {
        "minLevel": 40,
        "maxLevel": 60,
        "area": "abundant-shrine-area",
        "method": "super-rod",
        "location": "abundant-shrine",
        "conditions": []
    },
    {
        "minLevel": 50,
        "maxLevel": 70,
        "area": "abundant-shrine-area",
        "method": "super-rod",
        "location": "abundant-shrine",
        "conditions": []
    },
    {
        "minLevel": 50,
        "maxLevel": 70,
        "area": "abundant-shrine-area",
        "method": "super-rod",
        "location": "abundant-shrine",
        "conditions": []
    },
    {
        "minLevel": 50,
        "maxLevel": 70,
        "area": "abundant-shrine-area",
        "method": "super-rod",
        "location": "abundant-shrine",
        "conditions": []
    },
    {
        "minLevel": 40,
        "maxLevel": 60,
        "area": "abundant-shrine-area",
        "method": "super-rod-spots",
        "location": "abundant-shrine",
        "conditions": []
    },
    {
        "minLevel": 40,
        "maxLevel": 60,
        "area": "aspertia-city-area",
        "method": "super-rod",
        "location": "aspertia-city",
        "conditions": []
    },
    {
        "minLevel": 50,
        "maxLevel": 70,
        "area": "aspertia-city-area",
        "method": "super-rod",
        "location": "aspertia-city",
        "conditions": []
    },
    {
        "minLevel": 50,
        "maxLevel": 70,
        "area": "aspertia-city-area",
        "method": "super-rod",
        "location": "aspertia-city",
        "conditions": []
    },
    {
        "minLevel": 50,
        "maxLevel": 70,
        "area": "aspertia-city-area",
        "method": "super-rod",
        "location": "aspertia-city",
        "conditions": []
    },
    {
        "minLevel": 40,
        "maxLevel": 60,
        "area": "aspertia-city-area",
        "method": "super-rod-spots",
        "location": "aspertia-city",
        "conditions": []
    },
    {
        "minLevel": 40,
        "maxLevel": 60,
        "area": "unova-route-22-area",
        "method": "super-rod",
        "location": "unova-route-22",
        "conditions": []
    },
    {
        "minLevel": 50,
        "maxLevel": 70,
        "area": "unova-route-22-area",
        "method": "super-rod",
        "location": "unova-route-22",
        "conditions": []
    },
    {
        "minLevel": 50,
        "maxLevel": 70,
        "area": "unova-route-22-area",
        "method": "super-rod",
        "location": "unova-route-22",
        "conditions": []
    },
    {
        "minLevel": 50,
        "maxLevel": 70,
        "area": "unova-route-22-area",
        "method": "super-rod",
        "location": "unova-route-22",
        "conditions": []
    },
    {
        "minLevel": 40,
        "maxLevel": 60,
        "area": "unova-route-22-area",
        "method": "super-rod-spots",
        "location": "unova-route-22",
        "conditions": []
    }
]