[
    {
        "minLevel": 35,
        "maxLevel": 35,
        "area": "reversal-mountain-unknown-area-48",
        "method": "dark-grass",
        "location": "reversal-mountain",
        "conditions": []
    },
    {
        "minLevel": 37,
        "maxLevel": 37,
        "area": "reversal-mountain-unknown-area-48",
        "method": "dark-grass",
        "location": "reversal-mountain",
        "conditions": []
    },
    {
        "minLevel": 37,
        "maxLevel": 37,
        "area": "reversal-mountain-unknown-area-48",
        "method": "dark-grass",
        "location": "reversal-mountain",
        "conditions": []
    },
    {
        "minLevel": 37,
        "maxLevel": 37,
        "area": "reversal-mountain-unknown-area-48",
        "method": "dark-grass",
        "location": "reversal-mountain",
        "conditions": []
    },
    {
        "minLevel": 33,
        "maxLevel": 33,
        "area": "reversal-mountain-unknown-area-48",
        "method": "walk",
        "location": "reversal-mountain",
        "conditions": []
    },
    {
        "minLevel": 33,
        "maxLevel": 33,
        "area": "reversal-mountain-unknown-area-48",
        "method": "walk",
        "location": "reversal-mountain",
        "conditions": []
    },
    {
        "minLevel": 33,
        "maxLevel": 33,
        "area": "reversal-mountain-unknown-area-48",
        "method": "walk",
        "location": "reversal-mountain",
        "conditions": []
    },
    {
        "minLevel": 35,
        "maxLevel": 35,
        "area": "reversal-mountain-unknown-area-49",
        "method": "walk",
        "location": "reversal-mountain",
        "conditions": []
    },
    {
        "minLevel": 35,
        "maxLevel": 35,
        "area": "reversal-mountain-unknown-area-50",
        "method": "walk",
        "location": "reversal-mountain",
        "conditions": []
    },
    {
        "minLevel": 35,
        "maxLevel": 35,
        "area": "reversal-mountain-unknown-area-51",
        "method": "walk",
        "location": "reversal-mountain",
        "conditions": []
    },
    {
        "minLevel": 35,
        "maxLevel": 35,
        "area": "reversal-mountain-unknown-area-52",
        "method": "walk",
        "location": "reversal-mountain",
        "conditions": []
    },
    {
        "minLevel": 35,
        "maxLevel": 35,
        "area": "reversal-mountain-unknown-area-53",
        "method": "walk",
        "location": "reversal-mountain",
        "conditions": []
    },
    {
        "minLevel": 35,
        "maxLevel": 35,
        "area": "reversal-mountain-unknown-area-54",
        "method": "walk",
        "location": "reversal-mountain",
        "conditions": []
    },
    {
        "minLevel": 35,
        "maxLevel": 35,
        "area": "reversal-mountain-unknown-area-55",
        "method": "walk",
        "location": "reversal-mountain",
        "conditions": []
    },
    {
        "minLevel": 35,
        "maxLevel": 35,
        "area": "reversal-mountain-unknown-area-56",
        "method": "walk",
        "location": "reversal-mountain",
        "conditions": []
    },
    {
        "minLevel": 35,
        "maxLevel": 35,
        "area": "reversal-mountain-unknown-area-57",
        "method": "walk",
        "location": "reversal-mountain",
        "conditions": []
    },
    {
        "minLevel": 35,
        "maxLevel": 35,
        "area": "reversal-mountain-unknown-area-58",
        "method": "walk",
        "location": "reversal-mountain",
        "conditions": []
    },
    {
        "minLevel": 35,
        "maxLevel": 35,
        "area": "reversal-mountain-unknown-area-59",
        "method": "walk",
        "location": "reversal-mountain",
        "conditions": []
    },
    {
        "minLevel": 35,
        "maxLevel": 35,
        "area": "reversal-mountain-unknown-area-60",
        "method": "walk",
        "location": "reversal-mountain",
        "conditions": []
    }
]