[
    {
        "minLevel": 50,
        "maxLevel": 70,
        "area": "nature-sanctuary-area",
        "method": "super-rod-spots",
        "location": "nature-sanctuary",
        "conditions": []
    },
    {
        "minLevel": 50,
        "maxLevel": 70,
        "area": "nature-sanctuary-area",
        "method": "super-rod-spots",
        "location": "nature-sanctuary",
        "conditions": []
    },
    {
        "minLevel": 1,
        "maxLevel": 100,
        "area": "nature-sanctuary-area",
        "method": "super-rod-spots",
        "location": "nature-sanctuary",
        "conditions": []
    }
]