[
    {
        "minLevel": 59,
        "maxLevel": 59,
        "area": "p2-laboratory-area",
        "method": "grass-spots",
        "location": "p2-laboratory",
        "conditions": []
    },
    {
        "minLevel": 59,
        "maxLevel": 59,
        "area": "p2-laboratory-area",
        "method": "grass-spots",
        "location": "p2-laboratory",
        "conditions": []
    }
]