[
    {
        "minLevel": 30,
        "maxLevel": 40,
        "area": "village-bridge-area",
        "method": "surf-spots",
        "location": "village-bridge",
        "conditions": []
    },
    {
        "minLevel": 30,
        "maxLevel": 40,
        "area": "village-bridge-area",
        "method": "surf-spots",
        "location": "village-bridge",
        "conditions": []
    }
]