[
    {
        "minLevel": 26,
        "maxLevel": 26,
        "area": "unova-route-6-area",
        "method": "grass-spots",
        "location": "unova-route-6",
        "conditions": []
    },
    {
        "minLevel": 26,
        "maxLevel": 26,
        "area": "unova-route-6-area",
        "method": "grass-spots",
        "location": "unova-route-6",
        "conditions": []
    },
    {
        "minLevel": 38,
        "maxLevel": 38,
        "area": "unova-route-12-area",
        "method": "grass-spots",
        "location": "unova-route-12",
        "conditions": []
    },
    {
        "minLevel": 24,
        "maxLevel": 24,
        "area": "lostlorn-forest-area",
        "method": "grass-spots",
        "location": "lostlorn-forest",
        "conditions": []
    },
    {
        "minLevel": 24,
        "maxLevel": 24,
        "area": "lostlorn-forest-area",
        "method": "grass-spots",
        "location": "lostlorn-forest",
        "conditions": []
    }
]