[
    {
        "minLevel": 23,
        "maxLevel": 23,
        "area": "unova-route-5-area",
        "method": "dark-grass",
        "location": "unova-route-5",
        "conditions": []
    },
    {
        "minLevel": 24,
        "maxLevel": 24,
        "area": "unova-route-5-area",
        "method": "dark-grass",
        "location": "unova-route-5",
        "conditions": []
    },
    {
        "minLevel": 25,
        "maxLevel": 25,
        "area": "unova-route-5-area",
        "method": "dark-grass",
        "location": "unova-route-5",
        "conditions": []
    },
    {
        "minLevel": 26,
        "maxLevel": 26,
        "area": "unova-route-5-area",
        "method": "dark-grass",
        "location": "unova-route-5",
        "conditions": []
    },
    {
        "minLevel": 21,
        "maxLevel": 21,
        "area": "unova-route-5-area",
        "method": "walk",
        "location": "unova-route-5",
        "conditions": []
    },
    {
        "minLevel": 22,
        "maxLevel": 22,
        "area": "unova-route-5-area",
        "method": "walk",
        "location": "unova-route-5",
        "conditions": []
    },
    {
        "minLevel": 23,
        "maxLevel": 23,
        "area": "unova-route-5-area",
        "method": "walk",
        "location": "unova-route-5",
        "conditions": []
    },
    {
        "minLevel": 24,
        "maxLevel": 24,
        "area": "unova-route-5-area",
        "method": "walk",
        "location": "unova-route-5",
        "conditions": []
    },
    {
        "minLevel": 41,
        "maxLevel": 41,
        "area": "unova-route-9-area",
        "method": "dark-grass",
        "location": "unova-route-9",
        "conditions": []
    },
    {
        "minLevel": 43,
        "maxLevel": 43,
        "area": "unova-route-9-area",
        "method": "dark-grass",
        "location": "unova-route-9",
        "conditions": []
    },
    {
        "minLevel": 37,
        "maxLevel": 37,
        "area": "unova-route-9-area",
        "method": "walk",
        "location": "unova-route-9",
        "conditions": []
    },
    {
        "minLevel": 39,
        "maxLevel": 39,
        "area": "unova-route-9-area",
        "method": "walk",
        "location": "unova-route-9",
        "conditions": []
    },
    {
        "minLevel": 23,
        "maxLevel": 23,
        "area": "unova-route-16-area",
        "method": "dark-grass",
        "location": "unova-route-16",
        "conditions": []
    },
    {
        "minLevel": 24,
        "maxLevel": 24,
        "area": "unova-route-16-area",
        "method": "dark-grass",
        "location": "unova-route-16",
        "conditions": []
    },
    {
        "minLevel": 25,
        "maxLevel": 25,
        "area": "unova-route-16-area",
        "method": "dark-grass",
        "location": "unova-route-16",
        "conditions": []
    },
    {
        "minLevel": 26,
        "maxLevel": 26,
        "area": "unova-route-16-area",
        "method": "dark-grass",
        "location": "unova-route-16",
        "conditions": []
    },
    {
        "minLevel": 21,
        "maxLevel": 21,
        "area": "unova-route-16-area",
        "method": "walk",
        "location": "unova-route-16",
        "conditions": []
    },
    {
        "minLevel": 22,
        "maxLevel": 22,
        "area": "unova-route-16-area",
        "method": "walk",
        "location": "unova-route-16",
        "conditions": []
    },
    {
        "minLevel": 23,
        "maxLevel": 23,
        "area": "unova-route-16-area",
        "method": "walk",
        "location": "unova-route-16",
        "conditions": []
    },
    {
        "minLevel": 24,
        "maxLevel": 24,
        "area": "unova-route-16-area",
        "method": "walk",
        "location": "unova-route-16",
        "conditions": []
    }
]