[
    {
        "minLevel": 65,
        "maxLevel": 65,
        "area": "unova-route-3-area",
        "method": "dark-grass",
        "location": "unova-route-3",
        "conditions": []
    },
    {
        "minLevel": 57,
        "maxLevel": 57,
        "area": "unova-route-3-area",
        "method": "walk",
        "location": "unova-route-3",
        "conditions": []
    },
    {
        "minLevel": 2,
        "maxLevel": 2,
        "area": "unova-route-19-area",
        "method": "walk",
        "location": "unova-route-19",
        "conditions": []
    },
    {
        "minLevel": 3,
        "maxLevel": 3,
        "area": "unova-route-19-area",
        "method": "walk",
        "location": "unova-route-19",
        "conditions": []
    },
    {
        "minLevel": 4,
        "maxLevel": 4,
        "area": "unova-route-19-area",
        "method": "walk",
        "location": "unova-route-19",
        "conditions": []
    },
    {
        "minLevel": 4,
        "maxLevel": 4,
        "area": "unova-route-19-area",
        "method": "walk",
        "location": "unova-route-19",
        "conditions": []
    },
    {
        "minLevel": 4,
        "maxLevel": 4,
        "area": "unova-route-19-area",
        "method": "walk",
        "location": "unova-route-19",
        "conditions": []
    },
    {
        "minLevel": 4,
        "maxLevel": 4,
        "area": "unova-route-19-area",
        "method": "walk",
        "location": "unova-route-19",
        "conditions": []
    },
    {
        "minLevel": 10,
        "maxLevel": 10,
        "area": "unova-route-20-area",
        "method": "dark-grass",
        "location": "unova-route-20",
        "conditions": []
    },
    {
        "minLevel": 11,
        "maxLevel": 11,
        "area": "unova-route-20-area",
        "method": "dark-grass",
        "location": "unova-route-20",
        "conditions": []
    },
    {
        "minLevel": 11,
        "maxLevel": 11,
        "area": "unova-route-20-area",
        "method": "dark-grass",
        "location": "unova-route-20",
        "conditions": ["season-spring"]
    },
    {
        "minLevel": 11,
        "maxLevel": 11,
        "area": "unova-route-20-area",
        "method": "dark-grass",
        "location": "unova-route-20",
        "conditions": ["season-autumn"]
    },
    {
        "minLevel": 11,
        "maxLevel": 11,
        "area": "unova-route-20-area",
        "method": "dark-grass",
        "location": "unova-route-20",
        "conditions": ["season-winter"]
    },
    {
        "minLevel": 3,
        "maxLevel": 3,
        "area": "unova-route-20-area",
        "method": "walk",
        "location": "unova-route-20",
        "conditions": []
    },
    {
        "minLevel": 4,
        "maxLevel": 4,
        "area": "unova-route-20-area",
        "method": "walk",
        "location": "unova-route-20",
        "conditions": []
    },
    {
        "minLevel": 4,
        "maxLevel": 4,
        "area": "unova-route-20-area",
        "method": "walk",
        "location": "unova-route-20",
        "conditions": ["season-spring"]
    },
    {
        "minLevel": 4,
        "maxLevel": 4,
        "area": "unova-route-20-area",
        "method": "walk",
        "location": "unova-route-20",
        "conditions": ["season-autumn"]
    },
    {
        "minLevel": 4,
        "maxLevel": 4,
        "area": "unova-route-20-area",
        "method": "walk",
        "location": "unova-route-20",
        "conditions": ["season-winter"]
    }
]