[
    {
        "minLevel": 35,
        "maxLevel": 50,
        "area": "giant-chasm-area",
        "method": "surf",
        "location": "giant-chasm",
        "conditions": []
    },
    {
        "minLevel": 35,
        "maxLevel": 50,
        "area": "giant-chasm-area",
        "method": "surf-spots",
        "location": "giant-chasm",
        "conditions": []
    },
    {
        "minLevel": 25,
        "maxLevel": 40,
        "area": "seaside-cave-1f",
        "method": "surf",
        "location": "seaside-cave",
        "conditions": []
    },
    {
        "minLevel": 25,
        "maxLevel": 40,
        "area": "seaside-cave-1f",
        "method": "surf-spots",
        "location": "seaside-cave",
        "conditions": []
    },
    {
        "minLevel": 35,
        "maxLevel": 35,
        "area": "seaside-cave-1f",
        "method": "walk",
        "location": "seaside-cave",
        "conditions": []
    }
]