[
    {
        "minLevel": 40,
        "maxLevel": 60,
        "area": "unova-route-13-area",
        "method": "super-rod",
        "location": "unova-route-13",
        "conditions": []
    },
    {
        "minLevel": 40,
        "maxLevel": 60,
        "area": "unova-route-13-area",
        "method": "super-rod-spots",
        "location": "unova-route-13",
        "conditions": []
    },
    {
        "minLevel": 50,
        "maxLevel": 70,
        "area": "unova-route-13-area",
        "method": "super-rod-spots",
        "location": "unova-route-13",
        "conditions": []
    },
    {
        "minLevel": 40,
        "maxLevel": 60,
        "area": "undella-town-area",
        "method": "super-rod",
        "location": "undella-town",
        "conditions": []
    },
    {
        "minLevel": 40,
        "maxLevel": 60,
        "area": "undella-town-area",
        "method": "super-rod-spots",
        "location": "undella-town",
        "conditions": []
    },
    {
        "minLevel": 50,
        "maxLevel": 70,
        "area": "undella-town-area",
        "method": "super-rod-spots",
        "location": "undella-town",
        "conditions": []
    },
    {
        "minLevel": 40,
        "maxLevel": 60,
        "area": "humilau-city-area",
        "method": "super-rod",
        "location": "humilau-city",
        "conditions": []
    },
    {
        "minLevel": 40,
        "maxLevel": 60,
        "area": "humilau-city-area",
        "method": "super-rod-spots",
        "location": "humilau-city",
        "conditions": []
    },
    {
        "minLevel": 50,
        "maxLevel": 70,
        "area": "humilau-city-area",
        "method": "super-rod-spots",
        "location": "humilau-city",
        "conditions": []
    },
    {
        "minLevel": 40,
        "maxLevel": 60,
        "area": "seaside-cave-1f",
        "method": "super-rod",
        "location": "seaside-cave",
        "conditions": []
    },
    {
        "minLevel": 40,
        "maxLevel": 60,
        "area": "seaside-cave-1f",
        "method": "super-rod-spots",
        "location": "seaside-cave",
        "conditions": []
    },
    {
        "minLevel": 50,
        "maxLevel": 70,
        "area": "seaside-cave-1f",
        "method": "super-rod-spots",
        "location": "seaside-cave",
        "conditions": []
    }
]