[
    {
        "minLevel": 36,
        "maxLevel": 36,
        "area": "reversal-mountain-unknown-area-48",
        "method": "dark-grass",
        "location": "reversal-mountain",
        "conditions": []
    },
    {
        "minLevel": 38,
        "maxLevel": 38,
        "area": "reversal-mountain-unknown-area-48",
        "method": "dark-grass",
        "location": "reversal-mountain",
        "conditions": []
    },
    {
        "minLevel": 34,
        "maxLevel": 34,
        "area": "reversal-mountain-unknown-area-48",
        "method": "walk",
        "location": "reversal-mountain",
        "conditions": []
    }
]