[
    {
        "minLevel": 33,
        "maxLevel": 33,
        "area": "unova-route-14-area",
        "method": "walk",
        "location": "unova-route-14",
        "conditions": []
    },
    {
        "minLevel": 33,
        "maxLevel": 33,
        "area": "abundant-shrine-area",
        "method": "walk",
        "location": "abundant-shrine",
        "conditions": []
    }
]