[
    {
        "minLevel": 17,
        "maxLevel": 17,
        "area": "relic-passage-castelia-sewers-entrance",
        "method": "walk",
        "location": "relic-passage",
        "conditions": []
    },
    {
        "minLevel": 18,
        "maxLevel": 18,
        "area": "relic-passage-castelia-sewers-entrance",
        "method": "walk",
        "location": "relic-passage",
        "conditions": []
    }
]