[
    {
        "minLevel": 21,
        "maxLevel": 21,
        "area": "desert-resort-area",
        "method": "walk",
        "location": "desert-resort",
        "conditions": []
    },
    {
        "minLevel": 21,
        "maxLevel": 21,
        "area": "desert-resort-area",
        "method": "walk",
        "location": "desert-resort",
        "conditions": []
    },
    {
        "minLevel": 32,
        "maxLevel": 32,
        "area": "reversal-mountain-unknown-area-48",
        "method": "walk",
        "location": "reversal-mountain",
        "conditions": []
    },
    {
        "minLevel": 34,
        "maxLevel": 34,
        "area": "reversal-mountain-unknown-area-48",
        "method": "walk",
        "location": "reversal-mountain",
        "conditions": []
    },
    {
        "minLevel": 34,
        "maxLevel": 34,
        "area": "reversal-mountain-unknown-area-48",
        "method": "walk",
        "location": "reversal-mountain",
        "conditions": []
    }
]