[
    {
        "minLevel": 25,
        "maxLevel": 40,
        "area": "undella-bay-area",
        "method": "surf-spots",
        "location": "undella-bay",
        "conditions": ["season-winter"]
    },
    {
        "minLevel": 25,
        "maxLevel": 40,
        "area": "undella-bay-area",
        "method": "surf-spots",
        "location": "undella-bay",
        "conditions": ["season-spring"]
    },
    {
        "minLevel": 25,
        "maxLevel": 40,
        "area": "undella-bay-area",
        "method": "surf-spots",
        "location": "undella-bay",
        "conditions": ["season-summer"]
    },
    {
        "minLevel": 25,
        "maxLevel": 40,
        "area": "undella-bay-area",
        "method": "surf-spots",
        "location": "undella-bay",
        "conditions": ["season-autumn"]
    }
]