[
    {
        "minLevel": 35,
        "maxLevel": 35,
        "area": "unova-route-7-area",
        "method": "dark-grass",
        "location": "unova-route-7",
        "conditions": []
    },
    {
        "minLevel": 32,
        "maxLevel": 32,
        "area": "unova-route-7-area",
        "method": "walk",
        "location": "unova-route-7",
        "conditions": []
    },
    {
        "minLevel": 42,
        "maxLevel": 42,
        "area": "unova-route-11-area",
        "method": "dark-grass",
        "location": "unova-route-11",
        "conditions": []
    },
    {
        "minLevel": 38,
        "maxLevel": 38,
        "area": "unova-route-11-area",
        "method": "walk",
        "location": "unova-route-11",
        "conditions": []
    },
    {
        "minLevel": 41,
        "maxLevel": 41,
        "area": "village-bridge-area",
        "method": "dark-grass",
        "location": "village-bridge",
        "conditions": []
    },
    {
        "minLevel": 43,
        "maxLevel": 43,
        "area": "village-bridge-area",
        "method": "dark-grass",
        "location": "village-bridge",
        "conditions": []
    },
    {
        "minLevel": 43,
        "maxLevel": 43,
        "area": "village-bridge-area",
        "method": "dark-grass",
        "location": "village-bridge",
        "conditions": []
    },
    {
        "minLevel": 37,
        "maxLevel": 37,
        "area": "village-bridge-area",
        "method": "walk",
        "location": "village-bridge",
        "conditions": []
    },
    {
        "minLevel": 39,
        "maxLevel": 39,
        "area": "village-bridge-area",
        "method": "walk",
        "location": "village-bridge",
        "conditions": []
    },
    {
        "minLevel": 39,
        "maxLevel": 39,
        "area": "village-bridge-area",
        "method": "walk",
        "location": "village-bridge",
        "conditions": []
    }
]