[
    {
        "minLevel": 8,
        "maxLevel": 8,
        "area": "kanto-route-25-area",
        "method": "walk",
        "location": "kanto-route-25",
        "conditions": []
    },
    {
        "minLevel": 3,
        "maxLevel": 3,
        "area": "viridian-forest-area",
        "method": "walk",
        "location": "viridian-forest",
        "conditions": []
    }
]