[
    {
        "minLevel": 25,
        "maxLevel": 25,
        "area": "pokemon-tower-3f",
        "method": "walk",
        "location": "pokemon-tower",
        "conditions": []
    },
    {
        "minLevel": 25,
        "maxLevel": 25,
        "area": "pokemon-tower-4f",
        "method": "walk",
        "location": "pokemon-tower",
        "conditions": []
    },
    {
        "minLevel": 25,
        "maxLevel": 25,
        "area": "pokemon-tower-5f",
        "method": "walk",
        "location": "pokemon-tower",
        "conditions": []
    },
    {
        "minLevel": 26,
        "maxLevel": 26,
        "area": "pokemon-tower-6f",
        "method": "walk",
        "location": "pokemon-tower",
        "conditions": []
    },
    {
        "minLevel": 28,
        "maxLevel": 28,
        "area": "pokemon-tower-6f",
        "method": "walk",
        "location": "pokemon-tower",
        "conditions": []
    },
    {
        "minLevel": 28,
        "maxLevel": 28,
        "area": "pokemon-tower-7f",
        "method": "walk",
        "location": "pokemon-tower",
        "conditions": []
    },
    {
        "minLevel": 28,
        "maxLevel": 28,
        "area": "pokemon-tower-7f",
        "method": "walk",
        "location": "pokemon-tower",
        "conditions": []
    },
    {
        "minLevel": 30,
        "maxLevel": 30,
        "area": "pokemon-tower-7f",
        "method": "walk",
        "location": "pokemon-tower",
        "conditions": []
    }
]