[
    {
        "minLevel": 49,
        "maxLevel": 49,
        "area": "cerulean-cave-1f",
        "method": "walk",
        "location": "cerulean-cave",
        "conditions": []
    },
    {
        "minLevel": 51,
        "maxLevel": 51,
        "area": "cerulean-cave-2f",
        "method": "walk",
        "location": "cerulean-cave",
        "conditions": []
    }
]