[
    {
        "minLevel": 42,
        "maxLevel": 42,
        "area": "kanto-victory-road-2-1f",
        "method": "walk",
        "location": "kanto-victory-road-2",
        "conditions": []
    },
    {
        "minLevel": 41,
        "maxLevel": 41,
        "area": "kanto-victory-road-2-2f",
        "method": "walk",
        "location": "kanto-victory-road-2",
        "conditions": []
    },
    {
        "minLevel": 42,
        "maxLevel": 42,
        "area": "kanto-victory-road-2-3f",
        "method": "walk",
        "location": "kanto-victory-road-2",
        "conditions": []
    },
    {
        "minLevel": 45,
        "maxLevel": 45,
        "area": "kanto-victory-road-2-3f",
        "method": "walk",
        "location": "kanto-victory-road-2",
        "conditions": []
    }
]