[
    {
        "minLevel": 3,
        "maxLevel": 3,
        "area": "kanto-route-1-area",
        "method": "walk",
        "location": "kanto-route-1",
        "conditions": []
    },
    {
        "minLevel": 2,
        "maxLevel": 2,
        "area": "kanto-route-1-area",
        "method": "walk",
        "location": "kanto-route-1",
        "conditions": []
    },
    {
        "minLevel": 3,
        "maxLevel": 3,
        "area": "kanto-route-1-area",
        "method": "walk",
        "location": "kanto-route-1",
        "conditions": []
    },
    {
        "minLevel": 3,
        "maxLevel": 3,
        "area": "kanto-route-1-area",
        "method": "walk",
        "location": "kanto-route-1",
        "conditions": []
    },
    {
        "minLevel": 4,
        "maxLevel": 4,
        "area": "kanto-route-1-area",
        "method": "walk",
        "location": "kanto-route-1",
        "conditions": []
    },
    {
        "minLevel": 5,
        "maxLevel": 5,
        "area": "kanto-route-1-area",
        "method": "walk",
        "location": "kanto-route-1",
        "conditions": []
    },
    {
        "minLevel": 25,
        "maxLevel": 25,
        "area": "kanto-route-12-area",
        "method": "walk",
        "location": "kanto-route-12",
        "conditions": []
    },
    {
        "minLevel": 23,
        "maxLevel": 23,
        "area": "kanto-route-12-area",
        "method": "walk",
        "location": "kanto-route-12",
        "conditions": []
    },
    {
        "minLevel": 27,
        "maxLevel": 27,
        "area": "kanto-route-12-area",
        "method": "walk",
        "location": "kanto-route-12",
        "conditions": []
    },
    {
        "minLevel": 25,
        "maxLevel": 25,
        "area": "kanto-route-13-area",
        "method": "walk",
        "location": "kanto-route-13",
        "conditions": []
    },
    {
        "minLevel": 27,
        "maxLevel": 27,
        "area": "kanto-route-13-area",
        "method": "walk",
        "location": "kanto-route-13",
        "conditions": []
    },
    {
        "minLevel": 26,
        "maxLevel": 26,
        "area": "kanto-route-14-area",
        "method": "walk",
        "location": "kanto-route-14",
        "conditions": []
    },
    {
        "minLevel": 23,
        "maxLevel": 23,
        "area": "kanto-route-15-area",
        "method": "walk",
        "location": "kanto-route-15",
        "conditions": []
    },
    {
        "minLevel": 3,
        "maxLevel": 3,
        "area": "kanto-route-2-south-towards-viridian-city",
        "method": "walk",
        "location": "kanto-route-2",
        "conditions": []
    },
    {
        "minLevel": 4,
        "maxLevel": 4,
        "area": "kanto-route-2-south-towards-viridian-city",
        "method": "walk",
        "location": "kanto-route-2",
        "conditions": []
    },
    {
        "minLevel": 5,
        "maxLevel": 5,
        "area": "kanto-route-2-south-towards-viridian-city",
        "method": "walk",
        "location": "kanto-route-2",
        "conditions": []
    },
    {
        "minLevel": 23,
        "maxLevel": 23,
        "area": "kanto-sea-route-21-area",
        "method": "walk",
        "location": "kanto-sea-route-21",
        "conditions": []
    },
    {
        "minLevel": 21,
        "maxLevel": 21,
        "area": "kanto-sea-route-21-area",
        "method": "walk",
        "location": "kanto-sea-route-21",
        "conditions": []
    },
    {
        "minLevel": 12,
        "maxLevel": 12,
        "area": "kanto-route-24-area",
        "method": "walk",
        "location": "kanto-route-24",
        "conditions": []
    },
    {
        "minLevel": 13,
        "maxLevel": 13,
        "area": "kanto-route-24-area",
        "method": "walk",
        "location": "kanto-route-24",
        "conditions": []
    },
    {
        "minLevel": 13,
        "maxLevel": 13,
        "area": "kanto-route-25-area",
        "method": "walk",
        "location": "kanto-route-25",
        "conditions": []
    },
    {
        "minLevel": 6,
        "maxLevel": 6,
        "area": "kanto-route-3-area",
        "method": "walk",
        "location": "kanto-route-3",
        "conditions": []
    },
    {
        "minLevel": 7,
        "maxLevel": 7,
        "area": "kanto-route-3-area",
        "method": "walk",
        "location": "kanto-route-3",
        "conditions": []
    },
    {
        "minLevel": 8,
        "maxLevel": 8,
        "area": "kanto-route-3-area",
        "method": "walk",
        "location": "kanto-route-3",
        "conditions": []
    },
    {
        "minLevel": 13,
        "maxLevel": 13,
        "area": "kanto-route-5-area",
        "method": "walk",
        "location": "kanto-route-5",
        "conditions": []
    },
    {
        "minLevel": 15,
        "maxLevel": 15,
        "area": "kanto-route-5-area",
        "method": "walk",
        "location": "kanto-route-5",
        "conditions": []
    },
    {
        "minLevel": 16,
        "maxLevel": 16,
        "area": "kanto-route-5-area",
        "method": "walk",
        "location": "kanto-route-5",
        "conditions": []
    },
    {
        "minLevel": 13,
        "maxLevel": 13,
        "area": "kanto-route-6-area",
        "method": "walk",
        "location": "kanto-route-6",
        "conditions": []
    },
    {
        "minLevel": 15,
        "maxLevel": 15,
        "area": "kanto-route-6-area",
        "method": "walk",
        "location": "kanto-route-6",
        "conditions": []
    },
    {
        "minLevel": 16,
        "maxLevel": 16,
        "area": "kanto-route-6-area",
        "method": "walk",
        "location": "kanto-route-6",
        "conditions": []
    },
    {
        "minLevel": 19,
        "maxLevel": 19,
        "area": "kanto-route-7-area",
        "method": "walk",
        "location": "kanto-route-7",
        "conditions": []
    },
    {
        "minLevel": 22,
        "maxLevel": 22,
        "area": "kanto-route-7-area",
        "method": "walk",
        "location": "kanto-route-7",
        "conditions": []
    },
    {
        "minLevel": 18,
        "maxLevel": 18,
        "area": "kanto-route-8-area",
        "method": "walk",
        "location": "kanto-route-8",
        "conditions": []
    },
    {
        "minLevel": 20,
        "maxLevel": 20,
        "area": "kanto-route-8-area",
        "method": "walk",
        "location": "kanto-route-8",
        "conditions": []
    }
]