[
    {
        "minLevel": 15,
        "maxLevel": 15,
        "area": "cinnabar-island-area",
        "method": "super-rod",
        "location": "cinnabar-island",
        "conditions": []
    },
    {
        "minLevel": 15,
        "maxLevel": 15,
        "area": "cinnabar-island-area",
        "method": "super-rod",
        "location": "cinnabar-island",
        "conditions": []
    },
    {
        "minLevel": 15,
        "maxLevel": 15,
        "area": "kanto-route-11-area",
        "method": "super-rod",
        "location": "kanto-route-11",
        "conditions": []
    },
    {
        "minLevel": 15,
        "maxLevel": 15,
        "area": "kanto-route-11-area",
        "method": "super-rod",
        "location": "kanto-route-11",
        "conditions": []
    },
    {
        "minLevel": 15,
        "maxLevel": 15,
        "area": "kanto-route-11-area",
        "method": "super-rod",
        "location": "kanto-route-11",
        "conditions": []
    },
    {
        "minLevel": 15,
        "maxLevel": 15,
        "area": "kanto-sea-route-19-area",
        "method": "super-rod",
        "location": "kanto-sea-route-19",
        "conditions": []
    },
    {
        "minLevel": 15,
        "maxLevel": 15,
        "area": "kanto-sea-route-19-area",
        "method": "super-rod",
        "location": "kanto-sea-route-19",
        "conditions": []
    },
    {
        "minLevel": 15,
        "maxLevel": 15,
        "area": "kanto-sea-route-20-area",
        "method": "super-rod",
        "location": "kanto-sea-route-20",
        "conditions": []
    },
    {
        "minLevel": 15,
        "maxLevel": 15,
        "area": "kanto-sea-route-20-area",
        "method": "super-rod",
        "location": "kanto-sea-route-20",
        "conditions": []
    },
    {
        "minLevel": 15,
        "maxLevel": 15,
        "area": "kanto-sea-route-21-area",
        "method": "super-rod",
        "location": "kanto-sea-route-21",
        "conditions": []
    },
    {
        "minLevel": 15,
        "maxLevel": 15,
        "area": "kanto-sea-route-21-area",
        "method": "super-rod",
        "location": "kanto-sea-route-21",
        "conditions": []
    },
    {
        "minLevel": 15,
        "maxLevel": 15,
        "area": "kanto-route-6-area",
        "method": "super-rod",
        "location": "kanto-route-6",
        "conditions": []
    },
    {
        "minLevel": 15,
        "maxLevel": 15,
        "area": "kanto-route-6-area",
        "method": "super-rod",
        "location": "kanto-route-6",
        "conditions": []
    },
    {
        "minLevel": 15,
        "maxLevel": 15,
        "area": "kanto-route-6-area",
        "method": "super-rod",
        "location": "kanto-route-6",
        "conditions": []
    },
    {
        "minLevel": 30,
        "maxLevel": 30,
        "area": "seafoam-islands-1f",
        "method": "walk",
        "location": "seafoam-islands",
        "conditions": []
    },
    {
        "minLevel": 28,
        "maxLevel": 28,
        "area": "seafoam-islands-1f",
        "method": "walk",
        "location": "seafoam-islands",
        "conditions": []
    },
    {
        "minLevel": 32,
        "maxLevel": 32,
        "area": "seafoam-islands-b1f",
        "method": "walk",
        "location": "seafoam-islands",
        "conditions": []
    },
    {
        "minLevel": 28,
        "maxLevel": 28,
        "area": "seafoam-islands-b2f",
        "method": "walk",
        "location": "seafoam-islands",
        "conditions": []
    },
    {
        "minLevel": 31,
        "maxLevel": 31,
        "area": "seafoam-islands-b3f",
        "method": "walk",
        "location": "seafoam-islands",
        "conditions": []
    },
    {
        "minLevel": 29,
        "maxLevel": 29,
        "area": "seafoam-islands-b3f",
        "method": "walk",
        "location": "seafoam-islands",
        "conditions": []
    },
    {
        "minLevel": 15,
        "maxLevel": 15,
        "area": "seafoam-islands-b3f",
        "method": "super-rod",
        "location": "seafoam-islands",
        "conditions": []
    },
    {
        "minLevel": 15,
        "maxLevel": 15,
        "area": "seafoam-islands-b3f",
        "method": "super-rod",
        "location": "seafoam-islands",
        "conditions": []
    },
    {
        "minLevel": 31,
        "maxLevel": 31,
        "area": "seafoam-islands-b4f",
        "method": "walk",
        "location": "seafoam-islands",
        "conditions": []
    },
    {
        "minLevel": 33,
        "maxLevel": 33,
        "area": "seafoam-islands-b4f",
        "method": "walk",
        "location": "seafoam-islands",
        "conditions": []
    },
    {
        "minLevel": 15,
        "maxLevel": 15,
        "area": "seafoam-islands-b4f",
        "method": "super-rod",
        "location": "seafoam-islands",
        "conditions": []
    },
    {
        "minLevel": 15,
        "maxLevel": 15,
        "area": "seafoam-islands-b4f",
        "method": "super-rod",
        "location": "seafoam-islands",
        "conditions": []
    },
    {
        "minLevel": 15,
        "maxLevel": 15,
        "area": "vermilion-city-area",
        "method": "super-rod",
        "location": "vermilion-city",
        "conditions": []
    },
    {
        "minLevel": 15,
        "maxLevel": 15,
        "area": "vermilion-city-area",
        "method": "super-rod",
        "location": "vermilion-city",
        "conditions": []
    },
    {
        "minLevel": 15,
        "maxLevel": 15,
        "area": "vermilion-city-area",
        "method": "super-rod",
        "location": "vermilion-city",
        "conditions": []
    },
    {
        "minLevel": 15,
        "maxLevel": 15,
        "area": "vermilion-city-ss-anne-dock",
        "method": "super-rod",
        "location": "vermilion-city",
        "conditions": []
    },
    {
        "minLevel": 15,
        "maxLevel": 15,
        "area": "vermilion-city-ss-anne-dock",
        "method": "super-rod",
        "location": "vermilion-city",
        "conditions": []
    },
    {
        "minLevel": 15,
        "maxLevel": 15,
        "area": "vermilion-city-ss-anne-dock",
        "method": "super-rod",
        "location": "vermilion-city",
        "conditions": []
    }
]