{
    "encounters": [
        "zubat",
        "golbat",
        "psyduck",
        "golduck",
        "poliwag",
        "tentacool",
        "slowpoke",
        "slowbro",
        "seel",
        "dewgong",
        "shellder",
        "krabby",
        "kingler",
        "horsea",
        "seadra",
        "goldeen",
        "staryu",
        "magikarp",
        "gyarados",
        "makuhita",
        "absol",
        "chingling",
        "bronzor"
    ],
    "id": "seafoam-islands-b3f"
}