{
    "encounters": [
        "golbat",
        "golduck",
        "graveler",
        "goldeen",
        "seaking",
        "magikarp",
        "gyarados",
        "noctowl",
        "lunatone",
        "solrock",
        "dusclops",
        "chimecho",
        "staravia",
        "bibarel",
        "chingling"
    ],
    "id": "sendoff-spring-area"
}