[
    {
        "minLevel": 38,
        "maxLevel": 38,
        "area": "mt-coronet-snowfall",
        "method": "walk",
        "location": "mt-coronet",
        "conditions": []
    },
    {
        "minLevel": 39,
        "maxLevel": 39,
        "area": "mt-coronet-snowfall",
        "method": "walk",
        "location": "mt-coronet",
        "conditions": ["time-morning"]
    },
    {
        "minLevel": 39,
        "maxLevel": 39,
        "area": "mt-coronet-snowfall",
        "method": "walk",
        "location": "mt-coronet",
        "conditions": ["time-day"]
    },
    {
        "minLevel": 38,
        "maxLevel": 38,
        "area": "mt-coronet-blizzard",
        "method": "walk",
        "location": "mt-coronet",
        "conditions": []
    },
    {
        "minLevel": 39,
        "maxLevel": 39,
        "area": "mt-coronet-blizzard",
        "method": "walk",
        "location": "mt-coronet",
        "conditions": ["time-morning"]
    },
    {
        "minLevel": 39,
        "maxLevel": 39,
        "area": "mt-coronet-blizzard",
        "method": "walk",
        "location": "mt-coronet",
        "conditions": ["time-day"]
    }
]