[
    {
        "minLevel": 30,
        "maxLevel": 30,
        "area": "fuego-ironworks-area",
        "method": "walk",
        "location": "fuego-ironworks",
        "conditions": ["radar-on"]
    },
    {
        "minLevel": 30,
        "maxLevel": 30,
        "area": "fuego-ironworks-area",
        "method": "walk",
        "location": "fuego-ironworks",
        "conditions": ["radar-on"]
    },
    {
        "minLevel": 31,
        "maxLevel": 31,
        "area": "fuego-ironworks-area",
        "method": "walk",
        "location": "fuego-ironworks",
        "conditions": ["radar-on"]
    },
    {
        "minLevel": 31,
        "maxLevel": 31,
        "area": "fuego-ironworks-area",
        "method": "walk",
        "location": "fuego-ironworks",
        "conditions": ["radar-on"]
    }
]