[
    {
        "minLevel": 13,
        "maxLevel": 13,
        "area": "eterna-forest-area",
        "method": "walk",
        "location": "eterna-forest",
        "conditions": ["slot2-firered"]
    },
    {
        "minLevel": 5,
        "maxLevel": 5,
        "area": "sinnoh-route-204-south-towards-jubilife-city",
        "method": "walk",
        "location": "sinnoh-route-204",
        "conditions": ["slot2-firered"]
    },
    {
        "minLevel": 5,
        "maxLevel": 5,
        "area": "sinnoh-route-204-south-towards-jubilife-city",
        "method": "walk",
        "location": "sinnoh-route-204",
        "conditions": ["slot2-firered"]
    },
    {
        "minLevel": 10,
        "maxLevel": 10,
        "area": "sinnoh-route-204-north-towards-floaroma-town",
        "method": "walk",
        "location": "sinnoh-route-204",
        "conditions": ["slot2-firered"]
    },
    {
        "minLevel": 10,
        "maxLevel": 10,
        "area": "sinnoh-route-204-north-towards-floaroma-town",
        "method": "walk",
        "location": "sinnoh-route-204",
        "conditions": ["slot2-firered"]
    }
]