[
    {
        "minLevel": 20,
        "maxLevel": 40,
        "area": "canalave-city-area",
        "method": "surf",
        "location": "canalave-city",
        "conditions": []
    },
    {
        "minLevel": 20,
        "maxLevel": 40,
        "area": "pastoria-city-area",
        "method": "surf",
        "location": "pastoria-city",
        "conditions": []
    },
    {
        "minLevel": 20,
        "maxLevel": 40,
        "area": "valley-windworks-area",
        "method": "surf",
        "location": "valley-windworks",
        "conditions": []
    },
    {
        "minLevel": 20,
        "maxLevel": 40,
        "area": "valley-windworks-area",
        "method": "surf",
        "location": "valley-windworks",
        "conditions": []
    },
    {
        "minLevel": 29,
        "maxLevel": 29,
        "area": "fuego-ironworks-area",
        "method": "walk",
        "location": "fuego-ironworks",
        "conditions": ["time-night"]
    },
    {
        "minLevel": 30,
        "maxLevel": 30,
        "area": "fuego-ironworks-area",
        "method": "walk",
        "location": "fuego-ironworks",
        "conditions": ["radar-off"]
    },
    {
        "minLevel": 31,
        "maxLevel": 31,
        "area": "fuego-ironworks-area",
        "method": "walk",
        "location": "fuego-ironworks",
        "conditions": []
    },
    {
        "minLevel": 31,
        "maxLevel": 31,
        "area": "fuego-ironworks-area",
        "method": "walk",
        "location": "fuego-ironworks",
        "conditions": ["radar-off"]
    },
    {
        "minLevel": 20,
        "maxLevel": 40,
        "area": "fuego-ironworks-area",
        "method": "surf",
        "location": "fuego-ironworks",
        "conditions": []
    },
    {
        "minLevel": 20,
        "maxLevel": 40,
        "area": "sinnoh-route-205-south-towards-floaroma-town",
        "method": "surf",
        "location": "sinnoh-route-205",
        "conditions": []
    },
    {
        "minLevel": 20,
        "maxLevel": 40,
        "area": "sinnoh-route-205-south-towards-floaroma-town",
        "method": "surf",
        "location": "sinnoh-route-205",
        "conditions": []
    },
    {
        "minLevel": 20,
        "maxLevel": 40,
        "area": "sinnoh-route-212-east-towards-pastoria-city",
        "method": "surf",
        "location": "sinnoh-route-212",
        "conditions": []
    },
    {
        "minLevel": 20,
        "maxLevel": 40,
        "area": "sinnoh-route-212-east-towards-pastoria-city",
        "method": "surf",
        "location": "sinnoh-route-212",
        "conditions": []
    },
    {
        "minLevel": 20,
        "maxLevel": 40,
        "area": "sinnoh-route-213-area",
        "method": "surf",
        "location": "sinnoh-route-213",
        "conditions": []
    },
    {
        "minLevel": 28,
        "maxLevel": 28,
        "area": "sinnoh-route-218-area",
        "method": "walk",
        "location": "sinnoh-route-218",
        "conditions": ["swarm-no"]
    },
    {
        "minLevel": 28,
        "maxLevel": 28,
        "area": "sinnoh-route-218-area",
        "method": "walk",
        "location": "sinnoh-route-218",
        "conditions": ["time-night"]
    },
    {
        "minLevel": 30,
        "maxLevel": 30,
        "area": "sinnoh-route-218-area",
        "method": "walk",
        "location": "sinnoh-route-218",
        "conditions": []
    },
    {
        "minLevel": 30,
        "maxLevel": 30,
        "area": "sinnoh-route-218-area",
        "method": "walk",
        "location": "sinnoh-route-218",
        "conditions": []
    },
    {
        "minLevel": 20,
        "maxLevel": 40,
        "area": "sinnoh-route-218-area",
        "method": "surf",
        "location": "sinnoh-route-218",
        "conditions": []
    },
    {
        "minLevel": 49,
        "maxLevel": 49,
        "area": "sinnoh-route-224-area",
        "method": "walk",
        "location": "sinnoh-route-224",
        "conditions": []
    },
    {
        "minLevel": 35,
        "maxLevel": 55,
        "area": "sinnoh-route-224-area",
        "method": "surf",
        "location": "sinnoh-route-224",
        "conditions": []
    },
    {
        "minLevel": 35,
        "maxLevel": 55,
        "area": "sinnoh-route-224-area",
        "method": "surf",
        "location": "sinnoh-route-224",
        "conditions": []
    },
    {
        "minLevel": 35,
        "maxLevel": 55,
        "area": "sinnoh-route-224-area",
        "method": "surf",
        "location": "sinnoh-route-224",
        "conditions": []
    }
]