[
    {
        "minLevel": 5,
        "maxLevel": 5,
        "area": "oreburgh-mine-1f",
        "method": "walk",
        "location": "oreburgh-mine",
        "conditions": []
    },
    {
        "minLevel": 6,
        "maxLevel": 6,
        "area": "oreburgh-mine-1f",
        "method": "walk",
        "location": "oreburgh-mine",
        "conditions": []
    },
    {
        "minLevel": 4,
        "maxLevel": 4,
        "area": "oreburgh-mine-1f",
        "method": "walk",
        "location": "oreburgh-mine",
        "conditions": []
    },
    {
        "minLevel": 7,
        "maxLevel": 7,
        "area": "oreburgh-mine-1f",
        "method": "walk",
        "location": "oreburgh-mine",
        "conditions": []
    },
    {
        "minLevel": 8,
        "maxLevel": 8,
        "area": "oreburgh-mine-1f",
        "method": "walk",
        "location": "oreburgh-mine",
        "conditions": []
    },
    {
        "minLevel": 7,
        "maxLevel": 7,
        "area": "oreburgh-mine-1f",
        "method": "walk",
        "location": "oreburgh-mine",
        "conditions": ["slot2-ruby"]
    },
    {
        "minLevel": 7,
        "maxLevel": 7,
        "area": "oreburgh-mine-1f",
        "method": "walk",
        "location": "oreburgh-mine",
        "conditions": ["slot2-sapphire"]
    },
    {
        "minLevel": 7,
        "maxLevel": 7,
        "area": "oreburgh-mine-1f",
        "method": "walk",
        "location": "oreburgh-mine",
        "conditions": ["slot2-emerald"]
    },
    {
        "minLevel": 7,
        "maxLevel": 7,
        "area": "oreburgh-mine-1f",
        "method": "walk",
        "location": "oreburgh-mine",
        "conditions": ["slot2-firered"]
    },
    {
        "minLevel": 7,
        "maxLevel": 7,
        "area": "oreburgh-mine-1f",
        "method": "walk",
        "location": "oreburgh-mine",
        "conditions": ["slot2-leafgreen"]
    },
    {
        "minLevel": 8,
        "maxLevel": 8,
        "area": "oreburgh-mine-1f",
        "method": "walk",
        "location": "oreburgh-mine",
        "conditions": []
    },
    {
        "minLevel": 7,
        "maxLevel": 7,
        "area": "oreburgh-mine-1f",
        "method": "walk",
        "location": "oreburgh-mine",
        "conditions": ["radar-on"]
    },
    {
        "minLevel": 6,
        "maxLevel": 6,
        "area": "oreburgh-mine-b1f",
        "method": "walk",
        "location": "oreburgh-mine",
        "conditions": []
    },
    {
        "minLevel": 7,
        "maxLevel": 7,
        "area": "oreburgh-mine-b1f",
        "method": "walk",
        "location": "oreburgh-mine",
        "conditions": []
    },
    {
        "minLevel": 5,
        "maxLevel": 5,
        "area": "oreburgh-mine-b1f",
        "method": "walk",
        "location": "oreburgh-mine",
        "conditions": []
    },
    {
        "minLevel": 8,
        "maxLevel": 8,
        "area": "oreburgh-mine-b1f",
        "method": "walk",
        "location": "oreburgh-mine",
        "conditions": []
    },
    {
        "minLevel": 9,
        "maxLevel": 9,
        "area": "oreburgh-mine-b1f",
        "method": "walk",
        "location": "oreburgh-mine",
        "conditions": []
    },
    {
        "minLevel": 8,
        "maxLevel": 8,
        "area": "oreburgh-mine-b1f",
        "method": "walk",
        "location": "oreburgh-mine",
        "conditions": ["slot2-ruby"]
    },
    {
        "minLevel": 8,
        "maxLevel": 8,
        "area": "oreburgh-mine-b1f",
        "method": "walk",
        "location": "oreburgh-mine",
        "conditions": ["slot2-sapphire"]
    },
    {
        "minLevel": 8,
        "maxLevel": 8,
        "area": "oreburgh-mine-b1f",
        "method": "walk",
        "location": "oreburgh-mine",
        "conditions": ["slot2-emerald"]
    },
    {
        "minLevel": 8,
        "maxLevel": 8,
        "area": "oreburgh-mine-b1f",
        "method": "walk",
        "location": "oreburgh-mine",
        "conditions": ["slot2-firered"]
    },
    {
        "minLevel": 8,
        "maxLevel": 8,
        "area": "oreburgh-mine-b1f",
        "method": "walk",
        "location": "oreburgh-mine",
        "conditions": ["slot2-leafgreen"]
    },
    {
        "minLevel": 9,
        "maxLevel": 9,
        "area": "oreburgh-mine-b1f",
        "method": "walk",
        "location": "oreburgh-mine",
        "conditions": []
    },
    {
        "minLevel": 8,
        "maxLevel": 8,
        "area": "oreburgh-mine-b1f",
        "method": "walk",
        "location": "oreburgh-mine",
        "conditions": ["radar-on"]
    },
    {
        "minLevel": 19,
        "maxLevel": 19,
        "area": "mt-coronet-route-207",
        "method": "walk",
        "location": "mt-coronet",
        "conditions": []
    },
    {
        "minLevel": 17,
        "maxLevel": 17,
        "area": "mt-coronet-route-207",
        "method": "walk",
        "location": "mt-coronet",
        "conditions": ["time-day"]
    },
    {
        "minLevel": 15,
        "maxLevel": 15,
        "area": "mt-coronet-route-211",
        "method": "walk",
        "location": "mt-coronet",
        "conditions": []
    },
    {
        "minLevel": 13,
        "maxLevel": 13,
        "area": "mt-coronet-route-211",
        "method": "walk",
        "location": "mt-coronet",
        "conditions": ["time-day"]
    },
    {
        "minLevel": 5,
        "maxLevel": 5,
        "area": "oreburgh-gate-1f",
        "method": "walk",
        "location": "oreburgh-gate",
        "conditions": []
    },
    {
        "minLevel": 7,
        "maxLevel": 7,
        "area": "oreburgh-gate-1f",
        "method": "walk",
        "location": "oreburgh-gate",
        "conditions": []
    },
    {
        "minLevel": 6,
        "maxLevel": 6,
        "area": "oreburgh-gate-b1f",
        "method": "walk",
        "location": "oreburgh-gate",
        "conditions": []
    },
    {
        "minLevel": 8,
        "maxLevel": 8,
        "area": "oreburgh-gate-b1f",
        "method": "walk",
        "location": "oreburgh-gate",
        "conditions": []
    },
    {
        "minLevel": 18,
        "maxLevel": 18,
        "area": "wayward-cave-1f",
        "method": "walk",
        "location": "wayward-cave",
        "conditions": []
    },
    {
        "minLevel": 17,
        "maxLevel": 17,
        "area": "wayward-cave-1f",
        "method": "walk",
        "location": "wayward-cave",
        "conditions": []
    },
    {
        "minLevel": 19,
        "maxLevel": 19,
        "area": "wayward-cave-1f",
        "method": "walk",
        "location": "wayward-cave",
        "conditions": []
    },
    {
        "minLevel": 20,
        "maxLevel": 20,
        "area": "wayward-cave-1f",
        "method": "walk",
        "location": "wayward-cave",
        "conditions": []
    },
    {
        "minLevel": 17,
        "maxLevel": 17,
        "area": "wayward-cave-1f",
        "method": "walk",
        "location": "wayward-cave",
        "conditions": ["slot2-ruby"]
    },
    {
        "minLevel": 17,
        "maxLevel": 17,
        "area": "wayward-cave-1f",
        "method": "walk",
        "location": "wayward-cave",
        "conditions": ["slot2-sapphire"]
    },
    {
        "minLevel": 17,
        "maxLevel": 17,
        "area": "wayward-cave-1f",
        "method": "walk",
        "location": "wayward-cave",
        "conditions": ["slot2-emerald"]
    },
    {
        "minLevel": 17,
        "maxLevel": 17,
        "area": "wayward-cave-1f",
        "method": "walk",
        "location": "wayward-cave",
        "conditions": ["slot2-firered"]
    },
    {
        "minLevel": 17,
        "maxLevel": 17,
        "area": "wayward-cave-1f",
        "method": "walk",
        "location": "wayward-cave",
        "conditions": ["radar-on"]
    },
    {
        "minLevel": 18,
        "maxLevel": 18,
        "area": "wayward-cave-b1f",
        "method": "walk",
        "location": "wayward-cave",
        "conditions": []
    },
    {
        "minLevel": 20,
        "maxLevel": 20,
        "area": "wayward-cave-b1f",
        "method": "walk",
        "location": "wayward-cave",
        "conditions": []
    },
    {
        "minLevel": 23,
        "maxLevel": 23,
        "area": "ruin-maniac-cave-0-9-different-unown-caught",
        "method": "walk",
        "location": "ruin-maniac-cave",
        "conditions": []
    },
    {
        "minLevel": 22,
        "maxLevel": 22,
        "area": "ruin-maniac-cave-0-9-different-unown-caught",
        "method": "walk",
        "location": "ruin-maniac-cave",
        "conditions": []
    },
    {
        "minLevel": 21,
        "maxLevel": 21,
        "area": "ruin-maniac-cave-0-9-different-unown-caught",
        "method": "walk",
        "location": "ruin-maniac-cave",
        "conditions": []
    },
    {
        "minLevel": 23,
        "maxLevel": 23,
        "area": "ruin-maniac-cave-0-9-different-unown-caught",
        "method": "walk",
        "location": "ruin-maniac-cave",
        "conditions": []
    },
    {
        "minLevel": 23,
        "maxLevel": 23,
        "area": "ruin-maniac-cave-0-9-different-unown-caught",
        "method": "walk",
        "location": "ruin-maniac-cave",
        "conditions": []
    },
    {
        "minLevel": 23,
        "maxLevel": 23,
        "area": "ruin-maniac-cave-0-9-different-unown-caught",
        "method": "walk",
        "location": "ruin-maniac-cave",
        "conditions": []
    },
    {
        "minLevel": 23,
        "maxLevel": 23,
        "area": "ruin-maniac-cave-0-9-different-unown-caught",
        "method": "walk",
        "location": "ruin-maniac-cave",
        "conditions": []
    },
    {
        "minLevel": 23,
        "maxLevel": 23,
        "area": "ruin-maniac-cave-0-9-different-unown-caught",
        "method": "walk",
        "location": "ruin-maniac-cave",
        "conditions": []
    },
    {
        "minLevel": 23,
        "maxLevel": 23,
        "area": "ruin-maniac-cave-0-9-different-unown-caught",
        "method": "walk",
        "location": "ruin-maniac-cave",
        "conditions": []
    },
    {
        "minLevel": 23,
        "maxLevel": 23,
        "area": "ruin-maniac-cave-0-9-different-unown-caught",
        "method": "walk",
        "location": "ruin-maniac-cave",
        "conditions": []
    },
    {
        "minLevel": 24,
        "maxLevel": 24,
        "area": "ruin-maniac-cave-10-25-different-unown-caught",
        "method": "walk",
        "location": "ruin-maniac-cave",
        "conditions": []
    },
    {
        "minLevel": 23,
        "maxLevel": 23,
        "area": "ruin-maniac-cave-10-25-different-unown-caught",
        "method": "walk",
        "location": "ruin-maniac-cave",
        "conditions": []
    },
    {
        "minLevel": 22,
        "maxLevel": 22,
        "area": "ruin-maniac-cave-10-25-different-unown-caught",
        "method": "walk",
        "location": "ruin-maniac-cave",
        "conditions": []
    },
    {
        "minLevel": 24,
        "maxLevel": 24,
        "area": "ruin-maniac-cave-10-25-different-unown-caught",
        "method": "walk",
        "location": "ruin-maniac-cave",
        "conditions": []
    },
    {
        "minLevel": 24,
        "maxLevel": 24,
        "area": "ruin-maniac-cave-10-25-different-unown-caught",
        "method": "walk",
        "location": "ruin-maniac-cave",
        "conditions": []
    },
    {
        "minLevel": 24,
        "maxLevel": 24,
        "area": "ruin-maniac-cave-10-25-different-unown-caught",
        "method": "walk",
        "location": "ruin-maniac-cave",
        "conditions": []
    },
    {
        "minLevel": 24,
        "maxLevel": 24,
        "area": "ruin-maniac-cave-10-25-different-unown-caught",
        "method": "walk",
        "location": "ruin-maniac-cave",
        "conditions": []
    },
    {
        "minLevel": 24,
        "maxLevel": 24,
        "area": "ruin-maniac-cave-10-25-different-unown-caught",
        "method": "walk",
        "location": "ruin-maniac-cave",
        "conditions": []
    },
    {
        "minLevel": 24,
        "maxLevel": 24,
        "area": "ruin-maniac-cave-10-25-different-unown-caught",
        "method": "walk",
        "location": "ruin-maniac-cave",
        "conditions": []
    },
    {
        "minLevel": 31,
        "maxLevel": 31,
        "area": "iron-island-1f",
        "method": "walk",
        "location": "iron-island",
        "conditions": []
    },
    {
        "minLevel": 32,
        "maxLevel": 32,
        "area": "iron-island-1f",
        "method": "walk",
        "location": "iron-island",
        "conditions": []
    },
    {
        "minLevel": 30,
        "maxLevel": 30,
        "area": "iron-island-1f",
        "method": "walk",
        "location": "iron-island",
        "conditions": []
    },
    {
        "minLevel": 30,
        "maxLevel": 30,
        "area": "iron-island-1f",
        "method": "walk",
        "location": "iron-island",
        "conditions": []
    },
    {
        "minLevel": 16,
        "maxLevel": 16,
        "area": "sinnoh-route-206-area",
        "method": "walk",
        "location": "sinnoh-route-206",
        "conditions": ["swarm-no"]
    },
    {
        "minLevel": 18,
        "maxLevel": 18,
        "area": "sinnoh-route-206-area",
        "method": "walk",
        "location": "sinnoh-route-206",
        "conditions": []
    },
    {
        "minLevel": 18,
        "maxLevel": 18,
        "area": "sinnoh-route-206-area",
        "method": "walk",
        "location": "sinnoh-route-206",
        "conditions": []
    },
    {
        "minLevel": 18,
        "maxLevel": 18,
        "area": "sinnoh-route-206-area",
        "method": "walk",
        "location": "sinnoh-route-206",
        "conditions": ["radar-off"]
    },
    {
        "minLevel": 5,
        "maxLevel": 5,
        "area": "sinnoh-route-207-area",
        "method": "walk",
        "location": "sinnoh-route-207",
        "conditions": ["swarm-no"]
    },
    {
        "minLevel": 6,
        "maxLevel": 6,
        "area": "sinnoh-route-207-area",
        "method": "walk",
        "location": "sinnoh-route-207",
        "conditions": []
    },
    {
        "minLevel": 7,
        "maxLevel": 7,
        "area": "sinnoh-route-207-area",
        "method": "walk",
        "location": "sinnoh-route-207",
        "conditions": []
    },
    {
        "minLevel": 7,
        "maxLevel": 7,
        "area": "sinnoh-route-207-area",
        "method": "walk",
        "location": "sinnoh-route-207",
        "conditions": ["radar-off"]
    },
    {
        "minLevel": 18,
        "maxLevel": 18,
        "area": "sinnoh-route-210-south-towards-solaceon-town",
        "method": "walk",
        "location": "sinnoh-route-210",
        "conditions": []
    },
    {
        "minLevel": 21,
        "maxLevel": 21,
        "area": "sinnoh-route-214-area",
        "method": "walk",
        "location": "sinnoh-route-214",
        "conditions": ["swarm-no"]
    },
    {
        "minLevel": 25,
        "maxLevel": 25,
        "area": "maniac-tunnel-26-plus-different-unown-caught",
        "method": "walk",
        "location": "maniac-tunnel",
        "conditions": []
    },
    {
        "minLevel": 24,
        "maxLevel": 24,
        "area": "maniac-tunnel-26-plus-different-unown-caught",
        "method": "walk",
        "location": "maniac-tunnel",
        "conditions": []
    },
    {
        "minLevel": 23,
        "maxLevel": 23,
        "area": "maniac-tunnel-26-plus-different-unown-caught",
        "method": "walk",
        "location": "maniac-tunnel",
        "conditions": []
    },
    {
        "minLevel": 25,
        "maxLevel": 25,
        "area": "maniac-tunnel-26-plus-different-unown-caught",
        "method": "walk",
        "location": "maniac-tunnel",
        "conditions": []
    },
    {
        "minLevel": 25,
        "maxLevel": 25,
        "area": "maniac-tunnel-26-plus-different-unown-caught",
        "method": "walk",
        "location": "maniac-tunnel",
        "conditions": []
    },
    {
        "minLevel": 25,
        "maxLevel": 25,
        "area": "maniac-tunnel-26-plus-different-unown-caught",
        "method": "walk",
        "location": "maniac-tunnel",
        "conditions": []
    },
    {
        "minLevel": 25,
        "maxLevel": 25,
        "area": "maniac-tunnel-26-plus-different-unown-caught",
        "method": "walk",
        "location": "maniac-tunnel",
        "conditions": []
    },
    {
        "minLevel": 25,
        "maxLevel": 25,
        "area": "maniac-tunnel-26-plus-different-unown-caught",
        "method": "walk",
        "location": "maniac-tunnel",
        "conditions": []
    }
]