[
    {
        "minLevel": 38,
        "maxLevel": 38,
        "area": "mt-coronet-2f",
        "method": "walk",
        "location": "mt-coronet",
        "conditions": []
    },
    {
        "minLevel": 36,
        "maxLevel": 36,
        "area": "mt-coronet-2f",
        "method": "walk",
        "location": "mt-coronet",
        "conditions": ["time-day"]
    },
    {
        "minLevel": 38,
        "maxLevel": 38,
        "area": "mt-coronet-3f",
        "method": "walk",
        "location": "mt-coronet",
        "conditions": []
    },
    {
        "minLevel": 36,
        "maxLevel": 36,
        "area": "mt-coronet-3f",
        "method": "walk",
        "location": "mt-coronet",
        "conditions": ["time-day"]
    },
    {
        "minLevel": 38,
        "maxLevel": 38,
        "area": "mt-coronet-4f",
        "method": "walk",
        "location": "mt-coronet",
        "conditions": []
    },
    {
        "minLevel": 36,
        "maxLevel": 36,
        "area": "mt-coronet-4f",
        "method": "walk",
        "location": "mt-coronet",
        "conditions": ["time-day"]
    },
    {
        "minLevel": 38,
        "maxLevel": 38,
        "area": "mt-coronet-5f",
        "method": "walk",
        "location": "mt-coronet",
        "conditions": []
    },
    {
        "minLevel": 36,
        "maxLevel": 36,
        "area": "mt-coronet-5f",
        "method": "walk",
        "location": "mt-coronet",
        "conditions": ["time-day"]
    },
    {
        "minLevel": 38,
        "maxLevel": 38,
        "area": "mt-coronet-6f",
        "method": "walk",
        "location": "mt-coronet",
        "conditions": []
    },
    {
        "minLevel": 36,
        "maxLevel": 36,
        "area": "mt-coronet-6f",
        "method": "walk",
        "location": "mt-coronet",
        "conditions": ["time-day"]
    },
    {
        "minLevel": 38,
        "maxLevel": 38,
        "area": "mt-coronet-7f",
        "method": "walk",
        "location": "mt-coronet",
        "conditions": []
    },
    {
        "minLevel": 36,
        "maxLevel": 36,
        "area": "mt-coronet-7f",
        "method": "walk",
        "location": "mt-coronet",
        "conditions": ["time-day"]
    },
    {
        "minLevel": 37,
        "maxLevel": 37,
        "area": "mt-coronet-cave",
        "method": "walk",
        "location": "mt-coronet",
        "conditions": []
    },
    {
        "minLevel": 38,
        "maxLevel": 38,
        "area": "mt-coronet-cave",
        "method": "walk",
        "location": "mt-coronet",
        "conditions": []
    },
    {
        "minLevel": 36,
        "maxLevel": 36,
        "area": "mt-coronet-cave",
        "method": "walk",
        "location": "mt-coronet",
        "conditions": ["time-day"]
    },
    {
        "minLevel": 34,
        "maxLevel": 34,
        "area": "mt-coronet-route-216",
        "method": "walk",
        "location": "mt-coronet",
        "conditions": []
    },
    {
        "minLevel": 32,
        "maxLevel": 32,
        "area": "mt-coronet-route-216",
        "method": "walk",
        "location": "mt-coronet",
        "conditions": ["time-day"]
    },
    {
        "minLevel": 34,
        "maxLevel": 34,
        "area": "mt-coronet-b1f",
        "method": "walk",
        "location": "mt-coronet",
        "conditions": []
    },
    {
        "minLevel": 32,
        "maxLevel": 32,
        "area": "mt-coronet-b1f",
        "method": "walk",
        "location": "mt-coronet",
        "conditions": ["time-day"]
    },
    {
        "minLevel": 40,
        "maxLevel": 40,
        "area": "sinnoh-victory-road-1f",
        "method": "walk",
        "location": "sinnoh-victory-road",
        "conditions": []
    },
    {
        "minLevel": 42,
        "maxLevel": 42,
        "area": "sinnoh-victory-road-1f",
        "method": "walk",
        "location": "sinnoh-victory-road",
        "conditions": ["time-morning"]
    },
    {
        "minLevel": 42,
        "maxLevel": 42,
        "area": "sinnoh-victory-road-1f",
        "method": "walk",
        "location": "sinnoh-victory-road",
        "conditions": ["time-day"]
    },
    {
        "minLevel": 41,
        "maxLevel": 41,
        "area": "sinnoh-victory-road-2f",
        "method": "walk",
        "location": "sinnoh-victory-road",
        "conditions": ["time-morning"]
    },
    {
        "minLevel": 41,
        "maxLevel": 41,
        "area": "sinnoh-victory-road-2f",
        "method": "walk",
        "location": "sinnoh-victory-road",
        "conditions": ["time-day"]
    },
    {
        "minLevel": 43,
        "maxLevel": 43,
        "area": "sinnoh-victory-road-2f",
        "method": "walk",
        "location": "sinnoh-victory-road",
        "conditions": []
    },
    {
        "minLevel": 41,
        "maxLevel": 41,
        "area": "sinnoh-victory-road-b1f",
        "method": "walk",
        "location": "sinnoh-victory-road",
        "conditions": ["time-morning"]
    },
    {
        "minLevel": 41,
        "maxLevel": 41,
        "area": "sinnoh-victory-road-b1f",
        "method": "walk",
        "location": "sinnoh-victory-road",
        "conditions": ["time-day"]
    },
    {
        "minLevel": 43,
        "maxLevel": 43,
        "area": "sinnoh-victory-road-b1f",
        "method": "walk",
        "location": "sinnoh-victory-road",
        "conditions": []
    },
    {
        "minLevel": 47,
        "maxLevel": 47,
        "area": "sinnoh-victory-road-inside-b1f",
        "method": "walk",
        "location": "sinnoh-victory-road",
        "conditions": ["time-morning"]
    },
    {
        "minLevel": 47,
        "maxLevel": 47,
        "area": "sinnoh-victory-road-inside-b1f",
        "method": "walk",
        "location": "sinnoh-victory-road",
        "conditions": ["time-day"]
    },
    {
        "minLevel": 49,
        "maxLevel": 49,
        "area": "sinnoh-victory-road-inside-b1f",
        "method": "walk",
        "location": "sinnoh-victory-road",
        "conditions": []
    },
    {
        "minLevel": 47,
        "maxLevel": 47,
        "area": "sinnoh-victory-road-inside",
        "method": "walk",
        "location": "sinnoh-victory-road",
        "conditions": []
    },
    {
        "minLevel": 49,
        "maxLevel": 49,
        "area": "sinnoh-victory-road-inside",
        "method": "walk",
        "location": "sinnoh-victory-road",
        "conditions": ["time-morning"]
    },
    {
        "minLevel": 49,
        "maxLevel": 49,
        "area": "sinnoh-victory-road-inside",
        "method": "walk",
        "location": "sinnoh-victory-road",
        "conditions": ["time-day"]
    },
    {
        "minLevel": 47,
        "maxLevel": 47,
        "area": "sinnoh-victory-road-inside-exit",
        "method": "walk",
        "location": "sinnoh-victory-road",
        "conditions": []
    },
    {
        "minLevel": 49,
        "maxLevel": 49,
        "area": "sinnoh-victory-road-inside-exit",
        "method": "walk",
        "location": "sinnoh-victory-road",
        "conditions": ["time-morning"]
    },
    {
        "minLevel": 49,
        "maxLevel": 49,
        "area": "sinnoh-victory-road-inside-exit",
        "method": "walk",
        "location": "sinnoh-victory-road",
        "conditions": ["time-day"]
    },
    {
        "minLevel": 51,
        "maxLevel": 51,
        "area": "stark-mountain-area",
        "method": "walk",
        "location": "stark-mountain",
        "conditions": []
    },
    {
        "minLevel": 53,
        "maxLevel": 53,
        "area": "stark-mountain-area",
        "method": "walk",
        "location": "stark-mountain",
        "conditions": []
    },
    {
        "minLevel": 51,
        "maxLevel": 51,
        "area": "stark-mountain-entrance",
        "method": "walk",
        "location": "stark-mountain",
        "conditions": []
    },
    {
        "minLevel": 53,
        "maxLevel": 53,
        "area": "stark-mountain-entrance",
        "method": "walk",
        "location": "stark-mountain",
        "conditions": []
    },
    {
        "minLevel": 52,
        "maxLevel": 52,
        "area": "stark-mountain-inside",
        "method": "walk",
        "location": "stark-mountain",
        "conditions": []
    },
    {
        "minLevel": 54,
        "maxLevel": 54,
        "area": "stark-mountain-inside",
        "method": "walk",
        "location": "stark-mountain",
        "conditions": []
    },
    {
        "minLevel": 32,
        "maxLevel": 32,
        "area": "iron-island-1f",
        "method": "walk",
        "location": "iron-island",
        "conditions": []
    },
    {
        "minLevel": 33,
        "maxLevel": 33,
        "area": "iron-island-1f",
        "method": "walk",
        "location": "iron-island",
        "conditions": []
    },
    {
        "minLevel": 31,
        "maxLevel": 31,
        "area": "iron-island-1f",
        "method": "walk",
        "location": "iron-island",
        "conditions": []
    },
    {
        "minLevel": 31,
        "maxLevel": 31,
        "area": "iron-island-1f",
        "method": "walk",
        "location": "iron-island",
        "conditions": []
    },
    {
        "minLevel": 31,
        "maxLevel": 31,
        "area": "iron-island-b1f-left",
        "method": "walk",
        "location": "iron-island",
        "conditions": []
    },
    {
        "minLevel": 32,
        "maxLevel": 32,
        "area": "iron-island-b1f-left",
        "method": "walk",
        "location": "iron-island",
        "conditions": []
    },
    {
        "minLevel": 32,
        "maxLevel": 32,
        "area": "iron-island-b1f-left",
        "method": "walk",
        "location": "iron-island",
        "conditions": []
    },
    {
        "minLevel": 33,
        "maxLevel": 33,
        "area": "iron-island-b1f-left",
        "method": "walk",
        "location": "iron-island",
        "conditions": []
    },
    {
        "minLevel": 30,
        "maxLevel": 30,
        "area": "iron-island-b1f-left",
        "method": "walk",
        "location": "iron-island",
        "conditions": ["slot2-none"]
    },
    {
        "minLevel": 30,
        "maxLevel": 30,
        "area": "iron-island-b1f-left",
        "method": "walk",
        "location": "iron-island",
        "conditions": ["slot2-emerald"]
    },
    {
        "minLevel": 30,
        "maxLevel": 30,
        "area": "iron-island-b1f-left",
        "method": "walk",
        "location": "iron-island",
        "conditions": ["slot2-firered"]
    },
    {
        "minLevel": 30,
        "maxLevel": 30,
        "area": "iron-island-b1f-left",
        "method": "walk",
        "location": "iron-island",
        "conditions": ["slot2-leafgreen"]
    },
    {
        "minLevel": 31,
        "maxLevel": 31,
        "area": "iron-island-b1f-left",
        "method": "walk",
        "location": "iron-island",
        "conditions": ["slot2-none"]
    },
    {
        "minLevel": 31,
        "maxLevel": 31,
        "area": "iron-island-b1f-left",
        "method": "walk",
        "location": "iron-island",
        "conditions": ["slot2-emerald"]
    },
    {
        "minLevel": 31,
        "maxLevel": 31,
        "area": "iron-island-b1f-left",
        "method": "walk",
        "location": "iron-island",
        "conditions": ["slot2-firered"]
    },
    {
        "minLevel": 31,
        "maxLevel": 31,
        "area": "iron-island-b1f-left",
        "method": "walk",
        "location": "iron-island",
        "conditions": ["slot2-leafgreen"]
    },
    {
        "minLevel": 30,
        "maxLevel": 30,
        "area": "iron-island-b1f-left",
        "method": "walk",
        "location": "iron-island",
        "conditions": []
    },
    {
        "minLevel": 31,
        "maxLevel": 31,
        "area": "iron-island-b1f-left",
        "method": "walk",
        "location": "iron-island",
        "conditions": []
    },
    {
        "minLevel": 31,
        "maxLevel": 31,
        "area": "iron-island-b1f-right",
        "method": "walk",
        "location": "iron-island",
        "conditions": []
    },
    {
        "minLevel": 32,
        "maxLevel": 32,
        "area": "iron-island-b1f-right",
        "method": "walk",
        "location": "iron-island",
        "conditions": []
    },
    {
        "minLevel": 32,
        "maxLevel": 32,
        "area": "iron-island-b1f-right",
        "method": "walk",
        "location": "iron-island",
        "conditions": []
    },
    {
        "minLevel": 33,
        "maxLevel": 33,
        "area": "iron-island-b1f-right",
        "method": "walk",
        "location": "iron-island",
        "conditions": []
    },
    {
        "minLevel": 30,
        "maxLevel": 30,
        "area": "iron-island-b1f-right",
        "method": "walk",
        "location": "iron-island",
        "conditions": ["slot2-none"]
    },
    {
        "minLevel": 30,
        "maxLevel": 30,
        "area": "iron-island-b1f-right",
        "method": "walk",
        "location": "iron-island",
        "conditions": ["slot2-emerald"]
    },
    {
        "minLevel": 30,
        "maxLevel": 30,
        "area": "iron-island-b1f-right",
        "method": "walk",
        "location": "iron-island",
        "conditions": ["slot2-firered"]
    },
    {
        "minLevel": 30,
        "maxLevel": 30,
        "area": "iron-island-b1f-right",
        "method": "walk",
        "location": "iron-island",
        "conditions": ["slot2-leafgreen"]
    },
    {
        "minLevel": 31,
        "maxLevel": 31,
        "area": "iron-island-b1f-right",
        "method": "walk",
        "location": "iron-island",
        "conditions": ["slot2-none"]
    },
    {
        "minLevel": 31,
        "maxLevel": 31,
        "area": "iron-island-b1f-right",
        "method": "walk",
        "location": "iron-island",
        "conditions": ["slot2-emerald"]
    },
    {
        "minLevel": 31,
        "maxLevel": 31,
        "area": "iron-island-b1f-right",
        "method": "walk",
        "location": "iron-island",
        "conditions": ["slot2-firered"]
    },
    {
        "minLevel": 31,
        "maxLevel": 31,
        "area": "iron-island-b1f-right",
        "method": "walk",
        "location": "iron-island",
        "conditions": ["slot2-leafgreen"]
    },
    {
        "minLevel": 30,
        "maxLevel": 30,
        "area": "iron-island-b1f-right",
        "method": "walk",
        "location": "iron-island",
        "conditions": []
    },
    {
        "minLevel": 31,
        "maxLevel": 31,
        "area": "iron-island-b1f-right",
        "method": "walk",
        "location": "iron-island",
        "conditions": []
    },
    {
        "minLevel": 33,
        "maxLevel": 33,
        "area": "iron-island-b2f-right",
        "method": "walk",
        "location": "iron-island",
        "conditions": []
    },
    {
        "minLevel": 33,
        "maxLevel": 33,
        "area": "iron-island-b2f-right",
        "method": "walk",
        "location": "iron-island",
        "conditions": []
    },
    {
        "minLevel": 34,
        "maxLevel": 34,
        "area": "iron-island-b2f-right",
        "method": "walk",
        "location": "iron-island",
        "conditions": []
    },
    {
        "minLevel": 31,
        "maxLevel": 31,
        "area": "iron-island-b2f-right",
        "method": "walk",
        "location": "iron-island",
        "conditions": ["slot2-none"]
    },
    {
        "minLevel": 31,
        "maxLevel": 31,
        "area": "iron-island-b2f-right",
        "method": "walk",
        "location": "iron-island",
        "conditions": ["slot2-emerald"]
    },
    {
        "minLevel": 31,
        "maxLevel": 31,
        "area": "iron-island-b2f-right",
        "method": "walk",
        "location": "iron-island",
        "conditions": ["slot2-firered"]
    },
    {
        "minLevel": 31,
        "maxLevel": 31,
        "area": "iron-island-b2f-right",
        "method": "walk",
        "location": "iron-island",
        "conditions": ["slot2-leafgreen"]
    },
    {
        "minLevel": 32,
        "maxLevel": 32,
        "area": "iron-island-b2f-right",
        "method": "walk",
        "location": "iron-island",
        "conditions": ["slot2-none"]
    },
    {
        "minLevel": 32,
        "maxLevel": 32,
        "area": "iron-island-b2f-right",
        "method": "walk",
        "location": "iron-island",
        "conditions": ["slot2-emerald"]
    },
    {
        "minLevel": 32,
        "maxLevel": 32,
        "area": "iron-island-b2f-right",
        "method": "walk",
        "location": "iron-island",
        "conditions": ["slot2-firered"]
    },
    {
        "minLevel": 32,
        "maxLevel": 32,
        "area": "iron-island-b2f-right",
        "method": "walk",
        "location": "iron-island",
        "conditions": ["slot2-leafgreen"]
    },
    {
        "minLevel": 31,
        "maxLevel": 31,
        "area": "iron-island-b2f-right",
        "method": "walk",
        "location": "iron-island",
        "conditions": []
    },
    {
        "minLevel": 32,
        "maxLevel": 32,
        "area": "iron-island-b2f-right",
        "method": "walk",
        "location": "iron-island",
        "conditions": []
    },
    {
        "minLevel": 33,
        "maxLevel": 33,
        "area": "iron-island-b2f-left",
        "method": "walk",
        "location": "iron-island",
        "conditions": []
    },
    {
        "minLevel": 33,
        "maxLevel": 33,
        "area": "iron-island-b2f-left",
        "method": "walk",
        "location": "iron-island",
        "conditions": []
    },
    {
        "minLevel": 34,
        "maxLevel": 34,
        "area": "iron-island-b2f-left",
        "method": "walk",
        "location": "iron-island",
        "conditions": []
    },
    {
        "minLevel": 31,
        "maxLevel": 31,
        "area": "iron-island-b2f-left",
        "method": "walk",
        "location": "iron-island",
        "conditions": ["slot2-none"]
    },
    {
        "minLevel": 31,
        "maxLevel": 31,
        "area": "iron-island-b2f-left",
        "method": "walk",
        "location": "iron-island",
        "conditions": ["slot2-emerald"]
    },
    {
        "minLevel": 31,
        "maxLevel": 31,
        "area": "iron-island-b2f-left",
        "method": "walk",
        "location": "iron-island",
        "conditions": ["slot2-firered"]
    },
    {
        "minLevel": 31,
        "maxLevel": 31,
        "area": "iron-island-b2f-left",
        "method": "walk",
        "location": "iron-island",
        "conditions": ["slot2-leafgreen"]
    },
    {
        "minLevel": 32,
        "maxLevel": 32,
        "area": "iron-island-b2f-left",
        "method": "walk",
        "location": "iron-island",
        "conditions": ["slot2-none"]
    },
    {
        "minLevel": 32,
        "maxLevel": 32,
        "area": "iron-island-b2f-left",
        "method": "walk",
        "location": "iron-island",
        "conditions": ["slot2-emerald"]
    },
    {
        "minLevel": 32,
        "maxLevel": 32,
        "area": "iron-island-b2f-left",
        "method": "walk",
        "location": "iron-island",
        "conditions": ["slot2-firered"]
    },
    {
        "minLevel": 32,
        "maxLevel": 32,
        "area": "iron-island-b2f-left",
        "method": "walk",
        "location": "iron-island",
        "conditions": ["slot2-leafgreen"]
    },
    {
        "minLevel": 31,
        "maxLevel": 31,
        "area": "iron-island-b2f-left",
        "method": "walk",
        "location": "iron-island",
        "conditions": []
    },
    {
        "minLevel": 32,
        "maxLevel": 32,
        "area": "iron-island-b2f-left",
        "method": "walk",
        "location": "iron-island",
        "conditions": []
    },
    {
        "minLevel": 33,
        "maxLevel": 33,
        "area": "iron-island-b3f",
        "method": "walk",
        "location": "iron-island",
        "conditions": []
    },
    {
        "minLevel": 33,
        "maxLevel": 33,
        "area": "iron-island-b3f",
        "method": "walk",
        "location": "iron-island",
        "conditions": []
    },
    {
        "minLevel": 34,
        "maxLevel": 34,
        "area": "iron-island-b3f",
        "method": "walk",
        "location": "iron-island",
        "conditions": []
    },
    {
        "minLevel": 31,
        "maxLevel": 31,
        "area": "iron-island-b3f",
        "method": "walk",
        "location": "iron-island",
        "conditions": ["slot2-none"]
    },
    {
        "minLevel": 31,
        "maxLevel": 31,
        "area": "iron-island-b3f",
        "method": "walk",
        "location": "iron-island",
        "conditions": ["slot2-emerald"]
    },
    {
        "minLevel": 31,
        "maxLevel": 31,
        "area": "iron-island-b3f",
        "method": "walk",
        "location": "iron-island",
        "conditions": ["slot2-firered"]
    },
    {
        "minLevel": 31,
        "maxLevel": 31,
        "area": "iron-island-b3f",
        "method": "walk",
        "location": "iron-island",
        "conditions": ["slot2-leafgreen"]
    },
    {
        "minLevel": 32,
        "maxLevel": 32,
        "area": "iron-island-b3f",
        "method": "walk",
        "location": "iron-island",
        "conditions": ["slot2-none"]
    },
    {
        "minLevel": 32,
        "maxLevel": 32,
        "area": "iron-island-b3f",
        "method": "walk",
        "location": "iron-island",
        "conditions": ["slot2-emerald"]
    },
    {
        "minLevel": 32,
        "maxLevel": 32,
        "area": "iron-island-b3f",
        "method": "walk",
        "location": "iron-island",
        "conditions": ["slot2-firered"]
    },
    {
        "minLevel": 32,
        "maxLevel": 32,
        "area": "iron-island-b3f",
        "method": "walk",
        "location": "iron-island",
        "conditions": ["slot2-leafgreen"]
    },
    {
        "minLevel": 31,
        "maxLevel": 31,
        "area": "iron-island-b3f",
        "method": "walk",
        "location": "iron-island",
        "conditions": []
    },
    {
        "minLevel": 32,
        "maxLevel": 32,
        "area": "iron-island-b3f",
        "method": "walk",
        "location": "iron-island",
        "conditions": []
    },
    {
        "minLevel": 28,
        "maxLevel": 28,
        "area": "sinnoh-route-211-east-towards-celestic-town",
        "method": "walk",
        "location": "sinnoh-route-211",
        "conditions": []
    },
    {
        "minLevel": 23,
        "maxLevel": 23,
        "area": "sinnoh-route-214-area",
        "method": "walk",
        "location": "sinnoh-route-214",
        "conditions": ["swarm-no"]
    },
    {
        "minLevel": 22,
        "maxLevel": 22,
        "area": "sinnoh-route-214-area",
        "method": "walk",
        "location": "sinnoh-route-214",
        "conditions": ["time-morning"]
    },
    {
        "minLevel": 22,
        "maxLevel": 22,
        "area": "sinnoh-route-214-area",
        "method": "walk",
        "location": "sinnoh-route-214",
        "conditions": ["time-day"]
    },
    {
        "minLevel": 24,
        "maxLevel": 24,
        "area": "sinnoh-route-214-area",
        "method": "walk",
        "location": "sinnoh-route-214",
        "conditions": []
    },
    {
        "minLevel": 35,
        "maxLevel": 35,
        "area": "sinnoh-route-216-area",
        "method": "walk",
        "location": "sinnoh-route-216",
        "conditions": ["slot2-none"]
    },
    {
        "minLevel": 35,
        "maxLevel": 35,
        "area": "sinnoh-route-216-area",
        "method": "walk",
        "location": "sinnoh-route-216",
        "conditions": ["slot2-ruby"]
    },
    {
        "minLevel": 35,
        "maxLevel": 35,
        "area": "sinnoh-route-216-area",
        "method": "walk",
        "location": "sinnoh-route-216",
        "conditions": ["slot2-sapphire"]
    },
    {
        "minLevel": 35,
        "maxLevel": 35,
        "area": "sinnoh-route-216-area",
        "method": "walk",
        "location": "sinnoh-route-216",
        "conditions": ["slot2-firered"]
    },
    {
        "minLevel": 35,
        "maxLevel": 35,
        "area": "sinnoh-route-216-area",
        "method": "walk",
        "location": "sinnoh-route-216",
        "conditions": ["slot2-leafgreen"]
    },
    {
        "minLevel": 35,
        "maxLevel": 35,
        "area": "sinnoh-route-216-area",
        "method": "walk",
        "location": "sinnoh-route-216",
        "conditions": []
    },
    {
        "minLevel": 49,
        "maxLevel": 49,
        "area": "sinnoh-route-225-area",
        "method": "walk",
        "location": "sinnoh-route-225",
        "conditions": ["swarm-no"]
    },
    {
        "minLevel": 51,
        "maxLevel": 51,
        "area": "sinnoh-route-227-area",
        "method": "walk",
        "location": "sinnoh-route-227",
        "conditions": []
    },
    {
        "minLevel": 53,
        "maxLevel": 53,
        "area": "sinnoh-route-227-area",
        "method": "walk",
        "location": "sinnoh-route-227",
        "conditions": []
    },
    {
        "minLevel": 49,
        "maxLevel": 49,
        "area": "sinnoh-sea-route-226-area",
        "method": "walk",
        "location": "sinnoh-sea-route-226",
        "conditions": ["swarm-no"]
    },
    {
        "minLevel": 38,
        "maxLevel": 38,
        "area": "sendoff-spring-area",
        "method": "walk",
        "location": "sendoff-spring",
        "conditions": []
    },
    {
        "minLevel": 39,
        "maxLevel": 39,
        "area": "sendoff-spring-area",
        "method": "walk",
        "location": "sendoff-spring",
        "conditions": ["time-morning"]
    },
    {
        "minLevel": 39,
        "maxLevel": 39,
        "area": "sendoff-spring-area",
        "method": "walk",
        "location": "sendoff-spring",
        "conditions": ["time-day"]
    },
    {
        "minLevel": 37,
        "maxLevel": 37,
        "area": "sendoff-spring-area",
        "method": "walk",
        "location": "sendoff-spring",
        "conditions": []
    }
]