[
    {
        "minLevel": 48,
        "maxLevel": 48,
        "area": "sinnoh-sea-route-226-area",
        "method": "walk",
        "location": "sinnoh-sea-route-226",
        "conditions": ["swarm-yes"]
    },
    {
        "minLevel": 49,
        "maxLevel": 49,
        "area": "sinnoh-sea-route-226-area",
        "method": "walk",
        "location": "sinnoh-sea-route-226",
        "conditions": ["swarm-yes"]
    }
]