[
    {
        "minLevel": 39,
        "maxLevel": 39,
        "area": "mt-coronet-2f",
        "method": "walk",
        "location": "mt-coronet",
        "conditions": []
    },
    {
        "minLevel": 39,
        "maxLevel": 39,
        "area": "mt-coronet-3f",
        "method": "walk",
        "location": "mt-coronet",
        "conditions": []
    },
    {
        "minLevel": 40,
        "maxLevel": 40,
        "area": "mt-coronet-snowfall",
        "method": "walk",
        "location": "mt-coronet",
        "conditions": ["radar-off"]
    },
    {
        "minLevel": 40,
        "maxLevel": 40,
        "area": "mt-coronet-blizzard",
        "method": "walk",
        "location": "mt-coronet",
        "conditions": ["radar-off"]
    },
    {
        "minLevel": 39,
        "maxLevel": 39,
        "area": "mt-coronet-4f",
        "method": "walk",
        "location": "mt-coronet",
        "conditions": []
    },
    {
        "minLevel": 39,
        "maxLevel": 39,
        "area": "mt-coronet-5f",
        "method": "walk",
        "location": "mt-coronet",
        "conditions": []
    },
    {
        "minLevel": 39,
        "maxLevel": 39,
        "area": "mt-coronet-6f",
        "method": "walk",
        "location": "mt-coronet",
        "conditions": []
    },
    {
        "minLevel": 39,
        "maxLevel": 39,
        "area": "mt-coronet-7f",
        "method": "walk",
        "location": "mt-coronet",
        "conditions": []
    },
    {
        "minLevel": 39,
        "maxLevel": 39,
        "area": "mt-coronet-cave",
        "method": "walk",
        "location": "mt-coronet",
        "conditions": []
    },
    {
        "minLevel": 35,
        "maxLevel": 35,
        "area": "mt-coronet-route-216",
        "method": "walk",
        "location": "mt-coronet",
        "conditions": []
    },
    {
        "minLevel": 35,
        "maxLevel": 35,
        "area": "mt-coronet-b1f",
        "method": "walk",
        "location": "mt-coronet",
        "conditions": []
    },
    {
        "minLevel": 29,
        "maxLevel": 29,
        "area": "sinnoh-route-210-west-towards-celestic-town",
        "method": "walk",
        "location": "sinnoh-route-210",
        "conditions": []
    },
    {
        "minLevel": 30,
        "maxLevel": 30,
        "area": "sinnoh-route-210-west-towards-celestic-town",
        "method": "walk",
        "location": "sinnoh-route-210",
        "conditions": ["slot2-none"]
    },
    {
        "minLevel": 30,
        "maxLevel": 30,
        "area": "sinnoh-route-210-west-towards-celestic-town",
        "method": "walk",
        "location": "sinnoh-route-210",
        "conditions": ["slot2-emerald"]
    },
    {
        "minLevel": 30,
        "maxLevel": 30,
        "area": "sinnoh-route-210-west-towards-celestic-town",
        "method": "walk",
        "location": "sinnoh-route-210",
        "conditions": ["slot2-firered"]
    },
    {
        "minLevel": 30,
        "maxLevel": 30,
        "area": "sinnoh-route-210-west-towards-celestic-town",
        "method": "walk",
        "location": "sinnoh-route-210",
        "conditions": ["slot2-leafgreen"]
    },
    {
        "minLevel": 30,
        "maxLevel": 30,
        "area": "sinnoh-route-210-west-towards-celestic-town",
        "method": "walk",
        "location": "sinnoh-route-210",
        "conditions": ["radar-off"]
    },
    {
        "minLevel": 29,
        "maxLevel": 29,
        "area": "sinnoh-route-211-east-towards-celestic-town",
        "method": "walk",
        "location": "sinnoh-route-211",
        "conditions": []
    },
    {
        "minLevel": 30,
        "maxLevel": 30,
        "area": "sinnoh-route-211-east-towards-celestic-town",
        "method": "walk",
        "location": "sinnoh-route-211",
        "conditions": []
    },
    {
        "minLevel": 30,
        "maxLevel": 30,
        "area": "sinnoh-route-211-east-towards-celestic-town",
        "method": "walk",
        "location": "sinnoh-route-211",
        "conditions": []
    },
    {
        "minLevel": 48,
        "maxLevel": 48,
        "area": "sinnoh-route-225-area",
        "method": "walk",
        "location": "sinnoh-route-225",
        "conditions": ["swarm-no"]
    },
    {
        "minLevel": 50,
        "maxLevel": 50,
        "area": "sinnoh-route-225-area",
        "method": "walk",
        "location": "sinnoh-route-225",
        "conditions": []
    },
    {
        "minLevel": 48,
        "maxLevel": 48,
        "area": "sinnoh-sea-route-226-area",
        "method": "walk",
        "location": "sinnoh-sea-route-226",
        "conditions": ["swarm-no"]
    },
    {
        "minLevel": 50,
        "maxLevel": 50,
        "area": "sinnoh-sea-route-226-area",
        "method": "walk",
        "location": "sinnoh-sea-route-226",
        "conditions": []
    }
]