[
    {
        "minLevel": 39,
        "maxLevel": 39,
        "area": "mt-coronet-snowfall",
        "method": "walk",
        "location": "mt-coronet",
        "conditions": ["time-night"]
    },
    {
        "minLevel": 39,
        "maxLevel": 39,
        "area": "mt-coronet-blizzard",
        "method": "walk",
        "location": "mt-coronet",
        "conditions": ["time-night"]
    },
    {
        "minLevel": 28,
        "maxLevel": 28,
        "area": "great-marsh-area-1",
        "method": "walk",
        "location": "great-marsh",
        "conditions": ["time-night"]
    },
    {
        "minLevel": 30,
        "maxLevel": 30,
        "area": "great-marsh-area-1",
        "method": "walk",
        "location": "great-marsh",
        "conditions": ["time-night"]
    },
    {
        "minLevel": 28,
        "maxLevel": 28,
        "area": "great-marsh-area-2",
        "method": "walk",
        "location": "great-marsh",
        "conditions": ["time-night"]
    },
    {
        "minLevel": 30,
        "maxLevel": 30,
        "area": "great-marsh-area-2",
        "method": "walk",
        "location": "great-marsh",
        "conditions": ["time-night"]
    },
    {
        "minLevel": 28,
        "maxLevel": 28,
        "area": "great-marsh-area-3",
        "method": "walk",
        "location": "great-marsh",
        "conditions": ["time-night"]
    },
    {
        "minLevel": 28,
        "maxLevel": 28,
        "area": "great-marsh-area-4",
        "method": "walk",
        "location": "great-marsh",
        "conditions": ["time-night"]
    },
    {
        "minLevel": 21,
        "maxLevel": 21,
        "area": "sinnoh-route-210-south-towards-solaceon-town",
        "method": "walk",
        "location": "sinnoh-route-210",
        "conditions": ["time-night"]
    },
    {
        "minLevel": 27,
        "maxLevel": 27,
        "area": "sinnoh-route-210-west-towards-celestic-town",
        "method": "walk",
        "location": "sinnoh-route-210",
        "conditions": ["time-night"]
    },
    {
        "minLevel": 29,
        "maxLevel": 29,
        "area": "sinnoh-route-211-east-towards-celestic-town",
        "method": "walk",
        "location": "sinnoh-route-211",
        "conditions": ["time-night"]
    }
]