[
    {
        "minLevel": 50,
        "maxLevel": 50,
        "area": "sinnoh-route-225-area",
        "method": "walk",
        "location": "sinnoh-route-225",
        "conditions": ["radar-off"]
    },
    {
        "minLevel": 49,
        "maxLevel": 49,
        "area": "sinnoh-route-225-area",
        "method": "walk",
        "location": "sinnoh-route-225",
        "conditions": []
    },
    {
        "minLevel": 50,
        "maxLevel": 50,
        "area": "sinnoh-sea-route-226-area",
        "method": "walk",
        "location": "sinnoh-sea-route-226",
        "conditions": ["radar-off"]
    },
    {
        "minLevel": 49,
        "maxLevel": 49,
        "area": "sinnoh-sea-route-226-area",
        "method": "walk",
        "location": "sinnoh-sea-route-226",
        "conditions": []
    }
]