[
    {
        "minLevel": 39,
        "maxLevel": 39,
        "area": "sinnoh-route-222-area",
        "method": "walk",
        "location": "sinnoh-route-222",
        "conditions": ["swarm-yes"]
    },
    {
        "minLevel": 40,
        "maxLevel": 40,
        "area": "sinnoh-route-222-area",
        "method": "walk",
        "location": "sinnoh-route-222",
        "conditions": ["swarm-yes"]
    }
]