[
    {
        "minLevel": 2,
        "maxLevel": 2,
        "area": "lake-verity-before-galactic-intervention",
        "method": "walk",
        "location": "lake-verity",
        "conditions": []
    },
    {
        "minLevel": 3,
        "maxLevel": 3,
        "area": "lake-verity-before-galactic-intervention",
        "method": "walk",
        "location": "lake-verity",
        "conditions": ["time-morning"]
    },
    {
        "minLevel": 3,
        "maxLevel": 3,
        "area": "lake-verity-before-galactic-intervention",
        "method": "walk",
        "location": "lake-verity",
        "conditions": ["time-day"]
    },
    {
        "minLevel": 3,
        "maxLevel": 3,
        "area": "lake-verity-before-galactic-intervention",
        "method": "walk",
        "location": "lake-verity",
        "conditions": ["radar-off"]
    },
    {
        "minLevel": 4,
        "maxLevel": 4,
        "area": "lake-verity-before-galactic-intervention",
        "method": "walk",
        "location": "lake-verity",
        "conditions": []
    },
    {
        "minLevel": 4,
        "maxLevel": 4,
        "area": "lake-verity-before-galactic-intervention",
        "method": "walk",
        "location": "lake-verity",
        "conditions": ["slot2-none"]
    },
    {
        "minLevel": 4,
        "maxLevel": 4,
        "area": "lake-verity-before-galactic-intervention",
        "method": "walk",
        "location": "lake-verity",
        "conditions": ["slot2-emerald"]
    },
    {
        "minLevel": 4,
        "maxLevel": 4,
        "area": "lake-verity-before-galactic-intervention",
        "method": "walk",
        "location": "lake-verity",
        "conditions": ["slot2-firered"]
    },
    {
        "minLevel": 4,
        "maxLevel": 4,
        "area": "lake-verity-before-galactic-intervention",
        "method": "walk",
        "location": "lake-verity",
        "conditions": ["slot2-leafgreen"]
    },
    {
        "minLevel": 4,
        "maxLevel": 4,
        "area": "lake-verity-before-galactic-intervention",
        "method": "walk",
        "location": "lake-verity",
        "conditions": ["radar-off"]
    },
    {
        "minLevel": 2,
        "maxLevel": 2,
        "area": "lake-verity-after-galactic-intervention",
        "method": "walk",
        "location": "lake-verity",
        "conditions": []
    },
    {
        "minLevel": 3,
        "maxLevel": 3,
        "area": "lake-verity-after-galactic-intervention",
        "method": "walk",
        "location": "lake-verity",
        "conditions": []
    },
    {
        "minLevel": 3,
        "maxLevel": 3,
        "area": "lake-verity-after-galactic-intervention",
        "method": "walk",
        "location": "lake-verity",
        "conditions": ["radar-off"]
    },
    {
        "minLevel": 4,
        "maxLevel": 4,
        "area": "lake-verity-after-galactic-intervention",
        "method": "walk",
        "location": "lake-verity",
        "conditions": []
    },
    {
        "minLevel": 4,
        "maxLevel": 4,
        "area": "lake-verity-after-galactic-intervention",
        "method": "walk",
        "location": "lake-verity",
        "conditions": ["slot2-none"]
    },
    {
        "minLevel": 4,
        "maxLevel": 4,
        "area": "lake-verity-after-galactic-intervention",
        "method": "walk",
        "location": "lake-verity",
        "conditions": ["slot2-emerald"]
    },
    {
        "minLevel": 4,
        "maxLevel": 4,
        "area": "lake-verity-after-galactic-intervention",
        "method": "walk",
        "location": "lake-verity",
        "conditions": ["slot2-firered"]
    },
    {
        "minLevel": 4,
        "maxLevel": 4,
        "area": "lake-verity-after-galactic-intervention",
        "method": "walk",
        "location": "lake-verity",
        "conditions": ["slot2-leafgreen"]
    },
    {
        "minLevel": 4,
        "maxLevel": 4,
        "area": "lake-verity-after-galactic-intervention",
        "method": "walk",
        "location": "lake-verity",
        "conditions": ["radar-off"]
    },
    {
        "minLevel": 2,
        "maxLevel": 2,
        "area": "sinnoh-route-201-area",
        "method": "walk",
        "location": "sinnoh-route-201",
        "conditions": ["swarm-no"]
    },
    {
        "minLevel": 3,
        "maxLevel": 3,
        "area": "sinnoh-route-201-area",
        "method": "walk",
        "location": "sinnoh-route-201",
        "conditions": ["time-morning"]
    },
    {
        "minLevel": 3,
        "maxLevel": 3,
        "area": "sinnoh-route-201-area",
        "method": "walk",
        "location": "sinnoh-route-201",
        "conditions": ["time-day"]
    },
    {
        "minLevel": 3,
        "maxLevel": 3,
        "area": "sinnoh-route-201-area",
        "method": "walk",
        "location": "sinnoh-route-201",
        "conditions": ["radar-off"]
    },
    {
        "minLevel": 3,
        "maxLevel": 3,
        "area": "sinnoh-route-201-area",
        "method": "walk",
        "location": "sinnoh-route-201",
        "conditions": []
    },
    {
        "minLevel": 2,
        "maxLevel": 2,
        "area": "sinnoh-route-201-area",
        "method": "walk",
        "location": "sinnoh-route-201",
        "conditions": ["slot2-none"]
    },
    {
        "minLevel": 2,
        "maxLevel": 2,
        "area": "sinnoh-route-201-area",
        "method": "walk",
        "location": "sinnoh-route-201",
        "conditions": ["slot2-ruby"]
    },
    {
        "minLevel": 2,
        "maxLevel": 2,
        "area": "sinnoh-route-201-area",
        "method": "walk",
        "location": "sinnoh-route-201",
        "conditions": ["slot2-sapphire"]
    },
    {
        "minLevel": 2,
        "maxLevel": 2,
        "area": "sinnoh-route-201-area",
        "method": "walk",
        "location": "sinnoh-route-201",
        "conditions": ["slot2-emerald"]
    },
    {
        "minLevel": 2,
        "maxLevel": 2,
        "area": "sinnoh-route-201-area",
        "method": "walk",
        "location": "sinnoh-route-201",
        "conditions": ["slot2-leafgreen"]
    },
    {
        "minLevel": 2,
        "maxLevel": 2,
        "area": "sinnoh-route-201-area",
        "method": "walk",
        "location": "sinnoh-route-201",
        "conditions": ["radar-off"]
    },
    {
        "minLevel": 4,
        "maxLevel": 4,
        "area": "sinnoh-route-202-area",
        "method": "walk",
        "location": "sinnoh-route-202",
        "conditions": ["time-morning"]
    },
    {
        "minLevel": 4,
        "maxLevel": 4,
        "area": "sinnoh-route-202-area",
        "method": "walk",
        "location": "sinnoh-route-202",
        "conditions": ["time-day"]
    },
    {
        "minLevel": 4,
        "maxLevel": 4,
        "area": "sinnoh-route-202-area",
        "method": "walk",
        "location": "sinnoh-route-202",
        "conditions": []
    },
    {
        "minLevel": 2,
        "maxLevel": 2,
        "area": "sinnoh-route-202-area",
        "method": "walk",
        "location": "sinnoh-route-202",
        "conditions": ["slot2-none"]
    },
    {
        "minLevel": 2,
        "maxLevel": 2,
        "area": "sinnoh-route-202-area",
        "method": "walk",
        "location": "sinnoh-route-202",
        "conditions": ["slot2-ruby"]
    },
    {
        "minLevel": 2,
        "maxLevel": 2,
        "area": "sinnoh-route-202-area",
        "method": "walk",
        "location": "sinnoh-route-202",
        "conditions": ["slot2-sapphire"]
    },
    {
        "minLevel": 2,
        "maxLevel": 2,
        "area": "sinnoh-route-202-area",
        "method": "walk",
        "location": "sinnoh-route-202",
        "conditions": ["slot2-emerald"]
    },
    {
        "minLevel": 2,
        "maxLevel": 2,
        "area": "sinnoh-route-202-area",
        "method": "walk",
        "location": "sinnoh-route-202",
        "conditions": ["slot2-leafgreen"]
    },
    {
        "minLevel": 2,
        "maxLevel": 2,
        "area": "sinnoh-route-202-area",
        "method": "walk",
        "location": "sinnoh-route-202",
        "conditions": ["radar-off"]
    },
    {
        "minLevel": 4,
        "maxLevel": 4,
        "area": "sinnoh-route-203-area",
        "method": "walk",
        "location": "sinnoh-route-203",
        "conditions": ["swarm-no"]
    },
    {
        "minLevel": 5,
        "maxLevel": 5,
        "area": "sinnoh-route-203-area",
        "method": "walk",
        "location": "sinnoh-route-203",
        "conditions": ["time-morning"]
    },
    {
        "minLevel": 5,
        "maxLevel": 5,
        "area": "sinnoh-route-203-area",
        "method": "walk",
        "location": "sinnoh-route-203",
        "conditions": ["time-day"]
    },
    {
        "minLevel": 6,
        "maxLevel": 6,
        "area": "sinnoh-route-203-area",
        "method": "walk",
        "location": "sinnoh-route-203",
        "conditions": ["slot2-none"]
    },
    {
        "minLevel": 6,
        "maxLevel": 6,
        "area": "sinnoh-route-203-area",
        "method": "walk",
        "location": "sinnoh-route-203",
        "conditions": ["slot2-firered"]
    },
    {
        "minLevel": 6,
        "maxLevel": 6,
        "area": "sinnoh-route-203-area",
        "method": "walk",
        "location": "sinnoh-route-203",
        "conditions": ["slot2-leafgreen"]
    },
    {
        "minLevel": 7,
        "maxLevel": 7,
        "area": "sinnoh-route-203-area",
        "method": "walk",
        "location": "sinnoh-route-203",
        "conditions": []
    },
    {
        "minLevel": 4,
        "maxLevel": 4,
        "area": "sinnoh-route-204-south-towards-jubilife-city",
        "method": "walk",
        "location": "sinnoh-route-204",
        "conditions": []
    },
    {
        "minLevel": 5,
        "maxLevel": 5,
        "area": "sinnoh-route-204-south-towards-jubilife-city",
        "method": "walk",
        "location": "sinnoh-route-204",
        "conditions": ["slot2-none"]
    },
    {
        "minLevel": 6,
        "maxLevel": 6,
        "area": "sinnoh-route-204-south-towards-jubilife-city",
        "method": "walk",
        "location": "sinnoh-route-204",
        "conditions": []
    },
    {
        "minLevel": 9,
        "maxLevel": 9,
        "area": "sinnoh-route-204-north-towards-floaroma-town",
        "method": "walk",
        "location": "sinnoh-route-204",
        "conditions": []
    },
    {
        "minLevel": 10,
        "maxLevel": 10,
        "area": "sinnoh-route-204-north-towards-floaroma-town",
        "method": "walk",
        "location": "sinnoh-route-204",
        "conditions": ["slot2-none"]
    },
    {
        "minLevel": 11,
        "maxLevel": 11,
        "area": "sinnoh-route-204-north-towards-floaroma-town",
        "method": "walk",
        "location": "sinnoh-route-204",
        "conditions": ["radar-off"]
    }
]