[
    {
        "minLevel": 42,
        "maxLevel": 42,
        "area": "sinnoh-victory-road-1f",
        "method": "walk",
        "location": "sinnoh-victory-road",
        "conditions": []
    },
    {
        "minLevel": 42,
        "maxLevel": 42,
        "area": "sinnoh-victory-road-1f",
        "method": "walk",
        "location": "sinnoh-victory-road",
        "conditions": []
    },
    {
        "minLevel": 42,
        "maxLevel": 42,
        "area": "sinnoh-victory-road-2f",
        "method": "walk",
        "location": "sinnoh-victory-road",
        "conditions": []
    },
    {
        "minLevel": 42,
        "maxLevel": 42,
        "area": "sinnoh-victory-road-2f",
        "method": "walk",
        "location": "sinnoh-victory-road",
        "conditions": []
    },
    {
        "minLevel": 44,
        "maxLevel": 44,
        "area": "sinnoh-victory-road-2f",
        "method": "walk",
        "location": "sinnoh-victory-road",
        "conditions": []
    },
    {
        "minLevel": 44,
        "maxLevel": 44,
        "area": "sinnoh-victory-road-b1f",
        "method": "walk",
        "location": "sinnoh-victory-road",
        "conditions": []
    },
    {
        "minLevel": 44,
        "maxLevel": 44,
        "area": "sinnoh-victory-road-b1f",
        "method": "walk",
        "location": "sinnoh-victory-road",
        "conditions": []
    },
    {
        "minLevel": 50,
        "maxLevel": 50,
        "area": "sinnoh-victory-road-inside",
        "method": "walk",
        "location": "sinnoh-victory-road",
        "conditions": []
    },
    {
        "minLevel": 50,
        "maxLevel": 50,
        "area": "sinnoh-victory-road-inside",
        "method": "walk",
        "location": "sinnoh-victory-road",
        "conditions": []
    },
    {
        "minLevel": 50,
        "maxLevel": 50,
        "area": "sinnoh-victory-road-inside-exit",
        "method": "walk",
        "location": "sinnoh-victory-road",
        "conditions": []
    },
    {
        "minLevel": 50,
        "maxLevel": 50,
        "area": "sinnoh-victory-road-inside-exit",
        "method": "walk",
        "location": "sinnoh-victory-road",
        "conditions": []
    },
    {
        "minLevel": 33,
        "maxLevel": 33,
        "area": "iron-island-b2f-right",
        "method": "walk",
        "location": "iron-island",
        "conditions": []
    },
    {
        "minLevel": 35,
        "maxLevel": 35,
        "area": "iron-island-b2f-right",
        "method": "walk",
        "location": "iron-island",
        "conditions": []
    },
    {
        "minLevel": 33,
        "maxLevel": 33,
        "area": "iron-island-b2f-left",
        "method": "walk",
        "location": "iron-island",
        "conditions": []
    },
    {
        "minLevel": 35,
        "maxLevel": 35,
        "area": "iron-island-b2f-left",
        "method": "walk",
        "location": "iron-island",
        "conditions": []
    },
    {
        "minLevel": 32,
        "maxLevel": 32,
        "area": "iron-island-b3f",
        "method": "walk",
        "location": "iron-island",
        "conditions": ["swarm-no"]
    },
    {
        "minLevel": 33,
        "maxLevel": 33,
        "area": "iron-island-b3f",
        "method": "walk",
        "location": "iron-island",
        "conditions": []
    },
    {
        "minLevel": 35,
        "maxLevel": 35,
        "area": "iron-island-b3f",
        "method": "walk",
        "location": "iron-island",
        "conditions": []
    }
]