[
    {
        "minLevel": 32,
        "maxLevel": 32,
        "area": "acuity-lakefront-area",
        "method": "walk",
        "location": "acuity-lakefront",
        "conditions": []
    },
    {
        "minLevel": 34,
        "maxLevel": 34,
        "area": "acuity-lakefront-area",
        "method": "walk",
        "location": "acuity-lakefront",
        "conditions": []
    },
    {
        "minLevel": 32,
        "maxLevel": 32,
        "area": "acuity-lakefront-area",
        "method": "walk",
        "location": "acuity-lakefront",
        "conditions": []
    },
    {
        "minLevel": 33,
        "maxLevel": 33,
        "area": "sinnoh-route-217-area",
        "method": "walk",
        "location": "sinnoh-route-217",
        "conditions": ["swarm-no"]
    },
    {
        "minLevel": 34,
        "maxLevel": 34,
        "area": "sinnoh-route-217-area",
        "method": "walk",
        "location": "sinnoh-route-217",
        "conditions": ["radar-off"]
    },
    {
        "minLevel": 32,
        "maxLevel": 32,
        "area": "sinnoh-route-217-area",
        "method": "walk",
        "location": "sinnoh-route-217",
        "conditions": []
    }
]