[
    {
        "minLevel": 40,
        "maxLevel": 55,
        "area": "sinnoh-sea-route-223-area",
        "method": "super-rod",
        "location": "sinnoh-sea-route-223",
        "conditions": []
    },
    {
        "minLevel": 40,
        "maxLevel": 55,
        "area": "sinnoh-sea-route-223-area",
        "method": "super-rod",
        "location": "sinnoh-sea-route-223",
        "conditions": []
    },
    {
        "minLevel": 40,
        "maxLevel": 55,
        "area": "sinnoh-sea-route-230-area",
        "method": "super-rod",
        "location": "sinnoh-sea-route-230",
        "conditions": []
    },
    {
        "minLevel": 40,
        "maxLevel": 55,
        "area": "sinnoh-sea-route-230-area",
        "method": "super-rod",
        "location": "sinnoh-sea-route-230",
        "conditions": []
    }
]