[
    {
        "minLevel": 10,
        "maxLevel": 10,
        "area": "eterna-forest-area",
        "method": "walk",
        "location": "eterna-forest",
        "conditions": ["time-morning"]
    },
    {
        "minLevel": 10,
        "maxLevel": 10,
        "area": "eterna-forest-area",
        "method": "walk",
        "location": "eterna-forest",
        "conditions": ["time-day"]
    },
    {
        "minLevel": 4,
        "maxLevel": 4,
        "area": "sinnoh-route-204-south-towards-jubilife-city",
        "method": "walk",
        "location": "sinnoh-route-204",
        "conditions": ["time-morning"]
    },
    {
        "minLevel": 4,
        "maxLevel": 4,
        "area": "sinnoh-route-204-south-towards-jubilife-city",
        "method": "walk",
        "location": "sinnoh-route-204",
        "conditions": ["time-day"]
    },
    {
        "minLevel": 9,
        "maxLevel": 9,
        "area": "sinnoh-route-204-north-towards-floaroma-town",
        "method": "walk",
        "location": "sinnoh-route-204",
        "conditions": ["time-morning"]
    },
    {
        "minLevel": 9,
        "maxLevel": 9,
        "area": "sinnoh-route-204-north-towards-floaroma-town",
        "method": "walk",
        "location": "sinnoh-route-204",
        "conditions": ["time-day"]
    },
    {
        "minLevel": 13,
        "maxLevel": 13,
        "area": "sinnoh-route-205-east-towards-eterna-city",
        "method": "walk",
        "location": "sinnoh-route-205",
        "conditions": ["time-morning"]
    },
    {
        "minLevel": 13,
        "maxLevel": 13,
        "area": "sinnoh-route-205-east-towards-eterna-city",
        "method": "walk",
        "location": "sinnoh-route-205",
        "conditions": ["time-day"]
    }
]