[
    {
        "minLevel": 3,
        "maxLevel": 3,
        "area": "sinnoh-route-202-area",
        "method": "walk",
        "location": "sinnoh-route-202",
        "conditions": ["swarm-yes"]
    },
    {
        "minLevel": 3,
        "maxLevel": 3,
        "area": "sinnoh-route-202-area",
        "method": "walk",
        "location": "sinnoh-route-202",
        "conditions": ["swarm-yes"]
    }
]