[
    {
        "minLevel": 10,
        "maxLevel": 10,
        "area": "mt-moon-1f",
        "method": "walk",
        "location": "mt-moon",
        "conditions": []
    },
    {
        "minLevel": 10,
        "maxLevel": 10,
        "area": "mt-moon-1f",
        "method": "walk",
        "location": "mt-moon",
        "conditions": []
    },
    {
        "minLevel": 10,
        "maxLevel": 10,
        "area": "mt-moon-b1f",
        "method": "walk",
        "location": "mt-moon",
        "conditions": []
    },
    {
        "minLevel": 11,
        "maxLevel": 11,
        "area": "mt-moon-b1f",
        "method": "walk",
        "location": "mt-moon",
        "conditions": []
    },
    {
        "minLevel": 11,
        "maxLevel": 11,
        "area": "mt-moon-b2f",
        "method": "walk",
        "location": "mt-moon",
        "conditions": []
    },
    {
        "minLevel": 16,
        "maxLevel": 16,
        "area": "rock-tunnel-b1f",
        "method": "walk",
        "location": "rock-tunnel",
        "conditions": []
    },
    {
        "minLevel": 18,
        "maxLevel": 18,
        "area": "rock-tunnel-b1f",
        "method": "walk",
        "location": "rock-tunnel",
        "conditions": []
    },
    {
        "minLevel": 20,
        "maxLevel": 20,
        "area": "rock-tunnel-b1f",
        "method": "walk",
        "location": "rock-tunnel",
        "conditions": []
    },
    {
        "minLevel": 17,
        "maxLevel": 17,
        "area": "rock-tunnel-b2f",
        "method": "walk",
        "location": "rock-tunnel",
        "conditions": []
    },
    {
        "minLevel": 21,
        "maxLevel": 21,
        "area": "rock-tunnel-b2f",
        "method": "walk",
        "location": "rock-tunnel",
        "conditions": []
    },
    {
        "minLevel": 26,
        "maxLevel": 26,
        "area": "kanto-victory-road-2-1f",
        "method": "walk",
        "location": "kanto-victory-road-2",
        "conditions": []
    },
    {
        "minLevel": 31,
        "maxLevel": 31,
        "area": "kanto-victory-road-2-1f",
        "method": "walk",
        "location": "kanto-victory-road-2",
        "conditions": []
    },
    {
        "minLevel": 36,
        "maxLevel": 36,
        "area": "kanto-victory-road-2-1f",
        "method": "walk",
        "location": "kanto-victory-road-2",
        "conditions": []
    },
    {
        "minLevel": 41,
        "maxLevel": 41,
        "area": "kanto-victory-road-2-1f",
        "method": "walk",
        "location": "kanto-victory-road-2",
        "conditions": []
    },
    {
        "minLevel": 31,
        "maxLevel": 31,
        "area": "kanto-victory-road-2-2f",
        "method": "walk",
        "location": "kanto-victory-road-2",
        "conditions": []
    },
    {
        "minLevel": 36,
        "maxLevel": 36,
        "area": "kanto-victory-road-2-2f",
        "method": "walk",
        "location": "kanto-victory-road-2",
        "conditions": []
    },
    {
        "minLevel": 41,
        "maxLevel": 41,
        "area": "kanto-victory-road-2-2f",
        "method": "walk",
        "location": "kanto-victory-road-2",
        "conditions": []
    },
    {
        "minLevel": 36,
        "maxLevel": 36,
        "area": "kanto-victory-road-2-3f",
        "method": "walk",
        "location": "kanto-victory-road-2",
        "conditions": []
    },
    {
        "minLevel": 41,
        "maxLevel": 41,
        "area": "kanto-victory-road-2-3f",
        "method": "walk",
        "location": "kanto-victory-road-2",
        "conditions": []
    },
    {
        "minLevel": 46,
        "maxLevel": 46,
        "area": "kanto-victory-road-2-3f",
        "method": "walk",
        "location": "kanto-victory-road-2",
        "conditions": []
    }
]