[
    {
        "minLevel": 3,
        "maxLevel": 3,
        "area": "kanto-route-22-area",
        "method": "walk",
        "location": "kanto-route-22",
        "conditions": []
    },
    {
        "minLevel": 5,
        "maxLevel": 5,
        "area": "kanto-route-22-area",
        "method": "walk",
        "location": "kanto-route-22",
        "conditions": []
    },
    {
        "minLevel": 9,
        "maxLevel": 9,
        "area": "kanto-route-3-area",
        "method": "walk",
        "location": "kanto-route-3",
        "conditions": []
    },
    {
        "minLevel": 9,
        "maxLevel": 9,
        "area": "kanto-route-4-area",
        "method": "walk",
        "location": "kanto-route-4",
        "conditions": []
    },
    {
        "minLevel": 36,
        "maxLevel": 36,
        "area": "kanto-route-23-area",
        "method": "walk",
        "location": "kanto-route-23",
        "conditions": []
    },
    {
        "minLevel": 41,
        "maxLevel": 41,
        "area": "kanto-route-23-area",
        "method": "walk",
        "location": "kanto-route-23",
        "conditions": []
    }
]