[
    {
        "minLevel": 25,
        "maxLevel": 25,
        "area": "kanto-route-12-area",
        "method": "walk",
        "location": "kanto-route-12",
        "conditions": []
    },
    {
        "minLevel": 27,
        "maxLevel": 27,
        "area": "kanto-route-12-area",
        "method": "walk",
        "location": "kanto-route-12",
        "conditions": []
    },
    {
        "minLevel": 25,
        "maxLevel": 25,
        "area": "kanto-route-13-area",
        "method": "walk",
        "location": "kanto-route-13",
        "conditions": []
    },
    {
        "minLevel": 27,
        "maxLevel": 27,
        "area": "kanto-route-13-area",
        "method": "walk",
        "location": "kanto-route-13",
        "conditions": []
    },
    {
        "minLevel": 26,
        "maxLevel": 26,
        "area": "kanto-route-14-area",
        "method": "walk",
        "location": "kanto-route-14",
        "conditions": []
    },
    {
        "minLevel": 28,
        "maxLevel": 28,
        "area": "kanto-route-14-area",
        "method": "walk",
        "location": "kanto-route-14",
        "conditions": []
    },
    {
        "minLevel": 26,
        "maxLevel": 26,
        "area": "kanto-route-15-area",
        "method": "walk",
        "location": "kanto-route-15",
        "conditions": []
    },
    {
        "minLevel": 28,
        "maxLevel": 28,
        "area": "kanto-route-15-area",
        "method": "walk",
        "location": "kanto-route-15",
        "conditions": []
    },
    {
        "minLevel": 12,
        "maxLevel": 12,
        "area": "kanto-route-24-area",
        "method": "walk",
        "location": "kanto-route-24",
        "conditions": []
    },
    {
        "minLevel": 14,
        "maxLevel": 14,
        "area": "kanto-route-24-area",
        "method": "walk",
        "location": "kanto-route-24",
        "conditions": []
    },
    {
        "minLevel": 12,
        "maxLevel": 12,
        "area": "kanto-route-25-area",
        "method": "walk",
        "location": "kanto-route-25",
        "conditions": []
    },
    {
        "minLevel": 14,
        "maxLevel": 14,
        "area": "kanto-route-25-area",
        "method": "walk",
        "location": "kanto-route-25",
        "conditions": []
    }
]