{
    "encounters": [
        "sandslash",
        "diglett",
        "dugtrio",
        "poliwag",
        "poliwhirl",
        "rhydon",
        "magikarp",
        "gyarados",
        "trapinch",
        "vibrava",
        "cacnea",
        "cacturne",
        "barboach",
        "whiscash",
        "beldum",
        "hippowdon"
    ],
    "id": "sinnoh-route-228-area"
}