{
    "encounters": [
        "spearow",
        "fearow",
        "meowth",
        "persian",
        "psyduck",
        "slowpoke",
        "sentret",
        "phanpy"
    ],
    "id": "canyon-entrance-area"
}