{
    "encounters": [
        "abra",
        "kadabra",
        "geodude",
        "ponyta",
        "drowzee",
        "lickitung",
        "scyther",
        "marill",
        "gligar",
        "houndoom",
        "mightyena",
        "staravia",
        "kricketune"
    ],
    "id": "sinnoh-route-215-area"
}