[
    {
        "minLevel": 19,
        "maxLevel": 19,
        "area": "hoenn-route-111-area",
        "method": "walk",
        "location": "hoenn-route-111",
        "conditions": []
    },
    {
        "minLevel": 21,
        "maxLevel": 21,
        "area": "hoenn-route-111-area",
        "method": "walk",
        "location": "hoenn-route-111",
        "conditions": []
    }
]