[
    {
        "minLevel": 10,
        "maxLevel": 30,
        "area": "hoenn-route-118-area",
        "method": "good-rod",
        "location": "hoenn-route-118",
        "conditions": []
    },
    {
        "minLevel": 30,
        "maxLevel": 35,
        "area": "hoenn-route-118-area",
        "method": "super-rod",
        "location": "hoenn-route-118",
        "conditions": []
    },
    {
        "minLevel": 20,
        "maxLevel": 25,
        "area": "hoenn-route-118-area",
        "method": "super-rod",
        "location": "hoenn-route-118",
        "conditions": []
    },
    {
        "minLevel": 35,
        "maxLevel": 40,
        "area": "hoenn-route-118-area",
        "method": "super-rod",
        "location": "hoenn-route-118",
        "conditions": []
    },
    {
        "minLevel": 40,
        "maxLevel": 45,
        "area": "hoenn-route-118-area",
        "method": "super-rod",
        "location": "hoenn-route-118",
        "conditions": []
    },
    {
        "minLevel": 10,
        "maxLevel": 30,
        "area": "hoenn-route-119-area",
        "method": "good-rod",
        "location": "hoenn-route-119",
        "conditions": []
    },
    {
        "minLevel": 25,
        "maxLevel": 30,
        "area": "hoenn-route-119-area",
        "method": "super-rod",
        "location": "hoenn-route-119",
        "conditions": []
    },
    {
        "minLevel": 30,
        "maxLevel": 35,
        "area": "hoenn-route-119-area",
        "method": "super-rod",
        "location": "hoenn-route-119",
        "conditions": []
    },
    {
        "minLevel": 20,
        "maxLevel": 25,
        "area": "hoenn-route-119-area",
        "method": "super-rod",
        "location": "hoenn-route-119",
        "conditions": []
    },
    {
        "minLevel": 35,
        "maxLevel": 40,
        "area": "hoenn-route-119-area",
        "method": "super-rod",
        "location": "hoenn-route-119",
        "conditions": []
    },
    {
        "minLevel": 40,
        "maxLevel": 45,
        "area": "hoenn-route-119-area",
        "method": "super-rod",
        "location": "hoenn-route-119",
        "conditions": []
    }
]