[
    {
        "minLevel": 30,
        "maxLevel": 35,
        "area": "ever-grande-city-area",
        "method": "super-rod",
        "location": "ever-grande-city",
        "conditions": []
    },
    {
        "minLevel": 30,
        "maxLevel": 35,
        "area": "hoenn-route-128-area",
        "method": "super-rod",
        "location": "hoenn-route-128",
        "conditions": []
    }
]