[
    {
        "minLevel": 28,
        "maxLevel": 28,
        "area": "hoenn-route-121-area",
        "method": "walk",
        "location": "hoenn-route-121",
        "conditions": []
    },
    {
        "minLevel": 28,
        "maxLevel": 28,
        "area": "hoenn-route-123-area",
        "method": "walk",
        "location": "hoenn-route-123",
        "conditions": []
    },
    {
        "minLevel": 29,
        "maxLevel": 29,
        "area": "hoenn-safari-zone-nwmach-bike-area",
        "method": "walk",
        "location": "hoenn-safari-zone",
        "conditions": []
    },
    {
        "minLevel": 31,
        "maxLevel": 31,
        "area": "hoenn-safari-zone-nwmach-bike-area",
        "method": "walk",
        "location": "hoenn-safari-zone",
        "conditions": []
    },
    {
        "minLevel": 29,
        "maxLevel": 29,
        "area": "hoenn-safari-zone-neacro-bike-area",
        "method": "walk",
        "location": "hoenn-safari-zone",
        "conditions": []
    },
    {
        "minLevel": 31,
        "maxLevel": 31,
        "area": "hoenn-safari-zone-neacro-bike-area",
        "method": "walk",
        "location": "hoenn-safari-zone",
        "conditions": []
    },
    {
        "minLevel": 25,
        "maxLevel": 25,
        "area": "hoenn-safari-zone-sw",
        "method": "walk",
        "location": "hoenn-safari-zone",
        "conditions": []
    },
    {
        "minLevel": 25,
        "maxLevel": 25,
        "area": "hoenn-safari-zone-se",
        "method": "walk",
        "location": "hoenn-safari-zone",
        "conditions": []
    }
]