[
    {
        "minLevel": 15,
        "maxLevel": 15,
        "area": "fiery-path-area",
        "method": "walk",
        "location": "fiery-path",
        "conditions": []
    },
    {
        "minLevel": 16,
        "maxLevel": 16,
        "area": "fiery-path-area",
        "method": "walk",
        "location": "fiery-path",
        "conditions": []
    }
]