[
    {
        "minLevel": 5,
        "maxLevel": 5,
        "area": "petalburg-woods-area",
        "method": "walk",
        "location": "petalburg-woods",
        "conditions": []
    },
    {
        "minLevel": 6,
        "maxLevel": 6,
        "area": "petalburg-woods-area",
        "method": "walk",
        "location": "petalburg-woods",
        "conditions": []
    }
]