[
    {
        "minLevel": 2,
        "maxLevel": 2,
        "area": "digletts-cave-area",
        "method": "walk",
        "location": "digletts-cave",
        "conditions": ["time-day"]
    },
    {
        "minLevel": 4,
        "maxLevel": 4,
        "area": "digletts-cave-area",
        "method": "walk",
        "location": "digletts-cave",
        "conditions": ["time-day"]
    },
    {
        "minLevel": 8,
        "maxLevel": 8,
        "area": "digletts-cave-area",
        "method": "walk",
        "location": "digletts-cave",
        "conditions": ["time-day"]
    },
    {
        "minLevel": 16,
        "maxLevel": 16,
        "area": "digletts-cave-area",
        "method": "walk",
        "location": "digletts-cave",
        "conditions": ["time-day"]
    },
    {
        "minLevel": 3,
        "maxLevel": 3,
        "area": "digletts-cave-area",
        "method": "walk",
        "location": "digletts-cave",
        "conditions": ["time-morning"]
    },
    {
        "minLevel": 6,
        "maxLevel": 6,
        "area": "digletts-cave-area",
        "method": "walk",
        "location": "digletts-cave",
        "conditions": ["time-morning"]
    },
    {
        "minLevel": 12,
        "maxLevel": 12,
        "area": "digletts-cave-area",
        "method": "walk",
        "location": "digletts-cave",
        "conditions": ["time-morning"]
    },
    {
        "minLevel": 24,
        "maxLevel": 24,
        "area": "digletts-cave-area",
        "method": "walk",
        "location": "digletts-cave",
        "conditions": ["time-morning"]
    },
    {
        "minLevel": 4,
        "maxLevel": 4,
        "area": "digletts-cave-area",
        "method": "walk",
        "location": "digletts-cave",
        "conditions": ["time-night"]
    },
    {
        "minLevel": 8,
        "maxLevel": 8,
        "area": "digletts-cave-area",
        "method": "walk",
        "location": "digletts-cave",
        "conditions": ["time-night"]
    },
    {
        "minLevel": 16,
        "maxLevel": 16,
        "area": "digletts-cave-area",
        "method": "walk",
        "location": "digletts-cave",
        "conditions": ["time-night"]
    },
    {
        "minLevel": 32,
        "maxLevel": 32,
        "area": "digletts-cave-area",
        "method": "walk",
        "location": "digletts-cave",
        "conditions": ["time-night"]
    }
]