[
    {
        "minLevel": 16,
        "maxLevel": 16,
        "area": "digletts-cave-area",
        "method": "walk",
        "location": "digletts-cave",
        "conditions": ["time-day"]
    },
    {
        "minLevel": 16,
        "maxLevel": 16,
        "area": "digletts-cave-area",
        "method": "walk",
        "location": "digletts-cave",
        "conditions": ["time-day"]
    },
    {
        "minLevel": 16,
        "maxLevel": 16,
        "area": "digletts-cave-area",
        "method": "walk",
        "location": "digletts-cave",
        "conditions": ["time-day"]
    },
    {
        "minLevel": 24,
        "maxLevel": 24,
        "area": "digletts-cave-area",
        "method": "walk",
        "location": "digletts-cave",
        "conditions": ["time-morning"]
    },
    {
        "minLevel": 24,
        "maxLevel": 24,
        "area": "digletts-cave-area",
        "method": "walk",
        "location": "digletts-cave",
        "conditions": ["time-morning"]
    },
    {
        "minLevel": 24,
        "maxLevel": 24,
        "area": "digletts-cave-area",
        "method": "walk",
        "location": "digletts-cave",
        "conditions": ["time-morning"]
    },
    {
        "minLevel": 32,
        "maxLevel": 32,
        "area": "digletts-cave-area",
        "method": "walk",
        "location": "digletts-cave",
        "conditions": ["time-night"]
    },
    {
        "minLevel": 32,
        "maxLevel": 32,
        "area": "digletts-cave-area",
        "method": "walk",
        "location": "digletts-cave",
        "conditions": ["time-night"]
    },
    {
        "minLevel": 32,
        "maxLevel": 32,
        "area": "digletts-cave-area",
        "method": "walk",
        "location": "digletts-cave",
        "conditions": ["time-night"]
    }
]