[
    {
        "minLevel": 17,
        "maxLevel": 17,
        "area": "kanto-route-8-area",
        "method": "walk",
        "location": "kanto-route-8",
        "conditions": ["time-day"]
    },
    {
        "minLevel": 17,
        "maxLevel": 17,
        "area": "kanto-route-8-area",
        "method": "walk",
        "location": "kanto-route-8",
        "conditions": ["time-morning"]
    }
]