[
    {
        "minLevel": 4,
        "maxLevel": 4,
        "area": "kanto-route-2-south-towards-viridian-city",
        "method": "walk",
        "location": "kanto-route-2",
        "conditions": ["time-day"]
    },
    {
        "minLevel": 4,
        "maxLevel": 4,
        "area": "kanto-route-2-south-towards-viridian-city",
        "method": "walk",
        "location": "kanto-route-2",
        "conditions": ["time-day"]
    },
    {
        "minLevel": 4,
        "maxLevel": 4,
        "area": "kanto-route-2-south-towards-viridian-city",
        "method": "walk",
        "location": "kanto-route-2",
        "conditions": ["time-morning"]
    },
    {
        "minLevel": 4,
        "maxLevel": 4,
        "area": "kanto-route-2-south-towards-viridian-city",
        "method": "walk",
        "location": "kanto-route-2",
        "conditions": ["time-morning"]
    }
]