[
    {
        "minLevel": 25,
        "maxLevel": 29,
        "area": "kanto-route-12-area",
        "method": "surf",
        "location": "kanto-route-12",
        "conditions": []
    },
    {
        "minLevel": 23,
        "maxLevel": 23,
        "area": "kanto-route-13-area",
        "method": "walk",
        "location": "kanto-route-13",
        "conditions": []
    },
    {
        "minLevel": 25,
        "maxLevel": 25,
        "area": "kanto-route-13-area",
        "method": "walk",
        "location": "kanto-route-13",
        "conditions": []
    },
    {
        "minLevel": 25,
        "maxLevel": 25,
        "area": "kanto-route-13-area",
        "method": "walk",
        "location": "kanto-route-13",
        "conditions": []
    },
    {
        "minLevel": 25,
        "maxLevel": 29,
        "area": "kanto-route-13-area",
        "method": "surf",
        "location": "kanto-route-13",
        "conditions": []
    },
    {
        "minLevel": 26,
        "maxLevel": 26,
        "area": "kanto-route-14-area",
        "method": "walk",
        "location": "kanto-route-14",
        "conditions": ["time-night"]
    },
    {
        "minLevel": 28,
        "maxLevel": 28,
        "area": "kanto-route-14-area",
        "method": "walk",
        "location": "kanto-route-14",
        "conditions": ["time-night"]
    },
    {
        "minLevel": 28,
        "maxLevel": 28,
        "area": "kanto-route-14-area",
        "method": "walk",
        "location": "kanto-route-14",
        "conditions": ["time-night"]
    },
    {
        "minLevel": 23,
        "maxLevel": 23,
        "area": "kanto-route-15-area",
        "method": "walk",
        "location": "kanto-route-15",
        "conditions": ["time-night"]
    },
    {
        "minLevel": 25,
        "maxLevel": 25,
        "area": "kanto-route-15-area",
        "method": "walk",
        "location": "kanto-route-15",
        "conditions": ["time-night"]
    },
    {
        "minLevel": 25,
        "maxLevel": 25,
        "area": "kanto-route-15-area",
        "method": "walk",
        "location": "kanto-route-15",
        "conditions": ["time-night"]
    },
    {
        "minLevel": 30,
        "maxLevel": 30,
        "area": "kanto-route-26-area",
        "method": "walk",
        "location": "kanto-route-26",
        "conditions": ["time-night"]
    },
    {
        "minLevel": 30,
        "maxLevel": 30,
        "area": "kanto-route-26-area",
        "method": "walk",
        "location": "kanto-route-26",
        "conditions": ["time-night"]
    },
    {
        "minLevel": 30,
        "maxLevel": 30,
        "area": "kanto-route-26-area",
        "method": "walk",
        "location": "kanto-route-26",
        "conditions": ["time-night"]
    },
    {
        "minLevel": 28,
        "maxLevel": 28,
        "area": "kanto-route-27-area",
        "method": "walk",
        "location": "kanto-route-27",
        "conditions": ["time-night"]
    },
    {
        "minLevel": 30,
        "maxLevel": 30,
        "area": "kanto-route-27-area",
        "method": "walk",
        "location": "kanto-route-27",
        "conditions": ["time-night"]
    }
]