{
    "encounters": [
        "golbat",
        "goldeen",
        "magikarp",
        "sableye",
        "mawile",
        "lairon",
        "medicham",
        "barboach",
        "whiscash"
    ],
    "id": "hoenn-victory-road-b2f"
}