[
    {
        "minLevel": 5,
        "maxLevel": 5,
        "area": "ilex-forest-area",
        "method": "walk",
        "location": "ilex-forest",
        "conditions": ["time-morning"]
    },
    {
        "minLevel": 5,
        "maxLevel": 5,
        "area": "ilex-forest-area",
        "method": "walk",
        "location": "ilex-forest",
        "conditions": ["time-day"]
    },
    {
        "minLevel": 6,
        "maxLevel": 6,
        "area": "ilex-forest-area",
        "method": "walk",
        "location": "ilex-forest",
        "conditions": ["time-day"]
    },
    {
        "minLevel": 5,
        "maxLevel": 5,
        "area": "ilex-forest-area",
        "method": "walk",
        "location": "ilex-forest",
        "conditions": [
            "radio-off",
            "time-morning"
        ]
    },
    {
        "minLevel": 5,
        "maxLevel": 5,
        "area": "ilex-forest-area",
        "method": "walk",
        "location": "ilex-forest",
        "conditions": [
            "time-day",
            "radio-off"
        ]
    },
    {
        "minLevel": 6,
        "maxLevel": 6,
        "area": "ilex-forest-area",
        "method": "walk",
        "location": "ilex-forest",
        "conditions": [
            "time-day",
            "radio-off"
        ]
    },
    {
        "minLevel": 6,
        "maxLevel": 6,
        "area": "ilex-forest-area",
        "method": "walk",
        "location": "ilex-forest",
        "conditions": [
            "radio-off",
            "time-morning"
        ]
    },
    {
        "minLevel": 6,
        "maxLevel": 6,
        "area": "ilex-forest-area",
        "method": "walk",
        "location": "ilex-forest",
        "conditions": [
            "radio-off",
            "time-morning"
        ]
    },
    {
        "minLevel": 10,
        "maxLevel": 10,
        "area": "national-park-area",
        "method": "walk",
        "location": "national-park",
        "conditions": ["time-morning"]
    },
    {
        "minLevel": 10,
        "maxLevel": 10,
        "area": "national-park-area",
        "method": "walk",
        "location": "national-park",
        "conditions": ["time-day"]
    },
    {
        "minLevel": 10,
        "maxLevel": 10,
        "area": "national-park-area",
        "method": "walk",
        "location": "national-park",
        "conditions": [
            "radio-off",
            "time-morning"
        ]
    },
    {
        "minLevel": 10,
        "maxLevel": 10,
        "area": "national-park-area",
        "method": "walk",
        "location": "national-park",
        "conditions": [
            "time-day",
            "radio-off"
        ]
    },
    {
        "minLevel": 12,
        "maxLevel": 12,
        "area": "national-park-area",
        "method": "walk",
        "location": "national-park",
        "conditions": [
            "radio-off",
            "time-morning"
        ]
    },
    {
        "minLevel": 12,
        "maxLevel": 12,
        "area": "national-park-area",
        "method": "walk",
        "location": "national-park",
        "conditions": [
            "radio-off",
            "time-morning"
        ]
    },
    {
        "minLevel": 3,
        "maxLevel": 3,
        "area": "johto-route-30-area",
        "method": "walk",
        "location": "johto-route-30",
        "conditions": ["time-morning"]
    },
    {
        "minLevel": 3,
        "maxLevel": 3,
        "area": "johto-route-30-area",
        "method": "walk",
        "location": "johto-route-30",
        "conditions": ["time-day"]
    },
    {
        "minLevel": 3,
        "maxLevel": 3,
        "area": "johto-route-30-area",
        "method": "walk",
        "location": "johto-route-30",
        "conditions": [
            "radio-off",
            "time-morning"
        ]
    },
    {
        "minLevel": 3,
        "maxLevel": 3,
        "area": "johto-route-30-area",
        "method": "walk",
        "location": "johto-route-30",
        "conditions": [
            "time-day",
            "radio-off"
        ]
    },
    {
        "minLevel": 4,
        "maxLevel": 4,
        "area": "johto-route-30-area",
        "method": "walk",
        "location": "johto-route-30",
        "conditions": [
            "radio-off",
            "time-morning"
        ]
    },
    {
        "minLevel": 4,
        "maxLevel": 4,
        "area": "johto-route-30-area",
        "method": "walk",
        "location": "johto-route-30",
        "conditions": [
            "radio-off",
            "time-morning"
        ]
    },
    {
        "minLevel": 4,
        "maxLevel": 4,
        "area": "johto-route-30-area",
        "method": "walk",
        "location": "johto-route-30",
        "conditions": ["time-day"]
    },
    {
        "minLevel": 4,
        "maxLevel": 4,
        "area": "johto-route-30-area",
        "method": "walk",
        "location": "johto-route-30",
        "conditions": ["time-day"]
    },
    {
        "minLevel": 4,
        "maxLevel": 4,
        "area": "johto-route-31-area",
        "method": "walk",
        "location": "johto-route-31",
        "conditions": ["time-morning"]
    },
    {
        "minLevel": 4,
        "maxLevel": 4,
        "area": "johto-route-31-area",
        "method": "walk",
        "location": "johto-route-31",
        "conditions": ["time-day"]
    },
    {
        "minLevel": 4,
        "maxLevel": 4,
        "area": "johto-route-31-area",
        "method": "walk",
        "location": "johto-route-31",
        "conditions": [
            "radio-off",
            "time-morning"
        ]
    },
    {
        "minLevel": 4,
        "maxLevel": 4,
        "area": "johto-route-31-area",
        "method": "walk",
        "location": "johto-route-31",
        "conditions": [
            "time-day",
            "radio-off"
        ]
    },
    {
        "minLevel": 5,
        "maxLevel": 5,
        "area": "johto-route-31-area",
        "method": "walk",
        "location": "johto-route-31",
        "conditions": ["time-morning"]
    },
    {
        "minLevel": 5,
        "maxLevel": 5,
        "area": "johto-route-31-area",
        "method": "walk",
        "location": "johto-route-31",
        "conditions": ["time-day"]
    },
    {
        "minLevel": 5,
        "maxLevel": 5,
        "area": "johto-route-31-area",
        "method": "walk",
        "location": "johto-route-31",
        "conditions": ["time-morning"]
    },
    {
        "minLevel": 5,
        "maxLevel": 5,
        "area": "johto-route-31-area",
        "method": "walk",
        "location": "johto-route-31",
        "conditions": ["time-day"]
    },
    {
        "minLevel": 10,
        "maxLevel": 10,
        "area": "unknown-all-bugs-area",
        "method": "walk",
        "location": "unknown-all-bugs",
        "conditions": []
    },
    {
        "minLevel": 10,
        "maxLevel": 10,
        "area": "unknown-all-bugs-area",
        "method": "walk",
        "location": "unknown-all-bugs",
        "conditions": []
    },
    {
        "minLevel": 10,
        "maxLevel": 10,
        "area": "unknown-all-bugs-area",
        "method": "walk",
        "location": "unknown-all-bugs",
        "conditions": []
    },
    {
        "minLevel": 10,
        "maxLevel": 10,
        "area": "unknown-all-bugs-area",
        "method": "walk",
        "location": "unknown-all-bugs",
        "conditions": []
    },
    {
        "minLevel": 12,
        "maxLevel": 12,
        "area": "unknown-all-bugs-area",
        "method": "walk",
        "location": "unknown-all-bugs",
        "conditions": []
    },
    {
        "minLevel": 12,
        "maxLevel": 12,
        "area": "unknown-all-bugs-area",
        "method": "walk",
        "location": "unknown-all-bugs",
        "conditions": []
    },
    {
        "minLevel": 12,
        "maxLevel": 12,
        "area": "unknown-all-bugs-area",
        "method": "walk",
        "location": "unknown-all-bugs",
        "conditions": []
    },
    {
        "minLevel": 12,
        "maxLevel": 12,
        "area": "unknown-all-bugs-area",
        "method": "walk",
        "location": "unknown-all-bugs",
        "conditions": []
    },
    {
        "minLevel": 10,
        "maxLevel": 10,
        "area": "unknown-all-bugs-area",
        "method": "walk",
        "location": "unknown-all-bugs",
        "conditions": []
    },
    {
        "minLevel": 14,
        "maxLevel": 14,
        "area": "unknown-all-bugs-area",
        "method": "walk",
        "location": "unknown-all-bugs",
        "conditions": []
    },
    {
        "minLevel": 10,
        "maxLevel": 10,
        "area": "unknown-all-bugs-area",
        "method": "walk",
        "location": "unknown-all-bugs",
        "conditions": []
    },
    {
        "minLevel": 14,
        "maxLevel": 14,
        "area": "unknown-all-bugs-area",
        "method": "walk",
        "location": "unknown-all-bugs",
        "conditions": []
    }
]