[
    {
        "minLevel": 20,
        "maxLevel": 20,
        "area": "new-bark-town-area",
        "method": "good-rod",
        "location": "new-bark-town",
        "conditions": []
    },
    {
        "minLevel": 20,
        "maxLevel": 20,
        "area": "new-bark-town-area",
        "method": "good-rod",
        "location": "new-bark-town",
        "conditions": []
    },
    {
        "minLevel": 40,
        "maxLevel": 40,
        "area": "new-bark-town-area",
        "method": "super-rod",
        "location": "new-bark-town",
        "conditions": []
    },
    {
        "minLevel": 20,
        "maxLevel": 20,
        "area": "johto-sea-route-41-area",
        "method": "good-rod",
        "location": "johto-sea-route-41",
        "conditions": []
    },
    {
        "minLevel": 20,
        "maxLevel": 20,
        "area": "johto-sea-route-41-area",
        "method": "good-rod",
        "location": "johto-sea-route-41",
        "conditions": []
    },
    {
        "minLevel": 40,
        "maxLevel": 40,
        "area": "johto-sea-route-41-area",
        "method": "super-rod",
        "location": "johto-sea-route-41",
        "conditions": []
    },
    {
        "minLevel": 20,
        "maxLevel": 20,
        "area": "johto-route-47-area",
        "method": "good-rod",
        "location": "johto-route-47",
        "conditions": []
    },
    {
        "minLevel": 20,
        "maxLevel": 20,
        "area": "johto-route-47-area",
        "method": "good-rod",
        "location": "johto-route-47",
        "conditions": []
    },
    {
        "minLevel": 40,
        "maxLevel": 40,
        "area": "johto-route-47-area",
        "method": "super-rod",
        "location": "johto-route-47",
        "conditions": []
    }
]