[
    {
        "minLevel": 32,
        "maxLevel": 32,
        "area": "johto-route-47-area",
        "method": "walk",
        "location": "johto-route-47",
        "conditions": []
    },
    {
        "minLevel": 22,
        "maxLevel": 22,
        "area": "johto-route-48-area",
        "method": "walk",
        "location": "johto-route-48",
        "conditions": ["radio-off"]
    },
    {
        "minLevel": 24,
        "maxLevel": 24,
        "area": "johto-route-48-area",
        "method": "walk",
        "location": "johto-route-48",
        "conditions": ["radio-off"]
    }
]