[
    {
        "minLevel": 20,
        "maxLevel": 20,
        "area": "ruins-of-alph-outside",
        "method": "walk",
        "location": "ruins-of-alph",
        "conditions": []
    },
    {
        "minLevel": 22,
        "maxLevel": 22,
        "area": "ruins-of-alph-outside",
        "method": "walk",
        "location": "ruins-of-alph",
        "conditions": []
    },
    {
        "minLevel": 20,
        "maxLevel": 20,
        "area": "ruins-of-alph-outside",
        "method": "walk",
        "location": "ruins-of-alph",
        "conditions": ["radio-off"]
    },
    {
        "minLevel": 22,
        "maxLevel": 22,
        "area": "ruins-of-alph-outside",
        "method": "walk",
        "location": "ruins-of-alph",
        "conditions": ["radio-off"]
    },
    {
        "minLevel": 18,
        "maxLevel": 18,
        "area": "ruins-of-alph-outside",
        "method": "walk",
        "location": "ruins-of-alph",
        "conditions": ["radio-off"]
    },
    {
        "minLevel": 18,
        "maxLevel": 18,
        "area": "ruins-of-alph-outside",
        "method": "walk",
        "location": "ruins-of-alph",
        "conditions": ["radio-off"]
    },
    {
        "minLevel": 24,
        "maxLevel": 24,
        "area": "ruins-of-alph-outside",
        "method": "walk",
        "location": "ruins-of-alph",
        "conditions": []
    },
    {
        "minLevel": 24,
        "maxLevel": 24,
        "area": "ruins-of-alph-outside",
        "method": "walk",
        "location": "ruins-of-alph",
        "conditions": []
    }
]