[
    {
        "minLevel": 40,
        "maxLevel": 40,
        "area": "whirl-islands-1f",
        "method": "super-rod",
        "location": "whirl-islands",
        "conditions": []
    },
    {
        "minLevel": 15,
        "maxLevel": 25,
        "area": "whirl-islands-b2f",
        "method": "surf",
        "location": "whirl-islands",
        "conditions": []
    },
    {
        "minLevel": 15,
        "maxLevel": 25,
        "area": "whirl-islands-b2f",
        "method": "surf",
        "location": "whirl-islands",
        "conditions": []
    },
    {
        "minLevel": 30,
        "maxLevel": 30,
        "area": "whirl-islands-b2f",
        "method": "surf",
        "location": "whirl-islands",
        "conditions": []
    },
    {
        "minLevel": 40,
        "maxLevel": 40,
        "area": "whirl-islands-b2f",
        "method": "super-rod",
        "location": "whirl-islands",
        "conditions": []
    }
]