{
    "encounters": [
        "tentacool",
        "magikarp",
        "zigzagoon",
        "linoone",
        "wingull",
        "pelipper",
        "electrike",
        "manectric",
        "carvanha",
        "sharpedo",
        "kecleon"
    ],
    "id": "hoenn-route-118-area"
}