{
    "encounters": [
        "poliwag",
        "poliwhirl",
        "scyther",
        "dratini",
        "dragonair",
        "ursaring",
        "lombre",
        "spinda",
        "altaria",
        "floatzel",
        "basculin-red-striped"
    ],
    "id": "kalos-route-21-area"
}