{
    "encounters": [
        "raticate",
        "golbat",
        "banette",
        "gothita",
        "gothorita",
        "solosis",
        "duosion",
        "litwick"
    ],
    "id": "strange-house-1f"
}