{
    "name": "Iles Ecume",
    "areas": [
        "seafoam-islands-1f",
        "seafoam-islands-b1f",
        "seafoam-islands-b2f",
        "seafoam-islands-b3f",
        "seafoam-islands-b4f"
    ],
    "id": "seafoam-islands"
}