[
    {
        "minLevel": 6,
        "maxLevel": 6,
        "area": "sinnoh-route-204-south-towards-jubilife-city",
        "method": "walk",
        "location": "sinnoh-route-204",
        "conditions": ["slot2-firered"]
    },
    {
        "minLevel": 6,
        "maxLevel": 6,
        "area": "sinnoh-route-204-south-towards-jubilife-city",
        "method": "walk",
        "location": "sinnoh-route-204",
        "conditions": ["slot2-firered"]
    }
]