[
    {
        "minLevel": 29,
        "maxLevel": 29,
        "area": "sinnoh-route-218-area",
        "method": "walk",
        "location": "sinnoh-route-218",
        "conditions": ["radar-on"]
    },
    {
        "minLevel": 29,
        "maxLevel": 29,
        "area": "sinnoh-route-218-area",
        "method": "walk",
        "location": "sinnoh-route-218",
        "conditions": ["radar-on"]
    },
    {
        "minLevel": 30,
        "maxLevel": 30,
        "area": "sinnoh-route-218-area",
        "method": "walk",
        "location": "sinnoh-route-218",
        "conditions": ["radar-on"]
    },
    {
        "minLevel": 30,
        "maxLevel": 30,
        "area": "sinnoh-route-218-area",
        "method": "walk",
        "location": "sinnoh-route-218",
        "conditions": ["radar-on"]
    }
]