[
    {
        "minLevel": 29,
        "maxLevel": 29,
        "area": "sinnoh-route-218-area",
        "method": "walk",
        "location": "sinnoh-route-218",
        "conditions": ["radar-off"]
    },
    {
        "minLevel": 30,
        "maxLevel": 30,
        "area": "sinnoh-route-218-area",
        "method": "walk",
        "location": "sinnoh-route-218",
        "conditions": []
    },
    {
        "minLevel": 30,
        "maxLevel": 30,
        "area": "sinnoh-route-218-area",
        "method": "walk",
        "location": "sinnoh-route-218",
        "conditions": ["radar-off"]
    },
    {
        "minLevel": 40,
        "maxLevel": 40,
        "area": "sinnoh-route-222-area",
        "method": "walk",
        "location": "sinnoh-route-222",
        "conditions": ["swarm-no"]
    }
]