[
    {
        "minLevel": 36,
        "maxLevel": 36,
        "area": "mt-coronet-2f",
        "method": "walk",
        "location": "mt-coronet",
        "conditions": []
    },
    {
        "minLevel": 36,
        "maxLevel": 36,
        "area": "mt-coronet-3f",
        "method": "walk",
        "location": "mt-coronet",
        "conditions": []
    },
    {
        "minLevel": 38,
        "maxLevel": 38,
        "area": "mt-coronet-4f",
        "method": "walk",
        "location": "mt-coronet",
        "conditions": []
    },
    {
        "minLevel": 38,
        "maxLevel": 38,
        "area": "mt-coronet-5f",
        "method": "walk",
        "location": "mt-coronet",
        "conditions": []
    },
    {
        "minLevel": 40,
        "maxLevel": 40,
        "area": "mt-coronet-6f",
        "method": "walk",
        "location": "mt-coronet",
        "conditions": []
    },
    {
        "minLevel": 40,
        "maxLevel": 40,
        "area": "mt-coronet-7f",
        "method": "walk",
        "location": "mt-coronet",
        "conditions": []
    },
    {
        "minLevel": 40,
        "maxLevel": 40,
        "area": "mt-coronet-cave",
        "method": "walk",
        "location": "mt-coronet",
        "conditions": []
    },
    {
        "minLevel": 39,
        "maxLevel": 39,
        "area": "mt-coronet-cave",
        "method": "walk",
        "location": "mt-coronet",
        "conditions": []
    },
    {
        "minLevel": 31,
        "maxLevel": 31,
        "area": "mt-coronet-route-216",
        "method": "walk",
        "location": "mt-coronet",
        "conditions": []
    },
    {
        "minLevel": 31,
        "maxLevel": 31,
        "area": "mt-coronet-b1f",
        "method": "walk",
        "location": "mt-coronet",
        "conditions": []
    },
    {
        "minLevel": 45,
        "maxLevel": 45,
        "area": "sinnoh-victory-road-1f",
        "method": "walk",
        "location": "sinnoh-victory-road",
        "conditions": []
    },
    {
        "minLevel": 46,
        "maxLevel": 46,
        "area": "sinnoh-victory-road-2f",
        "method": "walk",
        "location": "sinnoh-victory-road",
        "conditions": []
    },
    {
        "minLevel": 51,
        "maxLevel": 51,
        "area": "sinnoh-victory-road-inside",
        "method": "walk",
        "location": "sinnoh-victory-road",
        "conditions": []
    },
    {
        "minLevel": 51,
        "maxLevel": 51,
        "area": "sinnoh-victory-road-inside-exit",
        "method": "walk",
        "location": "sinnoh-victory-road",
        "conditions": []
    },
    {
        "minLevel": 54,
        "maxLevel": 54,
        "area": "stark-mountain-area",
        "method": "walk",
        "location": "stark-mountain",
        "conditions": ["time-morning"]
    },
    {
        "minLevel": 54,
        "maxLevel": 54,
        "area": "stark-mountain-area",
        "method": "walk",
        "location": "stark-mountain",
        "conditions": ["time-day"]
    },
    {
        "minLevel": 56,
        "maxLevel": 56,
        "area": "stark-mountain-area",
        "method": "walk",
        "location": "stark-mountain",
        "conditions": []
    },
    {
        "minLevel": 55,
        "maxLevel": 55,
        "area": "stark-mountain-entrance",
        "method": "walk",
        "location": "stark-mountain",
        "conditions": []
    },
    {
        "minLevel": 57,
        "maxLevel": 57,
        "area": "stark-mountain-inside",
        "method": "walk",
        "location": "stark-mountain",
        "conditions": []
    },
    {
        "minLevel": 52,
        "maxLevel": 52,
        "area": "snowpoint-temple-1f",
        "method": "walk",
        "location": "snowpoint-temple",
        "conditions": []
    },
    {
        "minLevel": 54,
        "maxLevel": 54,
        "area": "snowpoint-temple-b1f",
        "method": "walk",
        "location": "snowpoint-temple",
        "conditions": []
    },
    {
        "minLevel": 54,
        "maxLevel": 54,
        "area": "snowpoint-temple-b2f",
        "method": "walk",
        "location": "snowpoint-temple",
        "conditions": []
    },
    {
        "minLevel": 54,
        "maxLevel": 54,
        "area": "snowpoint-temple-b3f",
        "method": "walk",
        "location": "snowpoint-temple",
        "conditions": []
    },
    {
        "minLevel": 56,
        "maxLevel": 56,
        "area": "snowpoint-temple-b4f",
        "method": "walk",
        "location": "snowpoint-temple",
        "conditions": []
    },
    {
        "minLevel": 56,
        "maxLevel": 56,
        "area": "snowpoint-temple-b5f",
        "method": "walk",
        "location": "snowpoint-temple",
        "conditions": []
    },
    {
        "minLevel": 31,
        "maxLevel": 31,
        "area": "iron-island-1f",
        "method": "walk",
        "location": "iron-island",
        "conditions": []
    },
    {
        "minLevel": 32,
        "maxLevel": 32,
        "area": "iron-island-1f",
        "method": "walk",
        "location": "iron-island",
        "conditions": []
    },
    {
        "minLevel": 33,
        "maxLevel": 33,
        "area": "iron-island-1f",
        "method": "walk",
        "location": "iron-island",
        "conditions": []
    },
    {
        "minLevel": 33,
        "maxLevel": 33,
        "area": "iron-island-1f",
        "method": "walk",
        "location": "iron-island",
        "conditions": []
    },
    {
        "minLevel": 30,
        "maxLevel": 30,
        "area": "iron-island-b1f-left",
        "method": "walk",
        "location": "iron-island",
        "conditions": []
    },
    {
        "minLevel": 31,
        "maxLevel": 31,
        "area": "iron-island-b1f-left",
        "method": "walk",
        "location": "iron-island",
        "conditions": []
    },
    {
        "minLevel": 29,
        "maxLevel": 29,
        "area": "iron-island-b1f-left",
        "method": "walk",
        "location": "iron-island",
        "conditions": []
    },
    {
        "minLevel": 32,
        "maxLevel": 32,
        "area": "iron-island-b1f-left",
        "method": "walk",
        "location": "iron-island",
        "conditions": []
    },
    {
        "minLevel": 31,
        "maxLevel": 31,
        "area": "iron-island-b1f-left",
        "method": "walk",
        "location": "iron-island",
        "conditions": ["slot2-none"]
    },
    {
        "minLevel": 31,
        "maxLevel": 31,
        "area": "iron-island-b1f-left",
        "method": "walk",
        "location": "iron-island",
        "conditions": ["slot2-emerald"]
    },
    {
        "minLevel": 31,
        "maxLevel": 31,
        "area": "iron-island-b1f-left",
        "method": "walk",
        "location": "iron-island",
        "conditions": ["slot2-firered"]
    },
    {
        "minLevel": 31,
        "maxLevel": 31,
        "area": "iron-island-b1f-left",
        "method": "walk",
        "location": "iron-island",
        "conditions": ["slot2-leafgreen"]
    },
    {
        "minLevel": 33,
        "maxLevel": 33,
        "area": "iron-island-b1f-left",
        "method": "walk",
        "location": "iron-island",
        "conditions": ["slot2-none"]
    },
    {
        "minLevel": 33,
        "maxLevel": 33,
        "area": "iron-island-b1f-left",
        "method": "walk",
        "location": "iron-island",
        "conditions": ["slot2-emerald"]
    },
    {
        "minLevel": 33,
        "maxLevel": 33,
        "area": "iron-island-b1f-left",
        "method": "walk",
        "location": "iron-island",
        "conditions": ["slot2-firered"]
    },
    {
        "minLevel": 33,
        "maxLevel": 33,
        "area": "iron-island-b1f-left",
        "method": "walk",
        "location": "iron-island",
        "conditions": ["slot2-leafgreen"]
    },
    {
        "minLevel": 33,
        "maxLevel": 33,
        "area": "iron-island-b1f-left",
        "method": "walk",
        "location": "iron-island",
        "conditions": []
    },
    {
        "minLevel": 30,
        "maxLevel": 30,
        "area": "iron-island-b1f-right",
        "method": "walk",
        "location": "iron-island",
        "conditions": []
    },
    {
        "minLevel": 31,
        "maxLevel": 31,
        "area": "iron-island-b1f-right",
        "method": "walk",
        "location": "iron-island",
        "conditions": []
    },
    {
        "minLevel": 29,
        "maxLevel": 29,
        "area": "iron-island-b1f-right",
        "method": "walk",
        "location": "iron-island",
        "conditions": []
    },
    {
        "minLevel": 32,
        "maxLevel": 32,
        "area": "iron-island-b1f-right",
        "method": "walk",
        "location": "iron-island",
        "conditions": []
    },
    {
        "minLevel": 31,
        "maxLevel": 31,
        "area": "iron-island-b1f-right",
        "method": "walk",
        "location": "iron-island",
        "conditions": ["slot2-none"]
    },
    {
        "minLevel": 31,
        "maxLevel": 31,
        "area": "iron-island-b1f-right",
        "method": "walk",
        "location": "iron-island",
        "conditions": ["slot2-emerald"]
    },
    {
        "minLevel": 31,
        "maxLevel": 31,
        "area": "iron-island-b1f-right",
        "method": "walk",
        "location": "iron-island",
        "conditions": ["slot2-firered"]
    },
    {
        "minLevel": 31,
        "maxLevel": 31,
        "area": "iron-island-b1f-right",
        "method": "walk",
        "location": "iron-island",
        "conditions": ["slot2-leafgreen"]
    },
    {
        "minLevel": 33,
        "maxLevel": 33,
        "area": "iron-island-b1f-right",
        "method": "walk",
        "location": "iron-island",
        "conditions": ["slot2-none"]
    },
    {
        "minLevel": 33,
        "maxLevel": 33,
        "area": "iron-island-b1f-right",
        "method": "walk",
        "location": "iron-island",
        "conditions": ["slot2-emerald"]
    },
    {
        "minLevel": 33,
        "maxLevel": 33,
        "area": "iron-island-b1f-right",
        "method": "walk",
        "location": "iron-island",
        "conditions": ["slot2-firered"]
    },
    {
        "minLevel": 33,
        "maxLevel": 33,
        "area": "iron-island-b1f-right",
        "method": "walk",
        "location": "iron-island",
        "conditions": ["slot2-leafgreen"]
    },
    {
        "minLevel": 33,
        "maxLevel": 33,
        "area": "iron-island-b1f-right",
        "method": "walk",
        "location": "iron-island",
        "conditions": []
    },
    {
        "minLevel": 30,
        "maxLevel": 30,
        "area": "iron-island-b2f-right",
        "method": "walk",
        "location": "iron-island",
        "conditions": []
    },
    {
        "minLevel": 29,
        "maxLevel": 29,
        "area": "iron-island-b2f-right",
        "method": "walk",
        "location": "iron-island",
        "conditions": []
    },
    {
        "minLevel": 32,
        "maxLevel": 32,
        "area": "iron-island-b2f-right",
        "method": "walk",
        "location": "iron-island",
        "conditions": []
    },
    {
        "minLevel": 31,
        "maxLevel": 31,
        "area": "iron-island-b2f-right",
        "method": "walk",
        "location": "iron-island",
        "conditions": ["slot2-none"]
    },
    {
        "minLevel": 31,
        "maxLevel": 31,
        "area": "iron-island-b2f-right",
        "method": "walk",
        "location": "iron-island",
        "conditions": ["slot2-emerald"]
    },
    {
        "minLevel": 31,
        "maxLevel": 31,
        "area": "iron-island-b2f-right",
        "method": "walk",
        "location": "iron-island",
        "conditions": ["slot2-firered"]
    },
    {
        "minLevel": 31,
        "maxLevel": 31,
        "area": "iron-island-b2f-right",
        "method": "walk",
        "location": "iron-island",
        "conditions": ["slot2-leafgreen"]
    },
    {
        "minLevel": 33,
        "maxLevel": 33,
        "area": "iron-island-b2f-right",
        "method": "walk",
        "location": "iron-island",
        "conditions": ["slot2-none"]
    },
    {
        "minLevel": 33,
        "maxLevel": 33,
        "area": "iron-island-b2f-right",
        "method": "walk",
        "location": "iron-island",
        "conditions": ["slot2-emerald"]
    },
    {
        "minLevel": 33,
        "maxLevel": 33,
        "area": "iron-island-b2f-right",
        "method": "walk",
        "location": "iron-island",
        "conditions": ["slot2-firered"]
    },
    {
        "minLevel": 33,
        "maxLevel": 33,
        "area": "iron-island-b2f-right",
        "method": "walk",
        "location": "iron-island",
        "conditions": ["slot2-leafgreen"]
    },
    {
        "minLevel": 33,
        "maxLevel": 33,
        "area": "iron-island-b2f-right",
        "method": "walk",
        "location": "iron-island",
        "conditions": []
    },
    {
        "minLevel": 31,
        "maxLevel": 31,
        "area": "iron-island-b2f-left",
        "method": "walk",
        "location": "iron-island",
        "conditions": []
    },
    {
        "minLevel": 30,
        "maxLevel": 30,
        "area": "iron-island-b2f-left",
        "method": "walk",
        "location": "iron-island",
        "conditions": []
    },
    {
        "minLevel": 32,
        "maxLevel": 32,
        "area": "iron-island-b2f-left",
        "method": "walk",
        "location": "iron-island",
        "conditions": ["slot2-none"]
    },
    {
        "minLevel": 32,
        "maxLevel": 32,
        "area": "iron-island-b2f-left",
        "method": "walk",
        "location": "iron-island",
        "conditions": ["slot2-emerald"]
    },
    {
        "minLevel": 32,
        "maxLevel": 32,
        "area": "iron-island-b2f-left",
        "method": "walk",
        "location": "iron-island",
        "conditions": ["slot2-firered"]
    },
    {
        "minLevel": 32,
        "maxLevel": 32,
        "area": "iron-island-b2f-left",
        "method": "walk",
        "location": "iron-island",
        "conditions": ["slot2-leafgreen"]
    },
    {
        "minLevel": 34,
        "maxLevel": 34,
        "area": "iron-island-b2f-left",
        "method": "walk",
        "location": "iron-island",
        "conditions": ["slot2-none"]
    },
    {
        "minLevel": 34,
        "maxLevel": 34,
        "area": "iron-island-b2f-left",
        "method": "walk",
        "location": "iron-island",
        "conditions": ["slot2-emerald"]
    },
    {
        "minLevel": 34,
        "maxLevel": 34,
        "area": "iron-island-b2f-left",
        "method": "walk",
        "location": "iron-island",
        "conditions": ["slot2-firered"]
    },
    {
        "minLevel": 34,
        "maxLevel": 34,
        "area": "iron-island-b2f-left",
        "method": "walk",
        "location": "iron-island",
        "conditions": ["slot2-leafgreen"]
    },
    {
        "minLevel": 34,
        "maxLevel": 34,
        "area": "iron-island-b2f-left",
        "method": "walk",
        "location": "iron-island",
        "conditions": []
    },
    {
        "minLevel": 31,
        "maxLevel": 31,
        "area": "iron-island-b3f",
        "method": "walk",
        "location": "iron-island",
        "conditions": []
    },
    {
        "minLevel": 30,
        "maxLevel": 30,
        "area": "iron-island-b3f",
        "method": "walk",
        "location": "iron-island",
        "conditions": []
    },
    {
        "minLevel": 32,
        "maxLevel": 32,
        "area": "iron-island-b3f",
        "method": "walk",
        "location": "iron-island",
        "conditions": ["slot2-none"]
    },
    {
        "minLevel": 32,
        "maxLevel": 32,
        "area": "iron-island-b3f",
        "method": "walk",
        "location": "iron-island",
        "conditions": ["slot2-emerald"]
    },
    {
        "minLevel": 32,
        "maxLevel": 32,
        "area": "iron-island-b3f",
        "method": "walk",
        "location": "iron-island",
        "conditions": ["slot2-firered"]
    },
    {
        "minLevel": 32,
        "maxLevel": 32,
        "area": "iron-island-b3f",
        "method": "walk",
        "location": "iron-island",
        "conditions": ["slot2-leafgreen"]
    },
    {
        "minLevel": 34,
        "maxLevel": 34,
        "area": "iron-island-b3f",
        "method": "walk",
        "location": "iron-island",
        "conditions": ["slot2-none"]
    },
    {
        "minLevel": 34,
        "maxLevel": 34,
        "area": "iron-island-b3f",
        "method": "walk",
        "location": "iron-island",
        "conditions": ["slot2-emerald"]
    },
    {
        "minLevel": 34,
        "maxLevel": 34,
        "area": "iron-island-b3f",
        "method": "walk",
        "location": "iron-island",
        "conditions": ["slot2-firered"]
    },
    {
        "minLevel": 34,
        "maxLevel": 34,
        "area": "iron-island-b3f",
        "method": "walk",
        "location": "iron-island",
        "conditions": ["slot2-leafgreen"]
    },
    {
        "minLevel": 34,
        "maxLevel": 34,
        "area": "iron-island-b3f",
        "method": "walk",
        "location": "iron-island",
        "conditions": []
    },
    {
        "minLevel": 21,
        "maxLevel": 21,
        "area": "valor-lakefront-area",
        "method": "walk",
        "location": "valor-lakefront",
        "conditions": ["time-morning"]
    },
    {
        "minLevel": 21,
        "maxLevel": 21,
        "area": "valor-lakefront-area",
        "method": "walk",
        "location": "valor-lakefront",
        "conditions": ["time-day"]
    },
    {
        "minLevel": 22,
        "maxLevel": 22,
        "area": "valor-lakefront-area",
        "method": "walk",
        "location": "valor-lakefront",
        "conditions": []
    },
    {
        "minLevel": 22,
        "maxLevel": 22,
        "area": "valor-lakefront-area",
        "method": "walk",
        "location": "valor-lakefront",
        "conditions": ["radar-off"]
    },
    {
        "minLevel": 27,
        "maxLevel": 27,
        "area": "sinnoh-route-211-east-towards-celestic-town",
        "method": "walk",
        "location": "sinnoh-route-211",
        "conditions": []
    },
    {
        "minLevel": 23,
        "maxLevel": 23,
        "area": "sinnoh-route-214-area",
        "method": "walk",
        "location": "sinnoh-route-214",
        "conditions": ["time-morning"]
    },
    {
        "minLevel": 23,
        "maxLevel": 23,
        "area": "sinnoh-route-214-area",
        "method": "walk",
        "location": "sinnoh-route-214",
        "conditions": ["time-day"]
    },
    {
        "minLevel": 24,
        "maxLevel": 24,
        "area": "sinnoh-route-214-area",
        "method": "walk",
        "location": "sinnoh-route-214",
        "conditions": ["slot2-none"]
    },
    {
        "minLevel": 24,
        "maxLevel": 24,
        "area": "sinnoh-route-214-area",
        "method": "walk",
        "location": "sinnoh-route-214",
        "conditions": ["slot2-ruby"]
    },
    {
        "minLevel": 24,
        "maxLevel": 24,
        "area": "sinnoh-route-214-area",
        "method": "walk",
        "location": "sinnoh-route-214",
        "conditions": ["slot2-sapphire"]
    },
    {
        "minLevel": 24,
        "maxLevel": 24,
        "area": "sinnoh-route-214-area",
        "method": "walk",
        "location": "sinnoh-route-214",
        "conditions": ["slot2-firered"]
    },
    {
        "minLevel": 24,
        "maxLevel": 24,
        "area": "sinnoh-route-214-area",
        "method": "walk",
        "location": "sinnoh-route-214",
        "conditions": ["radar-off"]
    },
    {
        "minLevel": 33,
        "maxLevel": 33,
        "area": "sinnoh-route-216-area",
        "method": "walk",
        "location": "sinnoh-route-216",
        "conditions": ["slot2-none"]
    },
    {
        "minLevel": 33,
        "maxLevel": 33,
        "area": "sinnoh-route-216-area",
        "method": "walk",
        "location": "sinnoh-route-216",
        "conditions": ["slot2-ruby"]
    },
    {
        "minLevel": 33,
        "maxLevel": 33,
        "area": "sinnoh-route-216-area",
        "method": "walk",
        "location": "sinnoh-route-216",
        "conditions": ["slot2-sapphire"]
    },
    {
        "minLevel": 33,
        "maxLevel": 33,
        "area": "sinnoh-route-216-area",
        "method": "walk",
        "location": "sinnoh-route-216",
        "conditions": ["slot2-firered"]
    },
    {
        "minLevel": 33,
        "maxLevel": 33,
        "area": "sinnoh-route-216-area",
        "method": "walk",
        "location": "sinnoh-route-216",
        "conditions": ["slot2-leafgreen"]
    },
    {
        "minLevel": 34,
        "maxLevel": 34,
        "area": "sinnoh-route-216-area",
        "method": "walk",
        "location": "sinnoh-route-216",
        "conditions": ["slot2-none"]
    },
    {
        "minLevel": 34,
        "maxLevel": 34,
        "area": "sinnoh-route-216-area",
        "method": "walk",
        "location": "sinnoh-route-216",
        "conditions": ["slot2-ruby"]
    },
    {
        "minLevel": 34,
        "maxLevel": 34,
        "area": "sinnoh-route-216-area",
        "method": "walk",
        "location": "sinnoh-route-216",
        "conditions": ["slot2-sapphire"]
    },
    {
        "minLevel": 34,
        "maxLevel": 34,
        "area": "sinnoh-route-216-area",
        "method": "walk",
        "location": "sinnoh-route-216",
        "conditions": ["slot2-firered"]
    },
    {
        "minLevel": 34,
        "maxLevel": 34,
        "area": "sinnoh-route-216-area",
        "method": "walk",
        "location": "sinnoh-route-216",
        "conditions": ["slot2-leafgreen"]
    },
    {
        "minLevel": 33,
        "maxLevel": 33,
        "area": "sinnoh-route-216-area",
        "method": "walk",
        "location": "sinnoh-route-216",
        "conditions": ["radar-off"]
    },
    {
        "minLevel": 34,
        "maxLevel": 34,
        "area": "sinnoh-route-216-area",
        "method": "walk",
        "location": "sinnoh-route-216",
        "conditions": ["radar-off"]
    },
    {
        "minLevel": 54,
        "maxLevel": 54,
        "area": "sinnoh-route-227-area",
        "method": "walk",
        "location": "sinnoh-route-227",
        "conditions": ["time-morning"]
    },
    {
        "minLevel": 54,
        "maxLevel": 54,
        "area": "sinnoh-route-227-area",
        "method": "walk",
        "location": "sinnoh-route-227",
        "conditions": ["time-day"]
    },
    {
        "minLevel": 56,
        "maxLevel": 56,
        "area": "sinnoh-route-227-area",
        "method": "walk",
        "location": "sinnoh-route-227",
        "conditions": []
    }
]