[
    {
        "minLevel": 22,
        "maxLevel": 22,
        "area": "ruin-maniac-cave-0-9-different-unown-caught",
        "method": "walk",
        "location": "ruin-maniac-cave",
        "conditions": []
    },
    {
        "minLevel": 23,
        "maxLevel": 23,
        "area": "ruin-maniac-cave-0-9-different-unown-caught",
        "method": "walk",
        "location": "ruin-maniac-cave",
        "conditions": []
    },
    {
        "minLevel": 22,
        "maxLevel": 22,
        "area": "ruin-maniac-cave-10-25-different-unown-caught",
        "method": "walk",
        "location": "ruin-maniac-cave",
        "conditions": []
    },
    {
        "minLevel": 23,
        "maxLevel": 23,
        "area": "ruin-maniac-cave-10-25-different-unown-caught",
        "method": "walk",
        "location": "ruin-maniac-cave",
        "conditions": []
    },
    {
        "minLevel": 24,
        "maxLevel": 24,
        "area": "ruin-maniac-cave-10-25-different-unown-caught",
        "method": "walk",
        "location": "ruin-maniac-cave",
        "conditions": []
    },
    {
        "minLevel": 22,
        "maxLevel": 22,
        "area": "maniac-tunnel-26-plus-different-unown-caught",
        "method": "walk",
        "location": "maniac-tunnel",
        "conditions": []
    },
    {
        "minLevel": 23,
        "maxLevel": 23,
        "area": "maniac-tunnel-26-plus-different-unown-caught",
        "method": "walk",
        "location": "maniac-tunnel",
        "conditions": []
    },
    {
        "minLevel": 24,
        "maxLevel": 24,
        "area": "maniac-tunnel-26-plus-different-unown-caught",
        "method": "walk",
        "location": "maniac-tunnel",
        "conditions": []
    },
    {
        "minLevel": 25,
        "maxLevel": 25,
        "area": "maniac-tunnel-26-plus-different-unown-caught",
        "method": "walk",
        "location": "maniac-tunnel",
        "conditions": []
    }
]