[
    {
        "minLevel": 30,
        "maxLevel": 40,
        "area": "canalave-city-area",
        "method": "super-rod",
        "location": "canalave-city",
        "conditions": []
    },
    {
        "minLevel": 20,
        "maxLevel": 50,
        "area": "canalave-city-area",
        "method": "super-rod",
        "location": "canalave-city",
        "conditions": []
    },
    {
        "minLevel": 20,
        "maxLevel": 50,
        "area": "canalave-city-area",
        "method": "super-rod",
        "location": "canalave-city",
        "conditions": []
    },
    {
        "minLevel": 30,
        "maxLevel": 40,
        "area": "valley-windworks-area",
        "method": "super-rod",
        "location": "valley-windworks",
        "conditions": []
    },
    {
        "minLevel": 30,
        "maxLevel": 50,
        "area": "valley-windworks-area",
        "method": "super-rod",
        "location": "valley-windworks",
        "conditions": []
    },
    {
        "minLevel": 30,
        "maxLevel": 50,
        "area": "valley-windworks-area",
        "method": "super-rod",
        "location": "valley-windworks",
        "conditions": []
    },
    {
        "minLevel": 30,
        "maxLevel": 40,
        "area": "fuego-ironworks-area",
        "method": "super-rod",
        "location": "fuego-ironworks",
        "conditions": []
    },
    {
        "minLevel": 20,
        "maxLevel": 50,
        "area": "fuego-ironworks-area",
        "method": "super-rod",
        "location": "fuego-ironworks",
        "conditions": []
    },
    {
        "minLevel": 20,
        "maxLevel": 50,
        "area": "fuego-ironworks-area",
        "method": "super-rod",
        "location": "fuego-ironworks",
        "conditions": []
    },
    {
        "minLevel": 30,
        "maxLevel": 40,
        "area": "iron-island-area",
        "method": "super-rod",
        "location": "iron-island",
        "conditions": []
    },
    {
        "minLevel": 20,
        "maxLevel": 50,
        "area": "iron-island-area",
        "method": "super-rod",
        "location": "iron-island",
        "conditions": []
    },
    {
        "minLevel": 20,
        "maxLevel": 50,
        "area": "iron-island-area",
        "method": "super-rod",
        "location": "iron-island",
        "conditions": []
    },
    {
        "minLevel": 30,
        "maxLevel": 40,
        "area": "sinnoh-route-205-south-towards-floaroma-town",
        "method": "super-rod",
        "location": "sinnoh-route-205",
        "conditions": []
    },
    {
        "minLevel": 20,
        "maxLevel": 50,
        "area": "sinnoh-route-205-south-towards-floaroma-town",
        "method": "super-rod",
        "location": "sinnoh-route-205",
        "conditions": []
    },
    {
        "minLevel": 20,
        "maxLevel": 50,
        "area": "sinnoh-route-205-south-towards-floaroma-town",
        "method": "super-rod",
        "location": "sinnoh-route-205",
        "conditions": []
    },
    {
        "minLevel": 30,
        "maxLevel": 40,
        "area": "sinnoh-route-218-area",
        "method": "super-rod",
        "location": "sinnoh-route-218",
        "conditions": []
    },
    {
        "minLevel": 20,
        "maxLevel": 50,
        "area": "sinnoh-route-218-area",
        "method": "super-rod",
        "location": "sinnoh-route-218",
        "conditions": []
    },
    {
        "minLevel": 20,
        "maxLevel": 50,
        "area": "sinnoh-route-218-area",
        "method": "super-rod",
        "location": "sinnoh-route-218",
        "conditions": []
    },
    {
        "minLevel": 30,
        "maxLevel": 40,
        "area": "sinnoh-route-219-area",
        "method": "super-rod",
        "location": "sinnoh-route-219",
        "conditions": []
    },
    {
        "minLevel": 20,
        "maxLevel": 50,
        "area": "sinnoh-route-219-area",
        "method": "super-rod",
        "location": "sinnoh-route-219",
        "conditions": []
    },
    {
        "minLevel": 20,
        "maxLevel": 50,
        "area": "sinnoh-route-219-area",
        "method": "super-rod",
        "location": "sinnoh-route-219",
        "conditions": []
    },
    {
        "minLevel": 30,
        "maxLevel": 40,
        "area": "sinnoh-route-221-area",
        "method": "super-rod",
        "location": "sinnoh-route-221",
        "conditions": []
    },
    {
        "minLevel": 20,
        "maxLevel": 50,
        "area": "sinnoh-route-221-area",
        "method": "super-rod",
        "location": "sinnoh-route-221",
        "conditions": []
    },
    {
        "minLevel": 20,
        "maxLevel": 50,
        "area": "sinnoh-route-221-area",
        "method": "super-rod",
        "location": "sinnoh-route-221",
        "conditions": []
    },
    {
        "minLevel": 30,
        "maxLevel": 40,
        "area": "sinnoh-sea-route-220-area",
        "method": "super-rod",
        "location": "sinnoh-sea-route-220",
        "conditions": []
    }
]