[
    {
        "minLevel": 3,
        "maxLevel": 3,
        "area": "sinnoh-route-201-area",
        "method": "walk",
        "location": "sinnoh-route-201",
        "conditions": ["radar-on"]
    },
    {
        "minLevel": 3,
        "maxLevel": 3,
        "area": "sinnoh-route-201-area",
        "method": "walk",
        "location": "sinnoh-route-201",
        "conditions": ["radar-on"]
    }
]