[
    {
        "minLevel": 30,
        "maxLevel": 40,
        "area": "pastoria-city-area",
        "method": "super-rod",
        "location": "pastoria-city",
        "conditions": []
    },
    {
        "minLevel": 20,
        "maxLevel": 50,
        "area": "pastoria-city-area",
        "method": "super-rod",
        "location": "pastoria-city",
        "conditions": []
    },
    {
        "minLevel": 20,
        "maxLevel": 50,
        "area": "pastoria-city-area",
        "method": "super-rod",
        "location": "pastoria-city",
        "conditions": []
    },
    {
        "minLevel": 30,
        "maxLevel": 40,
        "area": "sunyshore-city-area",
        "method": "super-rod",
        "location": "sunyshore-city",
        "conditions": []
    },
    {
        "minLevel": 20,
        "maxLevel": 50,
        "area": "sunyshore-city-area",
        "method": "super-rod",
        "location": "sunyshore-city",
        "conditions": []
    },
    {
        "minLevel": 20,
        "maxLevel": 50,
        "area": "sunyshore-city-area",
        "method": "super-rod",
        "location": "sunyshore-city",
        "conditions": []
    },
    {
        "minLevel": 30,
        "maxLevel": 40,
        "area": "sinnoh-pokemon-league-area",
        "method": "super-rod",
        "location": "sinnoh-pokemon-league",
        "conditions": []
    },
    {
        "minLevel": 20,
        "maxLevel": 50,
        "area": "sinnoh-pokemon-league-area",
        "method": "super-rod",
        "location": "sinnoh-pokemon-league",
        "conditions": []
    },
    {
        "minLevel": 20,
        "maxLevel": 50,
        "area": "sinnoh-pokemon-league-area",
        "method": "super-rod",
        "location": "sinnoh-pokemon-league",
        "conditions": []
    },
    {
        "minLevel": 30,
        "maxLevel": 40,
        "area": "sinnoh-route-213-area",
        "method": "super-rod",
        "location": "sinnoh-route-213",
        "conditions": []
    },
    {
        "minLevel": 20,
        "maxLevel": 50,
        "area": "sinnoh-route-213-area",
        "method": "super-rod",
        "location": "sinnoh-route-213",
        "conditions": []
    },
    {
        "minLevel": 20,
        "maxLevel": 50,
        "area": "sinnoh-route-213-area",
        "method": "super-rod",
        "location": "sinnoh-route-213",
        "conditions": []
    },
    {
        "minLevel": 30,
        "maxLevel": 40,
        "area": "sinnoh-route-222-area",
        "method": "super-rod",
        "location": "sinnoh-route-222",
        "conditions": []
    },
    {
        "minLevel": 20,
        "maxLevel": 50,
        "area": "sinnoh-route-222-area",
        "method": "super-rod",
        "location": "sinnoh-route-222",
        "conditions": []
    },
    {
        "minLevel": 20,
        "maxLevel": 50,
        "area": "sinnoh-route-222-area",
        "method": "super-rod",
        "location": "sinnoh-route-222",
        "conditions": []
    },
    {
        "minLevel": 30,
        "maxLevel": 40,
        "area": "sinnoh-route-224-area",
        "method": "super-rod",
        "location": "sinnoh-route-224",
        "conditions": []
    },
    {
        "minLevel": 20,
        "maxLevel": 50,
        "area": "sinnoh-route-224-area",
        "method": "super-rod",
        "location": "sinnoh-route-224",
        "conditions": []
    },
    {
        "minLevel": 20,
        "maxLevel": 50,
        "area": "sinnoh-route-224-area",
        "method": "super-rod",
        "location": "sinnoh-route-224",
        "conditions": []
    },
    {
        "minLevel": 40,
        "maxLevel": 55,
        "area": "sinnoh-sea-route-223-area",
        "method": "super-rod",
        "location": "sinnoh-sea-route-223",
        "conditions": []
    },
    {
        "minLevel": 40,
        "maxLevel": 55,
        "area": "sinnoh-sea-route-230-area",
        "method": "super-rod",
        "location": "sinnoh-sea-route-230",
        "conditions": []
    }
]