[
    {
        "minLevel": 8,
        "maxLevel": 8,
        "area": "oreburgh-mine-1f",
        "method": "walk",
        "location": "oreburgh-mine",
        "conditions": []
    },
    {
        "minLevel": 8,
        "maxLevel": 8,
        "area": "oreburgh-mine-1f",
        "method": "walk",
        "location": "oreburgh-mine",
        "conditions": []
    },
    {
        "minLevel": 9,
        "maxLevel": 9,
        "area": "oreburgh-mine-b1f",
        "method": "walk",
        "location": "oreburgh-mine",
        "conditions": []
    },
    {
        "minLevel": 9,
        "maxLevel": 9,
        "area": "oreburgh-mine-b1f",
        "method": "walk",
        "location": "oreburgh-mine",
        "conditions": []
    },
    {
        "minLevel": 44,
        "maxLevel": 44,
        "area": "sinnoh-victory-road-1f",
        "method": "walk",
        "location": "sinnoh-victory-road",
        "conditions": []
    },
    {
        "minLevel": 45,
        "maxLevel": 45,
        "area": "sinnoh-victory-road-2f",
        "method": "walk",
        "location": "sinnoh-victory-road",
        "conditions": []
    },
    {
        "minLevel": 50,
        "maxLevel": 50,
        "area": "sinnoh-victory-road-inside",
        "method": "walk",
        "location": "sinnoh-victory-road",
        "conditions": []
    },
    {
        "minLevel": 50,
        "maxLevel": 50,
        "area": "sinnoh-victory-road-inside-exit",
        "method": "walk",
        "location": "sinnoh-victory-road",
        "conditions": []
    },
    {
        "minLevel": 54,
        "maxLevel": 54,
        "area": "stark-mountain-entrance",
        "method": "walk",
        "location": "stark-mountain",
        "conditions": []
    },
    {
        "minLevel": 56,
        "maxLevel": 56,
        "area": "stark-mountain-inside",
        "method": "walk",
        "location": "stark-mountain",
        "conditions": []
    },
    {
        "minLevel": 51,
        "maxLevel": 51,
        "area": "snowpoint-temple-1f",
        "method": "walk",
        "location": "snowpoint-temple",
        "conditions": []
    },
    {
        "minLevel": 52,
        "maxLevel": 52,
        "area": "snowpoint-temple-1f",
        "method": "walk",
        "location": "snowpoint-temple",
        "conditions": []
    },
    {
        "minLevel": 50,
        "maxLevel": 50,
        "area": "snowpoint-temple-1f",
        "method": "walk",
        "location": "snowpoint-temple",
        "conditions": []
    },
    {
        "minLevel": 53,
        "maxLevel": 53,
        "area": "snowpoint-temple-b1f",
        "method": "walk",
        "location": "snowpoint-temple",
        "conditions": []
    },
    {
        "minLevel": 52,
        "maxLevel": 52,
        "area": "snowpoint-temple-b1f",
        "method": "walk",
        "location": "snowpoint-temple",
        "conditions": []
    },
    {
        "minLevel": 53,
        "maxLevel": 53,
        "area": "snowpoint-temple-b2f",
        "method": "walk",
        "location": "snowpoint-temple",
        "conditions": []
    },
    {
        "minLevel": 52,
        "maxLevel": 52,
        "area": "snowpoint-temple-b2f",
        "method": "walk",
        "location": "snowpoint-temple",
        "conditions": []
    },
    {
        "minLevel": 53,
        "maxLevel": 53,
        "area": "snowpoint-temple-b3f",
        "method": "walk",
        "location": "snowpoint-temple",
        "conditions": []
    },
    {
        "minLevel": 52,
        "maxLevel": 52,
        "area": "snowpoint-temple-b3f",
        "method": "walk",
        "location": "snowpoint-temple",
        "conditions": []
    },
    {
        "minLevel": 32,
        "maxLevel": 32,
        "area": "iron-island-1f",
        "method": "walk",
        "location": "iron-island",
        "conditions": []
    },
    {
        "minLevel": 33,
        "maxLevel": 33,
        "area": "iron-island-1f",
        "method": "walk",
        "location": "iron-island",
        "conditions": []
    },
    {
        "minLevel": 32,
        "maxLevel": 32,
        "area": "iron-island-b1f-left",
        "method": "walk",
        "location": "iron-island",
        "conditions": []
    },
    {
        "minLevel": 33,
        "maxLevel": 33,
        "area": "iron-island-b1f-left",
        "method": "walk",
        "location": "iron-island",
        "conditions": []
    },
    {
        "minLevel": 32,
        "maxLevel": 32,
        "area": "iron-island-b1f-right",
        "method": "walk",
        "location": "iron-island",
        "conditions": []
    },
    {
        "minLevel": 33,
        "maxLevel": 33,
        "area": "iron-island-b1f-right",
        "method": "walk",
        "location": "iron-island",
        "conditions": []
    },
    {
        "minLevel": 31,
        "maxLevel": 31,
        "area": "iron-island-b2f-right",
        "method": "walk",
        "location": "iron-island",
        "conditions": []
    },
    {
        "minLevel": 32,
        "maxLevel": 32,
        "area": "iron-island-b2f-right",
        "method": "walk",
        "location": "iron-island",
        "conditions": []
    },
    {
        "minLevel": 33,
        "maxLevel": 33,
        "area": "iron-island-b2f-right",
        "method": "walk",
        "location": "iron-island",
        "conditions": []
    },
    {
        "minLevel": 32,
        "maxLevel": 32,
        "area": "iron-island-b2f-left",
        "method": "walk",
        "location": "iron-island",
        "conditions": []
    },
    {
        "minLevel": 33,
        "maxLevel": 33,
        "area": "iron-island-b2f-left",
        "method": "walk",
        "location": "iron-island",
        "conditions": []
    },
    {
        "minLevel": 32,
        "maxLevel": 32,
        "area": "iron-island-b3f",
        "method": "walk",
        "location": "iron-island",
        "conditions": []
    },
    {
        "minLevel": 33,
        "maxLevel": 33,
        "area": "iron-island-b3f",
        "method": "walk",
        "location": "iron-island",
        "conditions": []
    }
]