[
    {
        "minLevel": 4,
        "maxLevel": 4,
        "area": "sinnoh-route-203-area",
        "method": "walk",
        "location": "sinnoh-route-203",
        "conditions": ["radar-on"]
    },
    {
        "minLevel": 5,
        "maxLevel": 5,
        "area": "sinnoh-route-203-area",
        "method": "walk",
        "location": "sinnoh-route-203",
        "conditions": ["radar-on"]
    },
    {
        "minLevel": 6,
        "maxLevel": 6,
        "area": "sinnoh-route-203-area",
        "method": "walk",
        "location": "sinnoh-route-203",
        "conditions": ["radar-on"]
    },
    {
        "minLevel": 4,
        "maxLevel": 4,
        "area": "sinnoh-route-204-south-towards-jubilife-city",
        "method": "walk",
        "location": "sinnoh-route-204",
        "conditions": ["radar-on"]
    },
    {
        "minLevel": 4,
        "maxLevel": 4,
        "area": "sinnoh-route-204-south-towards-jubilife-city",
        "method": "walk",
        "location": "sinnoh-route-204",
        "conditions": ["radar-on"]
    },
    {
        "minLevel": 6,
        "maxLevel": 6,
        "area": "sinnoh-route-204-south-towards-jubilife-city",
        "method": "walk",
        "location": "sinnoh-route-204",
        "conditions": ["radar-on"]
    }
]