[
    {
        "minLevel": 31,
        "maxLevel": 31,
        "area": "iron-island-b1f-left",
        "method": "walk",
        "location": "iron-island",
        "conditions": ["slot2-sapphire"]
    },
    {
        "minLevel": 33,
        "maxLevel": 33,
        "area": "iron-island-b1f-left",
        "method": "walk",
        "location": "iron-island",
        "conditions": ["slot2-sapphire"]
    },
    {
        "minLevel": 31,
        "maxLevel": 31,
        "area": "iron-island-b1f-right",
        "method": "walk",
        "location": "iron-island",
        "conditions": ["slot2-sapphire"]
    },
    {
        "minLevel": 33,
        "maxLevel": 33,
        "area": "iron-island-b1f-right",
        "method": "walk",
        "location": "iron-island",
        "conditions": ["slot2-sapphire"]
    },
    {
        "minLevel": 31,
        "maxLevel": 31,
        "area": "iron-island-b2f-right",
        "method": "walk",
        "location": "iron-island",
        "conditions": ["slot2-sapphire"]
    },
    {
        "minLevel": 33,
        "maxLevel": 33,
        "area": "iron-island-b2f-right",
        "method": "walk",
        "location": "iron-island",
        "conditions": ["slot2-sapphire"]
    },
    {
        "minLevel": 32,
        "maxLevel": 32,
        "area": "iron-island-b2f-left",
        "method": "walk",
        "location": "iron-island",
        "conditions": ["slot2-sapphire"]
    },
    {
        "minLevel": 34,
        "maxLevel": 34,
        "area": "iron-island-b2f-left",
        "method": "walk",
        "location": "iron-island",
        "conditions": ["slot2-sapphire"]
    },
    {
        "minLevel": 32,
        "maxLevel": 32,
        "area": "iron-island-b3f",
        "method": "walk",
        "location": "iron-island",
        "conditions": ["slot2-sapphire"]
    },
    {
        "minLevel": 34,
        "maxLevel": 34,
        "area": "iron-island-b3f",
        "method": "walk",
        "location": "iron-island",
        "conditions": ["slot2-sapphire"]
    }
]