[
    {
        "minLevel": 30,
        "maxLevel": 40,
        "area": "sinnoh-sea-route-226-area",
        "method": "super-rod",
        "location": "sinnoh-sea-route-226",
        "conditions": []
    },
    {
        "minLevel": 35,
        "maxLevel": 55,
        "area": "sinnoh-sea-route-226-area",
        "method": "super-rod",
        "location": "sinnoh-sea-route-226",
        "conditions": []
    },
    {
        "minLevel": 35,
        "maxLevel": 55,
        "area": "sinnoh-sea-route-226-area",
        "method": "super-rod",
        "location": "sinnoh-sea-route-226",
        "conditions": []
    }
]