[
    {
        "minLevel": 23,
        "maxLevel": 23,
        "area": "sinnoh-route-224-area",
        "method": "walk",
        "location": "sinnoh-route-224",
        "conditions": ["slot2-emerald"]
    },
    {
        "minLevel": 23,
        "maxLevel": 23,
        "area": "sinnoh-route-224-area",
        "method": "walk",
        "location": "sinnoh-route-224",
        "conditions": ["slot2-emerald"]
    }
]