[
    {
        "minLevel": 25,
        "maxLevel": 25,
        "area": "stark-mountain-entrance",
        "method": "walk",
        "location": "stark-mountain",
        "conditions": ["slot2-none"]
    },
    {
        "minLevel": 25,
        "maxLevel": 25,
        "area": "stark-mountain-entrance",
        "method": "walk",
        "location": "stark-mountain",
        "conditions": ["slot2-ruby"]
    },
    {
        "minLevel": 25,
        "maxLevel": 25,
        "area": "stark-mountain-entrance",
        "method": "walk",
        "location": "stark-mountain",
        "conditions": ["slot2-sapphire"]
    },
    {
        "minLevel": 25,
        "maxLevel": 25,
        "area": "stark-mountain-entrance",
        "method": "walk",
        "location": "stark-mountain",
        "conditions": ["slot2-emerald"]
    },
    {
        "minLevel": 25,
        "maxLevel": 25,
        "area": "stark-mountain-entrance",
        "method": "walk",
        "location": "stark-mountain",
        "conditions": ["slot2-firered"]
    },
    {
        "minLevel": 27,
        "maxLevel": 27,
        "area": "stark-mountain-entrance",
        "method": "walk",
        "location": "stark-mountain",
        "conditions": []
    },
    {
        "minLevel": 27,
        "maxLevel": 27,
        "area": "stark-mountain-inside",
        "method": "walk",
        "location": "stark-mountain",
        "conditions": ["slot2-none"]
    },
    {
        "minLevel": 27,
        "maxLevel": 27,
        "area": "stark-mountain-inside",
        "method": "walk",
        "location": "stark-mountain",
        "conditions": ["slot2-ruby"]
    },
    {
        "minLevel": 27,
        "maxLevel": 27,
        "area": "stark-mountain-inside",
        "method": "walk",
        "location": "stark-mountain",
        "conditions": ["slot2-sapphire"]
    },
    {
        "minLevel": 27,
        "maxLevel": 27,
        "area": "stark-mountain-inside",
        "method": "walk",
        "location": "stark-mountain",
        "conditions": ["slot2-emerald"]
    },
    {
        "minLevel": 27,
        "maxLevel": 27,
        "area": "stark-mountain-inside",
        "method": "walk",
        "location": "stark-mountain",
        "conditions": ["slot2-firered"]
    },
    {
        "minLevel": 29,
        "maxLevel": 29,
        "area": "stark-mountain-inside",
        "method": "walk",
        "location": "stark-mountain",
        "conditions": []
    }
]