[
    {
        "minLevel": 17,
        "maxLevel": 17,
        "area": "trophy-garden-area",
        "method": "walk",
        "location": "trophy-garden",
        "conditions": []
    },
    {
        "minLevel": 16,
        "maxLevel": 16,
        "area": "trophy-garden-area",
        "method": "walk",
        "location": "trophy-garden",
        "conditions": ["time-day"]
    },
    {
        "minLevel": 16,
        "maxLevel": 16,
        "area": "trophy-garden-area",
        "method": "walk",
        "location": "trophy-garden",
        "conditions": ["time-day"]
    },
    {
        "minLevel": 4,
        "maxLevel": 4,
        "area": "lake-verity-before-galactic-intervention",
        "method": "walk",
        "location": "lake-verity",
        "conditions": ["slot2-emerald"]
    },
    {
        "minLevel": 4,
        "maxLevel": 4,
        "area": "lake-verity-before-galactic-intervention",
        "method": "walk",
        "location": "lake-verity",
        "conditions": ["slot2-firered"]
    },
    {
        "minLevel": 4,
        "maxLevel": 4,
        "area": "lake-verity-before-galactic-intervention",
        "method": "walk",
        "location": "lake-verity",
        "conditions": ["slot2-leafgreen"]
    },
    {
        "minLevel": 4,
        "maxLevel": 4,
        "area": "lake-verity-after-galactic-intervention",
        "method": "walk",
        "location": "lake-verity",
        "conditions": ["slot2-emerald"]
    },
    {
        "minLevel": 4,
        "maxLevel": 4,
        "area": "lake-verity-after-galactic-intervention",
        "method": "walk",
        "location": "lake-verity",
        "conditions": ["slot2-firered"]
    },
    {
        "minLevel": 4,
        "maxLevel": 4,
        "area": "lake-verity-after-galactic-intervention",
        "method": "walk",
        "location": "lake-verity",
        "conditions": ["slot2-leafgreen"]
    },
    {
        "minLevel": 34,
        "maxLevel": 34,
        "area": "lake-valor-area",
        "method": "walk",
        "location": "lake-valor",
        "conditions": ["time-morning"]
    },
    {
        "minLevel": 34,
        "maxLevel": 34,
        "area": "lake-valor-area",
        "method": "walk",
        "location": "lake-valor",
        "conditions": ["time-day"]
    },
    {
        "minLevel": 36,
        "maxLevel": 36,
        "area": "lake-valor-area",
        "method": "walk",
        "location": "lake-valor",
        "conditions": ["time-morning"]
    },
    {
        "minLevel": 36,
        "maxLevel": 36,
        "area": "lake-valor-area",
        "method": "walk",
        "location": "lake-valor",
        "conditions": ["time-day"]
    },
    {
        "minLevel": 35,
        "maxLevel": 35,
        "area": "lake-valor-area",
        "method": "walk",
        "location": "lake-valor",
        "conditions": ["slot2-none"]
    },
    {
        "minLevel": 35,
        "maxLevel": 35,
        "area": "lake-valor-area",
        "method": "walk",
        "location": "lake-valor",
        "conditions": ["slot2-emerald"]
    },
    {
        "minLevel": 35,
        "maxLevel": 35,
        "area": "lake-valor-area",
        "method": "walk",
        "location": "lake-valor",
        "conditions": ["slot2-firered"]
    },
    {
        "minLevel": 35,
        "maxLevel": 35,
        "area": "lake-valor-area",
        "method": "walk",
        "location": "lake-valor",
        "conditions": ["slot2-leafgreen"]
    },
    {
        "minLevel": 35,
        "maxLevel": 35,
        "area": "lake-valor-area",
        "method": "walk",
        "location": "lake-valor",
        "conditions": ["radar-off"]
    },
    {
        "minLevel": 21,
        "maxLevel": 21,
        "area": "valor-lakefront-area",
        "method": "walk",
        "location": "valor-lakefront",
        "conditions": ["time-morning"]
    },
    {
        "minLevel": 21,
        "maxLevel": 21,
        "area": "valor-lakefront-area",
        "method": "walk",
        "location": "valor-lakefront",
        "conditions": ["time-day"]
    },
    {
        "minLevel": 22,
        "maxLevel": 22,
        "area": "valor-lakefront-area",
        "method": "walk",
        "location": "valor-lakefront",
        "conditions": []
    },
    {
        "minLevel": 16,
        "maxLevel": 16,
        "area": "sinnoh-route-209-area",
        "method": "walk",
        "location": "sinnoh-route-209",
        "conditions": ["time-day"]
    },
    {
        "minLevel": 17,
        "maxLevel": 17,
        "area": "sinnoh-route-209-area",
        "method": "walk",
        "location": "sinnoh-route-209",
        "conditions": ["radar-off"]
    },
    {
        "minLevel": 18,
        "maxLevel": 18,
        "area": "sinnoh-route-209-area",
        "method": "walk",
        "location": "sinnoh-route-209",
        "conditions": []
    },
    {
        "minLevel": 17,
        "maxLevel": 17,
        "area": "sinnoh-route-212-north-towards-hearthome-city",
        "method": "walk",
        "location": "sinnoh-route-212",
        "conditions": ["time-morning"]
    },
    {
        "minLevel": 17,
        "maxLevel": 17,
        "area": "sinnoh-route-212-north-towards-hearthome-city",
        "method": "walk",
        "location": "sinnoh-route-212",
        "conditions": ["time-day"]
    },
    {
        "minLevel": 17,
        "maxLevel": 17,
        "area": "sinnoh-route-212-north-towards-hearthome-city",
        "method": "walk",
        "location": "sinnoh-route-212",
        "conditions": ["time-day"]
    },
    {
        "minLevel": 18,
        "maxLevel": 18,
        "area": "sinnoh-route-212-north-towards-hearthome-city",
        "method": "walk",
        "location": "sinnoh-route-212",
        "conditions": []
    },
    {
        "minLevel": 53,
        "maxLevel": 53,
        "area": "sendoff-spring-area",
        "method": "walk",
        "location": "sendoff-spring",
        "conditions": ["time-morning"]
    },
    {
        "minLevel": 53,
        "maxLevel": 53,
        "area": "sendoff-spring-area",
        "method": "walk",
        "location": "sendoff-spring",
        "conditions": ["time-day"]
    },
    {
        "minLevel": 54,
        "maxLevel": 54,
        "area": "sendoff-spring-area",
        "method": "walk",
        "location": "sendoff-spring",
        "conditions": ["time-morning"]
    },
    {
        "minLevel": 54,
        "maxLevel": 54,
        "area": "sendoff-spring-area",
        "method": "walk",
        "location": "sendoff-spring",
        "conditions": ["time-day"]
    },
    {
        "minLevel": 52,
        "maxLevel": 52,
        "area": "sendoff-spring-area",
        "method": "walk",
        "location": "sendoff-spring",
        "conditions": ["slot2-none"]
    },
    {
        "minLevel": 52,
        "maxLevel": 52,
        "area": "sendoff-spring-area",
        "method": "walk",
        "location": "sendoff-spring",
        "conditions": ["slot2-emerald"]
    },
    {
        "minLevel": 52,
        "maxLevel": 52,
        "area": "sendoff-spring-area",
        "method": "walk",
        "location": "sendoff-spring",
        "conditions": ["slot2-firered"]
    },
    {
        "minLevel": 52,
        "maxLevel": 52,
        "area": "sendoff-spring-area",
        "method": "walk",
        "location": "sendoff-spring",
        "conditions": ["slot2-leafgreen"]
    },
    {
        "minLevel": 52,
        "maxLevel": 52,
        "area": "sendoff-spring-area",
        "method": "walk",
        "location": "sendoff-spring",
        "conditions": []
    }
]