[
    {
        "minLevel": 23,
        "maxLevel": 23,
        "area": "sinnoh-route-214-area",
        "method": "walk",
        "location": "sinnoh-route-214",
        "conditions": ["radar-off"]
    },
    {
        "minLevel": 24,
        "maxLevel": 24,
        "area": "sinnoh-route-214-area",
        "method": "walk",
        "location": "sinnoh-route-214",
        "conditions": ["slot2-none"]
    },
    {
        "minLevel": 24,
        "maxLevel": 24,
        "area": "sinnoh-route-214-area",
        "method": "walk",
        "location": "sinnoh-route-214",
        "conditions": ["slot2-ruby"]
    },
    {
        "minLevel": 24,
        "maxLevel": 24,
        "area": "sinnoh-route-214-area",
        "method": "walk",
        "location": "sinnoh-route-214",
        "conditions": ["slot2-sapphire"]
    },
    {
        "minLevel": 24,
        "maxLevel": 24,
        "area": "sinnoh-route-214-area",
        "method": "walk",
        "location": "sinnoh-route-214",
        "conditions": ["slot2-firered"]
    },
    {
        "minLevel": 24,
        "maxLevel": 24,
        "area": "sinnoh-route-214-area",
        "method": "walk",
        "location": "sinnoh-route-214",
        "conditions": ["radar-off"]
    },
    {
        "minLevel": 29,
        "maxLevel": 29,
        "area": "sinnoh-route-221-area",
        "method": "walk",
        "location": "sinnoh-route-221",
        "conditions": ["radar-off"]
    },
    {
        "minLevel": 30,
        "maxLevel": 30,
        "area": "sinnoh-route-221-area",
        "method": "walk",
        "location": "sinnoh-route-221",
        "conditions": []
    },
    {
        "minLevel": 30,
        "maxLevel": 30,
        "area": "sinnoh-route-221-area",
        "method": "walk",
        "location": "sinnoh-route-221",
        "conditions": ["radar-off"]
    }
]