[
    {
        "minLevel": 34,
        "maxLevel": 34,
        "area": "lake-acuity-area",
        "method": "walk",
        "location": "lake-acuity",
        "conditions": ["slot2-emerald"]
    },
    {
        "minLevel": 36,
        "maxLevel": 36,
        "area": "lake-acuity-area",
        "method": "walk",
        "location": "lake-acuity",
        "conditions": ["slot2-emerald"]
    },
    {
        "minLevel": 33,
        "maxLevel": 33,
        "area": "sinnoh-route-216-area",
        "method": "walk",
        "location": "sinnoh-route-216",
        "conditions": ["slot2-emerald"]
    },
    {
        "minLevel": 34,
        "maxLevel": 34,
        "area": "sinnoh-route-216-area",
        "method": "walk",
        "location": "sinnoh-route-216",
        "conditions": ["slot2-emerald"]
    },
    {
        "minLevel": 36,
        "maxLevel": 36,
        "area": "sinnoh-route-217-area",
        "method": "walk",
        "location": "sinnoh-route-217",
        "conditions": ["slot2-emerald"]
    },
    {
        "minLevel": 36,
        "maxLevel": 36,
        "area": "sinnoh-route-217-area",
        "method": "walk",
        "location": "sinnoh-route-217",
        "conditions": ["slot2-emerald"]
    }
]