[
    {
        "minLevel": 30,
        "maxLevel": 40,
        "area": "eterna-city-area",
        "method": "super-rod",
        "location": "eterna-city",
        "conditions": []
    },
    {
        "minLevel": 20,
        "maxLevel": 50,
        "area": "eterna-city-area",
        "method": "super-rod",
        "location": "eterna-city",
        "conditions": []
    },
    {
        "minLevel": 20,
        "maxLevel": 50,
        "area": "eterna-city-area",
        "method": "super-rod",
        "location": "eterna-city",
        "conditions": []
    },
    {
        "minLevel": 30,
        "maxLevel": 40,
        "area": "mt-coronet-route-207",
        "method": "super-rod",
        "location": "mt-coronet",
        "conditions": []
    },
    {
        "minLevel": 20,
        "maxLevel": 50,
        "area": "mt-coronet-route-207",
        "method": "super-rod",
        "location": "mt-coronet",
        "conditions": []
    },
    {
        "minLevel": 20,
        "maxLevel": 50,
        "area": "mt-coronet-route-207",
        "method": "super-rod",
        "location": "mt-coronet",
        "conditions": []
    },
    {
        "minLevel": 30,
        "maxLevel": 40,
        "area": "mt-coronet-b1f",
        "method": "super-rod",
        "location": "mt-coronet",
        "conditions": []
    },
    {
        "minLevel": 20,
        "maxLevel": 50,
        "area": "mt-coronet-b1f",
        "method": "super-rod",
        "location": "mt-coronet",
        "conditions": []
    },
    {
        "minLevel": 20,
        "maxLevel": 50,
        "area": "mt-coronet-b1f",
        "method": "super-rod",
        "location": "mt-coronet",
        "conditions": []
    },
    {
        "minLevel": 30,
        "maxLevel": 55,
        "area": "great-marsh-area-1",
        "method": "super-rod",
        "location": "great-marsh",
        "conditions": []
    },
    {
        "minLevel": 30,
        "maxLevel": 55,
        "area": "great-marsh-area-2",
        "method": "super-rod",
        "location": "great-marsh",
        "conditions": []
    },
    {
        "minLevel": 30,
        "maxLevel": 55,
        "area": "great-marsh-area-3",
        "method": "super-rod",
        "location": "great-marsh",
        "conditions": []
    },
    {
        "minLevel": 30,
        "maxLevel": 55,
        "area": "great-marsh-area-4",
        "method": "super-rod",
        "location": "great-marsh",
        "conditions": []
    },
    {
        "minLevel": 30,
        "maxLevel": 55,
        "area": "great-marsh-area-6",
        "method": "super-rod",
        "location": "great-marsh",
        "conditions": []
    },
    {
        "minLevel": 30,
        "maxLevel": 40,
        "area": "ravaged-path-area",
        "method": "super-rod",
        "location": "ravaged-path",
        "conditions": []
    },
    {
        "minLevel": 20,
        "maxLevel": 50,
        "area": "ravaged-path-area",
        "method": "super-rod",
        "location": "ravaged-path",
        "conditions": []
    },
    {
        "minLevel": 20,
        "maxLevel": 50,
        "area": "ravaged-path-area",
        "method": "super-rod",
        "location": "ravaged-path",
        "conditions": []
    },
    {
        "minLevel": 30,
        "maxLevel": 40,
        "area": "oreburgh-gate-b1f",
        "method": "super-rod",
        "location": "oreburgh-gate",
        "conditions": []
    },
    {
        "minLevel": 20,
        "maxLevel": 50,
        "area": "oreburgh-gate-b1f",
        "method": "super-rod",
        "location": "oreburgh-gate",
        "conditions": []
    },
    {
        "minLevel": 20,
        "maxLevel": 50,
        "area": "oreburgh-gate-b1f",
        "method": "super-rod",
        "location": "oreburgh-gate",
        "conditions": []
    },
    {
        "minLevel": 30,
        "maxLevel": 40,
        "area": "sinnoh-route-205-east-towards-eterna-city",
        "method": "super-rod",
        "location": "sinnoh-route-205",
        "conditions": []
    },
    {
        "minLevel": 20,
        "maxLevel": 50,
        "area": "sinnoh-route-205-east-towards-eterna-city",
        "method": "super-rod",
        "location": "sinnoh-route-205",
        "conditions": []
    },
    {
        "minLevel": 20,
        "maxLevel": 50,
        "area": "sinnoh-route-205-east-towards-eterna-city",
        "method": "super-rod",
        "location": "sinnoh-route-205",
        "conditions": []
    },
    {
        "minLevel": 30,
        "maxLevel": 40,
        "area": "sinnoh-route-208-area",
        "method": "super-rod",
        "location": "sinnoh-route-208",
        "conditions": []
    },
    {
        "minLevel": 20,
        "maxLevel": 50,
        "area": "sinnoh-route-208-area",
        "method": "super-rod",
        "location": "sinnoh-route-208",
        "conditions": []
    },
    {
        "minLevel": 20,
        "maxLevel": 50,
        "area": "sinnoh-route-208-area",
        "method": "super-rod",
        "location": "sinnoh-route-208",
        "conditions": []
    },
    {
        "minLevel": 30,
        "maxLevel": 40,
        "area": "sinnoh-route-210-west-towards-celestic-town",
        "method": "super-rod",
        "location": "sinnoh-route-210",
        "conditions": []
    },
    {
        "minLevel": 20,
        "maxLevel": 50,
        "area": "sinnoh-route-210-west-towards-celestic-town",
        "method": "super-rod",
        "location": "sinnoh-route-210",
        "conditions": []
    },
    {
        "minLevel": 20,
        "maxLevel": 50,
        "area": "sinnoh-route-210-west-towards-celestic-town",
        "method": "super-rod",
        "location": "sinnoh-route-210",
        "conditions": []
    },
    {
        "minLevel": 30,
        "maxLevel": 40,
        "area": "sinnoh-route-212-east-towards-pastoria-city",
        "method": "super-rod",
        "location": "sinnoh-route-212",
        "conditions": []
    },
    {
        "minLevel": 20,
        "maxLevel": 50,
        "area": "sinnoh-route-212-east-towards-pastoria-city",
        "method": "super-rod",
        "location": "sinnoh-route-212",
        "conditions": []
    },
    {
        "minLevel": 20,
        "maxLevel": 50,
        "area": "sinnoh-route-212-east-towards-pastoria-city",
        "method": "super-rod",
        "location": "sinnoh-route-212",
        "conditions": []
    },
    {
        "minLevel": 30,
        "maxLevel": 40,
        "area": "sinnoh-route-227-area",
        "method": "super-rod",
        "location": "sinnoh-route-227",
        "conditions": []
    },
    {
        "minLevel": 20,
        "maxLevel": 50,
        "area": "sinnoh-route-227-area",
        "method": "super-rod",
        "location": "sinnoh-route-227",
        "conditions": []
    },
    {
        "minLevel": 20,
        "maxLevel": 50,
        "area": "sinnoh-route-227-area",
        "method": "super-rod",
        "location": "sinnoh-route-227",
        "conditions": []
    },
    {
        "minLevel": 30,
        "maxLevel": 40,
        "area": "sinnoh-route-228-area",
        "method": "super-rod",
        "location": "sinnoh-route-228",
        "conditions": []
    },
    {
        "minLevel": 20,
        "maxLevel": 50,
        "area": "sinnoh-route-228-area",
        "method": "super-rod",
        "location": "sinnoh-route-228",
        "conditions": []
    },
    {
        "minLevel": 20,
        "maxLevel": 50,
        "area": "sinnoh-route-228-area",
        "method": "super-rod",
        "location": "sinnoh-route-228",
        "conditions": []
    },
    {
        "minLevel": 40,
        "maxLevel": 55,
        "area": "celestic-town-area",
        "method": "super-rod",
        "location": "celestic-town",
        "conditions": []
    }
]