{
    "encounters": [
        "caterpie",
        "metapod",
        "butterfree",
        "weedle",
        "kakuna",
        "beedrill",
        "pidgey",
        "pidgeotto",
        "hoothoot",
        "noctowl",
        "ledyba",
        "ledian",
        "spinarak",
        "ariados",
        "plusle",
        "minun",
        "shinx"
    ],
    "id": "kanto-route-2-north-towards-pewter-city"
}