[
    {
        "minLevel": 20,
        "maxLevel": 30,
        "area": "hoenn-route-124-underwater",
        "method": "surf",
        "location": "hoenn-route-124",
        "conditions": []
    },
    {
        "minLevel": 20,
        "maxLevel": 30,
        "area": "hoenn-route-126-underwater",
        "method": "surf",
        "location": "hoenn-route-126",
        "conditions": []
    }
]