[
    {
        "minLevel": 48,
        "maxLevel": 48,
        "area": "sky-pillar-1f",
        "method": "walk",
        "location": "sky-pillar",
        "conditions": []
    },
    {
        "minLevel": 49,
        "maxLevel": 49,
        "area": "sky-pillar-1f",
        "method": "walk",
        "location": "sky-pillar",
        "conditions": []
    },
    {
        "minLevel": 47,
        "maxLevel": 47,
        "area": "sky-pillar-1f",
        "method": "walk",
        "location": "sky-pillar",
        "conditions": []
    },
    {
        "minLevel": 50,
        "maxLevel": 50,
        "area": "sky-pillar-1f",
        "method": "walk",
        "location": "sky-pillar",
        "conditions": []
    },
    {
        "minLevel": 47,
        "maxLevel": 47,
        "area": "sky-pillar-1f",
        "method": "walk",
        "location": "sky-pillar",
        "conditions": []
    },
    {
        "minLevel": 50,
        "maxLevel": 50,
        "area": "sky-pillar-1f",
        "method": "walk",
        "location": "sky-pillar",
        "conditions": []
    },
    {
        "minLevel": 51,
        "maxLevel": 51,
        "area": "sky-pillar-3f",
        "method": "walk",
        "location": "sky-pillar",
        "conditions": []
    },
    {
        "minLevel": 52,
        "maxLevel": 52,
        "area": "sky-pillar-3f",
        "method": "walk",
        "location": "sky-pillar",
        "conditions": []
    },
    {
        "minLevel": 50,
        "maxLevel": 50,
        "area": "sky-pillar-3f",
        "method": "walk",
        "location": "sky-pillar",
        "conditions": []
    },
    {
        "minLevel": 53,
        "maxLevel": 53,
        "area": "sky-pillar-3f",
        "method": "walk",
        "location": "sky-pillar",
        "conditions": []
    },
    {
        "minLevel": 50,
        "maxLevel": 50,
        "area": "sky-pillar-3f",
        "method": "walk",
        "location": "sky-pillar",
        "conditions": []
    },
    {
        "minLevel": 53,
        "maxLevel": 53,
        "area": "sky-pillar-3f",
        "method": "walk",
        "location": "sky-pillar",
        "conditions": []
    },
    {
        "minLevel": 54,
        "maxLevel": 54,
        "area": "sky-pillar-5f",
        "method": "walk",
        "location": "sky-pillar",
        "conditions": []
    },
    {
        "minLevel": 55,
        "maxLevel": 55,
        "area": "sky-pillar-5f",
        "method": "walk",
        "location": "sky-pillar",
        "conditions": []
    },
    {
        "minLevel": 56,
        "maxLevel": 56,
        "area": "sky-pillar-5f",
        "method": "walk",
        "location": "sky-pillar",
        "conditions": []
    }
]