[
    {
        "minLevel": 20,
        "maxLevel": 30,
        "area": "petalburg-city-area",
        "method": "surf",
        "location": "petalburg-city",
        "conditions": []
    },
    {
        "minLevel": 10,
        "maxLevel": 20,
        "area": "petalburg-city-area",
        "method": "surf",
        "location": "petalburg-city",
        "conditions": []
    },
    {
        "minLevel": 30,
        "maxLevel": 35,
        "area": "petalburg-city-area",
        "method": "surf",
        "location": "petalburg-city",
        "conditions": []
    },
    {
        "minLevel": 5,
        "maxLevel": 10,
        "area": "petalburg-city-area",
        "method": "surf",
        "location": "petalburg-city",
        "conditions": []
    },
    {
        "minLevel": 5,
        "maxLevel": 10,
        "area": "petalburg-city-area",
        "method": "surf",
        "location": "petalburg-city",
        "conditions": []
    },
    {
        "minLevel": 20,
        "maxLevel": 30,
        "area": "hoenn-route-102-area",
        "method": "surf",
        "location": "hoenn-route-102",
        "conditions": []
    },
    {
        "minLevel": 10,
        "maxLevel": 20,
        "area": "hoenn-route-102-area",
        "method": "surf",
        "location": "hoenn-route-102",
        "conditions": []
    },
    {
        "minLevel": 30,
        "maxLevel": 35,
        "area": "hoenn-route-102-area",
        "method": "surf",
        "location": "hoenn-route-102",
        "conditions": []
    },
    {
        "minLevel": 5,
        "maxLevel": 10,
        "area": "hoenn-route-102-area",
        "method": "surf",
        "location": "hoenn-route-102",
        "conditions": []
    },
    {
        "minLevel": 20,
        "maxLevel": 30,
        "area": "hoenn-route-111-area",
        "method": "surf",
        "location": "hoenn-route-111",
        "conditions": []
    },
    {
        "minLevel": 10,
        "maxLevel": 20,
        "area": "hoenn-route-111-area",
        "method": "surf",
        "location": "hoenn-route-111",
        "conditions": []
    },
    {
        "minLevel": 30,
        "maxLevel": 35,
        "area": "hoenn-route-111-area",
        "method": "surf",
        "location": "hoenn-route-111",
        "conditions": []
    },
    {
        "minLevel": 5,
        "maxLevel": 10,
        "area": "hoenn-route-111-area",
        "method": "surf",
        "location": "hoenn-route-111",
        "conditions": []
    },
    {
        "minLevel": 20,
        "maxLevel": 30,
        "area": "hoenn-route-114-area",
        "method": "surf",
        "location": "hoenn-route-114",
        "conditions": []
    },
    {
        "minLevel": 10,
        "maxLevel": 20,
        "area": "hoenn-route-114-area",
        "method": "surf",
        "location": "hoenn-route-114",
        "conditions": []
    },
    {
        "minLevel": 30,
        "maxLevel": 35,
        "area": "hoenn-route-114-area",
        "method": "surf",
        "location": "hoenn-route-114",
        "conditions": []
    },
    {
        "minLevel": 5,
        "maxLevel": 10,
        "area": "hoenn-route-114-area",
        "method": "surf",
        "location": "hoenn-route-114",
        "conditions": []
    },
    {
        "minLevel": 20,
        "maxLevel": 30,
        "area": "hoenn-route-117-area",
        "method": "surf",
        "location": "hoenn-route-117",
        "conditions": []
    },
    {
        "minLevel": 10,
        "maxLevel": 20,
        "area": "hoenn-route-117-area",
        "method": "surf",
        "location": "hoenn-route-117",
        "conditions": []
    },
    {
        "minLevel": 30,
        "maxLevel": 35,
        "area": "hoenn-route-117-area",
        "method": "surf",
        "location": "hoenn-route-117",
        "conditions": []
    },
    {
        "minLevel": 5,
        "maxLevel": 10,
        "area": "hoenn-route-117-area",
        "method": "surf",
        "location": "hoenn-route-117",
        "conditions": []
    },
    {
        "minLevel": 13,
        "maxLevel": 13,
        "area": "hoenn-route-117-area",
        "method": "walk",
        "location": "hoenn-route-117",
        "conditions": []
    },
    {
        "minLevel": 20,
        "maxLevel": 30,
        "area": "hoenn-route-120-area",
        "method": "surf",
        "location": "hoenn-route-120",
        "conditions": []
    },
    {
        "minLevel": 10,
        "maxLevel": 20,
        "area": "hoenn-route-120-area",
        "method": "surf",
        "location": "hoenn-route-120",
        "conditions": []
    },
    {
        "minLevel": 30,
        "maxLevel": 35,
        "area": "hoenn-route-120-area",
        "method": "surf",
        "location": "hoenn-route-120",
        "conditions": []
    },
    {
        "minLevel": 5,
        "maxLevel": 10,
        "area": "hoenn-route-120-area",
        "method": "surf",
        "location": "hoenn-route-120",
        "conditions": []
    },
    {
        "minLevel": 25,
        "maxLevel": 25,
        "area": "hoenn-route-120-area",
        "method": "walk",
        "location": "hoenn-route-120",
        "conditions": []
    },
    {
        "minLevel": 27,
        "maxLevel": 27,
        "area": "hoenn-route-120-area",
        "method": "walk",
        "location": "hoenn-route-120",
        "conditions": []
    }
]