[
    {
        "minLevel": 27,
        "maxLevel": 27,
        "area": "mt-pyre-outside",
        "method": "walk",
        "location": "mt-pyre",
        "conditions": []
    },
    {
        "minLevel": 29,
        "maxLevel": 29,
        "area": "mt-pyre-outside",
        "method": "walk",
        "location": "mt-pyre",
        "conditions": []
    },
    {
        "minLevel": 38,
        "maxLevel": 38,
        "area": "hoenn-victory-road-b1f",
        "method": "walk",
        "location": "hoenn-victory-road",
        "conditions": []
    },
    {
        "minLevel": 38,
        "maxLevel": 38,
        "area": "hoenn-victory-road-b1f",
        "method": "walk",
        "location": "hoenn-victory-road",
        "conditions": []
    }
]