[
    {
        "minLevel": 12,
        "maxLevel": 12,
        "area": "hoenn-route-110-area",
        "method": "walk",
        "location": "hoenn-route-110",
        "conditions": []
    },
    {
        "minLevel": 13,
        "maxLevel": 13,
        "area": "hoenn-route-110-area",
        "method": "walk",
        "location": "hoenn-route-110",
        "conditions": []
    }
]