[
    {
        "minLevel": 20,
        "maxLevel": 20,
        "area": "hoenn-route-111-area",
        "method": "walk",
        "location": "hoenn-route-111",
        "conditions": []
    },
    {
        "minLevel": 21,
        "maxLevel": 21,
        "area": "hoenn-route-111-area",
        "method": "walk",
        "location": "hoenn-route-111",
        "conditions": []
    },
    {
        "minLevel": 19,
        "maxLevel": 19,
        "area": "hoenn-route-111-area",
        "method": "walk",
        "location": "hoenn-route-111",
        "conditions": []
    },
    {
        "minLevel": 15,
        "maxLevel": 15,
        "area": "hoenn-route-113-area",
        "method": "walk",
        "location": "hoenn-route-113",
        "conditions": []
    },
    {
        "minLevel": 14,
        "maxLevel": 14,
        "area": "hoenn-route-113-area",
        "method": "walk",
        "location": "hoenn-route-113",
        "conditions": []
    },
    {
        "minLevel": 16,
        "maxLevel": 16,
        "area": "hoenn-route-113-area",
        "method": "walk",
        "location": "hoenn-route-113",
        "conditions": []
    }
]