[
    {
        "minLevel": 10,
        "maxLevel": 30,
        "area": "slateport-city-area",
        "method": "surf",
        "location": "slateport-city",
        "conditions": []
    },
    {
        "minLevel": 15,
        "maxLevel": 25,
        "area": "slateport-city-area",
        "method": "surf",
        "location": "slateport-city",
        "conditions": []
    },
    {
        "minLevel": 10,
        "maxLevel": 30,
        "area": "lilycove-city-area",
        "method": "surf",
        "location": "lilycove-city",
        "conditions": []
    },
    {
        "minLevel": 15,
        "maxLevel": 25,
        "area": "lilycove-city-area",
        "method": "surf",
        "location": "lilycove-city",
        "conditions": []
    },
    {
        "minLevel": 10,
        "maxLevel": 30,
        "area": "mossdeep-city-area",
        "method": "surf",
        "location": "mossdeep-city",
        "conditions": []
    },
    {
        "minLevel": 15,
        "maxLevel": 25,
        "area": "mossdeep-city-area",
        "method": "surf",
        "location": "mossdeep-city",
        "conditions": []
    },
    {
        "minLevel": 10,
        "maxLevel": 30,
        "area": "ever-grande-city-area",
        "method": "surf",
        "location": "ever-grande-city",
        "conditions": []
    },
    {
        "minLevel": 15,
        "maxLevel": 25,
        "area": "ever-grande-city-area",
        "method": "surf",
        "location": "ever-grande-city",
        "conditions": []
    },
    {
        "minLevel": 27,
        "maxLevel": 27,
        "area": "mt-pyre-outside",
        "method": "walk",
        "location": "mt-pyre",
        "conditions": []
    },
    {
        "minLevel": 27,
        "maxLevel": 27,
        "area": "mt-pyre-outside",
        "method": "walk",
        "location": "mt-pyre",
        "conditions": []
    },
    {
        "minLevel": 26,
        "maxLevel": 26,
        "area": "mt-pyre-outside",
        "method": "walk",
        "location": "mt-pyre",
        "conditions": []
    },
    {
        "minLevel": 28,
        "maxLevel": 28,
        "area": "mt-pyre-outside",
        "method": "walk",
        "location": "mt-pyre",
        "conditions": []
    },
    {
        "minLevel": 10,
        "maxLevel": 30,
        "area": "hoenn-route-103-area",
        "method": "surf",
        "location": "hoenn-route-103",
        "conditions": []
    },
    {
        "minLevel": 15,
        "maxLevel": 25,
        "area": "hoenn-route-103-area",
        "method": "surf",
        "location": "hoenn-route-103",
        "conditions": []
    },
    {
        "minLevel": 3,
        "maxLevel": 3,
        "area": "hoenn-route-103-area",
        "method": "walk",
        "location": "hoenn-route-103",
        "conditions": []
    },
    {
        "minLevel": 3,
        "maxLevel": 3,
        "area": "hoenn-route-103-area",
        "method": "walk",
        "location": "hoenn-route-103",
        "conditions": []
    },
    {
        "minLevel": 2,
        "maxLevel": 2,
        "area": "hoenn-route-103-area",
        "method": "walk",
        "location": "hoenn-route-103",
        "conditions": []
    },
    {
        "minLevel": 4,
        "maxLevel": 4,
        "area": "hoenn-route-103-area",
        "method": "walk",
        "location": "hoenn-route-103",
        "conditions": []
    },
    {
        "minLevel": 10,
        "maxLevel": 30,
        "area": "hoenn-route-104-area",
        "method": "surf",
        "location": "hoenn-route-104",
        "conditions": []
    },
    {
        "minLevel": 15,
        "maxLevel": 25,
        "area": "hoenn-route-104-area",
        "method": "surf",
        "location": "hoenn-route-104",
        "conditions": []
    },
    {
        "minLevel": 15,
        "maxLevel": 25,
        "area": "hoenn-route-104-area",
        "method": "surf",
        "location": "hoenn-route-104",
        "conditions": []
    },
    {
        "minLevel": 4,
        "maxLevel": 4,
        "area": "hoenn-route-104-area",
        "method": "walk",
        "location": "hoenn-route-104",
        "conditions": []
    },
    {
        "minLevel": 4,
        "maxLevel": 4,
        "area": "hoenn-route-104-area",
        "method": "walk",
        "location": "hoenn-route-104",
        "conditions": []
    },
    {
        "minLevel": 3,
        "maxLevel": 3,
        "area": "hoenn-route-104-area",
        "method": "walk",
        "location": "hoenn-route-104",
        "conditions": []
    },
    {
        "minLevel": 5,
        "maxLevel": 5,
        "area": "hoenn-route-104-area",
        "method": "walk",
        "location": "hoenn-route-104",
        "conditions": []
    },
    {
        "minLevel": 10,
        "maxLevel": 30,
        "area": "hoenn-route-105-area",
        "method": "surf",
        "location": "hoenn-route-105",
        "conditions": []
    },
    {
        "minLevel": 15,
        "maxLevel": 25,
        "area": "hoenn-route-105-area",
        "method": "surf",
        "location": "hoenn-route-105",
        "conditions": []
    },
    {
        "minLevel": 10,
        "maxLevel": 30,
        "area": "hoenn-route-106-area",
        "method": "surf",
        "location": "hoenn-route-106",
        "conditions": []
    },
    {
        "minLevel": 15,
        "maxLevel": 25,
        "area": "hoenn-route-106-area",
        "method": "surf",
        "location": "hoenn-route-106",
        "conditions": []
    },
    {
        "minLevel": 10,
        "maxLevel": 30,
        "area": "hoenn-route-107-area",
        "method": "surf",
        "location": "hoenn-route-107",
        "conditions": []
    },
    {
        "minLevel": 15,
        "maxLevel": 25,
        "area": "hoenn-route-107-area",
        "method": "surf",
        "location": "hoenn-route-107",
        "conditions": []
    },
    {
        "minLevel": 10,
        "maxLevel": 30,
        "area": "hoenn-route-108-area",
        "method": "surf",
        "location": "hoenn-route-108",
        "conditions": []
    },
    {
        "minLevel": 15,
        "maxLevel": 25,
        "area": "hoenn-route-108-area",
        "method": "surf",
        "location": "hoenn-route-108",
        "conditions": []
    },
    {
        "minLevel": 10,
        "maxLevel": 30,
        "area": "hoenn-route-109-area",
        "method": "surf",
        "location": "hoenn-route-109",
        "conditions": []
    },
    {
        "minLevel": 15,
        "maxLevel": 25,
        "area": "hoenn-route-109-area",
        "method": "surf",
        "location": "hoenn-route-109",
        "conditions": []
    },
    {
        "minLevel": 10,
        "maxLevel": 30,
        "area": "hoenn-route-110-area",
        "method": "surf",
        "location": "hoenn-route-110",
        "conditions": []
    },
    {
        "minLevel": 15,
        "maxLevel": 25,
        "area": "hoenn-route-110-area",
        "method": "surf",
        "location": "hoenn-route-110",
        "conditions": []
    },
    {
        "minLevel": 12,
        "maxLevel": 12,
        "area": "hoenn-route-110-area",
        "method": "walk",
        "location": "hoenn-route-110",
        "conditions": []
    },
    {
        "minLevel": 12,
        "maxLevel": 12,
        "area": "hoenn-route-110-area",
        "method": "walk",
        "location": "hoenn-route-110",
        "conditions": []
    },
    {
        "minLevel": 10,
        "maxLevel": 30,
        "area": "hoenn-route-115-area",
        "method": "surf",
        "location": "hoenn-route-115",
        "conditions": []
    },
    {
        "minLevel": 15,
        "maxLevel": 25,
        "area": "hoenn-route-115-area",
        "method": "surf",
        "location": "hoenn-route-115",
        "conditions": []
    },
    {
        "minLevel": 24,
        "maxLevel": 24,
        "area": "hoenn-route-115-area",
        "method": "walk",
        "location": "hoenn-route-115",
        "conditions": []
    },
    {
        "minLevel": 24,
        "maxLevel": 24,
        "area": "hoenn-route-115-area",
        "method": "walk",
        "location": "hoenn-route-115",
        "conditions": []
    },
    {
        "minLevel": 26,
        "maxLevel": 26,
        "area": "hoenn-route-115-area",
        "method": "walk",
        "location": "hoenn-route-115",
        "conditions": []
    },
    {
        "minLevel": 25,
        "maxLevel": 25,
        "area": "hoenn-route-115-area",
        "method": "walk",
        "location": "hoenn-route-115",
        "conditions": []
    },
    {
        "minLevel": 10,
        "maxLevel": 30,
        "area": "hoenn-route-118-area",
        "method": "surf",
        "location": "hoenn-route-118",
        "conditions": []
    },
    {
        "minLevel": 15,
        "maxLevel": 25,
        "area": "hoenn-route-118-area",
        "method": "surf",
        "location": "hoenn-route-118",
        "conditions": []
    },
    {
        "minLevel": 25,
        "maxLevel": 25,
        "area": "hoenn-route-118-area",
        "method": "walk",
        "location": "hoenn-route-118",
        "conditions": []
    },
    {
        "minLevel": 25,
        "maxLevel": 25,
        "area": "hoenn-route-118-area",
        "method": "walk",
        "location": "hoenn-route-118",
        "conditions": []
    },
    {
        "minLevel": 26,
        "maxLevel": 26,
        "area": "hoenn-route-118-area",
        "method": "walk",
        "location": "hoenn-route-118",
        "conditions": []
    },
    {
        "minLevel": 26,
        "maxLevel": 26,
        "area": "hoenn-route-118-area",
        "method": "walk",
        "location": "hoenn-route-118",
        "conditions": []
    },
    {
        "minLevel": 27,
        "maxLevel": 27,
        "area": "hoenn-route-118-area",
        "method": "walk",
        "location": "hoenn-route-118",
        "conditions": []
    },
    {
        "minLevel": 10,
        "maxLevel": 30,
        "area": "hoenn-route-119-area",
        "method": "surf",
        "location": "hoenn-route-119",
        "conditions": []
    },
    {
        "minLevel": 15,
        "maxLevel": 25,
        "area": "hoenn-route-119-area",
        "method": "surf",
        "location": "hoenn-route-119",
        "conditions": []
    },
    {
        "minLevel": 10,
        "maxLevel": 30,
        "area": "hoenn-route-121-area",
        "method": "surf",
        "location": "hoenn-route-121",
        "conditions": []
    },
    {
        "minLevel": 15,
        "maxLevel": 25,
        "area": "hoenn-route-121-area",
        "method": "surf",
        "location": "hoenn-route-121",
        "conditions": []
    },
    {
        "minLevel": 26,
        "maxLevel": 26,
        "area": "hoenn-route-121-area",
        "method": "walk",
        "location": "hoenn-route-121",
        "conditions": []
    },
    {
        "minLevel": 27,
        "maxLevel": 27,
        "area": "hoenn-route-121-area",
        "method": "walk",
        "location": "hoenn-route-121",
        "conditions": []
    },
    {
        "minLevel": 28,
        "maxLevel": 28,
        "area": "hoenn-route-121-area",
        "method": "walk",
        "location": "hoenn-route-121",
        "conditions": []
    },
    {
        "minLevel": 10,
        "maxLevel": 30,
        "area": "hoenn-route-122-area",
        "method": "surf",
        "location": "hoenn-route-122",
        "conditions": []
    },
    {
        "minLevel": 15,
        "maxLevel": 25,
        "area": "hoenn-route-122-area",
        "method": "surf",
        "location": "hoenn-route-122",
        "conditions": []
    },
    {
        "minLevel": 10,
        "maxLevel": 30,
        "area": "hoenn-route-123-area",
        "method": "surf",
        "location": "hoenn-route-123",
        "conditions": []
    },
    {
        "minLevel": 15,
        "maxLevel": 25,
        "area": "hoenn-route-123-area",
        "method": "surf",
        "location": "hoenn-route-123",
        "conditions": []
    },
    {
        "minLevel": 26,
        "maxLevel": 26,
        "area": "hoenn-route-123-area",
        "method": "walk",
        "location": "hoenn-route-123",
        "conditions": []
    },
    {
        "minLevel": 27,
        "maxLevel": 27,
        "area": "hoenn-route-123-area",
        "method": "walk",
        "location": "hoenn-route-123",
        "conditions": []
    },
    {
        "minLevel": 28,
        "maxLevel": 28,
        "area": "hoenn-route-123-area",
        "method": "walk",
        "location": "hoenn-route-123",
        "conditions": []
    },
    {
        "minLevel": 10,
        "maxLevel": 30,
        "area": "hoenn-route-124-area",
        "method": "surf",
        "location": "hoenn-route-124",
        "conditions": []
    },
    {
        "minLevel": 15,
        "maxLevel": 25,
        "area": "hoenn-route-124-area",
        "method": "surf",
        "location": "hoenn-route-124",
        "conditions": []
    },
    {
        "minLevel": 10,
        "maxLevel": 30,
        "area": "hoenn-route-125-area",
        "method": "surf",
        "location": "hoenn-route-125",
        "conditions": []
    },
    {
        "minLevel": 15,
        "maxLevel": 25,
        "area": "hoenn-route-125-area",
        "method": "surf",
        "location": "hoenn-route-125",
        "conditions": []
    },
    {
        "minLevel": 10,
        "maxLevel": 30,
        "area": "hoenn-route-126-area",
        "method": "surf",
        "location": "hoenn-route-126",
        "conditions": []
    },
    {
        "minLevel": 15,
        "maxLevel": 25,
        "area": "hoenn-route-126-area",
        "method": "surf",
        "location": "hoenn-route-126",
        "conditions": []
    },
    {
        "minLevel": 10,
        "maxLevel": 30,
        "area": "hoenn-route-127-area",
        "method": "surf",
        "location": "hoenn-route-127",
        "conditions": []
    },
    {
        "minLevel": 15,
        "maxLevel": 25,
        "area": "hoenn-route-127-area",
        "method": "surf",
        "location": "hoenn-route-127",
        "conditions": []
    },
    {
        "minLevel": 10,
        "maxLevel": 30,
        "area": "hoenn-route-128-area",
        "method": "surf",
        "location": "hoenn-route-128",
        "conditions": []
    },
    {
        "minLevel": 15,
        "maxLevel": 25,
        "area": "hoenn-route-128-area",
        "method": "surf",
        "location": "hoenn-route-128",
        "conditions": []
    },
    {
        "minLevel": 10,
        "maxLevel": 30,
        "area": "hoenn-route-129-area",
        "method": "surf",
        "location": "hoenn-route-129",
        "conditions": []
    },
    {
        "minLevel": 15,
        "maxLevel": 25,
        "area": "hoenn-route-129-area",
        "method": "surf",
        "location": "hoenn-route-129",
        "conditions": []
    },
    {
        "minLevel": 10,
        "maxLevel": 30,
        "area": "hoenn-route-130-area",
        "method": "surf",
        "location": "hoenn-route-130",
        "conditions": []
    },
    {
        "minLevel": 15,
        "maxLevel": 25,
        "area": "hoenn-route-130-area",
        "method": "surf",
        "location": "hoenn-route-130",
        "conditions": []
    },
    {
        "minLevel": 10,
        "maxLevel": 30,
        "area": "hoenn-route-131-area",
        "method": "surf",
        "location": "hoenn-route-131",
        "conditions": []
    },
    {
        "minLevel": 15,
        "maxLevel": 25,
        "area": "hoenn-route-131-area",
        "method": "surf",
        "location": "hoenn-route-131",
        "conditions": []
    },
    {
        "minLevel": 10,
        "maxLevel": 30,
        "area": "hoenn-route-132-area",
        "method": "surf",
        "location": "hoenn-route-132",
        "conditions": []
    },
    {
        "minLevel": 15,
        "maxLevel": 25,
        "area": "hoenn-route-132-area",
        "method": "surf",
        "location": "hoenn-route-132",
        "conditions": []
    },
    {
        "minLevel": 10,
        "maxLevel": 30,
        "area": "hoenn-route-133-area",
        "method": "surf",
        "location": "hoenn-route-133",
        "conditions": []
    },
    {
        "minLevel": 15,
        "maxLevel": 25,
        "area": "hoenn-route-133-area",
        "method": "surf",
        "location": "hoenn-route-133",
        "conditions": []
    },
    {
        "minLevel": 10,
        "maxLevel": 30,
        "area": "hoenn-route-134-area",
        "method": "surf",
        "location": "hoenn-route-134",
        "conditions": []
    },
    {
        "minLevel": 15,
        "maxLevel": 25,
        "area": "hoenn-route-134-area",
        "method": "surf",
        "location": "hoenn-route-134",
        "conditions": []
    },
    {
        "minLevel": 10,
        "maxLevel": 30,
        "area": "dewford-town-area",
        "method": "surf",
        "location": "dewford-town",
        "conditions": []
    },
    {
        "minLevel": 15,
        "maxLevel": 25,
        "area": "dewford-town-area",
        "method": "surf",
        "location": "dewford-town",
        "conditions": []
    },
    {
        "minLevel": 10,
        "maxLevel": 30,
        "area": "pacifidlog-town-area",
        "method": "surf",
        "location": "pacifidlog-town",
        "conditions": []
    },
    {
        "minLevel": 15,
        "maxLevel": 25,
        "area": "pacifidlog-town-area",
        "method": "surf",
        "location": "pacifidlog-town",
        "conditions": []
    }
]