[
    {
        "minLevel": 27,
        "maxLevel": 27,
        "area": "hoenn-safari-zone-sw",
        "method": "walk",
        "location": "hoenn-safari-zone",
        "conditions": []
    },
    {
        "minLevel": 27,
        "maxLevel": 27,
        "area": "hoenn-safari-zone-sw",
        "method": "walk",
        "location": "hoenn-safari-zone",
        "conditions": []
    },
    {
        "minLevel": 29,
        "maxLevel": 29,
        "area": "hoenn-safari-zone-sw",
        "method": "walk",
        "location": "hoenn-safari-zone",
        "conditions": []
    },
    {
        "minLevel": 27,
        "maxLevel": 27,
        "area": "hoenn-safari-zone-se",
        "method": "walk",
        "location": "hoenn-safari-zone",
        "conditions": []
    },
    {
        "minLevel": 27,
        "maxLevel": 27,
        "area": "hoenn-safari-zone-se",
        "method": "walk",
        "location": "hoenn-safari-zone",
        "conditions": []
    },
    {
        "minLevel": 29,
        "maxLevel": 29,
        "area": "hoenn-safari-zone-se",
        "method": "walk",
        "location": "hoenn-safari-zone",
        "conditions": []
    }
]