{
    "encounters": [
        "psyduck",
        "tentacool",
        "tentacruel",
        "slowpoke",
        "krabby",
        "kingler",
        "horsea",
        "seadra",
        "magikarp",
        "gyarados",
        "hoppip",
        "qwilfish",
        "remoraid"
    ],
    "id": "memorial-pillar-area"
}