[
    {
        "minLevel": 27,
        "maxLevel": 27,
        "area": "relic-castle-d",
        "method": "walk",
        "location": "relic-castle",
        "conditions": []
    },
    {
        "minLevel": 27,
        "maxLevel": 27,
        "area": "relic-castle-d",
        "method": "walk",
        "location": "relic-castle",
        "conditions": []
    },
    {
        "minLevel": 28,
        "maxLevel": 28,
        "area": "relic-castle-d",
        "method": "walk",
        "location": "relic-castle",
        "conditions": []
    },
    {
        "minLevel": 28,
        "maxLevel": 28,
        "area": "relic-castle-d",
        "method": "walk",
        "location": "relic-castle",
        "conditions": []
    },
    {
        "minLevel": 28,
        "maxLevel": 28,
        "area": "relic-castle-d",
        "method": "walk",
        "location": "relic-castle",
        "conditions": []
    },
    {
        "minLevel": 28,
        "maxLevel": 28,
        "area": "relic-castle-d",
        "method": "walk",
        "location": "relic-castle",
        "conditions": []
    },
    {
        "minLevel": 29,
        "maxLevel": 29,
        "area": "relic-castle-d",
        "method": "walk",
        "location": "relic-castle",
        "conditions": []
    },
    {
        "minLevel": 29,
        "maxLevel": 29,
        "area": "relic-castle-d",
        "method": "walk",
        "location": "relic-castle",
        "conditions": []
    },
    {
        "minLevel": 30,
        "maxLevel": 30,
        "area": "relic-castle-d",
        "method": "walk",
        "location": "relic-castle",
        "conditions": []
    },
    {
        "minLevel": 30,
        "maxLevel": 30,
        "area": "relic-castle-d",
        "method": "walk",
        "location": "relic-castle",
        "conditions": []
    },
    {
        "minLevel": 30,
        "maxLevel": 30,
        "area": "relic-castle-d",
        "method": "walk",
        "location": "relic-castle",
        "conditions": []
    },
    {
        "minLevel": 30,
        "maxLevel": 30,
        "area": "relic-castle-d",
        "method": "walk",
        "location": "relic-castle",
        "conditions": []
    }
]