[
    {
        "minLevel": 54,
        "maxLevel": 54,
        "area": "twist-mountain-area",
        "method": "walk",
        "location": "twist-mountain",
        "conditions": ["season-winter"]
    },
    {
        "minLevel": 56,
        "maxLevel": 56,
        "area": "twist-mountain-area",
        "method": "walk",
        "location": "twist-mountain",
        "conditions": ["season-spring"]
    },
    {
        "minLevel": 56,
        "maxLevel": 56,
        "area": "twist-mountain-area",
        "method": "walk",
        "location": "twist-mountain",
        "conditions": ["season-autumn"]
    },
    {
        "minLevel": 56,
        "maxLevel": 56,
        "area": "twist-mountain-area",
        "method": "walk",
        "location": "twist-mountain",
        "conditions": ["season-summer"]
    },
    {
        "minLevel": 65,
        "maxLevel": 65,
        "area": "dragonspiral-tower-entrance",
        "method": "dark-grass",
        "location": "dragonspiral-tower",
        "conditions": ["season-winter"]
    },
    {
        "minLevel": 66,
        "maxLevel": 66,
        "area": "dragonspiral-tower-entrance",
        "method": "dark-grass",
        "location": "dragonspiral-tower",
        "conditions": ["season-winter"]
    },
    {
        "minLevel": 66,
        "maxLevel": 66,
        "area": "dragonspiral-tower-entrance",
        "method": "dark-grass",
        "location": "dragonspiral-tower",
        "conditions": ["season-winter"]
    },
    {
        "minLevel": 57,
        "maxLevel": 57,
        "area": "dragonspiral-tower-entrance",
        "method": "walk",
        "location": "dragonspiral-tower",
        "conditions": ["season-winter"]
    },
    {
        "minLevel": 58,
        "maxLevel": 58,
        "area": "dragonspiral-tower-entrance",
        "method": "walk",
        "location": "dragonspiral-tower",
        "conditions": ["season-winter"]
    },
    {
        "minLevel": 58,
        "maxLevel": 58,
        "area": "dragonspiral-tower-entrance",
        "method": "walk",
        "location": "dragonspiral-tower",
        "conditions": ["season-winter"]
    },
    {
        "minLevel": 65,
        "maxLevel": 65,
        "area": "dragonspiral-tower-outside",
        "method": "dark-grass",
        "location": "dragonspiral-tower",
        "conditions": ["season-winter"]
    },
    {
        "minLevel": 66,
        "maxLevel": 66,
        "area": "dragonspiral-tower-outside",
        "method": "dark-grass",
        "location": "dragonspiral-tower",
        "conditions": ["season-winter"]
    },
    {
        "minLevel": 66,
        "maxLevel": 66,
        "area": "dragonspiral-tower-outside",
        "method": "dark-grass",
        "location": "dragonspiral-tower",
        "conditions": ["season-winter"]
    },
    {
        "minLevel": 57,
        "maxLevel": 57,
        "area": "dragonspiral-tower-outside",
        "method": "walk",
        "location": "dragonspiral-tower",
        "conditions": ["season-winter"]
    },
    {
        "minLevel": 58,
        "maxLevel": 58,
        "area": "dragonspiral-tower-outside",
        "method": "walk",
        "location": "dragonspiral-tower",
        "conditions": ["season-winter"]
    },
    {
        "minLevel": 58,
        "maxLevel": 58,
        "area": "dragonspiral-tower-outside",
        "method": "walk",
        "location": "dragonspiral-tower",
        "conditions": ["season-winter"]
    }
]