[
    {
        "minLevel": 54,
        "maxLevel": 54,
        "area": "unova-route-23-area",
        "method": "dark-grass",
        "location": "unova-route-23",
        "conditions": []
    },
    {
        "minLevel": 56,
        "maxLevel": 56,
        "area": "unova-route-23-area",
        "method": "dark-grass",
        "location": "unova-route-23",
        "conditions": []
    },
    {
        "minLevel": 56,
        "maxLevel": 56,
        "area": "unova-route-23-area",
        "method": "dark-grass",
        "location": "unova-route-23",
        "conditions": []
    },
    {
        "minLevel": 49,
        "maxLevel": 49,
        "area": "unova-route-23-area",
        "method": "walk",
        "location": "unova-route-23",
        "conditions": []
    },
    {
        "minLevel": 51,
        "maxLevel": 51,
        "area": "unova-route-23-area",
        "method": "walk",
        "location": "unova-route-23",
        "conditions": []
    },
    {
        "minLevel": 51,
        "maxLevel": 51,
        "area": "unova-route-23-area",
        "method": "walk",
        "location": "unova-route-23",
        "conditions": []
    }
]