[
    {
        "minLevel": 66,
        "maxLevel": 66,
        "area": "unova-route-18-area",
        "method": "dark-grass",
        "location": "unova-route-18",
        "conditions": []
    },
    {
        "minLevel": 58,
        "maxLevel": 58,
        "area": "unova-route-18-area",
        "method": "walk",
        "location": "unova-route-18",
        "conditions": []
    }
]