[
    {
        "minLevel": 24,
        "maxLevel": 24,
        "area": "unova-route-5-area",
        "method": "grass-spots",
        "location": "unova-route-5",
        "conditions": []
    },
    {
        "minLevel": 24,
        "maxLevel": 24,
        "area": "unova-route-5-area",
        "method": "grass-spots",
        "location": "unova-route-5",
        "conditions": []
    },
    {
        "minLevel": 40,
        "maxLevel": 40,
        "area": "unova-route-9-area",
        "method": "grass-spots",
        "location": "unova-route-9",
        "conditions": []
    },
    {
        "minLevel": 40,
        "maxLevel": 40,
        "area": "unova-route-9-area",
        "method": "grass-spots",
        "location": "unova-route-9",
        "conditions": []
    },
    {
        "minLevel": 24,
        "maxLevel": 24,
        "area": "unova-route-16-area",
        "method": "grass-spots",
        "location": "unova-route-16",
        "conditions": []
    },
    {
        "minLevel": 24,
        "maxLevel": 24,
        "area": "unova-route-16-area",
        "method": "grass-spots",
        "location": "unova-route-16",
        "conditions": []
    }
]