[
    {
        "minLevel": 10,
        "maxLevel": 10,
        "area": "virbank-complex-outer",
        "method": "walk",
        "location": "virbank-complex",
        "conditions": []
    },
    {
        "minLevel": 11,
        "maxLevel": 11,
        "area": "virbank-complex-outer",
        "method": "walk",
        "location": "virbank-complex",
        "conditions": []
    },
    {
        "minLevel": 11,
        "maxLevel": 11,
        "area": "virbank-complex-inner",
        "method": "dark-grass",
        "location": "virbank-complex",
        "conditions": []
    },
    {
        "minLevel": 13,
        "maxLevel": 13,
        "area": "virbank-complex-inner",
        "method": "dark-grass",
        "location": "virbank-complex",
        "conditions": []
    },
    {
        "minLevel": 10,
        "maxLevel": 10,
        "area": "virbank-complex-inner",
        "method": "walk",
        "location": "virbank-complex",
        "conditions": []
    },
    {
        "minLevel": 12,
        "maxLevel": 12,
        "area": "virbank-complex-inner",
        "method": "walk",
        "location": "virbank-complex",
        "conditions": []
    }
]