[
    {
        "minLevel": 30,
        "maxLevel": 30,
        "area": "celestial-tower-3f",
        "method": "walk",
        "location": "celestial-tower",
        "conditions": []
    },
    {
        "minLevel": 31,
        "maxLevel": 31,
        "area": "celestial-tower-3f",
        "method": "walk",
        "location": "celestial-tower",
        "conditions": []
    },
    {
        "minLevel": 31,
        "maxLevel": 31,
        "area": "celestial-tower-3f",
        "method": "walk",
        "location": "celestial-tower",
        "conditions": []
    },
    {
        "minLevel": 30,
        "maxLevel": 30,
        "area": "celestial-tower-4f",
        "method": "walk",
        "location": "celestial-tower",
        "conditions": []
    },
    {
        "minLevel": 31,
        "maxLevel": 31,
        "area": "celestial-tower-4f",
        "method": "walk",
        "location": "celestial-tower",
        "conditions": []
    },
    {
        "minLevel": 32,
        "maxLevel": 32,
        "area": "celestial-tower-4f",
        "method": "walk",
        "location": "celestial-tower",
        "conditions": []
    },
    {
        "minLevel": 32,
        "maxLevel": 32,
        "area": "celestial-tower-4f",
        "method": "walk",
        "location": "celestial-tower",
        "conditions": []
    },
    {
        "minLevel": 30,
        "maxLevel": 30,
        "area": "celestial-tower-5f",
        "method": "walk",
        "location": "celestial-tower",
        "conditions": []
    },
    {
        "minLevel": 31,
        "maxLevel": 31,
        "area": "celestial-tower-5f",
        "method": "walk",
        "location": "celestial-tower",
        "conditions": []
    },
    {
        "minLevel": 32,
        "maxLevel": 32,
        "area": "celestial-tower-5f",
        "method": "walk",
        "location": "celestial-tower",
        "conditions": []
    },
    {
        "minLevel": 33,
        "maxLevel": 33,
        "area": "celestial-tower-5f",
        "method": "walk",
        "location": "celestial-tower",
        "conditions": []
    },
    {
        "minLevel": 33,
        "maxLevel": 33,
        "area": "celestial-tower-5f",
        "method": "walk",
        "location": "celestial-tower",
        "conditions": []
    }
]