[
    {
        "minLevel": 50,
        "maxLevel": 70,
        "area": "unova-route-4-area",
        "method": "super-rod-spots",
        "location": "unova-route-4",
        "conditions": []
    },
    {
        "minLevel": 50,
        "maxLevel": 70,
        "area": "unova-route-4-area",
        "method": "super-rod-spots",
        "location": "unova-route-4",
        "conditions": []
    }
]