[
    {
        "minLevel": 54,
        "maxLevel": 54,
        "area": "icirrus-city-area",
        "method": "walk",
        "location": "icirrus-city",
        "conditions": ["season-spring"]
    },
    {
        "minLevel": 54,
        "maxLevel": 54,
        "area": "icirrus-city-area",
        "method": "walk",
        "location": "icirrus-city",
        "conditions": ["season-summer"]
    },
    {
        "minLevel": 54,
        "maxLevel": 54,
        "area": "icirrus-city-area",
        "method": "walk",
        "location": "icirrus-city",
        "conditions": ["season-autumn"]
    },
    {
        "minLevel": 26,
        "maxLevel": 26,
        "area": "unova-route-6-area",
        "method": "dark-grass",
        "location": "unova-route-6",
        "conditions": []
    },
    {
        "minLevel": 29,
        "maxLevel": 29,
        "area": "unova-route-6-area",
        "method": "dark-grass",
        "location": "unova-route-6",
        "conditions": []
    },
    {
        "minLevel": 29,
        "maxLevel": 29,
        "area": "unova-route-6-area",
        "method": "dark-grass",
        "location": "unova-route-6",
        "conditions": []
    },
    {
        "minLevel": 23,
        "maxLevel": 23,
        "area": "unova-route-6-area",
        "method": "walk",
        "location": "unova-route-6",
        "conditions": []
    },
    {
        "minLevel": 26,
        "maxLevel": 26,
        "area": "unova-route-6-area",
        "method": "walk",
        "location": "unova-route-6",
        "conditions": []
    },
    {
        "minLevel": 26,
        "maxLevel": 26,
        "area": "unova-route-6-area",
        "method": "walk",
        "location": "unova-route-6",
        "conditions": []
    },
    {
        "minLevel": 54,
        "maxLevel": 54,
        "area": "unova-route-8-area",
        "method": "walk",
        "location": "unova-route-8",
        "conditions": ["season-spring"]
    },
    {
        "minLevel": 54,
        "maxLevel": 54,
        "area": "unova-route-8-area",
        "method": "walk",
        "location": "unova-route-8",
        "conditions": ["season-summer"]
    },
    {
        "minLevel": 54,
        "maxLevel": 54,
        "area": "unova-route-8-area",
        "method": "walk",
        "location": "unova-route-8",
        "conditions": ["season-autumn"]
    },
    {
        "minLevel": 40,
        "maxLevel": 40,
        "area": "unova-route-11-area",
        "method": "dark-grass",
        "location": "unova-route-11",
        "conditions": []
    },
    {
        "minLevel": 43,
        "maxLevel": 43,
        "area": "unova-route-11-area",
        "method": "dark-grass",
        "location": "unova-route-11",
        "conditions": []
    },
    {
        "minLevel": 43,
        "maxLevel": 43,
        "area": "unova-route-11-area",
        "method": "dark-grass",
        "location": "unova-route-11",
        "conditions": []
    },
    {
        "minLevel": 36,
        "maxLevel": 36,
        "area": "unova-route-11-area",
        "method": "walk",
        "location": "unova-route-11",
        "conditions": []
    },
    {
        "minLevel": 39,
        "maxLevel": 39,
        "area": "unova-route-11-area",
        "method": "walk",
        "location": "unova-route-11",
        "conditions": []
    },
    {
        "minLevel": 39,
        "maxLevel": 39,
        "area": "unova-route-11-area",
        "method": "walk",
        "location": "unova-route-11",
        "conditions": []
    },
    {
        "minLevel": 54,
        "maxLevel": 54,
        "area": "moor-of-icirrus-area",
        "method": "walk",
        "location": "moor-of-icirrus",
        "conditions": ["season-spring"]
    },
    {
        "minLevel": 54,
        "maxLevel": 54,
        "area": "moor-of-icirrus-area",
        "method": "walk",
        "location": "moor-of-icirrus",
        "conditions": ["season-summer"]
    },
    {
        "minLevel": 54,
        "maxLevel": 54,
        "area": "moor-of-icirrus-area",
        "method": "walk",
        "location": "moor-of-icirrus",
        "conditions": ["season-autumn"]
    }
]