[
    {
        "minLevel": 60,
        "maxLevel": 70,
        "area": "unova-route-17-area",
        "method": "super-rod-spots",
        "location": "unova-route-17",
        "conditions": []
    },
    {
        "minLevel": 60,
        "maxLevel": 70,
        "area": "unova-route-17-area",
        "method": "super-rod-spots",
        "location": "unova-route-17",
        "conditions": []
    },
    {
        "minLevel": 60,
        "maxLevel": 70,
        "area": "unova-route-18-area",
        "method": "super-rod-spots",
        "location": "unova-route-18",
        "conditions": []
    },
    {
        "minLevel": 60,
        "maxLevel": 70,
        "area": "unova-route-18-area",
        "method": "super-rod-spots",
        "location": "unova-route-18",
        "conditions": []
    },
    {
        "minLevel": 45,
        "maxLevel": 70,
        "area": "p2-laboratory-area",
        "method": "super-rod-spots",
        "location": "p2-laboratory",
        "conditions": []
    },
    {
        "minLevel": 45,
        "maxLevel": 70,
        "area": "p2-laboratory-area",
        "method": "super-rod-spots",
        "location": "p2-laboratory",
        "conditions": []
    }
]