[
    {
        "minLevel": 26,
        "maxLevel": 26,
        "area": "chargestone-cave-1f",
        "method": "walk",
        "location": "chargestone-cave",
        "conditions": []
    },
    {
        "minLevel": 28,
        "maxLevel": 28,
        "area": "chargestone-cave-1f",
        "method": "walk",
        "location": "chargestone-cave",
        "conditions": []
    },
    {
        "minLevel": 29,
        "maxLevel": 29,
        "area": "chargestone-cave-b1f",
        "method": "walk",
        "location": "chargestone-cave",
        "conditions": []
    },
    {
        "minLevel": 31,
        "maxLevel": 31,
        "area": "chargestone-cave-b1f",
        "method": "walk",
        "location": "chargestone-cave",
        "conditions": []
    },
    {
        "minLevel": 29,
        "maxLevel": 29,
        "area": "chargestone-cave-b2f",
        "method": "walk",
        "location": "chargestone-cave",
        "conditions": []
    },
    {
        "minLevel": 31,
        "maxLevel": 31,
        "area": "chargestone-cave-b2f",
        "method": "walk",
        "location": "chargestone-cave",
        "conditions": []
    }
]