[
    {
        "minLevel": 4,
        "maxLevel": 4,
        "area": "floccesy-ranch-inner",
        "method": "walk",
        "location": "floccesy-ranch",
        "conditions": []
    },
    {
        "minLevel": 5,
        "maxLevel": 5,
        "area": "floccesy-ranch-inner",
        "method": "walk",
        "location": "floccesy-ranch",
        "conditions": []
    },
    {
        "minLevel": 6,
        "maxLevel": 6,
        "area": "floccesy-ranch-inner",
        "method": "walk",
        "location": "floccesy-ranch",
        "conditions": []
    },
    {
        "minLevel": 7,
        "maxLevel": 7,
        "area": "floccesy-ranch-inner",
        "method": "walk",
        "location": "floccesy-ranch",
        "conditions": []
    },
    {
        "minLevel": 7,
        "maxLevel": 7,
        "area": "floccesy-ranch-inner",
        "method": "walk",
        "location": "floccesy-ranch",
        "conditions": []
    }
]