[
    {
        "minLevel": 27,
        "maxLevel": 27,
        "area": "celestial-tower-2f",
        "method": "walk",
        "location": "celestial-tower",
        "conditions": []
    },
    {
        "minLevel": 27,
        "maxLevel": 27,
        "area": "celestial-tower-2f",
        "method": "walk",
        "location": "celestial-tower",
        "conditions": []
    },
    {
        "minLevel": 28,
        "maxLevel": 28,
        "area": "celestial-tower-2f",
        "method": "walk",
        "location": "celestial-tower",
        "conditions": []
    },
    {
        "minLevel": 28,
        "maxLevel": 28,
        "area": "celestial-tower-2f",
        "method": "walk",
        "location": "celestial-tower",
        "conditions": []
    },
    {
        "minLevel": 29,
        "maxLevel": 29,
        "area": "celestial-tower-2f",
        "method": "walk",
        "location": "celestial-tower",
        "conditions": []
    },
    {
        "minLevel": 29,
        "maxLevel": 29,
        "area": "celestial-tower-2f",
        "method": "walk",
        "location": "celestial-tower",
        "conditions": []
    },
    {
        "minLevel": 30,
        "maxLevel": 30,
        "area": "celestial-tower-2f",
        "method": "walk",
        "location": "celestial-tower",
        "conditions": []
    },
    {
        "minLevel": 30,
        "maxLevel": 30,
        "area": "celestial-tower-2f",
        "method": "walk",
        "location": "celestial-tower",
        "conditions": []
    },
    {
        "minLevel": 30,
        "maxLevel": 30,
        "area": "celestial-tower-2f",
        "method": "walk",
        "location": "celestial-tower",
        "conditions": []
    },
    {
        "minLevel": 30,
        "maxLevel": 30,
        "area": "celestial-tower-2f",
        "method": "walk",
        "location": "celestial-tower",
        "conditions": []
    },
    {
        "minLevel": 30,
        "maxLevel": 30,
        "area": "celestial-tower-2f",
        "method": "walk",
        "location": "celestial-tower",
        "conditions": []
    },
    {
        "minLevel": 30,
        "maxLevel": 30,
        "area": "celestial-tower-2f",
        "method": "walk",
        "location": "celestial-tower",
        "conditions": []
    },
    {
        "minLevel": 28,
        "maxLevel": 28,
        "area": "celestial-tower-3f",
        "method": "walk",
        "location": "celestial-tower",
        "conditions": []
    },
    {
        "minLevel": 28,
        "maxLevel": 28,
        "area": "celestial-tower-3f",
        "method": "walk",
        "location": "celestial-tower",
        "conditions": []
    },
    {
        "minLevel": 29,
        "maxLevel": 29,
        "area": "celestial-tower-3f",
        "method": "walk",
        "location": "celestial-tower",
        "conditions": []
    },
    {
        "minLevel": 29,
        "maxLevel": 29,
        "area": "celestial-tower-3f",
        "method": "walk",
        "location": "celestial-tower",
        "conditions": []
    },
    {
        "minLevel": 30,
        "maxLevel": 30,
        "area": "celestial-tower-3f",
        "method": "walk",
        "location": "celestial-tower",
        "conditions": []
    },
    {
        "minLevel": 31,
        "maxLevel": 31,
        "area": "celestial-tower-3f",
        "method": "walk",
        "location": "celestial-tower",
        "conditions": []
    },
    {
        "minLevel": 31,
        "maxLevel": 31,
        "area": "celestial-tower-3f",
        "method": "walk",
        "location": "celestial-tower",
        "conditions": []
    },
    {
        "minLevel": 31,
        "maxLevel": 31,
        "area": "celestial-tower-3f",
        "method": "walk",
        "location": "celestial-tower",
        "conditions": []
    },
    {
        "minLevel": 29,
        "maxLevel": 29,
        "area": "celestial-tower-4f",
        "method": "walk",
        "location": "celestial-tower",
        "conditions": []
    },
    {
        "minLevel": 29,
        "maxLevel": 29,
        "area": "celestial-tower-4f",
        "method": "walk",
        "location": "celestial-tower",
        "conditions": []
    },
    {
        "minLevel": 30,
        "maxLevel": 30,
        "area": "celestial-tower-4f",
        "method": "walk",
        "location": "celestial-tower",
        "conditions": []
    },
    {
        "minLevel": 31,
        "maxLevel": 31,
        "area": "celestial-tower-4f",
        "method": "walk",
        "location": "celestial-tower",
        "conditions": []
    },
    {
        "minLevel": 32,
        "maxLevel": 32,
        "area": "celestial-tower-4f",
        "method": "walk",
        "location": "celestial-tower",
        "conditions": []
    },
    {
        "minLevel": 32,
        "maxLevel": 32,
        "area": "celestial-tower-4f",
        "method": "walk",
        "location": "celestial-tower",
        "conditions": []
    },
    {
        "minLevel": 30,
        "maxLevel": 30,
        "area": "celestial-tower-5f",
        "method": "walk",
        "location": "celestial-tower",
        "conditions": []
    },
    {
        "minLevel": 31,
        "maxLevel": 31,
        "area": "celestial-tower-5f",
        "method": "walk",
        "location": "celestial-tower",
        "conditions": []
    },
    {
        "minLevel": 32,
        "maxLevel": 32,
        "area": "celestial-tower-5f",
        "method": "walk",
        "location": "celestial-tower",
        "conditions": []
    },
    {
        "minLevel": 33,
        "maxLevel": 33,
        "area": "celestial-tower-5f",
        "method": "walk",
        "location": "celestial-tower",
        "conditions": []
    },
    {
        "minLevel": 33,
        "maxLevel": 33,
        "area": "celestial-tower-5f",
        "method": "walk",
        "location": "celestial-tower",
        "conditions": []
    },
    {
        "minLevel": 31,
        "maxLevel": 31,
        "area": "strange-house-1f",
        "method": "walk",
        "location": "strange-house",
        "conditions": []
    },
    {
        "minLevel": 33,
        "maxLevel": 33,
        "area": "strange-house-1f",
        "method": "walk",
        "location": "strange-house",
        "conditions": []
    },
    {
        "minLevel": 31,
        "maxLevel": 31,
        "area": "strange-house-b1f",
        "method": "walk",
        "location": "strange-house",
        "conditions": []
    }
]