[
    {
        "minLevel": 55,
        "maxLevel": 55,
        "area": "pinwheel-forest-inside",
        "method": "grass-spots",
        "location": "pinwheel-forest",
        "conditions": []
    },
    {
        "minLevel": 22,
        "maxLevel": 22,
        "area": "lostlorn-forest-area",
        "method": "grass-spots",
        "location": "lostlorn-forest",
        "conditions": []
    }
]