[
    {
        "minLevel": 16,
        "maxLevel": 16,
        "area": "castelia-city-area",
        "method": "dark-grass",
        "location": "castelia-city",
        "conditions": []
    },
    {
        "minLevel": 17,
        "maxLevel": 17,
        "area": "castelia-city-area",
        "method": "dark-grass",
        "location": "castelia-city",
        "conditions": []
    },
    {
        "minLevel": 15,
        "maxLevel": 15,
        "area": "castelia-city-area",
        "method": "walk",
        "location": "castelia-city",
        "conditions": []
    },
    {
        "minLevel": 16,
        "maxLevel": 16,
        "area": "castelia-city-area",
        "method": "walk",
        "location": "castelia-city",
        "conditions": []
    },
    {
        "minLevel": 9,
        "maxLevel": 9,
        "area": "unova-route-20-area",
        "method": "dark-grass",
        "location": "unova-route-20",
        "conditions": ["season-spring"]
    },
    {
        "minLevel": 9,
        "maxLevel": 9,
        "area": "unova-route-20-area",
        "method": "dark-grass",
        "location": "unova-route-20",
        "conditions": ["season-autumn"]
    },
    {
        "minLevel": 9,
        "maxLevel": 9,
        "area": "unova-route-20-area",
        "method": "dark-grass",
        "location": "unova-route-20",
        "conditions": ["season-winter"]
    },
    {
        "minLevel": 10,
        "maxLevel": 10,
        "area": "unova-route-20-area",
        "method": "dark-grass",
        "location": "unova-route-20",
        "conditions": []
    },
    {
        "minLevel": 2,
        "maxLevel": 2,
        "area": "unova-route-20-area",
        "method": "walk",
        "location": "unova-route-20",
        "conditions": ["season-spring"]
    },
    {
        "minLevel": 2,
        "maxLevel": 2,
        "area": "unova-route-20-area",
        "method": "walk",
        "location": "unova-route-20",
        "conditions": ["season-autumn"]
    },
    {
        "minLevel": 2,
        "maxLevel": 2,
        "area": "unova-route-20-area",
        "method": "walk",
        "location": "unova-route-20",
        "conditions": ["season-winter"]
    },
    {
        "minLevel": 4,
        "maxLevel": 4,
        "area": "unova-route-20-area",
        "method": "walk",
        "location": "unova-route-20",
        "conditions": []
    },
    {
        "minLevel": 7,
        "maxLevel": 7,
        "area": "floccesy-ranch-inner",
        "method": "walk",
        "location": "floccesy-ranch",
        "conditions": []
    },
    {
        "minLevel": 10,
        "maxLevel": 10,
        "area": "virbank-complex-outer",
        "method": "walk",
        "location": "virbank-complex",
        "conditions": []
    },
    {
        "minLevel": 11,
        "maxLevel": 11,
        "area": "virbank-complex-outer",
        "method": "walk",
        "location": "virbank-complex",
        "conditions": []
    },
    {
        "minLevel": 12,
        "maxLevel": 12,
        "area": "virbank-complex-outer",
        "method": "walk",
        "location": "virbank-complex",
        "conditions": []
    },
    {
        "minLevel": 13,
        "maxLevel": 13,
        "area": "virbank-complex-outer",
        "method": "walk",
        "location": "virbank-complex",
        "conditions": []
    }
]