[
    {
        "minLevel": 50,
        "maxLevel": 70,
        "area": "unova-route-4-area",
        "method": "super-rod",
        "location": "unova-route-4",
        "conditions": []
    },
    {
        "minLevel": 50,
        "maxLevel": 70,
        "area": "unova-route-4-area",
        "method": "super-rod",
        "location": "unova-route-4",
        "conditions": []
    },
    {
        "minLevel": 40,
        "maxLevel": 60,
        "area": "unova-route-4-area",
        "method": "super-rod-spots",
        "location": "unova-route-4",
        "conditions": []
    },
    {
        "minLevel": 35,
        "maxLevel": 60,
        "area": "p2-laboratory-area",
        "method": "super-rod-spots",
        "location": "p2-laboratory",
        "conditions": []
    },
    {
        "minLevel": 50,
        "maxLevel": 70,
        "area": "virbank-city-area",
        "method": "super-rod",
        "location": "virbank-city",
        "conditions": []
    },
    {
        "minLevel": 50,
        "maxLevel": 70,
        "area": "virbank-city-area",
        "method": "super-rod",
        "location": "virbank-city",
        "conditions": []
    },
    {
        "minLevel": 50,
        "maxLevel": 70,
        "area": "virbank-complex-outer",
        "method": "super-rod",
        "location": "virbank-complex",
        "conditions": []
    },
    {
        "minLevel": 50,
        "maxLevel": 70,
        "area": "virbank-complex-outer",
        "method": "super-rod",
        "location": "virbank-complex",
        "conditions": []
    }
]