[
    {
        "minLevel": 39,
        "maxLevel": 39,
        "area": "unova-route-12-area",
        "method": "dark-grass",
        "location": "unova-route-12",
        "conditions": []
    },
    {
        "minLevel": 41,
        "maxLevel": 41,
        "area": "unova-route-12-area",
        "method": "dark-grass",
        "location": "unova-route-12",
        "conditions": []
    },
    {
        "minLevel": 41,
        "maxLevel": 41,
        "area": "unova-route-12-area",
        "method": "dark-grass",
        "location": "unova-route-12",
        "conditions": []
    },
    {
        "minLevel": 35,
        "maxLevel": 35,
        "area": "unova-route-12-area",
        "method": "walk",
        "location": "unova-route-12",
        "conditions": []
    },
    {
        "minLevel": 37,
        "maxLevel": 37,
        "area": "unova-route-12-area",
        "method": "walk",
        "location": "unova-route-12",
        "conditions": []
    },
    {
        "minLevel": 37,
        "maxLevel": 37,
        "area": "unova-route-12-area",
        "method": "walk",
        "location": "unova-route-12",
        "conditions": []
    },
    {
        "minLevel": 25,
        "maxLevel": 25,
        "area": "lostlorn-forest-area",
        "method": "dark-grass",
        "location": "lostlorn-forest",
        "conditions": []
    },
    {
        "minLevel": 26,
        "maxLevel": 26,
        "area": "lostlorn-forest-area",
        "method": "dark-grass",
        "location": "lostlorn-forest",
        "conditions": []
    },
    {
        "minLevel": 23,
        "maxLevel": 23,
        "area": "lostlorn-forest-area",
        "method": "walk",
        "location": "lostlorn-forest",
        "conditions": []
    },
    {
        "minLevel": 24,
        "maxLevel": 24,
        "area": "lostlorn-forest-area",
        "method": "walk",
        "location": "lostlorn-forest",
        "conditions": []
    },
    {
        "minLevel": 53,
        "maxLevel": 53,
        "area": "unova-victory-road-2-unknown-area-72",
        "method": "dark-grass",
        "location": "unova-victory-road-2",
        "conditions": []
    },
    {
        "minLevel": 54,
        "maxLevel": 54,
        "area": "unova-victory-road-2-unknown-area-72",
        "method": "dark-grass",
        "location": "unova-victory-road-2",
        "conditions": []
    },
    {
        "minLevel": 55,
        "maxLevel": 55,
        "area": "unova-victory-road-2-unknown-area-72",
        "method": "dark-grass",
        "location": "unova-victory-road-2",
        "conditions": []
    },
    {
        "minLevel": 55,
        "maxLevel": 55,
        "area": "unova-victory-road-2-unknown-area-72",
        "method": "dark-grass",
        "location": "unova-victory-road-2",
        "conditions": []
    },
    {
        "minLevel": 55,
        "maxLevel": 55,
        "area": "unova-victory-road-2-unknown-area-72",
        "method": "dark-grass",
        "location": "unova-victory-road-2",
        "conditions": []
    },
    {
        "minLevel": 48,
        "maxLevel": 48,
        "area": "unova-victory-road-2-unknown-area-72",
        "method": "walk",
        "location": "unova-victory-road-2",
        "conditions": []
    },
    {
        "minLevel": 49,
        "maxLevel": 49,
        "area": "unova-victory-road-2-unknown-area-72",
        "method": "walk",
        "location": "unova-victory-road-2",
        "conditions": []
    },
    {
        "minLevel": 50,
        "maxLevel": 50,
        "area": "unova-victory-road-2-unknown-area-72",
        "method": "walk",
        "location": "unova-victory-road-2",
        "conditions": []
    },
    {
        "minLevel": 50,
        "maxLevel": 50,
        "area": "unova-victory-road-2-unknown-area-72",
        "method": "walk",
        "location": "unova-victory-road-2",
        "conditions": []
    },
    {
        "minLevel": 50,
        "maxLevel": 50,
        "area": "unova-victory-road-2-unknown-area-72",
        "method": "walk",
        "location": "unova-victory-road-2",
        "conditions": []
    }
]