[
    {
        "minLevel": 40,
        "maxLevel": 40,
        "area": "unova-route-12-area",
        "method": "dark-grass",
        "location": "unova-route-12",
        "conditions": []
    },
    {
        "minLevel": 42,
        "maxLevel": 42,
        "area": "unova-route-12-area",
        "method": "dark-grass",
        "location": "unova-route-12",
        "conditions": []
    },
    {
        "minLevel": 36,
        "maxLevel": 36,
        "area": "unova-route-12-area",
        "method": "walk",
        "location": "unova-route-12",
        "conditions": []
    },
    {
        "minLevel": 38,
        "maxLevel": 38,
        "area": "unova-route-12-area",
        "method": "walk",
        "location": "unova-route-12",
        "conditions": []
    },
    {
        "minLevel": 11,
        "maxLevel": 11,
        "area": "unova-route-20-area",
        "method": "dark-grass",
        "location": "unova-route-20",
        "conditions": []
    },
    {
        "minLevel": 10,
        "maxLevel": 10,
        "area": "unova-route-20-area",
        "method": "dark-grass",
        "location": "unova-route-20",
        "conditions": []
    },
    {
        "minLevel": 2,
        "maxLevel": 2,
        "area": "unova-route-20-area",
        "method": "walk",
        "location": "unova-route-20",
        "conditions": []
    },
    {
        "minLevel": 3,
        "maxLevel": 3,
        "area": "unova-route-20-area",
        "method": "walk",
        "location": "unova-route-20",
        "conditions": []
    },
    {
        "minLevel": 4,
        "maxLevel": 4,
        "area": "unova-route-20-area",
        "method": "walk",
        "location": "unova-route-20",
        "conditions": []
    }
]