[
    {
        "minLevel": 50,
        "maxLevel": 70,
        "area": "village-bridge-area",
        "method": "super-rod-spots",
        "location": "village-bridge",
        "conditions": []
    },
    {
        "minLevel": 50,
        "maxLevel": 70,
        "area": "village-bridge-area",
        "method": "super-rod-spots",
        "location": "village-bridge",
        "conditions": []
    },
    {
        "minLevel": 50,
        "maxLevel": 70,
        "area": "village-bridge-area",
        "method": "super-rod-spots",
        "location": "village-bridge",
        "conditions": []
    }
]