[
    {
        "minLevel": 59,
        "maxLevel": 59,
        "area": "unova-route-1-area",
        "method": "grass-spots",
        "location": "unova-route-1",
        "conditions": []
    },
    {
        "minLevel": 59,
        "maxLevel": 59,
        "area": "unova-route-1-area",
        "method": "grass-spots",
        "location": "unova-route-1",
        "conditions": []
    },
    {
        "minLevel": 59,
        "maxLevel": 59,
        "area": "unova-route-2-area",
        "method": "grass-spots",
        "location": "unova-route-2",
        "conditions": []
    },
    {
        "minLevel": 59,
        "maxLevel": 59,
        "area": "unova-route-2-area",
        "method": "grass-spots",
        "location": "unova-route-2",
        "conditions": []
    },
    {
        "minLevel": 58,
        "maxLevel": 58,
        "area": "unova-route-3-area",
        "method": "grass-spots",
        "location": "unova-route-3",
        "conditions": []
    },
    {
        "minLevel": 58,
        "maxLevel": 58,
        "area": "unova-route-3-area",
        "method": "grass-spots",
        "location": "unova-route-3",
        "conditions": []
    },
    {
        "minLevel": 59,
        "maxLevel": 59,
        "area": "p2-laboratory-area",
        "method": "grass-spots",
        "location": "p2-laboratory",
        "conditions": []
    },
    {
        "minLevel": 59,
        "maxLevel": 59,
        "area": "p2-laboratory-area",
        "method": "grass-spots",
        "location": "p2-laboratory",
        "conditions": []
    }
]