[
    {
        "minLevel": 45,
        "maxLevel": 60,
        "area": "icirrus-city-area",
        "method": "super-rod",
        "location": "icirrus-city",
        "conditions": []
    },
    {
        "minLevel": 45,
        "maxLevel": 60,
        "area": "icirrus-city-area",
        "method": "super-rod-spots",
        "location": "icirrus-city",
        "conditions": []
    },
    {
        "minLevel": 45,
        "maxLevel": 60,
        "area": "icirrus-city-area",
        "method": "surf",
        "location": "icirrus-city",
        "conditions": []
    },
    {
        "minLevel": 45,
        "maxLevel": 60,
        "area": "icirrus-city-area",
        "method": "surf",
        "location": "icirrus-city",
        "conditions": []
    },
    {
        "minLevel": 60,
        "maxLevel": 60,
        "area": "icirrus-city-area",
        "method": "surf",
        "location": "icirrus-city",
        "conditions": ["season-spring"]
    },
    {
        "minLevel": 60,
        "maxLevel": 60,
        "area": "icirrus-city-area",
        "method": "surf",
        "location": "icirrus-city",
        "conditions": ["season-summer"]
    },
    {
        "minLevel": 60,
        "maxLevel": 60,
        "area": "icirrus-city-area",
        "method": "surf",
        "location": "icirrus-city",
        "conditions": ["season-autumn"]
    },
    {
        "minLevel": 50,
        "maxLevel": 60,
        "area": "icirrus-city-area",
        "method": "surf",
        "location": "icirrus-city",
        "conditions": ["season-winter"]
    },
    {
        "minLevel": 60,
        "maxLevel": 60,
        "area": "icirrus-city-area",
        "method": "surf",
        "location": "icirrus-city",
        "conditions": ["season-spring"]
    },
    {
        "minLevel": 60,
        "maxLevel": 60,
        "area": "icirrus-city-area",
        "method": "surf",
        "location": "icirrus-city",
        "conditions": ["season-summer"]
    },
    {
        "minLevel": 60,
        "maxLevel": 60,
        "area": "icirrus-city-area",
        "method": "surf",
        "location": "icirrus-city",
        "conditions": ["season-autumn"]
    },
    {
        "minLevel": 50,
        "maxLevel": 60,
        "area": "icirrus-city-area",
        "method": "surf",
        "location": "icirrus-city",
        "conditions": ["season-winter"]
    },
    {
        "minLevel": 60,
        "maxLevel": 60,
        "area": "icirrus-city-area",
        "method": "surf",
        "location": "icirrus-city",
        "conditions": ["season-spring"]
    },
    {
        "minLevel": 60,
        "maxLevel": 60,
        "area": "icirrus-city-area",
        "method": "surf",
        "location": "icirrus-city",
        "conditions": ["season-summer"]
    },
    {
        "minLevel": 60,
        "maxLevel": 60,
        "area": "icirrus-city-area",
        "method": "surf",
        "location": "icirrus-city",
        "conditions": ["season-autumn"]
    },
    {
        "minLevel": 50,
        "maxLevel": 60,
        "area": "icirrus-city-area",
        "method": "surf",
        "location": "icirrus-city",
        "conditions": ["season-winter"]
    },
    {
        "minLevel": 45,
        "maxLevel": 60,
        "area": "icirrus-city-area",
        "method": "surf-spots",
        "location": "icirrus-city",
        "conditions": []
    },
    {
        "minLevel": 45,
        "maxLevel": 60,
        "area": "icirrus-city-area",
        "method": "surf-spots",
        "location": "icirrus-city",
        "conditions": []
    },
    {
        "minLevel": 60,
        "maxLevel": 60,
        "area": "icirrus-city-area",
        "method": "surf-spots",
        "location": "icirrus-city",
        "conditions": ["season-spring"]
    },
    {
        "minLevel": 60,
        "maxLevel": 60,
        "area": "icirrus-city-area",
        "method": "surf-spots",
        "location": "icirrus-city",
        "conditions": ["season-summer"]
    },
    {
        "minLevel": 60,
        "maxLevel": 60,
        "area": "icirrus-city-area",
        "method": "surf-spots",
        "location": "icirrus-city",
        "conditions": ["season-autumn"]
    },
    {
        "minLevel": 50,
        "maxLevel": 60,
        "area": "icirrus-city-area",
        "method": "surf-spots",
        "location": "icirrus-city",
        "conditions": ["season-winter"]
    },
    {
        "minLevel": 55,
        "maxLevel": 55,
        "area": "icirrus-city-area",
        "method": "walk",
        "location": "icirrus-city",
        "conditions": ["season-spring"]
    },
    {
        "minLevel": 55,
        "maxLevel": 55,
        "area": "icirrus-city-area",
        "method": "walk",
        "location": "icirrus-city",
        "conditions": ["season-summer"]
    },
    {
        "minLevel": 55,
        "maxLevel": 55,
        "area": "icirrus-city-area",
        "method": "walk",
        "location": "icirrus-city",
        "conditions": ["season-autumn"]
    },
    {
        "minLevel": 56,
        "maxLevel": 56,
        "area": "icirrus-city-area",
        "method": "walk",
        "location": "icirrus-city",
        "conditions": ["season-spring"]
    },
    {
        "minLevel": 56,
        "maxLevel": 56,
        "area": "icirrus-city-area",
        "method": "walk",
        "location": "icirrus-city",
        "conditions": ["season-summer"]
    },
    {
        "minLevel": 56,
        "maxLevel": 56,
        "area": "icirrus-city-area",
        "method": "walk",
        "location": "icirrus-city",
        "conditions": ["season-autumn"]
    },
    {
        "minLevel": 45,
        "maxLevel": 60,
        "area": "unova-route-8-area",
        "method": "super-rod",
        "location": "unova-route-8",
        "conditions": []
    },
    {
        "minLevel": 45,
        "maxLevel": 60,
        "area": "unova-route-8-area",
        "method": "super-rod-spots",
        "location": "unova-route-8",
        "conditions": []
    },
    {
        "minLevel": 45,
        "maxLevel": 60,
        "area": "unova-route-8-area",
        "method": "surf",
        "location": "unova-route-8",
        "conditions": []
    },
    {
        "minLevel": 60,
        "maxLevel": 60,
        "area": "unova-route-8-area",
        "method": "surf",
        "location": "unova-route-8",
        "conditions": ["season-spring"]
    },
    {
        "minLevel": 50,
        "maxLevel": 60,
        "area": "unova-route-8-area",
        "method": "surf",
        "location": "unova-route-8",
        "conditions": ["season-summer"]
    },
    {
        "minLevel": 50,
        "maxLevel": 60,
        "area": "unova-route-8-area",
        "method": "surf",
        "location": "unova-route-8",
        "conditions": ["season-autumn"]
    },
    {
        "minLevel": 50,
        "maxLevel": 60,
        "area": "unova-route-8-area",
        "method": "surf",
        "location": "unova-route-8",
        "conditions": ["season-winter"]
    },
    {
        "minLevel": 60,
        "maxLevel": 60,
        "area": "unova-route-8-area",
        "method": "surf",
        "location": "unova-route-8",
        "conditions": ["season-spring"]
    },
    {
        "minLevel": 50,
        "maxLevel": 60,
        "area": "unova-route-8-area",
        "method": "surf",
        "location": "unova-route-8",
        "conditions": ["season-summer"]
    },
    {
        "minLevel": 50,
        "maxLevel": 60,
        "area": "unova-route-8-area",
        "method": "surf",
        "location": "unova-route-8",
        "conditions": ["season-autumn"]
    },
    {
        "minLevel": 50,
        "maxLevel": 60,
        "area": "unova-route-8-area",
        "method": "surf",
        "location": "unova-route-8",
        "conditions": ["season-winter"]
    },
    {
        "minLevel": 60,
        "maxLevel": 60,
        "area": "unova-route-8-area",
        "method": "surf",
        "location": "unova-route-8",
        "conditions": ["season-spring"]
    },
    {
        "minLevel": 50,
        "maxLevel": 60,
        "area": "unova-route-8-area",
        "method": "surf",
        "location": "unova-route-8",
        "conditions": ["season-summer"]
    },
    {
        "minLevel": 50,
        "maxLevel": 60,
        "area": "unova-route-8-area",
        "method": "surf",
        "location": "unova-route-8",
        "conditions": ["season-autumn"]
    },
    {
        "minLevel": 50,
        "maxLevel": 60,
        "area": "unova-route-8-area",
        "method": "surf",
        "location": "unova-route-8",
        "conditions": ["season-winter"]
    },
    {
        "minLevel": 45,
        "maxLevel": 60,
        "area": "unova-route-8-area",
        "method": "surf-spots",
        "location": "unova-route-8",
        "conditions": []
    },
    {
        "minLevel": 60,
        "maxLevel": 60,
        "area": "unova-route-8-area",
        "method": "surf-spots",
        "location": "unova-route-8",
        "conditions": ["season-spring"]
    },
    {
        "minLevel": 50,
        "maxLevel": 60,
        "area": "unova-route-8-area",
        "method": "surf-spots",
        "location": "unova-route-8",
        "conditions": ["season-summer"]
    },
    {
        "minLevel": 50,
        "maxLevel": 60,
        "area": "unova-route-8-area",
        "method": "surf-spots",
        "location": "unova-route-8",
        "conditions": ["season-autumn"]
    },
    {
        "minLevel": 50,
        "maxLevel": 60,
        "area": "unova-route-8-area",
        "method": "surf-spots",
        "location": "unova-route-8",
        "conditions": ["season-winter"]
    },
    {
        "minLevel": 55,
        "maxLevel": 55,
        "area": "unova-route-8-area",
        "method": "walk",
        "location": "unova-route-8",
        "conditions": ["season-spring"]
    },
    {
        "minLevel": 55,
        "maxLevel": 55,
        "area": "unova-route-8-area",
        "method": "walk",
        "location": "unova-route-8",
        "conditions": ["season-summer"]
    },
    {
        "minLevel": 55,
        "maxLevel": 55,
        "area": "unova-route-8-area",
        "method": "walk",
        "location": "unova-route-8",
        "conditions": ["season-autumn"]
    },
    {
        "minLevel": 56,
        "maxLevel": 56,
        "area": "unova-route-8-area",
        "method": "walk",
        "location": "unova-route-8",
        "conditions": ["season-spring"]
    },
    {
        "minLevel": 56,
        "maxLevel": 56,
        "area": "unova-route-8-area",
        "method": "walk",
        "location": "unova-route-8",
        "conditions": ["season-summer"]
    },
    {
        "minLevel": 56,
        "maxLevel": 56,
        "area": "unova-route-8-area",
        "method": "walk",
        "location": "unova-route-8",
        "conditions": ["season-autumn"]
    },
    {
        "minLevel": 45,
        "maxLevel": 60,
        "area": "moor-of-icirrus-area",
        "method": "super-rod",
        "location": "moor-of-icirrus",
        "conditions": []
    },
    {
        "minLevel": 45,
        "maxLevel": 60,
        "area": "moor-of-icirrus-area",
        "method": "super-rod-spots",
        "location": "moor-of-icirrus",
        "conditions": []
    },
    {
        "minLevel": 45,
        "maxLevel": 60,
        "area": "moor-of-icirrus-area",
        "method": "surf",
        "location": "moor-of-icirrus",
        "conditions": []
    },
    {
        "minLevel": 45,
        "maxLevel": 60,
        "area": "moor-of-icirrus-area",
        "method": "surf",
        "location": "moor-of-icirrus",
        "conditions": []
    },
    {
        "minLevel": 60,
        "maxLevel": 60,
        "area": "moor-of-icirrus-area",
        "method": "surf",
        "location": "moor-of-icirrus",
        "conditions": ["season-spring"]
    },
    {
        "minLevel": 60,
        "maxLevel": 60,
        "area": "moor-of-icirrus-area",
        "method": "surf",
        "location": "moor-of-icirrus",
        "conditions": ["season-summer"]
    },
    {
        "minLevel": 60,
        "maxLevel": 60,
        "area": "moor-of-icirrus-area",
        "method": "surf",
        "location": "moor-of-icirrus",
        "conditions": ["season-autumn"]
    },
    {
        "minLevel": 50,
        "maxLevel": 60,
        "area": "moor-of-icirrus-area",
        "method": "surf",
        "location": "moor-of-icirrus",
        "conditions": ["season-winter"]
    },
    {
        "minLevel": 60,
        "maxLevel": 60,
        "area": "moor-of-icirrus-area",
        "method": "surf",
        "location": "moor-of-icirrus",
        "conditions": ["season-spring"]
    },
    {
        "minLevel": 60,
        "maxLevel": 60,
        "area": "moor-of-icirrus-area",
        "method": "surf",
        "location": "moor-of-icirrus",
        "conditions": ["season-summer"]
    },
    {
        "minLevel": 60,
        "maxLevel": 60,
        "area": "moor-of-icirrus-area",
        "method": "surf",
        "location": "moor-of-icirrus",
        "conditions": ["season-autumn"]
    },
    {
        "minLevel": 50,
        "maxLevel": 60,
        "area": "moor-of-icirrus-area",
        "method": "surf",
        "location": "moor-of-icirrus",
        "conditions": ["season-winter"]
    },
    {
        "minLevel": 60,
        "maxLevel": 60,
        "area": "moor-of-icirrus-area",
        "method": "surf",
        "location": "moor-of-icirrus",
        "conditions": ["season-spring"]
    },
    {
        "minLevel": 60,
        "maxLevel": 60,
        "area": "moor-of-icirrus-area",
        "method": "surf",
        "location": "moor-of-icirrus",
        "conditions": ["season-summer"]
    },
    {
        "minLevel": 60,
        "maxLevel": 60,
        "area": "moor-of-icirrus-area",
        "method": "surf",
        "location": "moor-of-icirrus",
        "conditions": ["season-autumn"]
    },
    {
        "minLevel": 50,
        "maxLevel": 60,
        "area": "moor-of-icirrus-area",
        "method": "surf",
        "location": "moor-of-icirrus",
        "conditions": ["season-winter"]
    },
    {
        "minLevel": 45,
        "maxLevel": 60,
        "area": "moor-of-icirrus-area",
        "method": "surf-spots",
        "location": "moor-of-icirrus",
        "conditions": []
    },
    {
        "minLevel": 45,
        "maxLevel": 60,
        "area": "moor-of-icirrus-area",
        "method": "surf-spots",
        "location": "moor-of-icirrus",
        "conditions": []
    },
    {
        "minLevel": 60,
        "maxLevel": 60,
        "area": "moor-of-icirrus-area",
        "method": "surf-spots",
        "location": "moor-of-icirrus",
        "conditions": ["season-spring"]
    },
    {
        "minLevel": 60,
        "maxLevel": 60,
        "area": "moor-of-icirrus-area",
        "method": "surf-spots",
        "location": "moor-of-icirrus",
        "conditions": ["season-summer"]
    },
    {
        "minLevel": 60,
        "maxLevel": 60,
        "area": "moor-of-icirrus-area",
        "method": "surf-spots",
        "location": "moor-of-icirrus",
        "conditions": ["season-autumn"]
    },
    {
        "minLevel": 50,
        "maxLevel": 60,
        "area": "moor-of-icirrus-area",
        "method": "surf-spots",
        "location": "moor-of-icirrus",
        "conditions": ["season-winter"]
    },
    {
        "minLevel": 55,
        "maxLevel": 55,
        "area": "moor-of-icirrus-area",
        "method": "walk",
        "location": "moor-of-icirrus",
        "conditions": ["season-spring"]
    },
    {
        "minLevel": 55,
        "maxLevel": 55,
        "area": "moor-of-icirrus-area",
        "method": "walk",
        "location": "moor-of-icirrus",
        "conditions": ["season-summer"]
    },
    {
        "minLevel": 55,
        "maxLevel": 55,
        "area": "moor-of-icirrus-area",
        "method": "walk",
        "location": "moor-of-icirrus",
        "conditions": ["season-autumn"]
    },
    {
        "minLevel": 56,
        "maxLevel": 56,
        "area": "moor-of-icirrus-area",
        "method": "walk",
        "location": "moor-of-icirrus",
        "conditions": ["season-spring"]
    },
    {
        "minLevel": 56,
        "maxLevel": 56,
        "area": "moor-of-icirrus-area",
        "method": "walk",
        "location": "moor-of-icirrus",
        "conditions": ["season-summer"]
    },
    {
        "minLevel": 56,
        "maxLevel": 56,
        "area": "moor-of-icirrus-area",
        "method": "walk",
        "location": "moor-of-icirrus",
        "conditions": ["season-autumn"]
    }
]