[
    {
        "minLevel": 59,
        "maxLevel": 59,
        "area": "unova-route-1-area",
        "method": "grass-spots",
        "location": "unova-route-1",
        "conditions": []
    },
    {
        "minLevel": 59,
        "maxLevel": 59,
        "area": "unova-route-1-area",
        "method": "grass-spots",
        "location": "unova-route-1",
        "conditions": []
    },
    {
        "minLevel": 59,
        "maxLevel": 59,
        "area": "unova-route-2-area",
        "method": "grass-spots",
        "location": "unova-route-2",
        "conditions": []
    },
    {
        "minLevel": 59,
        "maxLevel": 59,
        "area": "unova-route-2-area",
        "method": "grass-spots",
        "location": "unova-route-2",
        "conditions": []
    },
    {
        "minLevel": 59,
        "maxLevel": 59,
        "area": "dreamyard-area",
        "method": "grass-spots",
        "location": "dreamyard",
        "conditions": []
    }
]