[
    {
        "minLevel": 14,
        "maxLevel": 14,
        "area": "castelia-sewers-area",
        "method": "walk",
        "location": "castelia-sewers",
        "conditions": []
    },
    {
        "minLevel": 15,
        "maxLevel": 15,
        "area": "castelia-sewers-area",
        "method": "walk",
        "location": "castelia-sewers",
        "conditions": []
    },
    {
        "minLevel": 16,
        "maxLevel": 16,
        "area": "castelia-sewers-area",
        "method": "walk",
        "location": "castelia-sewers",
        "conditions": []
    },
    {
        "minLevel": 17,
        "maxLevel": 17,
        "area": "castelia-sewers-area",
        "method": "walk",
        "location": "castelia-sewers",
        "conditions": []
    },
    {
        "minLevel": 17,
        "maxLevel": 17,
        "area": "castelia-sewers-area",
        "method": "walk",
        "location": "castelia-sewers",
        "conditions": []
    },
    {
        "minLevel": 14,
        "maxLevel": 14,
        "area": "castelia-sewers-unknown-area-38",
        "method": "walk",
        "location": "castelia-sewers",
        "conditions": []
    },
    {
        "minLevel": 15,
        "maxLevel": 15,
        "area": "castelia-sewers-unknown-area-38",
        "method": "walk",
        "location": "castelia-sewers",
        "conditions": []
    },
    {
        "minLevel": 16,
        "maxLevel": 16,
        "area": "castelia-sewers-unknown-area-38",
        "method": "walk",
        "location": "castelia-sewers",
        "conditions": []
    },
    {
        "minLevel": 17,
        "maxLevel": 17,
        "area": "castelia-sewers-unknown-area-38",
        "method": "walk",
        "location": "castelia-sewers",
        "conditions": []
    },
    {
        "minLevel": 17,
        "maxLevel": 17,
        "area": "castelia-sewers-unknown-area-38",
        "method": "walk",
        "location": "castelia-sewers",
        "conditions": []
    }
]