{
    "encounters": [
        "zubat",
        "golbat",
        "psyduck",
        "tentacool",
        "tentacruel",
        "slowpoke",
        "seel",
        "dewgong",
        "shellder",
        "krabby",
        "kingler",
        "horsea",
        "seadra",
        "staryu",
        "magikarp",
        "gyarados",
        "lapras"
    ],
    "id": "icefall-cave-waterfall"
}