[
    {
        "minLevel": 56,
        "maxLevel": 56,
        "area": "cerulean-cave-2f",
        "method": "walk",
        "location": "cerulean-cave",
        "conditions": []
    },
    {
        "minLevel": 64,
        "maxLevel": 64,
        "area": "cerulean-cave-b1f",
        "method": "walk",
        "location": "cerulean-cave",
        "conditions": []
    },
    {
        "minLevel": 23,
        "maxLevel": 23,
        "area": "kanto-safari-zone-middle",
        "method": "walk",
        "location": "kanto-safari-zone",
        "conditions": []
    },
    {
        "minLevel": 26,
        "maxLevel": 26,
        "area": "kanto-safari-zone-area-2-north",
        "method": "walk",
        "location": "kanto-safari-zone",
        "conditions": []
    }
]