[
    {
        "minLevel": 21,
        "maxLevel": 21,
        "area": "power-plant-area",
        "method": "walk",
        "location": "power-plant",
        "conditions": []
    },
    {
        "minLevel": 23,
        "maxLevel": 23,
        "area": "power-plant-area",
        "method": "walk",
        "location": "power-plant",
        "conditions": []
    }
]