[
    {
        "minLevel": 31,
        "maxLevel": 31,
        "area": "kanto-safari-zone-middle",
        "method": "walk",
        "location": "kanto-safari-zone",
        "conditions": []
    },
    {
        "minLevel": 33,
        "maxLevel": 33,
        "area": "kanto-safari-zone-area-1-east",
        "method": "walk",
        "location": "kanto-safari-zone",
        "conditions": []
    },
    {
        "minLevel": 30,
        "maxLevel": 30,
        "area": "kanto-safari-zone-area-2-north",
        "method": "walk",
        "location": "kanto-safari-zone",
        "conditions": []
    },
    {
        "minLevel": 33,
        "maxLevel": 33,
        "area": "kanto-safari-zone-area-3-west",
        "method": "walk",
        "location": "kanto-safari-zone",
        "conditions": []
    }
]