[
    {
        "minLevel": 8,
        "maxLevel": 8,
        "area": "mt-moon-1f",
        "method": "walk",
        "location": "mt-moon",
        "conditions": []
    },
    {
        "minLevel": 10,
        "maxLevel": 10,
        "area": "mt-moon-b1f",
        "method": "walk",
        "location": "mt-moon",
        "conditions": []
    },
    {
        "minLevel": 10,
        "maxLevel": 10,
        "area": "mt-moon-b2f",
        "method": "walk",
        "location": "mt-moon",
        "conditions": []
    },
    {
        "minLevel": 12,
        "maxLevel": 12,
        "area": "mt-moon-b2f",
        "method": "walk",
        "location": "mt-moon",
        "conditions": []
    },
    {
        "minLevel": 22,
        "maxLevel": 22,
        "area": "kanto-safari-zone-area-1-east",
        "method": "walk",
        "location": "kanto-safari-zone",
        "conditions": []
    },
    {
        "minLevel": 23,
        "maxLevel": 23,
        "area": "kanto-safari-zone-area-2-north",
        "method": "walk",
        "location": "kanto-safari-zone",
        "conditions": []
    }
]