[
    {
        "minLevel": 10,
        "maxLevel": 10,
        "area": "celadon-city-area",
        "method": "good-rod",
        "location": "celadon-city",
        "conditions": []
    },
    {
        "minLevel": 10,
        "maxLevel": 10,
        "area": "cerulean-city-area",
        "method": "good-rod",
        "location": "cerulean-city",
        "conditions": []
    },
    {
        "minLevel": 10,
        "maxLevel": 10,
        "area": "cinnabar-island-area",
        "method": "good-rod",
        "location": "cinnabar-island",
        "conditions": []
    },
    {
        "minLevel": 10,
        "maxLevel": 10,
        "area": "fuchsia-city-area",
        "method": "good-rod",
        "location": "fuchsia-city",
        "conditions": []
    },
    {
        "minLevel": 10,
        "maxLevel": 10,
        "area": "pallet-town-area",
        "method": "good-rod",
        "location": "pallet-town",
        "conditions": []
    },
    {
        "minLevel": 15,
        "maxLevel": 15,
        "area": "pallet-town-area",
        "method": "super-rod",
        "location": "pallet-town",
        "conditions": []
    },
    {
        "minLevel": 15,
        "maxLevel": 15,
        "area": "pallet-town-area",
        "method": "super-rod",
        "location": "pallet-town",
        "conditions": []
    },
    {
        "minLevel": 15,
        "maxLevel": 15,
        "area": "pallet-town-area",
        "method": "super-rod",
        "location": "pallet-town",
        "conditions": []
    },
    {
        "minLevel": 10,
        "maxLevel": 10,
        "area": "kanto-route-10-area",
        "method": "good-rod",
        "location": "kanto-route-10",
        "conditions": []
    },
    {
        "minLevel": 10,
        "maxLevel": 10,
        "area": "kanto-route-11-area",
        "method": "good-rod",
        "location": "kanto-route-11",
        "conditions": []
    },
    {
        "minLevel": 10,
        "maxLevel": 10,
        "area": "kanto-route-12-area",
        "method": "good-rod",
        "location": "kanto-route-12",
        "conditions": []
    },
    {
        "minLevel": 10,
        "maxLevel": 10,
        "area": "kanto-route-13-area",
        "method": "good-rod",
        "location": "kanto-route-13",
        "conditions": []
    },
    {
        "minLevel": 10,
        "maxLevel": 10,
        "area": "kanto-route-17-area",
        "method": "good-rod",
        "location": "kanto-route-17",
        "conditions": []
    },
    {
        "minLevel": 10,
        "maxLevel": 10,
        "area": "kanto-route-18-area",
        "method": "good-rod",
        "location": "kanto-route-18",
        "conditions": []
    },
    {
        "minLevel": 10,
        "maxLevel": 10,
        "area": "kanto-sea-route-19-area",
        "method": "good-rod",
        "location": "kanto-sea-route-19",
        "conditions": []
    },
    {
        "minLevel": 10,
        "maxLevel": 10,
        "area": "kanto-sea-route-20-area",
        "method": "good-rod",
        "location": "kanto-sea-route-20",
        "conditions": []
    },
    {
        "minLevel": 10,
        "maxLevel": 10,
        "area": "kanto-sea-route-21-area",
        "method": "good-rod",
        "location": "kanto-sea-route-21",
        "conditions": []
    },
    {
        "minLevel": 10,
        "maxLevel": 10,
        "area": "kanto-route-22-area",
        "method": "good-rod",
        "location": "kanto-route-22",
        "conditions": []
    },
    {
        "minLevel": 15,
        "maxLevel": 15,
        "area": "kanto-route-22-area",
        "method": "super-rod",
        "location": "kanto-route-22",
        "conditions": []
    },
    {
        "minLevel": 15,
        "maxLevel": 15,
        "area": "kanto-route-22-area",
        "method": "super-rod",
        "location": "kanto-route-22",
        "conditions": []
    },
    {
        "minLevel": 15,
        "maxLevel": 15,
        "area": "kanto-route-22-area",
        "method": "super-rod",
        "location": "kanto-route-22",
        "conditions": []
    },
    {
        "minLevel": 10,
        "maxLevel": 10,
        "area": "kanto-route-24-area",
        "method": "good-rod",
        "location": "kanto-route-24",
        "conditions": []
    },
    {
        "minLevel": 10,
        "maxLevel": 10,
        "area": "kanto-route-25-area",
        "method": "good-rod",
        "location": "kanto-route-25",
        "conditions": []
    },
    {
        "minLevel": 10,
        "maxLevel": 10,
        "area": "kanto-route-6-area",
        "method": "good-rod",
        "location": "kanto-route-6",
        "conditions": []
    },
    {
        "minLevel": 10,
        "maxLevel": 10,
        "area": "seafoam-islands-b3f",
        "method": "good-rod",
        "location": "seafoam-islands",
        "conditions": []
    },
    {
        "minLevel": 10,
        "maxLevel": 10,
        "area": "seafoam-islands-b4f",
        "method": "good-rod",
        "location": "seafoam-islands",
        "conditions": []
    },
    {
        "minLevel": 10,
        "maxLevel": 10,
        "area": "cerulean-cave-1f",
        "method": "good-rod",
        "location": "cerulean-cave",
        "conditions": []
    },
    {
        "minLevel": 10,
        "maxLevel": 10,
        "area": "cerulean-cave-b1f",
        "method": "good-rod",
        "location": "cerulean-cave",
        "conditions": []
    },
    {
        "minLevel": 10,
        "maxLevel": 10,
        "area": "vermilion-city-area",
        "method": "good-rod",
        "location": "vermilion-city",
        "conditions": []
    },
    {
        "minLevel": 10,
        "maxLevel": 10,
        "area": "vermilion-city-ss-anne-dock",
        "method": "good-rod",
        "location": "vermilion-city",
        "conditions": []
    },
    {
        "minLevel": 10,
        "maxLevel": 10,
        "area": "viridian-city-area",
        "method": "good-rod",
        "location": "viridian-city",
        "conditions": []
    },
    {
        "minLevel": 15,
        "maxLevel": 15,
        "area": "viridian-city-area",
        "method": "super-rod",
        "location": "viridian-city",
        "conditions": []
    },
    {
        "minLevel": 15,
        "maxLevel": 15,
        "area": "viridian-city-area",
        "method": "super-rod",
        "location": "viridian-city",
        "conditions": []
    },
    {
        "minLevel": 15,
        "maxLevel": 15,
        "area": "viridian-city-area",
        "method": "super-rod",
        "location": "viridian-city",
        "conditions": []
    },
    {
        "minLevel": 10,
        "maxLevel": 10,
        "area": "kanto-route-23-area",
        "method": "good-rod",
        "location": "kanto-route-23",
        "conditions": []
    },
    {
        "minLevel": 10,
        "maxLevel": 10,
        "area": "kanto-safari-zone-middle",
        "method": "good-rod",
        "location": "kanto-safari-zone",
        "conditions": []
    },
    {
        "minLevel": 10,
        "maxLevel": 10,
        "area": "kanto-safari-zone-area-1-east",
        "method": "good-rod",
        "location": "kanto-safari-zone",
        "conditions": []
    },
    {
        "minLevel": 10,
        "maxLevel": 10,
        "area": "kanto-safari-zone-area-2-north",
        "method": "good-rod",
        "location": "kanto-safari-zone",
        "conditions": []
    },
    {
        "minLevel": 10,
        "maxLevel": 10,
        "area": "kanto-safari-zone-area-3-west",
        "method": "good-rod",
        "location": "kanto-safari-zone",
        "conditions": []
    }
]