[
    {
        "minLevel": 30,
        "maxLevel": 30,
        "area": "seafoam-islands-1f",
        "method": "walk",
        "location": "seafoam-islands",
        "conditions": []
    },
    {
        "minLevel": 30,
        "maxLevel": 30,
        "area": "seafoam-islands-b1f",
        "method": "walk",
        "location": "seafoam-islands",
        "conditions": []
    },
    {
        "minLevel": 28,
        "maxLevel": 28,
        "area": "seafoam-islands-b1f",
        "method": "walk",
        "location": "seafoam-islands",
        "conditions": []
    },
    {
        "minLevel": 30,
        "maxLevel": 30,
        "area": "seafoam-islands-b2f",
        "method": "walk",
        "location": "seafoam-islands",
        "conditions": []
    },
    {
        "minLevel": 32,
        "maxLevel": 32,
        "area": "seafoam-islands-b2f",
        "method": "walk",
        "location": "seafoam-islands",
        "conditions": []
    },
    {
        "minLevel": 31,
        "maxLevel": 31,
        "area": "seafoam-islands-b3f",
        "method": "walk",
        "location": "seafoam-islands",
        "conditions": []
    },
    {
        "minLevel": 33,
        "maxLevel": 33,
        "area": "seafoam-islands-b3f",
        "method": "walk",
        "location": "seafoam-islands",
        "conditions": []
    },
    {
        "minLevel": 31,
        "maxLevel": 31,
        "area": "seafoam-islands-b4f",
        "method": "walk",
        "location": "seafoam-islands",
        "conditions": []
    },
    {
        "minLevel": 29,
        "maxLevel": 29,
        "area": "seafoam-islands-b4f",
        "method": "walk",
        "location": "seafoam-islands",
        "conditions": []
    }
]