[
    {
        "minLevel": 18,
        "maxLevel": 18,
        "area": "kanto-route-7-area",
        "method": "walk",
        "location": "kanto-route-7",
        "conditions": []
    },
    {
        "minLevel": 20,
        "maxLevel": 20,
        "area": "kanto-route-7-area",
        "method": "walk",
        "location": "kanto-route-7",
        "conditions": []
    },
    {
        "minLevel": 16,
        "maxLevel": 16,
        "area": "kanto-route-8-area",
        "method": "walk",
        "location": "kanto-route-8",
        "conditions": []
    },
    {
        "minLevel": 17,
        "maxLevel": 17,
        "area": "kanto-route-8-area",
        "method": "walk",
        "location": "kanto-route-8",
        "conditions": []
    },
    {
        "minLevel": 15,
        "maxLevel": 15,
        "area": "kanto-route-8-area",
        "method": "walk",
        "location": "kanto-route-8",
        "conditions": []
    },
    {
        "minLevel": 18,
        "maxLevel": 18,
        "area": "kanto-route-8-area",
        "method": "walk",
        "location": "kanto-route-8",
        "conditions": []
    },
    {
        "minLevel": 34,
        "maxLevel": 34,
        "area": "pokemon-mansion-1f",
        "method": "walk",
        "location": "pokemon-mansion",
        "conditions": []
    },
    {
        "minLevel": 32,
        "maxLevel": 32,
        "area": "pokemon-mansion-2f",
        "method": "walk",
        "location": "pokemon-mansion",
        "conditions": []
    },
    {
        "minLevel": 33,
        "maxLevel": 33,
        "area": "pokemon-mansion-3f",
        "method": "walk",
        "location": "pokemon-mansion",
        "conditions": []
    },
    {
        "minLevel": 35,
        "maxLevel": 35,
        "area": "pokemon-mansion-b1f",
        "method": "walk",
        "location": "pokemon-mansion",
        "conditions": []
    }
]